%!PS-Adobe-2.0 EPSF-1.2
%%Creator: MATLAB, The Mathworks, Inc. Version 7.4.0.287 (R2007a). Operating System: Microsoft Windows 2000.
%%Title: D:\contract work\KatzData\Results\Stanford 12 New Buxco Setting_144- Variable -- Ti Time -- 5400-6180.eps
%%CreationDate: 09/08/2010  21:06:00
%%DocumentNeededFonts: Helvetica
%%DocumentProcessColors: Cyan Magenta Yellow Black
%%Pages: 1
%%BoundingBox:    51   199   550   601
%%EndComments

%%BeginProlog
% MathWorks dictionary
/MathWorks 160 dict begin
% definition operators
/bdef {bind def} bind def
/ldef {load def} bind def
/xdef {exch def} bdef
/xstore {exch store} bdef
% operator abbreviations
/c  /clip ldef
/cc /concat ldef
/cp /closepath ldef
/gr /grestore ldef
/gs /gsave ldef
/mt /moveto ldef
/np /newpath ldef
/cm /currentmatrix ldef
/sm /setmatrix ldef
/rm /rmoveto ldef
/rl /rlineto ldef
/s {show newpath} bdef
/sc {setcmykcolor} bdef
/sr /setrgbcolor ldef
/sg /setgray ldef
/w /setlinewidth ldef
/j /setlinejoin ldef
/cap /setlinecap ldef
/rc {rectclip} bdef
/rf {rectfill} bdef
% page state control
/pgsv () def
/bpage {/pgsv save def} bdef
/epage {pgsv restore} bdef
/bplot /gsave ldef
/eplot {stroke grestore} bdef
% orientation switch
/portraitMode 0 def /landscapeMode 1 def /rotateMode 2 def
% coordinate system mappings
/dpi2point 0 def
% font control
/FontSize 0 def
/FMS {/FontSize xstore findfont [FontSize 0 0 FontSize neg 0 0]
  makefont setfont} bdef
/ISOLatin1Encoding where {pop /WindowsLatin1Encoding 256 array bdef
ISOLatin1Encoding WindowsLatin1Encoding copy pop
/.notdef/.notdef/quotesinglbase/florin/quotedblbase/ellipsis/dagger
/daggerdbl/circumflex/perthousand/Scaron/guilsinglleft/OE/.notdef/.notdef
/.notdef/.notdef/quoteleft/quoteright/quotedblleft/quotedblright/bullet
/endash/emdash/tilde/trademark/scaron/guilsinglright/oe/.notdef/.notdef
/Ydieresis WindowsLatin1Encoding 128 32 getinterval astore pop}
{/WindowsLatin1Encoding StandardEncoding bdef} ifelse
/reencode {exch dup where {pop load} {pop StandardEncoding} ifelse
  exch dup 3 1 roll findfont dup length dict begin
  { 1 index /FID ne {def}{pop pop} ifelse } forall
  /Encoding exch def currentdict end definefont pop} bdef
/isroman {findfont /CharStrings get /Agrave known} bdef
/FMSR {3 1 roll 1 index dup isroman {reencode} {pop pop} ifelse
  exch FMS} bdef
/csm {1 dpi2point div -1 dpi2point div scale neg translate
 dup landscapeMode eq {pop -90 rotate}
  {rotateMode eq {90 rotate} if} ifelse} bdef
% line types: solid, dotted, dashed, dotdash
/SO { [] 0 setdash } bdef
/DO { [.5 dpi2point mul 4 dpi2point mul] 0 setdash } bdef
/DA { [6 dpi2point mul] 0 setdash } bdef
/DD { [.5 dpi2point mul 4 dpi2point mul 6 dpi2point mul 4
  dpi2point mul] 0 setdash } bdef
% macros for lines and objects
/L {lineto stroke} bdef
/MP {3 1 roll moveto 1 sub {rlineto} repeat} bdef
/AP {{rlineto} repeat} bdef
/PDlw -1 def
/W {/PDlw currentlinewidth def setlinewidth} def
/PP {closepath eofill} bdef
/DP {closepath stroke} bdef
/MR {4 -2 roll moveto dup  0 exch rlineto exch 0 rlineto
  neg 0 exch rlineto closepath} bdef
/FR {MR stroke} bdef
/PR {MR fill} bdef
/L1i {{currentfile picstr readhexstring pop} image} bdef
/tMatrix matrix def
/MakeOval {newpath tMatrix currentmatrix pop translate scale
0 0 1 0 360 arc tMatrix setmatrix} bdef
/FO {MakeOval stroke} bdef
/PO {MakeOval fill} bdef
/PD {currentlinewidth 2 div 0 360 arc fill
   PDlw -1 eq not {PDlw w /PDlw -1 def} if} def
/FA {newpath tMatrix currentmatrix pop translate scale
  0 0 1 5 -2 roll arc tMatrix setmatrix stroke} bdef
/PA {newpath tMatrix currentmatrix pop	translate 0 0 moveto scale
  0 0 1 5 -2 roll arc closepath tMatrix setmatrix fill} bdef
/FAn {newpath tMatrix currentmatrix pop translate scale
  0 0 1 5 -2 roll arcn tMatrix setmatrix stroke} bdef
/PAn {newpath tMatrix currentmatrix pop translate 0 0 moveto scale
  0 0 1 5 -2 roll arcn closepath tMatrix setmatrix fill} bdef
/vradius 0 def /hradius 0 def /lry 0 def
/lrx 0 def /uly 0 def /ulx 0 def /rad 0 def
/MRR {/vradius xdef /hradius xdef /lry xdef /lrx xdef /uly xdef
  /ulx xdef newpath tMatrix currentmatrix pop ulx hradius add uly
  vradius add translate hradius vradius scale 0 0 1 180 270 arc 
  tMatrix setmatrix lrx hradius sub uly vradius add translate
  hradius vradius scale 0 0 1 270 360 arc tMatrix setmatrix
  lrx hradius sub lry vradius sub translate hradius vradius scale
  0 0 1 0 90 arc tMatrix setmatrix ulx hradius add lry vradius sub
  translate hradius vradius scale 0 0 1 90 180 arc tMatrix setmatrix
  closepath} bdef
/FRR {MRR stroke } bdef
/PRR {MRR fill } bdef
/MlrRR {/lry xdef /lrx xdef /uly xdef /ulx xdef /rad lry uly sub 2 div def
  newpath tMatrix currentmatrix pop ulx rad add uly rad add translate
  rad rad scale 0 0 1 90 270 arc tMatrix setmatrix lrx rad sub lry rad
  sub translate rad rad scale 0 0 1 270 90 arc tMatrix setmatrix
  closepath} bdef
/FlrRR {MlrRR stroke } bdef
/PlrRR {MlrRR fill } bdef
/MtbRR {/lry xdef /lrx xdef /uly xdef /ulx xdef /rad lrx ulx sub 2 div def
  newpath tMatrix currentmatrix pop ulx rad add uly rad add translate
  rad rad scale 0 0 1 180 360 arc tMatrix setmatrix lrx rad sub lry rad
  sub translate rad rad scale 0 0 1 0 180 arc tMatrix setmatrix
  closepath} bdef
/FtbRR {MtbRR stroke } bdef
/PtbRR {MtbRR fill } bdef
/stri 6 array def /dtri 6 array def
/smat 6 array def /dmat 6 array def
/tmat1 6 array def /tmat2 6 array def /dif 3 array def
/asub {/ind2 exch def /ind1 exch def dup dup
  ind1 get exch ind2 get sub exch } bdef
/tri_to_matrix {
  2 0 asub 3 1 asub 4 0 asub 5 1 asub
  dup 0 get exch 1 get 7 -1 roll astore } bdef
/compute_transform {
  dmat dtri tri_to_matrix tmat1 invertmatrix 
  smat stri tri_to_matrix tmat2 concatmatrix } bdef
/ds {stri astore pop} bdef
/dt {dtri astore pop} bdef
/db {2 copy /cols xdef /rows xdef mul dup string
  currentfile exch readhexstring pop
  /bmap xdef pop pop} bdef
/it {gs np dtri aload pop moveto lineto lineto cp c
  cols rows 8 compute_transform 
  {bmap} image gr}bdef
/il {newpath moveto lineto stroke}bdef
currentdict end def
%%EndProlog

%%BeginSetup
MathWorks begin

0 cap

end
%%EndSetup

%%Page: 1 1
%%BeginPageSetup
%%PageBoundingBox:    51   199   550   601
MathWorks begin
bpage
%%EndPageSetup

%%BeginObject: obj1
bplot

/dpi2point 2.08333 def
portraitMode 0035 1275 csm

   72    22  1040   838 MR c np
85 dict begin %Colortable dictionary
/c0 { 0.000000 0.000000 0.000000 sr} bdef
/c1 { 1.000000 1.000000 1.000000 sr} bdef
/c2 { 0.900000 0.000000 0.000000 sr} bdef
/c3 { 0.000000 0.820000 0.000000 sr} bdef
/c4 { 0.000000 0.000000 0.800000 sr} bdef
/c5 { 0.910000 0.820000 0.320000 sr} bdef
/c6 { 1.000000 0.260000 0.820000 sr} bdef
/c7 { 0.000000 0.820000 0.820000 sr} bdef
c0
1 j
1 sg
   0    0 1201  901 PR
1.04167 w
0 733 930 0 0 -733 156 801 4 MP
PP
-930 0 0 733 930 0 0 -733 156 801 5 MP stroke
0.694444 w
DO
SO
1.04167 w
0 sg
 156   68 mt 1086   68 L
 156  801 mt 1086  801 L
1086  801 mt 1086   68 L
 156  801 mt  156   68 L
 156  801 mt 1086  801 L
 156  801 mt  156   68 L
 156  801 mt  156  791 L
 156   68 mt  156   77 L
%%IncludeResource: font Helvetica
/Helvetica /WindowsLatin1Encoding 20.8333 FMSR

 145  826 mt 
(90) s
 288  801 mt  288  791 L
 288   68 mt  288   77 L
 277  826 mt 
(92) s
 421  801 mt  421  791 L
 421   68 mt  421   77 L
 410  826 mt 
(94) s
 554  801 mt  554  791 L
 554   68 mt  554   77 L
 543  826 mt 
(96) s
 687  801 mt  687  791 L
 687   68 mt  687   77 L
 676  826 mt 
(98) s
 820  801 mt  820  791 L
 820   68 mt  820   77 L
 803  826 mt 
(100) s
 953  801 mt  953  791 L
 953   68 mt  953   77 L
 936  826 mt 
(102) s
1086  801 mt 1086  791 L
1086   68 mt 1086   77 L
1069  826 mt 
(104) s
 156  801 mt  165  801 L
1086  801 mt 1076  801 L
 110  808 mt 
(0.04) s
 156  709 mt  165  709 L
1086  709 mt 1076  709 L
 110  716 mt 
(0.06) s
 156  617 mt  165  617 L
1086  617 mt 1076  617 L
 110  624 mt 
(0.08) s
 156  526 mt  165  526 L
1086  526 mt 1076  526 L
 122  533 mt 
(0.1) s
 156  434 mt  165  434 L
1086  434 mt 1076  434 L
 110  441 mt 
(0.12) s
 156  342 mt  165  342 L
1086  342 mt 1076  342 L
 110  349 mt 
(0.14) s
 156  251 mt  165  251 L
1086  251 mt 1076  251 L
 110  258 mt 
(0.16) s
 156  159 mt  165  159 L
1086  159 mt 1076  159 L
 110  166 mt 
(0.18) s
 156   68 mt  165   68 L
1086   68 mt 1076   68 L
 122   75 mt 
(0.2) s
 156   68 mt 1086   68 L
 156  801 mt 1086  801 L
1086  801 mt 1086   68 L
 156  801 mt  156   68 L
gs 156 68 931 734 MR c np
2.08333 w
gr

2.08333 w
gs 151 152 872 603 MR c np
0 j
2 2 -2 2 -2 -2 2 -2 156 729 5 MP
gs
PP
gr
DP
2 2 -2 2 -2 -2 2 -2 156 711 5 MP
gs
PP
gr
DP
2 2 -2 2 -2 -2 2 -2 157 711 5 MP
gs
PP
gr
DP
2 2 -2 2 -2 -2 2 -2 158 729 5 MP
gs
PP
gr
DP
2 2 -2 2 -2 -2 2 -2 158 683 5 MP
gs
PP
gr
DP
2 2 -2 2 -2 -2 2 -2 158 693 5 MP
gs
PP
gr
DP
2 2 -2 2 -2 -2 2 -2 159 738 5 MP
gs
PP
gr
DP
2 2 -2 2 -2 -2 2 -2 159 703 5 MP
gs
PP
gr
DP
2 2 -2 2 -2 -2 2 -2 159 702 5 MP
gs
PP
gr
DP
2 2 -2 2 -2 -2 2 -2 160 711 5 MP
gs
PP
gr
DP
2 2 -2 2 -2 -2 2 -2 160 693 5 MP
gs
PP
gr
DP
2 2 -2 2 -2 -2 2 -2 160 702 5 MP
gs
PP
gr
DP
2 2 -2 2 -2 -2 2 -2 160 696 5 MP
gs
PP
gr
DP
2 2 -2 2 -2 -2 2 -2 161 688 5 MP
gs
PP
gr
DP
2 2 -2 2 -2 -2 2 -2 161 717 5 MP
gs
PP
gr
DP
2 2 -2 2 -2 -2 2 -2 161 720 5 MP
gs
PP
gr
DP
2 2 -2 2 -2 -2 2 -2 161 729 5 MP
gs
PP
gr
DP
2 2 -2 2 -2 -2 2 -2 163 738 5 MP
gs
PP
gr
DP
2 2 -2 2 -2 -2 2 -2 163 748 5 MP
gs
PP
gr
DP
2 2 -2 2 -2 -2 2 -2 163 738 5 MP
gs
PP
gr
DP
2 2 -2 2 -2 -2 2 -2 163 720 5 MP
gs
PP
gr
DP
2 2 -2 2 -2 -2 2 -2 164 720 5 MP
gs
PP
gr
DP
2 2 -2 2 -2 -2 2 -2 165 720 5 MP
gs
PP
gr
DP
2 2 -2 2 -2 -2 2 -2 166 694 5 MP
gs
PP
gr
DP
2 2 -2 2 -2 -2 2 -2 166 720 5 MP
gs
PP
gr
DP
2 2 -2 2 -2 -2 2 -2 166 738 5 MP
gs
PP
gr
DP
2 2 -2 2 -2 -2 2 -2 166 729 5 MP
gs
PP
gr
DP
2 2 -2 2 -2 -2 2 -2 166 719 5 MP
gs
PP
gr
DP
2 2 -2 2 -2 -2 2 -2 166 702 5 MP
gs
PP
gr
DP
2 2 -2 2 -2 -2 2 -2 167 711 5 MP
gs
PP
gr
DP
2 2 -2 2 -2 -2 2 -2 168 683 5 MP
gs
PP
gr
DP
2 2 -2 2 -2 -2 2 -2 169 693 5 MP
gs
PP
gr
DP
2 2 -2 2 -2 -2 2 -2 169 720 5 MP
gs
PP
gr
DP
2 2 -2 2 -2 -2 2 -2 170 729 5 MP
gs
PP
gr
DP
2 2 -2 2 -2 -2 2 -2 171 711 5 MP
gs
PP
gr
DP
2 2 -2 2 -2 -2 2 -2 172 699 5 MP
gs
PP
gr
DP
2 2 -2 2 -2 -2 2 -2 173 720 5 MP
gs
PP
gr
DP
2 2 -2 2 -2 -2 2 -2 174 711 5 MP
gs
PP
gr
DP
2 2 -2 2 -2 -2 2 -2 174 729 5 MP
gs
PP
gr
DP
2 2 -2 2 -2 -2 2 -2 175 711 5 MP
gs
PP
gr
DP
2 2 -2 2 -2 -2 2 -2 176 729 5 MP
gs
PP
gr
DP
2 2 -2 2 -2 -2 2 -2 177 693 5 MP
gs
PP
gr
DP
2 2 -2 2 -2 -2 2 -2 177 665 5 MP
gs
PP
gr
DP
2 2 -2 2 -2 -2 2 -2 178 693 5 MP
gs
PP
gr
DP
2 2 -2 2 -2 -2 2 -2 179 701 5 MP
gs
PP
gr
DP
2 2 -2 2 -2 -2 2 -2 179 708 5 MP
gs
PP
gr
DP
2 2 -2 2 -2 -2 2 -2 180 702 5 MP
gs
PP
gr
DP
2 2 -2 2 -2 -2 2 -2 181 698 5 MP
gs
PP
gr
DP
2 2 -2 2 -2 -2 2 -2 181 720 5 MP
gs
PP
gr
DP
2 2 -2 2 -2 -2 2 -2 182 693 5 MP
gs
PP
gr
DP
2 2 -2 2 -2 -2 2 -2 183 702 5 MP
gs
PP
gr
DP
2 2 -2 2 -2 -2 2 -2 183 693 5 MP
gs
PP
gr
DP
2 2 -2 2 -2 -2 2 -2 184 687 5 MP
gs
PP
gr
DP
2 2 -2 2 -2 -2 2 -2 185 729 5 MP
gs
PP
gr
DP
2 2 -2 2 -2 -2 2 -2 185 720 5 MP
gs
PP
gr
DP
2 2 -2 2 -2 -2 2 -2 186 698 5 MP
gs
PP
gr
DP
2 2 -2 2 -2 -2 2 -2 187 738 5 MP
gs
PP
gr
DP
2 2 -2 2 -2 -2 2 -2 188 728 5 MP
gs
PP
gr
DP
2 2 -2 2 -2 -2 2 -2 188 711 5 MP
gs
PP
gr
DP
2 2 -2 2 -2 -2 2 -2 189 693 5 MP
gs
PP
gr
DP
2 2 -2 2 -2 -2 2 -2 189 692 5 MP
gs
PP
gr
DP
2 2 -2 2 -2 -2 2 -2 190 674 5 MP
gs
PP
gr
DP
2 2 -2 2 -2 -2 2 -2 191 691 5 MP
gs
PP
gr
DP
2 2 -2 2 -2 -2 2 -2 191 702 5 MP
gs
PP
gr
DP
2 2 -2 2 -2 -2 2 -2 192 729 5 MP
gs
PP
gr
DP
2 2 -2 2 -2 -2 2 -2 192 748 5 MP
gs
PP
gr
DP
2 2 -2 2 -2 -2 2 -2 194 702 5 MP
gs
PP
gr
DP
2 2 -2 2 -2 -2 2 -2 194 748 5 MP
gs
PP
gr
DP
2 2 -2 2 -2 -2 2 -2 194 720 5 MP
gs
PP
gr
DP
2 2 -2 2 -2 -2 2 -2 195 702 5 MP
gs
PP
gr
DP
2 2 -2 2 -2 -2 2 -2 195 711 5 MP
gs
PP
gr
DP
2 2 -2 2 -2 -2 2 -2 196 702 5 MP
gs
PP
gr
DP
2 2 -2 2 -2 -2 2 -2 197 720 5 MP
gs
PP
gr
DP
2 2 -2 2 -2 -2 2 -2 198 748 5 MP
gs
PP
gr
DP
2 2 -2 2 -2 -2 2 -2 199 729 5 MP
gs
PP
gr
DP
2 2 -2 2 -2 -2 2 -2 199 720 5 MP
gs
PP
gr
DP
2 2 -2 2 -2 -2 2 -2 199 729 5 MP
gs
PP
gr
DP
2 2 -2 2 -2 -2 2 -2 200 729 5 MP
gs
PP
gr
DP
2 2 -2 2 -2 -2 2 -2 200 720 5 MP
gs
PP
gr
DP
2 2 -2 2 -2 -2 2 -2 201 711 5 MP
gs
PP
gr
DP
2 2 -2 2 -2 -2 2 -2 202 738 5 MP
gs
PP
gr
DP
2 2 -2 2 -2 -2 2 -2 203 729 5 MP
gs
PP
gr
DP
2 2 -2 2 -2 -2 2 -2 203 738 5 MP
gs
PP
gr
DP
2 2 -2 2 -2 -2 2 -2 204 729 5 MP
gs
PP
gr
DP
2 2 -2 2 -2 -2 2 -2 205 738 5 MP
gs
PP
gr
DP
2 2 -2 2 -2 -2 2 -2 206 729 5 MP
gs
PP
gr
DP
2 2 -2 2 -2 -2 2 -2 207 720 5 MP
gs
PP
gr
DP
2 2 -2 2 -2 -2 2 -2 207 717 5 MP
gs
PP
gr
DP
2 2 -2 2 -2 -2 2 -2 208 720 5 MP
gs
PP
gr
DP
2 2 -2 2 -2 -2 2 -2 208 699 5 MP
gs
PP
gr
DP
2 2 -2 2 -2 -2 2 -2 209 729 5 MP
gs
PP
gr
DP
2 2 -2 2 -2 -2 2 -2 209 683 5 MP
gs
PP
gr
DP
2 2 -2 2 -2 -2 2 -2 210 720 5 MP
gs
PP
gr
DP
2 2 -2 2 -2 -2 2 -2 211 720 5 MP
gs
PP
gr
DP
2 2 -2 2 -2 -2 2 -2 212 711 5 MP
gs
PP
gr
DP
2 2 -2 2 -2 -2 2 -2 212 693 5 MP
gs
PP
gr
DP
2 2 -2 2 -2 -2 2 -2 213 711 5 MP
gs
PP
gr
DP
2 2 -2 2 -2 -2 2 -2 213 693 5 MP
gs
PP
gr
DP
2 2 -2 2 -2 -2 2 -2 214 702 5 MP
gs
PP
gr
DP
2 2 -2 2 -2 -2 2 -2 214 738 5 MP
gs
PP
gr
DP
2 2 -2 2 -2 -2 2 -2 215 693 5 MP
gs
PP
gr
DP
2 2 -2 2 -2 -2 2 -2 215 674 5 MP
gs
PP
gr
DP
2 2 -2 2 -2 -2 2 -2 215 720 5 MP
gs
PP
gr
DP
2 2 -2 2 -2 -2 2 -2 216 720 5 MP
gs
PP
gr
DP
2 2 -2 2 -2 -2 2 -2 216 738 5 MP
gs
PP
gr
DP
2 2 -2 2 -2 -2 2 -2 218 683 5 MP
gs
PP
gr
DP
2 2 -2 2 -2 -2 2 -2 218 711 5 MP
gs
PP
gr
DP
2 2 -2 2 -2 -2 2 -2 219 680 5 MP
gs
PP
gr
DP
2 2 -2 2 -2 -2 2 -2 219 748 5 MP
gs
PP
gr
DP
2 2 -2 2 -2 -2 2 -2 220 729 5 MP
gs
PP
gr
DP
2 2 -2 2 -2 -2 2 -2 220 720 5 MP
gs
PP
gr
DP
2 2 -2 2 -2 -2 2 -2 221 720 5 MP
gs
PP
gr
DP
2 2 -2 2 -2 -2 2 -2 221 738 5 MP
gs
PP
gr
DP
2 2 -2 2 -2 -2 2 -2 221 693 5 MP
gs
PP
gr
DP
2 2 -2 2 -2 -2 2 -2 222 702 5 MP
gs
PP
gr
DP
2 2 -2 2 -2 -2 2 -2 223 720 5 MP
gs
PP
gr
DP
2 2 -2 2 -2 -2 2 -2 223 738 5 MP
gs
PP
gr
DP
2 2 -2 2 -2 -2 2 -2 224 738 5 MP
gs
PP
gr
DP
2 2 -2 2 -2 -2 2 -2 224 711 5 MP
gs
PP
gr
DP
2 2 -2 2 -2 -2 2 -2 225 738 5 MP
gs
PP
gr
DP
2 2 -2 2 -2 -2 2 -2 225 748 5 MP
gs
PP
gr
DP
2 2 -2 2 -2 -2 2 -2 226 711 5 MP
gs
PP
gr
DP
2 2 -2 2 -2 -2 2 -2 226 729 5 MP
gs
PP
gr
DP
2 2 -2 2 -2 -2 2 -2 227 702 5 MP
gs
PP
gr
DP
2 2 -2 2 -2 -2 2 -2 227 693 5 MP
gs
PP
gr
DP
2 2 -2 2 -2 -2 2 -2 227 683 5 MP
gs
PP
gr
DP
2 2 -2 2 -2 -2 2 -2 228 683 5 MP
gs
PP
gr
DP
2 2 -2 2 -2 -2 2 -2 228 702 5 MP
gs
PP
gr
DP
2 2 -2 2 -2 -2 2 -2 228 679 5 MP
gs
PP
gr
DP
2 2 -2 2 -2 -2 2 -2 229 738 5 MP
gs
PP
gr
DP
2 2 -2 2 -2 -2 2 -2 229 693 5 MP
gs
PP
gr
DP
2 2 -2 2 -2 -2 2 -2 231 748 5 MP
gs
PP
gr
DP
2 2 -2 2 -2 -2 2 -2 232 693 5 MP
gs
PP
gr
DP
2 2 -2 2 -2 -2 2 -2 232 748 5 MP
gs
PP
gr
DP
2 2 -2 2 -2 -2 2 -2 233 738 5 MP
gs
PP
gr
DP
2 2 -2 2 -2 -2 2 -2 234 748 5 MP
gs
PP
gr
DP
2 2 -2 2 -2 -2 2 -2 234 628 5 MP
gs
PP
gr
DP
2 2 -2 2 -2 -2 2 -2 235 711 5 MP
gs
PP
gr
DP
2 2 -2 2 -2 -2 2 -2 235 687 5 MP
gs
PP
gr
DP
2 2 -2 2 -2 -2 2 -2 236 702 5 MP
gs
PP
gr
DP
2 2 -2 2 -2 -2 2 -2 236 698 5 MP
gs
PP
gr
DP
2 2 -2 2 -2 -2 2 -2 237 720 5 MP
gs
PP
gr
DP
2 2 -2 2 -2 -2 2 -2 237 686 5 MP
gs
PP
gr
DP
2 2 -2 2 -2 -2 2 -2 238 729 5 MP
gs
PP
gr
DP
2 2 -2 2 -2 -2 2 -2 239 711 5 MP
gs
PP
gr
DP
2 2 -2 2 -2 -2 2 -2 239 705 5 MP
gs
PP
gr
DP
2 2 -2 2 -2 -2 2 -2 240 711 5 MP
gs
PP
gr
DP
2 2 -2 2 -2 -2 2 -2 240 716 5 MP
gs
PP
gr
DP
2 2 -2 2 -2 -2 2 -2 241 711 5 MP
gs
PP
gr
DP
2 2 -2 2 -2 -2 2 -2 241 720 5 MP
gs
PP
gr
DP
2 2 -2 2 -2 -2 2 -2 241 729 5 MP
gs
PP
gr
DP
2 2 -2 2 -2 -2 2 -2 242 718 5 MP
gs
PP
gr
DP
2 2 -2 2 -2 -2 2 -2 242 720 5 MP
gs
PP
gr
DP
2 2 -2 2 -2 -2 2 -2 243 702 5 MP
gs
PP
gr
DP
2 2 -2 2 -2 -2 2 -2 243 729 5 MP
gs
PP
gr
DP
2 2 -2 2 -2 -2 2 -2 244 702 5 MP
gs
PP
gr
DP
2 2 -2 2 -2 -2 2 -2 244 720 5 MP
gs
PP
gr
DP
2 2 -2 2 -2 -2 2 -2 245 720 5 MP
gs
PP
gr
DP
2 2 -2 2 -2 -2 2 -2 245 702 5 MP
gs
PP
gr
DP
2 2 -2 2 -2 -2 2 -2 246 702 5 MP
gs
PP
gr
DP
2 2 -2 2 -2 -2 2 -2 246 729 5 MP
gs
PP
gr
DP
2 2 -2 2 -2 -2 2 -2 247 674 5 MP
gs
PP
gr
DP
2 2 -2 2 -2 -2 2 -2 247 711 5 MP
gs
PP
gr
DP
2 2 -2 2 -2 -2 2 -2 248 702 5 MP
gs
PP
gr
DP
2 2 -2 2 -2 -2 2 -2 248 720 5 MP
gs
PP
gr
DP
2 2 -2 2 -2 -2 2 -2 249 711 5 MP
gs
PP
gr
DP
2 2 -2 2 -2 -2 2 -2 249 686 5 MP
gs
PP
gr
DP
2 2 -2 2 -2 -2 2 -2 249 702 5 MP
gs
PP
gr
DP
2 2 -2 2 -2 -2 2 -2 250 693 5 MP
gs
PP
gr
DP
2 2 -2 2 -2 -2 2 -2 250 717 5 MP
gs
PP
gr
DP
2 2 -2 2 -2 -2 2 -2 251 702 5 MP
gs
PP
gr
DP
2 2 -2 2 -2 -2 2 -2 252 729 5 MP
gs
PP
gr
DP
2 2 -2 2 -2 -2 2 -2 252 693 5 MP
gs
PP
gr
DP
2 2 -2 2 -2 -2 2 -2 253 728 5 MP
gs
PP
gr
DP
2 2 -2 2 -2 -2 2 -2 253 720 5 MP
gs
PP
gr
DP
2 2 -2 2 -2 -2 2 -2 254 738 5 MP
gs
PP
gr
DP
2 2 -2 2 -2 -2 2 -2 254 720 5 MP
gs
PP
gr
DP
2 2 -2 2 -2 -2 2 -2 255 748 5 MP
gs
PP
gr
DP
2 2 -2 2 -2 -2 2 -2 255 656 5 MP
gs
PP
gr
DP
2 2 -2 2 -2 -2 2 -2 256 709 5 MP
gs
PP
gr
DP
2 2 -2 2 -2 -2 2 -2 256 720 5 MP
gs
PP
gr
DP
2 2 -2 2 -2 -2 2 -2 256 670 5 MP
gs
PP
gr
DP
2 2 -2 2 -2 -2 2 -2 257 674 5 MP
gs
PP
gr
DP
2 2 -2 2 -2 -2 2 -2 257 702 5 MP
gs
PP
gr
DP
2 2 -2 2 -2 -2 2 -2 258 669 5 MP
gs
PP
gr
DP
2 2 -2 2 -2 -2 2 -2 258 729 5 MP
gs
PP
gr
DP
2 2 -2 2 -2 -2 2 -2 259 693 5 MP
gs
PP
gr
DP
2 2 -2 2 -2 -2 2 -2 259 738 5 MP
gs
PP
gr
DP
2 2 -2 2 -2 -2 2 -2 260 683 5 MP
gs
PP
gr
DP
2 2 -2 2 -2 -2 2 -2 260 693 5 MP
gs
PP
gr
DP
2 2 -2 2 -2 -2 2 -2 261 720 5 MP
gs
PP
gr
DP
2 2 -2 2 -2 -2 2 -2 262 720 5 MP
gs
PP
gr
DP
2 2 -2 2 -2 -2 2 -2 262 693 5 MP
gs
PP
gr
DP
2 2 -2 2 -2 -2 2 -2 263 693 5 MP
gs
PP
gr
DP
2 2 -2 2 -2 -2 2 -2 263 729 5 MP
gs
PP
gr
DP
2 2 -2 2 -2 -2 2 -2 263 720 5 MP
gs
PP
gr
DP
2 2 -2 2 -2 -2 2 -2 264 729 5 MP
gs
PP
gr
DP
2 2 -2 2 -2 -2 2 -2 264 738 5 MP
gs
PP
gr
DP
2 2 -2 2 -2 -2 2 -2 265 720 5 MP
gs
PP
gr
DP
2 2 -2 2 -2 -2 2 -2 266 729 5 MP
gs
PP
gr
DP
2 2 -2 2 -2 -2 2 -2 267 737 5 MP
gs
PP
gr
DP
2 2 -2 2 -2 -2 2 -2 267 720 5 MP
gs
PP
gr
DP
2 2 -2 2 -2 -2 2 -2 268 674 5 MP
gs
PP
gr
DP
2 2 -2 2 -2 -2 2 -2 268 711 5 MP
gs
PP
gr
DP
2 2 -2 2 -2 -2 2 -2 268 702 5 MP
gs
PP
gr
DP
2 2 -2 2 -2 -2 2 -2 269 729 5 MP
gs
PP
gr
DP
2 2 -2 2 -2 -2 2 -2 270 674 5 MP
gs
PP
gr
DP
2 2 -2 2 -2 -2 2 -2 270 711 5 MP
gs
PP
gr
DP
2 2 -2 2 -2 -2 2 -2 270 676 5 MP
gs
PP
gr
DP
2 2 -2 2 -2 -2 2 -2 271 738 5 MP
gs
PP
gr
DP
2 2 -2 2 -2 -2 2 -2 271 702 5 MP
gs
PP
gr
DP
2 2 -2 2 -2 -2 2 -2 272 677 5 MP
gs
PP
gr
DP
2 2 -2 2 -2 -2 2 -2 272 711 5 MP
gs
PP
gr
DP
2 2 -2 2 -2 -2 2 -2 273 693 5 MP
gs
PP
gr
DP
2 2 -2 2 -2 -2 2 -2 273 711 5 MP
gs
PP
gr
DP
2 2 -2 2 -2 -2 2 -2 274 720 5 MP
gs
PP
gr
DP
2 2 -2 2 -2 -2 2 -2 274 711 5 MP
gs
PP
gr
DP
2 2 -2 2 -2 -2 2 -2 275 729 5 MP
gs
PP
gr
DP
2 2 -2 2 -2 -2 2 -2 275 702 5 MP
gs
PP
gr
DP
2 2 -2 2 -2 -2 2 -2 276 720 5 MP
gs
PP
gr
DP
2 2 -2 2 -2 -2 2 -2 276 711 5 MP
gs
PP
gr
DP
2 2 -2 2 -2 -2 2 -2 277 738 5 MP
gs
PP
gr
DP
2 2 -2 2 -2 -2 2 -2 278 711 5 MP
gs
PP
gr
DP
2 2 -2 2 -2 -2 2 -2 278 702 5 MP
gs
PP
gr
DP
2 2 -2 2 -2 -2 2 -2 278 693 5 MP
gs
PP
gr
DP
2 2 -2 2 -2 -2 2 -2 279 683 5 MP
gs
PP
gr
DP
2 2 -2 2 -2 -2 2 -2 279 738 5 MP
gs
PP
gr
DP
2 2 -2 2 -2 -2 2 -2 280 683 5 MP
gs
PP
gr
DP
2 2 -2 2 -2 -2 2 -2 280 748 5 MP
gs
PP
gr
DP
2 2 -2 2 -2 -2 2 -2 281 738 5 MP
gs
PP
gr
DP
2 2 -2 2 -2 -2 2 -2 281 720 5 MP
gs
PP
gr
DP
2 2 -2 2 -2 -2 2 -2 282 729 5 MP
gs
PP
gr
DP
2 2 -2 2 -2 -2 2 -2 283 697 5 MP
gs
PP
gr
DP
2 2 -2 2 -2 -2 2 -2 283 665 5 MP
gs
PP
gr
DP
2 2 -2 2 -2 -2 2 -2 284 674 5 MP
gs
PP
gr
DP
2 2 -2 2 -2 -2 2 -2 285 693 5 MP
gs
PP
gr
DP
2 2 -2 2 -2 -2 2 -2 285 700 5 MP
gs
PP
gr
DP
2 2 -2 2 -2 -2 2 -2 286 711 5 MP
gs
PP
gr
DP
2 2 -2 2 -2 -2 2 -2 286 720 5 MP
gs
PP
gr
DP
2 2 -2 2 -2 -2 2 -2 287 729 5 MP
gs
PP
gr
DP
2 2 -2 2 -2 -2 2 -2 287 738 5 MP
gs
PP
gr
DP
2 2 -2 2 -2 -2 2 -2 288 729 5 MP
gs
PP
gr
DP
2 2 -2 2 -2 -2 2 -2 289 738 5 MP
gs
PP
gr
DP
2 2 -2 2 -2 -2 2 -2 289 729 5 MP
gs
PP
gr
DP
2 2 -2 2 -2 -2 2 -2 290 711 5 MP
gs
PP
gr
DP
2 2 -2 2 -2 -2 2 -2 291 729 5 MP
gs
PP
gr
DP
2 2 -2 2 -2 -2 2 -2 292 720 5 MP
gs
PP
gr
DP
2 2 -2 2 -2 -2 2 -2 292 748 5 MP
gs
PP
gr
DP
2 2 -2 2 -2 -2 2 -2 293 738 5 MP
gs
PP
gr
DP
2 2 -2 2 -2 -2 2 -2 293 748 5 MP
gs
PP
gr
DP
2 2 -2 2 -2 -2 2 -2 294 748 5 MP
gs
PP
gr
DP
2 2 -2 2 -2 -2 2 -2 295 748 5 MP
gs
PP
gr
DP
2 2 -2 2 -2 -2 2 -2 295 720 5 MP
gs
PP
gr
DP
2 2 -2 2 -2 -2 2 -2 295 711 5 MP
gs
PP
gr
DP
2 2 -2 2 -2 -2 2 -2 296 683 5 MP
gs
PP
gr
DP
2 2 -2 2 -2 -2 2 -2 296 729 5 MP
gs
PP
gr
DP
2 2 -2 2 -2 -2 2 -2 297 665 5 MP
gs
PP
gr
DP
2 2 -2 2 -2 -2 2 -2 297 720 5 MP
gs
PP
gr
DP
2 2 -2 2 -2 -2 2 -2 298 687 5 MP
gs
PP
gr
DP
2 2 -2 2 -2 -2 2 -2 298 716 5 MP
gs
PP
gr
DP
2 2 -2 2 -2 -2 2 -2 298 706 5 MP
gs
PP
gr
DP
2 2 -2 2 -2 -2 2 -2 299 720 5 MP
gs
PP
gr
DP
2 2 -2 2 -2 -2 2 -2 299 716 5 MP
gs
PP
gr
DP
2 2 -2 2 -2 -2 2 -2 299 729 5 MP
gs
PP
gr
DP
2 2 -2 2 -2 -2 2 -2 300 720 5 MP
gs
PP
gr
DP
2 2 -2 2 -2 -2 2 -2 300 702 5 MP
gs
PP
gr
DP
2 2 -2 2 -2 -2 2 -2 300 711 5 MP
gs
PP
gr
DP
2 2 -2 2 -2 -2 2 -2 301 738 5 MP
gs
PP
gr
DP
2 2 -2 2 -2 -2 2 -2 301 711 5 MP
gs
PP
gr
DP
2 2 -2 2 -2 -2 2 -2 302 693 5 MP
gs
PP
gr
DP
2 2 -2 2 -2 -2 2 -2 302 683 5 MP
gs
PP
gr
DP
2 2 -2 2 -2 -2 2 -2 303 673 5 MP
gs
PP
gr
DP
2 2 -2 2 -2 -2 2 -2 304 720 5 MP
gs
PP
gr
DP
2 2 -2 2 -2 -2 2 -2 305 693 5 MP
gs
PP
gr
DP
2 2 -2 2 -2 -2 2 -2 305 695 5 MP
gs
PP
gr
DP
2 2 -2 2 -2 -2 2 -2 305 693 5 MP
gs
PP
gr
DP
2 2 -2 2 -2 -2 2 -2 305 729 5 MP
gs
PP
gr
DP
2 2 -2 2 -2 -2 2 -2 306 702 5 MP
gs
PP
gr
DP
2 2 -2 2 -2 -2 2 -2 306 738 5 MP
gs
PP
gr
DP
2 2 -2 2 -2 -2 2 -2 307 720 5 MP
gs
PP
gr
DP
2 2 -2 2 -2 -2 2 -2 307 711 5 MP
gs
PP
gr
DP
2 2 -2 2 -2 -2 2 -2 308 711 5 MP
gs
PP
gr
DP
2 2 -2 2 -2 -2 2 -2 308 720 5 MP
gs
PP
gr
DP
2 2 -2 2 -2 -2 2 -2 309 720 5 MP
gs
PP
gr
DP
2 2 -2 2 -2 -2 2 -2 309 702 5 MP
gs
PP
gr
DP
2 2 -2 2 -2 -2 2 -2 310 729 5 MP
gs
PP
gr
DP
2 2 -2 2 -2 -2 2 -2 311 711 5 MP
gs
PP
gr
DP
2 2 -2 2 -2 -2 2 -2 312 748 5 MP
gs
PP
gr
DP
2 2 -2 2 -2 -2 2 -2 312 738 5 MP
gs
PP
gr
DP
2 2 -2 2 -2 -2 2 -2 313 720 5 MP
gs
PP
gr
DP
2 2 -2 2 -2 -2 2 -2 314 711 5 MP
gs
PP
gr
DP
2 2 -2 2 -2 -2 2 -2 314 720 5 MP
gs
PP
gr
DP
2 2 -2 2 -2 -2 2 -2 315 729 5 MP
gs
PP
gr
DP
2 2 -2 2 -2 -2 2 -2 315 711 5 MP
gs
PP
gr
DP
2 2 -2 2 -2 -2 2 -2 315 704 5 MP
gs
PP
gr
DP
2 2 -2 2 -2 -2 2 -2 316 720 5 MP
gs
PP
gr
DP
2 2 -2 2 -2 -2 2 -2 316 693 5 MP
gs
PP
gr
DP
2 2 -2 2 -2 -2 2 -2 316 716 5 MP
gs
PP
gr
DP
2 2 -2 2 -2 -2 2 -2 316 729 5 MP
gs
PP
gr
DP
2 2 -2 2 -2 -2 2 -2 317 737 5 MP
gs
PP
gr
DP
2 2 -2 2 -2 -2 2 -2 317 729 5 MP
gs
PP
gr
DP
2 2 -2 2 -2 -2 2 -2 317 711 5 MP
gs
PP
gr
DP
2 2 -2 2 -2 -2 2 -2 317 720 5 MP
gs
PP
gr
DP
2 2 -2 2 -2 -2 2 -2 317 711 5 MP
gs
PP
gr
DP
2 2 -2 2 -2 -2 2 -2 317 748 5 MP
gs
PP
gr
DP
2 2 -2 2 -2 -2 2 -2 317 738 5 MP
gs
PP
gr
DP
2 2 -2 2 -2 -2 2 -2 318 720 5 MP
gs
PP
gr
DP
2 2 -2 2 -2 -2 2 -2 318 711 5 MP
gs
PP
gr
DP
2 2 -2 2 -2 -2 2 -2 318 738 5 MP
gs
PP
gr
DP
2 2 -2 2 -2 -2 2 -2 319 748 5 MP
gs
PP
gr
DP
2 2 -2 2 -2 -2 2 -2 319 738 5 MP
gs
PP
gr
DP
2 2 -2 2 -2 -2 2 -2 319 729 5 MP
gs
PP
gr
DP
2 2 -2 2 -2 -2 2 -2 319 748 5 MP
gs
PP
gr
DP
2 2 -2 2 -2 -2 2 -2 319 720 5 MP
gs
PP
gr
DP
2 2 -2 2 -2 -2 2 -2 319 729 5 MP
gs
PP
gr
DP
2 2 -2 2 -2 -2 2 -2 320 738 5 MP
gs
PP
gr
DP
2 2 -2 2 -2 -2 2 -2 320 724 5 MP
gs
PP
gr
DP
2 2 -2 2 -2 -2 2 -2 320 729 5 MP
gs
PP
gr
DP
2 2 -2 2 -2 -2 2 -2 321 748 5 MP
gs
PP
gr
DP
2 2 -2 2 -2 -2 2 -2 322 748 5 MP
gs
PP
gr
DP
2 2 -2 2 -2 -2 2 -2 323 738 5 MP
gs
PP
gr
DP
2 2 -2 2 -2 -2 2 -2 324 748 5 MP
gs
PP
gr
DP
2 2 -2 2 -2 -2 2 -2 325 702 5 MP
gs
PP
gr
DP
2 2 -2 2 -2 -2 2 -2 325 738 5 MP
gs
PP
gr
DP
2 2 -2 2 -2 -2 2 -2 325 697 5 MP
gs
PP
gr
DP
2 2 -2 2 -2 -2 2 -2 326 683 5 MP
gs
PP
gr
DP
2 2 -2 2 -2 -2 2 -2 326 729 5 MP
gs
PP
gr
DP
2 2 -2 2 -2 -2 2 -2 327 711 5 MP
gs
PP
gr
DP
2 2 -2 2 -2 -2 2 -2 327 717 5 MP
gs
PP
gr
DP
2 2 -2 2 -2 -2 2 -2 328 711 5 MP
gs
PP
gr
DP
2 2 -2 2 -2 -2 2 -2 329 720 5 MP
gs
PP
gr
DP
2 2 -2 2 -2 -2 2 -2 329 748 5 MP
gs
PP
gr
DP
2 2 -2 2 -2 -2 2 -2 329 711 5 MP
gs
PP
gr
DP
2 2 -2 2 -2 -2 2 -2 329 693 5 MP
gs
PP
gr
DP
2 2 -2 2 -2 -2 2 -2 330 693 5 MP
gs
PP
gr
DP
2 2 -2 2 -2 -2 2 -2 330 702 5 MP
gs
PP
gr
DP
2 2 -2 2 -2 -2 2 -2 330 694 5 MP
gs
PP
gr
DP
2 2 -2 2 -2 -2 2 -2 330 692 5 MP
gs
PP
gr
DP
2 2 -2 2 -2 -2 2 -2 330 702 5 MP
gs
PP
gr
DP
2 2 -2 2 -2 -2 2 -2 330 720 5 MP
gs
PP
gr
DP
2 2 -2 2 -2 -2 2 -2 331 702 5 MP
gs
PP
gr
DP
2 2 -2 2 -2 -2 2 -2 331 656 5 MP
gs
PP
gr
DP
2 2 -2 2 -2 -2 2 -2 331 683 5 MP
gs
PP
gr
DP
2 2 -2 2 -2 -2 2 -2 331 702 5 MP
gs
PP
gr
DP
2 2 -2 2 -2 -2 2 -2 331 729 5 MP
gs
PP
gr
DP
2 2 -2 2 -2 -2 2 -2 332 702 5 MP
gs
PP
gr
DP
2 2 -2 2 -2 -2 2 -2 332 720 5 MP
gs
PP
gr
DP
2 2 -2 2 -2 -2 2 -2 332 748 5 MP
gs
PP
gr
DP
2 2 -2 2 -2 -2 2 -2 332 719 5 MP
gs
PP
gr
DP
2 2 -2 2 -2 -2 2 -2 332 720 5 MP
gs
PP
gr
DP
2 2 -2 2 -2 -2 2 -2 332 748 5 MP
gs
PP
gr
DP
2 2 -2 2 -2 -2 2 -2 332 729 5 MP
gs
PP
gr
DP
2 2 -2 2 -2 -2 2 -2 333 738 5 MP
gs
PP
gr
DP
2 2 -2 2 -2 -2 2 -2 333 720 5 MP
gs
PP
gr
DP
2 2 -2 2 -2 -2 2 -2 334 720 5 MP
gs
PP
gr
DP
2 2 -2 2 -2 -2 2 -2 334 738 5 MP
gs
PP
gr
DP
2 2 -2 2 -2 -2 2 -2 335 748 5 MP
gs
PP
gr
DP
2 2 -2 2 -2 -2 2 -2 335 738 5 MP
gs
PP
gr
DP
2 2 -2 2 -2 -2 2 -2 336 720 5 MP
gs
PP
gr
DP
2 2 -2 2 -2 -2 2 -2 337 737 5 MP
gs
PP
gr
DP
2 2 -2 2 -2 -2 2 -2 337 720 5 MP
gs
PP
gr
DP
2 2 -2 2 -2 -2 2 -2 337 729 5 MP
gs
PP
gr
DP
2 2 -2 2 -2 -2 2 -2 337 738 5 MP
gs
PP
gr
DP
2 2 -2 2 -2 -2 2 -2 337 702 5 MP
gs
PP
gr
DP
2 2 -2 2 -2 -2 2 -2 337 697 5 MP
gs
PP
gr
DP
2 2 -2 2 -2 -2 2 -2 337 693 5 MP
gs
PP
gr
DP
2 2 -2 2 -2 -2 2 -2 338 693 5 MP
gs
PP
gr
DP
2 2 -2 2 -2 -2 2 -2 339 720 5 MP
gs
PP
gr
DP
2 2 -2 2 -2 -2 2 -2 339 696 5 MP
gs
PP
gr
DP
2 2 -2 2 -2 -2 2 -2 339 711 5 MP
gs
PP
gr
DP
2 2 -2 2 -2 -2 2 -2 339 720 5 MP
gs
PP
gr
DP
2 2 -2 2 -2 -2 2 -2 339 711 5 MP
gs
PP
gr
DP
2 2 -2 2 -2 -2 2 -2 339 738 5 MP
gs
PP
gr
DP
2 2 -2 2 -2 -2 2 -2 340 702 5 MP
gs
PP
gr
DP
2 2 -2 2 -2 -2 2 -2 340 698 5 MP
gs
PP
gr
DP
2 2 -2 2 -2 -2 2 -2 340 720 5 MP
gs
PP
gr
DP
2 2 -2 2 -2 -2 2 -2 340 675 5 MP
gs
PP
gr
DP
2 2 -2 2 -2 -2 2 -2 340 702 5 MP
gs
PP
gr
DP
2 2 -2 2 -2 -2 2 -2 340 697 5 MP
gs
PP
gr
DP
2 2 -2 2 -2 -2 2 -2 340 738 5 MP
gs
PP
gr
DP
2 2 -2 2 -2 -2 2 -2 340 711 5 MP
gs
PP
gr
DP
2 2 -2 2 -2 -2 2 -2 341 702 5 MP
gs
PP
gr
DP
2 2 -2 2 -2 -2 2 -2 341 683 5 MP
gs
PP
gr
DP
2 2 -2 2 -2 -2 2 -2 341 686 5 MP
gs
PP
gr
DP
2 2 -2 2 -2 -2 2 -2 341 738 5 MP
gs
PP
gr
DP
2 2 -2 2 -2 -2 2 -2 341 676 5 MP
gs
PP
gr
DP
2 2 -2 2 -2 -2 2 -2 341 738 5 MP
gs
PP
gr
DP
2 2 -2 2 -2 -2 2 -2 341 702 5 MP
gs
PP
gr
DP
2 2 -2 2 -2 -2 2 -2 342 720 5 MP
gs
PP
gr
DP
2 2 -2 2 -2 -2 2 -2 342 738 5 MP
gs
PP
gr
DP
2 2 -2 2 -2 -2 2 -2 342 729 5 MP
gs
PP
gr
DP
2 2 -2 2 -2 -2 2 -2 342 748 5 MP
gs
PP
gr
DP
2 2 -2 2 -2 -2 2 -2 342 702 5 MP
gs
PP
gr
DP
2 2 -2 2 -2 -2 2 -2 343 729 5 MP
gs
PP
gr
DP
2 2 -2 2 -2 -2 2 -2 343 748 5 MP
gs
PP
gr
DP
2 2 -2 2 -2 -2 2 -2 343 720 5 MP
gs
PP
gr
DP
2 2 -2 2 -2 -2 2 -2 343 695 5 MP
gs
PP
gr
DP
2 2 -2 2 -2 -2 2 -2 343 748 5 MP
gs
PP
gr
DP
2 2 -2 2 -2 -2 2 -2 343 729 5 MP
gs
PP
gr
DP
2 2 -2 2 -2 -2 2 -2 344 711 5 MP
gs
PP
gr
DP
2 2 -2 2 -2 -2 2 -2 344 720 5 MP
gs
PP
gr
DP
2 2 -2 2 -2 -2 2 -2 344 693 5 MP
gs
PP
gr
DP
2 2 -2 2 -2 -2 2 -2 344 720 5 MP
gs
PP
gr
DP
2 2 -2 2 -2 -2 2 -2 344 729 5 MP
gs
PP
gr
DP
2 2 -2 2 -2 -2 2 -2 344 738 5 MP
gs
PP
gr
DP
2 2 -2 2 -2 -2 2 -2 345 738 5 MP
gs
PP
gr
DP
2 2 -2 2 -2 -2 2 -2 345 729 5 MP
gs
PP
gr
DP
2 2 -2 2 -2 -2 2 -2 345 738 5 MP
gs
PP
gr
DP
2 2 -2 2 -2 -2 2 -2 345 720 5 MP
gs
PP
gr
DP
2 2 -2 2 -2 -2 2 -2 345 748 5 MP
gs
PP
gr
DP
2 2 -2 2 -2 -2 2 -2 345 702 5 MP
gs
PP
gr
DP
2 2 -2 2 -2 -2 2 -2 345 748 5 MP
gs
PP
gr
DP
2 2 -2 2 -2 -2 2 -2 346 729 5 MP
gs
PP
gr
DP
2 2 -2 2 -2 -2 2 -2 346 720 5 MP
gs
PP
gr
DP
2 2 -2 2 -2 -2 2 -2 346 702 5 MP
gs
PP
gr
DP
2 2 -2 2 -2 -2 2 -2 347 748 5 MP
gs
PP
gr
DP
2 2 -2 2 -2 -2 2 -2 347 729 5 MP
gs
PP
gr
DP
2 2 -2 2 -2 -2 2 -2 347 716 5 MP
gs
PP
gr
DP
2 2 -2 2 -2 -2 2 -2 347 707 5 MP
gs
PP
gr
DP
2 2 -2 2 -2 -2 2 -2 347 748 5 MP
gs
PP
gr
DP
2 2 -2 2 -2 -2 2 -2 348 720 5 MP
gs
PP
gr
DP
2 2 -2 2 -2 -2 2 -2 348 748 5 MP
gs
PP
gr
DP
2 2 -2 2 -2 -2 2 -2 348 738 5 MP
gs
PP
gr
DP
2 2 -2 2 -2 -2 2 -2 349 720 5 MP
gs
PP
gr
DP
2 2 -2 2 -2 -2 2 -2 349 729 5 MP
gs
PP
gr
DP
2 2 -2 2 -2 -2 2 -2 350 711 5 MP
gs
PP
gr
DP
2 2 -2 2 -2 -2 2 -2 350 748 5 MP
gs
PP
gr
DP
2 2 -2 2 -2 -2 2 -2 350 738 5 MP
gs
PP
gr
DP
2 2 -2 2 -2 -2 2 -2 350 695 5 MP
gs
PP
gr
DP
2 2 -2 2 -2 -2 2 -2 350 693 5 MP
gs
PP
gr
DP
2 2 -2 2 -2 -2 2 -2 351 687 5 MP
gs
PP
gr
DP
2 2 -2 2 -2 -2 2 -2 351 683 5 MP
gs
PP
gr
DP
2 2 -2 2 -2 -2 2 -2 351 686 5 MP
gs
PP
gr
DP
2 2 -2 2 -2 -2 2 -2 351 711 5 MP
gs
PP
gr
DP
2 2 -2 2 -2 -2 2 -2 351 720 5 MP
gs
PP
gr
DP
2 2 -2 2 -2 -2 2 -2 352 729 5 MP
gs
PP
gr
DP
2 2 -2 2 -2 -2 2 -2 352 711 5 MP
gs
PP
gr
DP
2 2 -2 2 -2 -2 2 -2 353 720 5 MP
gs
PP
gr
DP
2 2 -2 2 -2 -2 2 -2 353 709 5 MP
gs
PP
gr
DP
2 2 -2 2 -2 -2 2 -2 353 702 5 MP
gs
PP
gr
DP
2 2 -2 2 -2 -2 2 -2 354 674 5 MP
gs
PP
gr
DP
2 2 -2 2 -2 -2 2 -2 354 693 5 MP
gs
PP
gr
DP
2 2 -2 2 -2 -2 2 -2 354 682 5 MP
gs
PP
gr
DP
2 2 -2 2 -2 -2 2 -2 354 729 5 MP
gs
PP
gr
DP
2 2 -2 2 -2 -2 2 -2 355 748 5 MP
gs
PP
gr
DP
2 2 -2 2 -2 -2 2 -2 355 708 5 MP
gs
PP
gr
DP
2 2 -2 2 -2 -2 2 -2 355 702 5 MP
gs
PP
gr
DP
2 2 -2 2 -2 -2 2 -2 355 717 5 MP
gs
PP
gr
DP
2 2 -2 2 -2 -2 2 -2 356 715 5 MP
gs
PP
gr
DP
2 2 -2 2 -2 -2 2 -2 356 738 5 MP
gs
PP
gr
DP
2 2 -2 2 -2 -2 2 -2 356 720 5 MP
gs
PP
gr
DP
2 2 -2 2 -2 -2 2 -2 356 711 5 MP
gs
PP
gr
DP
2 2 -2 2 -2 -2 2 -2 356 693 5 MP
gs
PP
gr
DP
2 2 -2 2 -2 -2 2 -2 356 665 5 MP
gs
PP
gr
DP
2 2 -2 2 -2 -2 2 -2 356 748 5 MP
gs
PP
gr
DP
2 2 -2 2 -2 -2 2 -2 357 693 5 MP
gs
PP
gr
DP
2 2 -2 2 -2 -2 2 -2 357 738 5 MP
gs
PP
gr
DP
2 2 -2 2 -2 -2 2 -2 357 729 5 MP
gs
PP
gr
DP
2 2 -2 2 -2 -2 2 -2 357 674 5 MP
gs
PP
gr
DP
2 2 -2 2 -2 -2 2 -2 357 665 5 MP
gs
PP
gr
DP
2 2 -2 2 -2 -2 2 -2 357 711 5 MP
gs
PP
gr
DP
2 2 -2 2 -2 -2 2 -2 357 729 5 MP
gs
PP
gr
DP
2 2 -2 2 -2 -2 2 -2 358 720 5 MP
gs
PP
gr
DP
2 2 -2 2 -2 -2 2 -2 358 729 5 MP
gs
PP
gr
DP
2 2 -2 2 -2 -2 2 -2 358 720 5 MP
gs
PP
gr
DP
2 2 -2 2 -2 -2 2 -2 358 693 5 MP
gs
PP
gr
DP
2 2 -2 2 -2 -2 2 -2 358 720 5 MP
gs
PP
gr
DP
2 2 -2 2 -2 -2 2 -2 358 708 5 MP
gs
PP
gr
DP
2 2 -2 2 -2 -2 2 -2 359 711 5 MP
gs
PP
gr
DP
2 2 -2 2 -2 -2 2 -2 359 738 5 MP
gs
PP
gr
DP
2 2 -2 2 -2 -2 2 -2 359 720 5 MP
gs
PP
gr
DP
2 2 -2 2 -2 -2 2 -2 360 729 5 MP
gs
PP
gr
DP
2 2 -2 2 -2 -2 2 -2 360 720 5 MP
gs
PP
gr
DP
2 2 -2 2 -2 -2 2 -2 360 709 5 MP
gs
PP
gr
DP
2 2 -2 2 -2 -2 2 -2 360 720 5 MP
gs
PP
gr
DP
2 2 -2 2 -2 -2 2 -2 361 720 5 MP
gs
PP
gr
DP
2 2 -2 2 -2 -2 2 -2 361 718 5 MP
gs
PP
gr
DP
2 2 -2 2 -2 -2 2 -2 361 738 5 MP
gs
PP
gr
DP
2 2 -2 2 -2 -2 2 -2 361 748 5 MP
gs
PP
gr
DP
2 2 -2 2 -2 -2 2 -2 362 748 5 MP
gs
PP
gr
DP
2 2 -2 2 -2 -2 2 -2 362 729 5 MP
gs
PP
gr
DP
2 2 -2 2 -2 -2 2 -2 363 702 5 MP
gs
PP
gr
DP
2 2 -2 2 -2 -2 2 -2 363 748 5 MP
gs
PP
gr
DP
2 2 -2 2 -2 -2 2 -2 363 734 5 MP
gs
PP
gr
DP
2 2 -2 2 -2 -2 2 -2 363 748 5 MP
gs
PP
gr
DP
2 2 -2 2 -2 -2 2 -2 364 748 5 MP
gs
PP
gr
DP
2 2 -2 2 -2 -2 2 -2 364 711 5 MP
gs
PP
gr
DP
2 2 -2 2 -2 -2 2 -2 364 702 5 MP
gs
PP
gr
DP
2 2 -2 2 -2 -2 2 -2 364 693 5 MP
gs
PP
gr
DP
2 2 -2 2 -2 -2 2 -2 364 698 5 MP
gs
PP
gr
DP
2 2 -2 2 -2 -2 2 -2 364 711 5 MP
gs
PP
gr
DP
2 2 -2 2 -2 -2 2 -2 365 711 5 MP
gs
PP
gr
DP
2 2 -2 2 -2 -2 2 -2 365 720 5 MP
gs
PP
gr
DP
2 2 -2 2 -2 -2 2 -2 365 738 5 MP
gs
PP
gr
DP
2 2 -2 2 -2 -2 2 -2 365 720 5 MP
gs
PP
gr
DP
2 2 -2 2 -2 -2 2 -2 366 738 5 MP
gs
PP
gr
DP
2 2 -2 2 -2 -2 2 -2 366 702 5 MP
gs
PP
gr
DP
2 2 -2 2 -2 -2 2 -2 366 748 5 MP
gs
PP
gr
DP
2 2 -2 2 -2 -2 2 -2 366 738 5 MP
gs
PP
gr
DP
2 2 -2 2 -2 -2 2 -2 366 702 5 MP
gs
PP
gr
DP
2 2 -2 2 -2 -2 2 -2 367 711 5 MP
gs
PP
gr
DP
2 2 -2 2 -2 -2 2 -2 367 683 5 MP
gs
PP
gr
DP
2 2 -2 2 -2 -2 2 -2 367 662 5 MP
gs
PP
gr
DP
2 2 -2 2 -2 -2 2 -2 367 675 5 MP
gs
PP
gr
DP
2 2 -2 2 -2 -2 2 -2 367 720 5 MP
gs
PP
gr
DP
2 2 -2 2 -2 -2 2 -2 368 711 5 MP
gs
PP
gr
DP
2 2 -2 2 -2 -2 2 -2 368 720 5 MP
gs
PP
gr
DP
2 2 -2 2 -2 -2 2 -2 368 748 5 MP
gs
PP
gr
DP
2 2 -2 2 -2 -2 2 -2 368 720 5 MP
gs
PP
gr
DP
2 2 -2 2 -2 -2 2 -2 368 738 5 MP
gs
PP
gr
DP
2 2 -2 2 -2 -2 2 -2 368 729 5 MP
gs
PP
gr
DP
2 2 -2 2 -2 -2 2 -2 369 738 5 MP
gs
PP
gr
DP
2 2 -2 2 -2 -2 2 -2 369 748 5 MP
gs
PP
gr
DP
2 2 -2 2 -2 -2 2 -2 369 702 5 MP
gs
PP
gr
DP
2 2 -2 2 -2 -2 2 -2 369 726 5 MP
gs
PP
gr
DP
2 2 -2 2 -2 -2 2 -2 370 711 5 MP
gs
PP
gr
DP
2 2 -2 2 -2 -2 2 -2 370 738 5 MP
gs
PP
gr
DP
2 2 -2 2 -2 -2 2 -2 370 748 5 MP
gs
PP
gr
DP
2 2 -2 2 -2 -2 2 -2 371 748 5 MP
gs
PP
gr
DP
2 2 -2 2 -2 -2 2 -2 371 738 5 MP
gs
PP
gr
DP
2 2 -2 2 -2 -2 2 -2 371 720 5 MP
gs
PP
gr
DP
2 2 -2 2 -2 -2 2 -2 371 738 5 MP
gs
PP
gr
DP
2 2 -2 2 -2 -2 2 -2 371 748 5 MP
gs
PP
gr
DP
2 2 -2 2 -2 -2 2 -2 372 748 5 MP
gs
PP
gr
DP
2 2 -2 2 -2 -2 2 -2 372 738 5 MP
gs
PP
gr
DP
2 2 -2 2 -2 -2 2 -2 372 729 5 MP
gs
PP
gr
DP
2 2 -2 2 -2 -2 2 -2 372 683 5 MP
gs
PP
gr
DP
2 2 -2 2 -2 -2 2 -2 373 729 5 MP
gs
PP
gr
DP
2 2 -2 2 -2 -2 2 -2 373 738 5 MP
gs
PP
gr
DP
2 2 -2 2 -2 -2 2 -2 373 720 5 MP
gs
PP
gr
DP
2 2 -2 2 -2 -2 2 -2 373 719 5 MP
gs
PP
gr
DP
2 2 -2 2 -2 -2 2 -2 373 683 5 MP
gs
PP
gr
DP
2 2 -2 2 -2 -2 2 -2 373 748 5 MP
gs
PP
gr
DP
2 2 -2 2 -2 -2 2 -2 374 748 5 MP
gs
PP
gr
DP
2 2 -2 2 -2 -2 2 -2 374 735 5 MP
gs
PP
gr
DP
2 2 -2 2 -2 -2 2 -2 374 748 5 MP
gs
PP
gr
DP
2 2 -2 2 -2 -2 2 -2 374 738 5 MP
gs
PP
gr
DP
2 2 -2 2 -2 -2 2 -2 374 711 5 MP
gs
PP
gr
DP
2 2 -2 2 -2 -2 2 -2 374 748 5 MP
gs
PP
gr
DP
2 2 -2 2 -2 -2 2 -2 375 748 5 MP
gs
PP
gr
DP
2 2 -2 2 -2 -2 2 -2 375 720 5 MP
gs
PP
gr
DP
2 2 -2 2 -2 -2 2 -2 375 738 5 MP
gs
PP
gr
DP
2 2 -2 2 -2 -2 2 -2 376 711 5 MP
gs
PP
gr
DP
2 2 -2 2 -2 -2 2 -2 376 722 5 MP
gs
PP
gr
DP
2 2 -2 2 -2 -2 2 -2 376 720 5 MP
gs
PP
gr
DP
2 2 -2 2 -2 -2 2 -2 376 729 5 MP
gs
PP
gr
DP
2 2 -2 2 -2 -2 2 -2 376 683 5 MP
gs
PP
gr
DP
2 2 -2 2 -2 -2 2 -2 377 720 5 MP
gs
PP
gr
DP
2 2 -2 2 -2 -2 2 -2 377 707 5 MP
gs
PP
gr
DP
2 2 -2 2 -2 -2 2 -2 377 702 5 MP
gs
PP
gr
DP
2 2 -2 2 -2 -2 2 -2 377 679 5 MP
gs
PP
gr
DP
2 2 -2 2 -2 -2 2 -2 377 693 5 MP
gs
PP
gr
DP
2 2 -2 2 -2 -2 2 -2 377 738 5 MP
gs
PP
gr
DP
2 2 -2 2 -2 -2 2 -2 377 748 5 MP
gs
PP
gr
DP
2 2 -2 2 -2 -2 2 -2 378 738 5 MP
gs
PP
gr
DP
2 2 -2 2 -2 -2 2 -2 378 729 5 MP
gs
PP
gr
DP
2 2 -2 2 -2 -2 2 -2 378 738 5 MP
gs
PP
gr
DP
2 2 -2 2 -2 -2 2 -2 378 720 5 MP
gs
PP
gr
DP
2 2 -2 2 -2 -2 2 -2 378 729 5 MP
gs
PP
gr
DP
2 2 -2 2 -2 -2 2 -2 379 729 5 MP
gs
PP
gr
DP
2 2 -2 2 -2 -2 2 -2 379 720 5 MP
gs
PP
gr
DP
2 2 -2 2 -2 -2 2 -2 379 738 5 MP
gs
PP
gr
DP
2 2 -2 2 -2 -2 2 -2 379 748 5 MP
gs
PP
gr
DP
2 2 -2 2 -2 -2 2 -2 379 720 5 MP
gs
PP
gr
DP
2 2 -2 2 -2 -2 2 -2 380 712 5 MP
gs
PP
gr
DP
2 2 -2 2 -2 -2 2 -2 380 729 5 MP
gs
PP
gr
DP
2 2 -2 2 -2 -2 2 -2 380 738 5 MP
gs
PP
gr
DP
2 2 -2 2 -2 -2 2 -2 380 729 5 MP
gs
PP
gr
DP
2 2 -2 2 -2 -2 2 -2 381 748 5 MP
gs
PP
gr
DP
2 2 -2 2 -2 -2 2 -2 381 702 5 MP
gs
PP
gr
DP
2 2 -2 2 -2 -2 2 -2 382 683 5 MP
gs
PP
gr
DP
2 2 -2 2 -2 -2 2 -2 382 400 5 MP
gs
PP
gr
DP
2 2 -2 2 -2 -2 2 -2 382 738 5 MP
gs
PP
gr
DP
2 2 -2 2 -2 -2 2 -2 382 702 5 MP
gs
PP
gr
DP
2 2 -2 2 -2 -2 2 -2 382 720 5 MP
gs
PP
gr
DP
2 2 -2 2 -2 -2 2 -2 382 702 5 MP
gs
PP
gr
DP
2 2 -2 2 -2 -2 2 -2 383 720 5 MP
gs
PP
gr
DP
2 2 -2 2 -2 -2 2 -2 383 702 5 MP
gs
PP
gr
DP
2 2 -2 2 -2 -2 2 -2 383 720 5 MP
gs
PP
gr
DP
2 2 -2 2 -2 -2 2 -2 383 702 5 MP
gs
PP
gr
DP
2 2 -2 2 -2 -2 2 -2 383 738 5 MP
gs
PP
gr
DP
2 2 -2 2 -2 -2 2 -2 384 711 5 MP
gs
PP
gr
DP
2 2 -2 2 -2 -2 2 -2 384 702 5 MP
gs
PP
gr
DP
2 2 -2 2 -2 -2 2 -2 384 693 5 MP
gs
PP
gr
DP
2 2 -2 2 -2 -2 2 -2 384 633 5 MP
gs
PP
gr
DP
2 2 -2 2 -2 -2 2 -2 384 678 5 MP
gs
PP
gr
DP
2 2 -2 2 -2 -2 2 -2 385 656 5 MP
gs
PP
gr
DP
2 2 -2 2 -2 -2 2 -2 385 724 5 MP
gs
PP
gr
DP
2 2 -2 2 -2 -2 2 -2 385 710 5 MP
gs
PP
gr
DP
2 2 -2 2 -2 -2 2 -2 385 693 5 MP
gs
PP
gr
DP
2 2 -2 2 -2 -2 2 -2 385 748 5 MP
gs
PP
gr
DP
2 2 -2 2 -2 -2 2 -2 386 748 5 MP
gs
PP
gr
DP
2 2 -2 2 -2 -2 2 -2 386 720 5 MP
gs
PP
gr
DP
2 2 -2 2 -2 -2 2 -2 386 693 5 MP
gs
PP
gr
DP
2 2 -2 2 -2 -2 2 -2 386 720 5 MP
gs
PP
gr
DP
2 2 -2 2 -2 -2 2 -2 386 729 5 MP
gs
PP
gr
DP
2 2 -2 2 -2 -2 2 -2 386 711 5 MP
gs
PP
gr
DP
2 2 -2 2 -2 -2 2 -2 387 711 5 MP
gs
PP
gr
DP
2 2 -2 2 -2 -2 2 -2 387 720 5 MP
gs
PP
gr
DP
2 2 -2 2 -2 -2 2 -2 387 729 5 MP
gs
PP
gr
DP
2 2 -2 2 -2 -2 2 -2 387 738 5 MP
gs
PP
gr
DP
2 2 -2 2 -2 -2 2 -2 387 702 5 MP
gs
PP
gr
DP
2 2 -2 2 -2 -2 2 -2 388 711 5 MP
gs
PP
gr
DP
2 2 -2 2 -2 -2 2 -2 388 693 5 MP
gs
PP
gr
DP
2 2 -2 2 -2 -2 2 -2 388 674 5 MP
gs
PP
gr
DP
2 2 -2 2 -2 -2 2 -2 388 683 5 MP
gs
PP
gr
DP
2 2 -2 2 -2 -2 2 -2 388 681 5 MP
gs
PP
gr
DP
2 2 -2 2 -2 -2 2 -2 389 693 5 MP
gs
PP
gr
DP
2 2 -2 2 -2 -2 2 -2 389 729 5 MP
gs
PP
gr
DP
2 2 -2 2 -2 -2 2 -2 391 748 5 MP
gs
PP
gr
DP
2 2 -2 2 -2 -2 2 -2 391 720 5 MP
gs
PP
gr
DP
2 2 -2 2 -2 -2 2 -2 391 724 5 MP
gs
PP
gr
DP
2 2 -2 2 -2 -2 2 -2 391 689 5 MP
gs
PP
gr
DP
2 2 -2 2 -2 -2 2 -2 391 748 5 MP
gs
PP
gr
DP
2 2 -2 2 -2 -2 2 -2 392 729 5 MP
gs
PP
gr
DP
2 2 -2 2 -2 -2 2 -2 392 720 5 MP
gs
PP
gr
DP
2 2 -2 2 -2 -2 2 -2 392 729 5 MP
gs
PP
gr
DP
2 2 -2 2 -2 -2 2 -2 393 738 5 MP
gs
PP
gr
DP
2 2 -2 2 -2 -2 2 -2 393 720 5 MP
gs
PP
gr
DP
2 2 -2 2 -2 -2 2 -2 393 748 5 MP
gs
PP
gr
DP
2 2 -2 2 -2 -2 2 -2 393 711 5 MP
gs
PP
gr
DP
2 2 -2 2 -2 -2 2 -2 394 702 5 MP
gs
PP
gr
DP
2 2 -2 2 -2 -2 2 -2 396 720 5 MP
gs
PP
gr
DP
2 2 -2 2 -2 -2 2 -2 396 711 5 MP
gs
PP
gr
DP
2 2 -2 2 -2 -2 2 -2 396 729 5 MP
gs
PP
gr
DP
2 2 -2 2 -2 -2 2 -2 396 711 5 MP
gs
PP
gr
DP
2 2 -2 2 -2 -2 2 -2 396 702 5 MP
gs
PP
gr
DP
2 2 -2 2 -2 -2 2 -2 397 738 5 MP
gs
PP
gr
DP
2 2 -2 2 -2 -2 2 -2 397 748 5 MP
gs
PP
gr
DP
2 2 -2 2 -2 -2 2 -2 397 702 5 MP
gs
PP
gr
DP
2 2 -2 2 -2 -2 2 -2 397 715 5 MP
gs
PP
gr
DP
2 2 -2 2 -2 -2 2 -2 397 702 5 MP
gs
PP
gr
DP
2 2 -2 2 -2 -2 2 -2 397 738 5 MP
gs
PP
gr
DP
2 2 -2 2 -2 -2 2 -2 398 720 5 MP
gs
PP
gr
DP
2 2 -2 2 -2 -2 2 -2 398 702 5 MP
gs
PP
gr
DP
2 2 -2 2 -2 -2 2 -2 398 705 5 MP
gs
PP
gr
DP
2 2 -2 2 -2 -2 2 -2 398 702 5 MP
gs
PP
gr
DP
2 2 -2 2 -2 -2 2 -2 398 720 5 MP
gs
PP
gr
DP
2 2 -2 2 -2 -2 2 -2 398 729 5 MP
gs
PP
gr
DP
2 2 -2 2 -2 -2 2 -2 399 693 5 MP
gs
PP
gr
DP
2 2 -2 2 -2 -2 2 -2 399 665 5 MP
gs
PP
gr
DP
2 2 -2 2 -2 -2 2 -2 399 693 5 MP
gs
PP
gr
DP
2 2 -2 2 -2 -2 2 -2 399 683 5 MP
gs
PP
gr
DP
2 2 -2 2 -2 -2 2 -2 400 696 5 MP
gs
PP
gr
DP
2 2 -2 2 -2 -2 2 -2 400 711 5 MP
gs
PP
gr
DP
2 2 -2 2 -2 -2 2 -2 400 720 5 MP
gs
PP
gr
DP
2 2 -2 2 -2 -2 2 -2 400 693 5 MP
gs
PP
gr
DP
2 2 -2 2 -2 -2 2 -2 400 720 5 MP
gs
PP
gr
DP
2 2 -2 2 -2 -2 2 -2 401 702 5 MP
gs
PP
gr
DP
2 2 -2 2 -2 -2 2 -2 401 693 5 MP
gs
PP
gr
DP
2 2 -2 2 -2 -2 2 -2 401 748 5 MP
gs
PP
gr
DP
2 2 -2 2 -2 -2 2 -2 401 738 5 MP
gs
PP
gr
DP
2 2 -2 2 -2 -2 2 -2 402 738 5 MP
gs
PP
gr
DP
2 2 -2 2 -2 -2 2 -2 402 693 5 MP
gs
PP
gr
DP
2 2 -2 2 -2 -2 2 -2 403 686 5 MP
gs
PP
gr
DP
2 2 -2 2 -2 -2 2 -2 403 669 5 MP
gs
PP
gr
DP
2 2 -2 2 -2 -2 2 -2 403 729 5 MP
gs
PP
gr
DP
2 2 -2 2 -2 -2 2 -2 403 702 5 MP
gs
PP
gr
DP
2 2 -2 2 -2 -2 2 -2 403 711 5 MP
gs
PP
gr
DP
2 2 -2 2 -2 -2 2 -2 404 738 5 MP
gs
PP
gr
DP
2 2 -2 2 -2 -2 2 -2 404 693 5 MP
gs
PP
gr
DP
2 2 -2 2 -2 -2 2 -2 404 674 5 MP
gs
PP
gr
DP
2 2 -2 2 -2 -2 2 -2 404 728 5 MP
gs
PP
gr
DP
2 2 -2 2 -2 -2 2 -2 404 720 5 MP
gs
PP
gr
DP
2 2 -2 2 -2 -2 2 -2 405 701 5 MP
gs
PP
gr
DP
2 2 -2 2 -2 -2 2 -2 405 709 5 MP
gs
PP
gr
DP
2 2 -2 2 -2 -2 2 -2 405 693 5 MP
gs
PP
gr
DP
2 2 -2 2 -2 -2 2 -2 406 720 5 MP
gs
PP
gr
DP
2 2 -2 2 -2 -2 2 -2 408 665 5 MP
gs
PP
gr
DP
2 2 -2 2 -2 -2 2 -2 408 702 5 MP
gs
PP
gr
DP
2 2 -2 2 -2 -2 2 -2 408 674 5 MP
gs
PP
gr
DP
2 2 -2 2 -2 -2 2 -2 408 696 5 MP
gs
PP
gr
DP
2 2 -2 2 -2 -2 2 -2 408 686 5 MP
gs
PP
gr
DP
2 2 -2 2 -2 -2 2 -2 409 693 5 MP
gs
PP
gr
DP
2 2 -2 2 -2 -2 2 -2 409 717 5 MP
gs
PP
gr
DP
2 2 -2 2 -2 -2 2 -2 409 698 5 MP
gs
PP
gr
DP
2 2 -2 2 -2 -2 2 -2 409 720 5 MP
gs
PP
gr
DP
2 2 -2 2 -2 -2 2 -2 409 729 5 MP
gs
PP
gr
DP
2 2 -2 2 -2 -2 2 -2 409 738 5 MP
gs
PP
gr
DP
2 2 -2 2 -2 -2 2 -2 410 738 5 MP
gs
PP
gr
DP
2 2 -2 2 -2 -2 2 -2 410 748 5 MP
gs
PP
gr
DP
2 2 -2 2 -2 -2 2 -2 410 720 5 MP
gs
PP
gr
DP
2 2 -2 2 -2 -2 2 -2 410 729 5 MP
gs
PP
gr
DP
2 2 -2 2 -2 -2 2 -2 410 720 5 MP
gs
PP
gr
DP
2 2 -2 2 -2 -2 2 -2 411 729 5 MP
gs
PP
gr
DP
2 2 -2 2 -2 -2 2 -2 411 748 5 MP
gs
PP
gr
DP
2 2 -2 2 -2 -2 2 -2 412 729 5 MP
gs
PP
gr
DP
2 2 -2 2 -2 -2 2 -2 412 702 5 MP
gs
PP
gr
DP
2 2 -2 2 -2 -2 2 -2 412 693 5 MP
gs
PP
gr
DP
2 2 -2 2 -2 -2 2 -2 412 711 5 MP
gs
PP
gr
DP
2 2 -2 2 -2 -2 2 -2 413 702 5 MP
gs
PP
gr
DP
2 2 -2 2 -2 -2 2 -2 413 720 5 MP
gs
PP
gr
DP
2 2 -2 2 -2 -2 2 -2 413 719 5 MP
gs
PP
gr
DP
2 2 -2 2 -2 -2 2 -2 413 720 5 MP
gs
PP
gr
DP
2 2 -2 2 -2 -2 2 -2 413 729 5 MP
gs
PP
gr
DP
2 2 -2 2 -2 -2 2 -2 414 729 5 MP
gs
PP
gr
DP
2 2 -2 2 -2 -2 2 -2 414 738 5 MP
gs
PP
gr
DP
2 2 -2 2 -2 -2 2 -2 414 711 5 MP
gs
PP
gr
DP
2 2 -2 2 -2 -2 2 -2 415 685 5 MP
gs
PP
gr
DP
2 2 -2 2 -2 -2 2 -2 415 720 5 MP
gs
PP
gr
DP
2 2 -2 2 -2 -2 2 -2 416 738 5 MP
gs
PP
gr
DP
2 2 -2 2 -2 -2 2 -2 416 711 5 MP
gs
PP
gr
DP
2 2 -2 2 -2 -2 2 -2 416 748 5 MP
gs
PP
gr
DP
2 2 -2 2 -2 -2 2 -2 417 748 5 MP
gs
PP
gr
DP
2 2 -2 2 -2 -2 2 -2 417 738 5 MP
gs
PP
gr
DP
2 2 -2 2 -2 -2 2 -2 417 720 5 MP
gs
PP
gr
DP
2 2 -2 2 -2 -2 2 -2 417 693 5 MP
gs
PP
gr
DP
2 2 -2 2 -2 -2 2 -2 417 685 5 MP
gs
PP
gr
DP
2 2 -2 2 -2 -2 2 -2 417 694 5 MP
gs
PP
gr
DP
2 2 -2 2 -2 -2 2 -2 417 674 5 MP
gs
PP
gr
DP
2 2 -2 2 -2 -2 2 -2 418 683 5 MP
gs
PP
gr
DP
2 2 -2 2 -2 -2 2 -2 418 738 5 MP
gs
PP
gr
DP
2 2 -2 2 -2 -2 2 -2 418 711 5 MP
gs
PP
gr
DP
2 2 -2 2 -2 -2 2 -2 418 738 5 MP
gs
PP
gr
DP
2 2 -2 2 -2 -2 2 -2 418 729 5 MP
gs
PP
gr
DP
2 2 -2 2 -2 -2 2 -2 418 720 5 MP
gs
PP
gr
DP
2 2 -2 2 -2 -2 2 -2 418 738 5 MP
gs
PP
gr
DP
2 2 -2 2 -2 -2 2 -2 419 693 5 MP
gs
PP
gr
DP
2 2 -2 2 -2 -2 2 -2 419 685 5 MP
gs
PP
gr
DP
2 2 -2 2 -2 -2 2 -2 419 159 5 MP
gs
PP
gr
DP
2 2 -2 2 -2 -2 2 -2 419 683 5 MP
gs
PP
gr
DP
2 2 -2 2 -2 -2 2 -2 419 674 5 MP
gs
PP
gr
DP
2 2 -2 2 -2 -2 2 -2 419 706 5 MP
gs
PP
gr
DP
2 2 -2 2 -2 -2 2 -2 420 674 5 MP
gs
PP
gr
DP
2 2 -2 2 -2 -2 2 -2 420 711 5 MP
gs
PP
gr
DP
2 2 -2 2 -2 -2 2 -2 420 693 5 MP
gs
PP
gr
DP
2 2 -2 2 -2 -2 2 -2 420 711 5 MP
gs
PP
gr
DP
2 2 -2 2 -2 -2 2 -2 421 711 5 MP
gs
PP
gr
DP
2 2 -2 2 -2 -2 2 -2 421 683 5 MP
gs
PP
gr
DP
2 2 -2 2 -2 -2 2 -2 421 693 5 MP
gs
PP
gr
DP
2 2 -2 2 -2 -2 2 -2 421 700 5 MP
gs
PP
gr
DP
2 2 -2 2 -2 -2 2 -2 421 693 5 MP
gs
PP
gr
DP
2 2 -2 2 -2 -2 2 -2 422 702 5 MP
gs
PP
gr
DP
2 2 -2 2 -2 -2 2 -2 422 693 5 MP
gs
PP
gr
DP
2 2 -2 2 -2 -2 2 -2 422 674 5 MP
gs
PP
gr
DP
2 2 -2 2 -2 -2 2 -2 423 674 5 MP
gs
PP
gr
DP
2 2 -2 2 -2 -2 2 -2 423 688 5 MP
gs
PP
gr
DP
2 2 -2 2 -2 -2 2 -2 423 670 5 MP
gs
PP
gr
DP
2 2 -2 2 -2 -2 2 -2 423 702 5 MP
gs
PP
gr
DP
2 2 -2 2 -2 -2 2 -2 424 720 5 MP
gs
PP
gr
DP
2 2 -2 2 -2 -2 2 -2 424 683 5 MP
gs
PP
gr
DP
2 2 -2 2 -2 -2 2 -2 424 711 5 MP
gs
PP
gr
DP
2 2 -2 2 -2 -2 2 -2 424 692 5 MP
gs
PP
gr
DP
2 2 -2 2 -2 -2 2 -2 424 711 5 MP
gs
PP
gr
DP
2 2 -2 2 -2 -2 2 -2 424 693 5 MP
gs
PP
gr
DP
2 2 -2 2 -2 -2 2 -2 425 748 5 MP
gs
PP
gr
DP
2 2 -2 2 -2 -2 2 -2 426 702 5 MP
gs
PP
gr
DP
2 2 -2 2 -2 -2 2 -2 426 729 5 MP
gs
PP
gr
DP
2 2 -2 2 -2 -2 2 -2 426 711 5 MP
gs
PP
gr
DP
2 2 -2 2 -2 -2 2 -2 426 702 5 MP
gs
PP
gr
DP
2 2 -2 2 -2 -2 2 -2 426 699 5 MP
gs
PP
gr
DP
2 2 -2 2 -2 -2 2 -2 426 706 5 MP
gs
PP
gr
DP
2 2 -2 2 -2 -2 2 -2 427 693 5 MP
gs
PP
gr
DP
2 2 -2 2 -2 -2 2 -2 427 702 5 MP
gs
PP
gr
DP
2 2 -2 2 -2 -2 2 -2 427 683 5 MP
gs
PP
gr
DP
2 2 -2 2 -2 -2 2 -2 427 702 5 MP
gs
PP
gr
DP
2 2 -2 2 -2 -2 2 -2 427 720 5 MP
gs
PP
gr
DP
2 2 -2 2 -2 -2 2 -2 427 738 5 MP
gs
PP
gr
DP
2 2 -2 2 -2 -2 2 -2 428 738 5 MP
gs
PP
gr
DP
2 2 -2 2 -2 -2 2 -2 428 702 5 MP
gs
PP
gr
DP
2 2 -2 2 -2 -2 2 -2 428 720 5 MP
gs
PP
gr
DP
2 2 -2 2 -2 -2 2 -2 428 711 5 MP
gs
PP
gr
DP
2 2 -2 2 -2 -2 2 -2 428 670 5 MP
gs
PP
gr
DP
2 2 -2 2 -2 -2 2 -2 428 702 5 MP
gs
PP
gr
DP
2 2 -2 2 -2 -2 2 -2 428 704 5 MP
gs
PP
gr
DP
2 2 -2 2 -2 -2 2 -2 429 702 5 MP
gs
PP
gr
DP
2 2 -2 2 -2 -2 2 -2 429 720 5 MP
gs
PP
gr
DP
2 2 -2 2 -2 -2 2 -2 429 698 5 MP
gs
PP
gr
DP
2 2 -2 2 -2 -2 2 -2 431 705 5 MP
gs
PP
gr
DP
2 2 -2 2 -2 -2 2 -2 431 693 5 MP
gs
PP
gr
DP
2 2 -2 2 -2 -2 2 -2 431 748 5 MP
gs
PP
gr
DP
2 2 -2 2 -2 -2 2 -2 431 738 5 MP
gs
PP
gr
DP
2 2 -2 2 -2 -2 2 -2 431 729 5 MP
gs
PP
gr
DP
2 2 -2 2 -2 -2 2 -2 432 720 5 MP
gs
PP
gr
DP
2 2 -2 2 -2 -2 2 -2 432 729 5 MP
gs
PP
gr
DP
2 2 -2 2 -2 -2 2 -2 432 711 5 MP
gs
PP
gr
DP
2 2 -2 2 -2 -2 2 -2 433 711 5 MP
gs
PP
gr
DP
2 2 -2 2 -2 -2 2 -2 433 729 5 MP
gs
PP
gr
DP
2 2 -2 2 -2 -2 2 -2 433 708 5 MP
gs
PP
gr
DP
2 2 -2 2 -2 -2 2 -2 434 729 5 MP
gs
PP
gr
DP
2 2 -2 2 -2 -2 2 -2 435 729 5 MP
gs
PP
gr
DP
2 2 -2 2 -2 -2 2 -2 435 720 5 MP
gs
PP
gr
DP
2 2 -2 2 -2 -2 2 -2 435 729 5 MP
gs
PP
gr
DP
2 2 -2 2 -2 -2 2 -2 436 748 5 MP
gs
PP
gr
DP
2 2 -2 2 -2 -2 2 -2 436 738 5 MP
gs
PP
gr
DP
2 2 -2 2 -2 -2 2 -2 436 726 5 MP
gs
PP
gr
DP
2 2 -2 2 -2 -2 2 -2 436 729 5 MP
gs
PP
gr
DP
2 2 -2 2 -2 -2 2 -2 436 748 5 MP
gs
PP
gr
DP
2 2 -2 2 -2 -2 2 -2 436 688 5 MP
gs
PP
gr
DP
2 2 -2 2 -2 -2 2 -2 437 711 5 MP
gs
PP
gr
DP
2 2 -2 2 -2 -2 2 -2 437 738 5 MP
gs
PP
gr
DP
2 2 -2 2 -2 -2 2 -2 437 665 5 MP
gs
PP
gr
DP
2 2 -2 2 -2 -2 2 -2 437 738 5 MP
gs
PP
gr
DP
2 2 -2 2 -2 -2 2 -2 437 748 5 MP
gs
PP
gr
DP
2 2 -2 2 -2 -2 2 -2 437 711 5 MP
gs
PP
gr
DP
2 2 -2 2 -2 -2 2 -2 438 748 5 MP
gs
PP
gr
DP
2 2 -2 2 -2 -2 2 -2 438 711 5 MP
gs
PP
gr
DP
2 2 -2 2 -2 -2 2 -2 440 748 5 MP
gs
PP
gr
DP
2 2 -2 2 -2 -2 2 -2 440 711 5 MP
gs
PP
gr
DP
2 2 -2 2 -2 -2 2 -2 440 738 5 MP
gs
PP
gr
DP
2 2 -2 2 -2 -2 2 -2 440 711 5 MP
gs
PP
gr
DP
2 2 -2 2 -2 -2 2 -2 441 738 5 MP
gs
PP
gr
DP
2 2 -2 2 -2 -2 2 -2 441 697 5 MP
gs
PP
gr
DP
2 2 -2 2 -2 -2 2 -2 441 707 5 MP
gs
PP
gr
DP
2 2 -2 2 -2 -2 2 -2 441 748 5 MP
gs
PP
gr
DP
2 2 -2 2 -2 -2 2 -2 441 729 5 MP
gs
PP
gr
DP
2 2 -2 2 -2 -2 2 -2 442 748 5 MP
gs
PP
gr
DP
2 2 -2 2 -2 -2 2 -2 442 720 5 MP
gs
PP
gr
DP
2 2 -2 2 -2 -2 2 -2 443 702 5 MP
gs
PP
gr
DP
2 2 -2 2 -2 -2 2 -2 443 705 5 MP
gs
PP
gr
DP
2 2 -2 2 -2 -2 2 -2 443 708 5 MP
gs
PP
gr
DP
2 2 -2 2 -2 -2 2 -2 443 746 5 MP
gs
PP
gr
DP
2 2 -2 2 -2 -2 2 -2 443 738 5 MP
gs
PP
gr
DP
2 2 -2 2 -2 -2 2 -2 444 738 5 MP
gs
PP
gr
DP
2 2 -2 2 -2 -2 2 -2 444 748 5 MP
gs
PP
gr
DP
2 2 -2 2 -2 -2 2 -2 445 729 5 MP
gs
PP
gr
DP
2 2 -2 2 -2 -2 2 -2 445 702 5 MP
gs
PP
gr
DP
2 2 -2 2 -2 -2 2 -2 445 668 5 MP
gs
PP
gr
DP
2 2 -2 2 -2 -2 2 -2 446 729 5 MP
gs
PP
gr
DP
2 2 -2 2 -2 -2 2 -2 447 720 5 MP
gs
PP
gr
DP
2 2 -2 2 -2 -2 2 -2 448 748 5 MP
gs
PP
gr
DP
2 2 -2 2 -2 -2 2 -2 449 666 5 MP
gs
PP
gr
DP
2 2 -2 2 -2 -2 2 -2 449 639 5 MP
gs
PP
gr
DP
2 2 -2 2 -2 -2 2 -2 450 693 5 MP
gs
PP
gr
DP
2 2 -2 2 -2 -2 2 -2 450 738 5 MP
gs
PP
gr
DP
2 2 -2 2 -2 -2 2 -2 451 662 5 MP
gs
PP
gr
DP
2 2 -2 2 -2 -2 2 -2 451 720 5 MP
gs
PP
gr
DP
2 2 -2 2 -2 -2 2 -2 451 738 5 MP
gs
PP
gr
DP
2 2 -2 2 -2 -2 2 -2 451 729 5 MP
gs
PP
gr
DP
2 2 -2 2 -2 -2 2 -2 451 720 5 MP
gs
PP
gr
DP
2 2 -2 2 -2 -2 2 -2 451 729 5 MP
gs
PP
gr
DP
2 2 -2 2 -2 -2 2 -2 451 712 5 MP
gs
PP
gr
DP
2 2 -2 2 -2 -2 2 -2 452 729 5 MP
gs
PP
gr
DP
2 2 -2 2 -2 -2 2 -2 452 715 5 MP
gs
PP
gr
DP
2 2 -2 2 -2 -2 2 -2 452 744 5 MP
gs
PP
gr
DP
2 2 -2 2 -2 -2 2 -2 452 711 5 MP
gs
PP
gr
DP
2 2 -2 2 -2 -2 2 -2 452 720 5 MP
gs
PP
gr
DP
2 2 -2 2 -2 -2 2 -2 453 702 5 MP
gs
PP
gr
DP
2 2 -2 2 -2 -2 2 -2 453 711 5 MP
gs
PP
gr
DP
2 2 -2 2 -2 -2 2 -2 454 665 5 MP
gs
PP
gr
DP
2 2 -2 2 -2 -2 2 -2 454 702 5 MP
gs
PP
gr
DP
2 2 -2 2 -2 -2 2 -2 454 677 5 MP
gs
PP
gr
DP
2 2 -2 2 -2 -2 2 -2 455 711 5 MP
gs
PP
gr
DP
2 2 -2 2 -2 -2 2 -2 455 748 5 MP
gs
PP
gr
DP
2 2 -2 2 -2 -2 2 -2 455 720 5 MP
gs
PP
gr
DP
2 2 -2 2 -2 -2 2 -2 455 683 5 MP
gs
PP
gr
DP
2 2 -2 2 -2 -2 2 -2 456 686 5 MP
gs
PP
gr
DP
2 2 -2 2 -2 -2 2 -2 456 748 5 MP
gs
PP
gr
DP
2 2 -2 2 -2 -2 2 -2 456 683 5 MP
gs
PP
gr
DP
2 2 -2 2 -2 -2 2 -2 456 738 5 MP
gs
PP
gr
DP
2 2 -2 2 -2 -2 2 -2 456 683 5 MP
gs
PP
gr
DP
2 2 -2 2 -2 -2 2 -2 456 702 5 MP
gs
PP
gr
DP
2 2 -2 2 -2 -2 2 -2 457 711 5 MP
gs
PP
gr
DP
2 2 -2 2 -2 -2 2 -2 457 729 5 MP
gs
PP
gr
DP
2 2 -2 2 -2 -2 2 -2 457 738 5 MP
gs
PP
gr
DP
2 2 -2 2 -2 -2 2 -2 457 693 5 MP
gs
PP
gr
DP
2 2 -2 2 -2 -2 2 -2 457 738 5 MP
gs
PP
gr
DP
2 2 -2 2 -2 -2 2 -2 457 693 5 MP
gs
PP
gr
DP
2 2 -2 2 -2 -2 2 -2 458 738 5 MP
gs
PP
gr
DP
2 2 -2 2 -2 -2 2 -2 458 683 5 MP
gs
PP
gr
DP
2 2 -2 2 -2 -2 2 -2 458 711 5 MP
gs
PP
gr
DP
2 2 -2 2 -2 -2 2 -2 459 698 5 MP
gs
PP
gr
DP
2 2 -2 2 -2 -2 2 -2 459 683 5 MP
gs
PP
gr
DP
2 2 -2 2 -2 -2 2 -2 460 685 5 MP
gs
PP
gr
DP
2 2 -2 2 -2 -2 2 -2 460 663 5 MP
gs
PP
gr
DP
2 2 -2 2 -2 -2 2 -2 460 702 5 MP
gs
PP
gr
DP
2 2 -2 2 -2 -2 2 -2 460 683 5 MP
gs
PP
gr
DP
2 2 -2 2 -2 -2 2 -2 461 711 5 MP
gs
PP
gr
DP
2 2 -2 2 -2 -2 2 -2 461 693 5 MP
gs
PP
gr
DP
2 2 -2 2 -2 -2 2 -2 461 711 5 MP
gs
PP
gr
DP
2 2 -2 2 -2 -2 2 -2 462 700 5 MP
gs
PP
gr
DP
2 2 -2 2 -2 -2 2 -2 462 674 5 MP
gs
PP
gr
DP
2 2 -2 2 -2 -2 2 -2 462 687 5 MP
gs
PP
gr
DP
2 2 -2 2 -2 -2 2 -2 462 729 5 MP
gs
PP
gr
DP
2 2 -2 2 -2 -2 2 -2 462 685 5 MP
gs
PP
gr
DP
2 2 -2 2 -2 -2 2 -2 462 700 5 MP
gs
PP
gr
DP
2 2 -2 2 -2 -2 2 -2 462 693 5 MP
gs
PP
gr
DP
2 2 -2 2 -2 -2 2 -2 463 693 5 MP
gs
PP
gr
DP
2 2 -2 2 -2 -2 2 -2 463 729 5 MP
gs
PP
gr
DP
2 2 -2 2 -2 -2 2 -2 463 702 5 MP
gs
PP
gr
DP
2 2 -2 2 -2 -2 2 -2 463 720 5 MP
gs
PP
gr
DP
2 2 -2 2 -2 -2 2 -2 463 729 5 MP
gs
PP
gr
DP
2 2 -2 2 -2 -2 2 -2 463 738 5 MP
gs
PP
gr
DP
2 2 -2 2 -2 -2 2 -2 463 720 5 MP
gs
PP
gr
DP
2 2 -2 2 -2 -2 2 -2 463 738 5 MP
gs
PP
gr
DP
2 2 -2 2 -2 -2 2 -2 464 748 5 MP
gs
PP
gr
DP
2 2 -2 2 -2 -2 2 -2 464 687 5 MP
gs
PP
gr
DP
2 2 -2 2 -2 -2 2 -2 464 693 5 MP
gs
PP
gr
DP
2 2 -2 2 -2 -2 2 -2 464 674 5 MP
gs
PP
gr
DP
2 2 -2 2 -2 -2 2 -2 464 706 5 MP
gs
PP
gr
DP
2 2 -2 2 -2 -2 2 -2 464 738 5 MP
gs
PP
gr
DP
2 2 -2 2 -2 -2 2 -2 465 748 5 MP
gs
PP
gr
DP
2 2 -2 2 -2 -2 2 -2 465 711 5 MP
gs
PP
gr
DP
2 2 -2 2 -2 -2 2 -2 465 665 5 MP
gs
PP
gr
DP
2 2 -2 2 -2 -2 2 -2 465 711 5 MP
gs
PP
gr
DP
2 2 -2 2 -2 -2 2 -2 465 748 5 MP
gs
PP
gr
DP
2 2 -2 2 -2 -2 2 -2 465 720 5 MP
gs
PP
gr
DP
2 2 -2 2 -2 -2 2 -2 466 711 5 MP
gs
PP
gr
DP
2 2 -2 2 -2 -2 2 -2 466 637 5 MP
gs
PP
gr
DP
2 2 -2 2 -2 -2 2 -2 466 705 5 MP
gs
PP
gr
DP
2 2 -2 2 -2 -2 2 -2 466 666 5 MP
gs
PP
gr
DP
2 2 -2 2 -2 -2 2 -2 466 665 5 MP
gs
PP
gr
DP
2 2 -2 2 -2 -2 2 -2 466 685 5 MP
gs
PP
gr
DP
2 2 -2 2 -2 -2 2 -2 466 693 5 MP
gs
PP
gr
DP
2 2 -2 2 -2 -2 2 -2 467 708 5 MP
gs
PP
gr
DP
2 2 -2 2 -2 -2 2 -2 467 711 5 MP
gs
PP
gr
DP
2 2 -2 2 -2 -2 2 -2 467 720 5 MP
gs
PP
gr
DP
2 2 -2 2 -2 -2 2 -2 467 693 5 MP
gs
PP
gr
DP
2 2 -2 2 -2 -2 2 -2 467 720 5 MP
gs
PP
gr
DP
2 2 -2 2 -2 -2 2 -2 467 729 5 MP
gs
PP
gr
DP
2 2 -2 2 -2 -2 2 -2 468 738 5 MP
gs
PP
gr
DP
2 2 -2 2 -2 -2 2 -2 468 748 5 MP
gs
PP
gr
DP
2 2 -2 2 -2 -2 2 -2 469 711 5 MP
gs
PP
gr
DP
2 2 -2 2 -2 -2 2 -2 469 738 5 MP
gs
PP
gr
DP
2 2 -2 2 -2 -2 2 -2 469 702 5 MP
gs
PP
gr
DP
2 2 -2 2 -2 -2 2 -2 469 718 5 MP
gs
PP
gr
DP
2 2 -2 2 -2 -2 2 -2 470 711 5 MP
gs
PP
gr
DP
2 2 -2 2 -2 -2 2 -2 470 720 5 MP
gs
PP
gr
DP
2 2 -2 2 -2 -2 2 -2 470 711 5 MP
gs
PP
gr
DP
2 2 -2 2 -2 -2 2 -2 470 698 5 MP
gs
PP
gr
DP
2 2 -2 2 -2 -2 2 -2 470 693 5 MP
gs
PP
gr
DP
2 2 -2 2 -2 -2 2 -2 470 737 5 MP
gs
PP
gr
DP
2 2 -2 2 -2 -2 2 -2 470 702 5 MP
gs
PP
gr
DP
2 2 -2 2 -2 -2 2 -2 471 748 5 MP
gs
PP
gr
DP
2 2 -2 2 -2 -2 2 -2 471 702 5 MP
gs
PP
gr
DP
2 2 -2 2 -2 -2 2 -2 471 693 5 MP
gs
PP
gr
DP
2 2 -2 2 -2 -2 2 -2 471 674 5 MP
gs
PP
gr
DP
2 2 -2 2 -2 -2 2 -2 472 702 5 MP
gs
PP
gr
DP
2 2 -2 2 -2 -2 2 -2 472 654 5 MP
gs
PP
gr
DP
2 2 -2 2 -2 -2 2 -2 472 683 5 MP
gs
PP
gr
DP
2 2 -2 2 -2 -2 2 -2 472 702 5 MP
gs
PP
gr
DP
2 2 -2 2 -2 -2 2 -2 472 690 5 MP
gs
PP
gr
DP
2 2 -2 2 -2 -2 2 -2 473 693 5 MP
gs
PP
gr
DP
2 2 -2 2 -2 -2 2 -2 473 720 5 MP
gs
PP
gr
DP
2 2 -2 2 -2 -2 2 -2 473 697 5 MP
gs
PP
gr
DP
2 2 -2 2 -2 -2 2 -2 474 683 5 MP
gs
PP
gr
DP
2 2 -2 2 -2 -2 2 -2 474 693 5 MP
gs
PP
gr
DP
2 2 -2 2 -2 -2 2 -2 474 702 5 MP
gs
PP
gr
DP
2 2 -2 2 -2 -2 2 -2 474 671 5 MP
gs
PP
gr
DP
2 2 -2 2 -2 -2 2 -2 474 681 5 MP
gs
PP
gr
DP
2 2 -2 2 -2 -2 2 -2 475 697 5 MP
gs
PP
gr
DP
2 2 -2 2 -2 -2 2 -2 475 702 5 MP
gs
PP
gr
DP
2 2 -2 2 -2 -2 2 -2 475 683 5 MP
gs
PP
gr
DP
2 2 -2 2 -2 -2 2 -2 475 711 5 MP
gs
PP
gr
DP
2 2 -2 2 -2 -2 2 -2 476 693 5 MP
gs
PP
gr
DP
2 2 -2 2 -2 -2 2 -2 476 720 5 MP
gs
PP
gr
DP
2 2 -2 2 -2 -2 2 -2 476 682 5 MP
gs
PP
gr
DP
2 2 -2 2 -2 -2 2 -2 476 720 5 MP
gs
PP
gr
DP
2 2 -2 2 -2 -2 2 -2 476 748 5 MP
gs
PP
gr
DP
2 2 -2 2 -2 -2 2 -2 476 720 5 MP
gs
PP
gr
DP
2 2 -2 2 -2 -2 2 -2 477 748 5 MP
gs
PP
gr
DP
2 2 -2 2 -2 -2 2 -2 477 702 5 MP
gs
PP
gr
DP
2 2 -2 2 -2 -2 2 -2 478 738 5 MP
gs
PP
gr
DP
2 2 -2 2 -2 -2 2 -2 479 748 5 MP
gs
PP
gr
DP
2 2 -2 2 -2 -2 2 -2 479 738 5 MP
gs
PP
gr
DP
2 2 -2 2 -2 -2 2 -2 480 720 5 MP
gs
PP
gr
DP
2 2 -2 2 -2 -2 2 -2 480 748 5 MP
gs
PP
gr
DP
2 2 -2 2 -2 -2 2 -2 480 738 5 MP
gs
PP
gr
DP
2 2 -2 2 -2 -2 2 -2 481 683 5 MP
gs
PP
gr
DP
2 2 -2 2 -2 -2 2 -2 481 748 5 MP
gs
PP
gr
DP
2 2 -2 2 -2 -2 2 -2 481 720 5 MP
gs
PP
gr
DP
2 2 -2 2 -2 -2 2 -2 481 693 5 MP
gs
PP
gr
DP
2 2 -2 2 -2 -2 2 -2 481 682 5 MP
gs
PP
gr
DP
2 2 -2 2 -2 -2 2 -2 482 694 5 MP
gs
PP
gr
DP
2 2 -2 2 -2 -2 2 -2 483 693 5 MP
gs
PP
gr
DP
2 2 -2 2 -2 -2 2 -2 483 711 5 MP
gs
PP
gr
DP
2 2 -2 2 -2 -2 2 -2 485 702 5 MP
gs
PP
gr
DP
2 2 -2 2 -2 -2 2 -2 486 729 5 MP
gs
PP
gr
DP
2 2 -2 2 -2 -2 2 -2 486 702 5 MP
gs
PP
gr
DP
2 2 -2 2 -2 -2 2 -2 486 688 5 MP
gs
PP
gr
DP
2 2 -2 2 -2 -2 2 -2 486 720 5 MP
gs
PP
gr
DP
2 2 -2 2 -2 -2 2 -2 486 702 5 MP
gs
PP
gr
DP
2 2 -2 2 -2 -2 2 -2 487 702 5 MP
gs
PP
gr
DP
2 2 -2 2 -2 -2 2 -2 488 720 5 MP
gs
PP
gr
DP
2 2 -2 2 -2 -2 2 -2 489 738 5 MP
gs
PP
gr
DP
2 2 -2 2 -2 -2 2 -2 490 729 5 MP
gs
PP
gr
DP
2 2 -2 2 -2 -2 2 -2 490 720 5 MP
gs
PP
gr
DP
2 2 -2 2 -2 -2 2 -2 491 702 5 MP
gs
PP
gr
DP
2 2 -2 2 -2 -2 2 -2 491 720 5 MP
gs
PP
gr
DP
2 2 -2 2 -2 -2 2 -2 492 683 5 MP
gs
PP
gr
DP
2 2 -2 2 -2 -2 2 -2 492 693 5 MP
gs
PP
gr
DP
2 2 -2 2 -2 -2 2 -2 493 599 5 MP
gs
PP
gr
DP
2 2 -2 2 -2 -2 2 -2 494 674 5 MP
gs
PP
gr
DP
2 2 -2 2 -2 -2 2 -2 494 659 5 MP
gs
PP
gr
DP
2 2 -2 2 -2 -2 2 -2 494 720 5 MP
gs
PP
gr
DP
2 2 -2 2 -2 -2 2 -2 494 702 5 MP
gs
PP
gr
DP
2 2 -2 2 -2 -2 2 -2 495 682 5 MP
gs
PP
gr
DP
2 2 -2 2 -2 -2 2 -2 495 674 5 MP
gs
PP
gr
DP
2 2 -2 2 -2 -2 2 -2 497 720 5 MP
gs
PP
gr
DP
2 2 -2 2 -2 -2 2 -2 497 693 5 MP
gs
PP
gr
DP
2 2 -2 2 -2 -2 2 -2 497 685 5 MP
gs
PP
gr
DP
2 2 -2 2 -2 -2 2 -2 498 711 5 MP
gs
PP
gr
DP
2 2 -2 2 -2 -2 2 -2 498 693 5 MP
gs
PP
gr
DP
2 2 -2 2 -2 -2 2 -2 499 720 5 MP
gs
PP
gr
DP
2 2 -2 2 -2 -2 2 -2 500 718 5 MP
gs
PP
gr
DP
2 2 -2 2 -2 -2 2 -2 500 711 5 MP
gs
PP
gr
DP
2 2 -2 2 -2 -2 2 -2 501 711 5 MP
gs
PP
gr
DP
2 2 -2 2 -2 -2 2 -2 501 693 5 MP
gs
PP
gr
DP
2 2 -2 2 -2 -2 2 -2 502 646 5 MP
gs
PP
gr
DP
2 2 -2 2 -2 -2 2 -2 502 662 5 MP
gs
PP
gr
DP
2 2 -2 2 -2 -2 2 -2 502 674 5 MP
gs
PP
gr
DP
2 2 -2 2 -2 -2 2 -2 503 627 5 MP
gs
PP
gr
DP
2 2 -2 2 -2 -2 2 -2 503 738 5 MP
gs
PP
gr
DP
2 2 -2 2 -2 -2 2 -2 503 693 5 MP
gs
PP
gr
DP
2 2 -2 2 -2 -2 2 -2 504 693 5 MP
gs
PP
gr
DP
2 2 -2 2 -2 -2 2 -2 505 738 5 MP
gs
PP
gr
DP
2 2 -2 2 -2 -2 2 -2 506 670 5 MP
gs
PP
gr
DP
2 2 -2 2 -2 -2 2 -2 506 711 5 MP
gs
PP
gr
DP
2 2 -2 2 -2 -2 2 -2 507 693 5 MP
gs
PP
gr
DP
2 2 -2 2 -2 -2 2 -2 507 711 5 MP
gs
PP
gr
DP
2 2 -2 2 -2 -2 2 -2 507 729 5 MP
gs
PP
gr
DP
2 2 -2 2 -2 -2 2 -2 508 706 5 MP
gs
PP
gr
DP
2 2 -2 2 -2 -2 2 -2 508 711 5 MP
gs
PP
gr
DP
2 2 -2 2 -2 -2 2 -2 509 708 5 MP
gs
PP
gr
DP
2 2 -2 2 -2 -2 2 -2 509 720 5 MP
gs
PP
gr
DP
2 2 -2 2 -2 -2 2 -2 510 693 5 MP
gs
PP
gr
DP
2 2 -2 2 -2 -2 2 -2 510 702 5 MP
gs
PP
gr
DP
2 2 -2 2 -2 -2 2 -2 511 702 5 MP
gs
PP
gr
DP
2 2 -2 2 -2 -2 2 -2 511 711 5 MP
gs
PP
gr
DP
2 2 -2 2 -2 -2 2 -2 511 738 5 MP
gs
PP
gr
DP
2 2 -2 2 -2 -2 2 -2 512 702 5 MP
gs
PP
gr
DP
2 2 -2 2 -2 -2 2 -2 513 711 5 MP
gs
PP
gr
DP
2 2 -2 2 -2 -2 2 -2 514 709 5 MP
gs
PP
gr
DP
2 2 -2 2 -2 -2 2 -2 514 729 5 MP
gs
PP
gr
DP
2 2 -2 2 -2 -2 2 -2 514 720 5 MP
gs
PP
gr
DP
2 2 -2 2 -2 -2 2 -2 514 721 5 MP
gs
PP
gr
DP
2 2 -2 2 -2 -2 2 -2 515 702 5 MP
gs
PP
gr
DP
2 2 -2 2 -2 -2 2 -2 516 702 5 MP
gs
PP
gr
DP
2 2 -2 2 -2 -2 2 -2 516 748 5 MP
gs
PP
gr
DP
2 2 -2 2 -2 -2 2 -2 516 702 5 MP
gs
PP
gr
DP
2 2 -2 2 -2 -2 2 -2 517 702 5 MP
gs
PP
gr
DP
2 2 -2 2 -2 -2 2 -2 519 729 5 MP
gs
PP
gr
DP
2 2 -2 2 -2 -2 2 -2 520 729 5 MP
gs
PP
gr
DP
2 2 -2 2 -2 -2 2 -2 520 738 5 MP
gs
PP
gr
DP
2 2 -2 2 -2 -2 2 -2 520 702 5 MP
gs
PP
gr
DP
2 2 -2 2 -2 -2 2 -2 520 693 5 MP
gs
PP
gr
DP
2 2 -2 2 -2 -2 2 -2 521 683 5 MP
gs
PP
gr
DP
2 2 -2 2 -2 -2 2 -2 522 711 5 MP
gs
PP
gr
DP
2 2 -2 2 -2 -2 2 -2 523 748 5 MP
gs
PP
gr
DP
2 2 -2 2 -2 -2 2 -2 523 727 5 MP
gs
PP
gr
DP
2 2 -2 2 -2 -2 2 -2 524 712 5 MP
gs
PP
gr
DP
2 2 -2 2 -2 -2 2 -2 524 678 5 MP
gs
PP
gr
DP
2 2 -2 2 -2 -2 2 -2 525 738 5 MP
gs
PP
gr
DP
2 2 -2 2 -2 -2 2 -2 526 748 5 MP
gs
PP
gr
DP
2 2 -2 2 -2 -2 2 -2 526 674 5 MP
gs
PP
gr
DP
2 2 -2 2 -2 -2 2 -2 527 730 5 MP
gs
PP
gr
DP
2 2 -2 2 -2 -2 2 -2 527 720 5 MP
gs
PP
gr
DP
2 2 -2 2 -2 -2 2 -2 527 710 5 MP
gs
PP
gr
DP
2 2 -2 2 -2 -2 2 -2 528 748 5 MP
gs
PP
gr
DP
2 2 -2 2 -2 -2 2 -2 529 738 5 MP
gs
PP
gr
DP
2 2 -2 2 -2 -2 2 -2 529 748 5 MP
gs
PP
gr
DP
2 2 -2 2 -2 -2 2 -2 530 693 5 MP
gs
PP
gr
DP
2 2 -2 2 -2 -2 2 -2 531 729 5 MP
gs
PP
gr
DP
2 2 -2 2 -2 -2 2 -2 531 738 5 MP
gs
PP
gr
DP
2 2 -2 2 -2 -2 2 -2 532 748 5 MP
gs
PP
gr
DP
2 2 -2 2 -2 -2 2 -2 533 711 5 MP
gs
PP
gr
DP
2 2 -2 2 -2 -2 2 -2 533 674 5 MP
gs
PP
gr
DP
2 2 -2 2 -2 -2 2 -2 534 683 5 MP
gs
PP
gr
DP
2 2 -2 2 -2 -2 2 -2 534 665 5 MP
gs
PP
gr
DP
2 2 -2 2 -2 -2 2 -2 535 683 5 MP
gs
PP
gr
DP
2 2 -2 2 -2 -2 2 -2 535 693 5 MP
gs
PP
gr
DP
2 2 -2 2 -2 -2 2 -2 535 702 5 MP
gs
PP
gr
DP
2 2 -2 2 -2 -2 2 -2 535 683 5 MP
gs
PP
gr
DP
2 2 -2 2 -2 -2 2 -2 536 678 5 MP
gs
PP
gr
DP
2 2 -2 2 -2 -2 2 -2 536 658 5 MP
gs
PP
gr
DP
2 2 -2 2 -2 -2 2 -2 537 683 5 MP
gs
PP
gr
DP
2 2 -2 2 -2 -2 2 -2 538 678 5 MP
gs
PP
gr
DP
2 2 -2 2 -2 -2 2 -2 538 335 5 MP
gs
PP
gr
DP
2 2 -2 2 -2 -2 2 -2 539 702 5 MP
gs
PP
gr
DP
2 2 -2 2 -2 -2 2 -2 539 711 5 MP
gs
PP
gr
DP
2 2 -2 2 -2 -2 2 -2 540 680 5 MP
gs
PP
gr
DP
2 2 -2 2 -2 -2 2 -2 541 674 5 MP
gs
PP
gr
DP
2 2 -2 2 -2 -2 2 -2 542 661 5 MP
gs
PP
gr
DP
2 2 -2 2 -2 -2 2 -2 543 702 5 MP
gs
PP
gr
DP
2 2 -2 2 -2 -2 2 -2 543 720 5 MP
gs
PP
gr
DP
2 2 -2 2 -2 -2 2 -2 543 658 5 MP
gs
PP
gr
DP
2 2 -2 2 -2 -2 2 -2 544 738 5 MP
gs
PP
gr
DP
2 2 -2 2 -2 -2 2 -2 544 720 5 MP
gs
PP
gr
DP
2 2 -2 2 -2 -2 2 -2 545 702 5 MP
gs
PP
gr
DP
2 2 -2 2 -2 -2 2 -2 545 674 5 MP
gs
PP
gr
DP
2 2 -2 2 -2 -2 2 -2 545 738 5 MP
gs
PP
gr
DP
2 2 -2 2 -2 -2 2 -2 546 711 5 MP
gs
PP
gr
DP
2 2 -2 2 -2 -2 2 -2 547 665 5 MP
gs
PP
gr
DP
2 2 -2 2 -2 -2 2 -2 547 711 5 MP
gs
PP
gr
DP
2 2 -2 2 -2 -2 2 -2 547 689 5 MP
gs
PP
gr
DP
2 2 -2 2 -2 -2 2 -2 548 727 5 MP
gs
PP
gr
DP
2 2 -2 2 -2 -2 2 -2 549 706 5 MP
gs
PP
gr
DP
2 2 -2 2 -2 -2 2 -2 550 702 5 MP
gs
PP
gr
DP
2 2 -2 2 -2 -2 2 -2 550 738 5 MP
gs
PP
gr
DP
2 2 -2 2 -2 -2 2 -2 551 711 5 MP
gs
PP
gr
DP
2 2 -2 2 -2 -2 2 -2 552 729 5 MP
gs
PP
gr
DP
2 2 -2 2 -2 -2 2 -2 553 748 5 MP
gs
PP
gr
DP
2 2 -2 2 -2 -2 2 -2 553 738 5 MP
gs
PP
gr
DP
2 2 -2 2 -2 -2 2 -2 554 693 5 MP
gs
PP
gr
DP
2 2 -2 2 -2 -2 2 -2 554 738 5 MP
gs
PP
gr
DP
2 2 -2 2 -2 -2 2 -2 555 711 5 MP
gs
PP
gr
DP
2 2 -2 2 -2 -2 2 -2 555 738 5 MP
gs
PP
gr
DP
2 2 -2 2 -2 -2 2 -2 556 702 5 MP
gs
PP
gr
DP
2 2 -2 2 -2 -2 2 -2 557 725 5 MP
gs
PP
gr
DP
2 2 -2 2 -2 -2 2 -2 558 711 5 MP
gs
PP
gr
DP
2 2 -2 2 -2 -2 2 -2 558 674 5 MP
gs
PP
gr
DP
2 2 -2 2 -2 -2 2 -2 559 702 5 MP
gs
PP
gr
DP
2 2 -2 2 -2 -2 2 -2 559 748 5 MP
gs
PP
gr
DP
2 2 -2 2 -2 -2 2 -2 559 729 5 MP
gs
PP
gr
DP
2 2 -2 2 -2 -2 2 -2 560 729 5 MP
gs
PP
gr
DP
2 2 -2 2 -2 -2 2 -2 560 711 5 MP
gs
PP
gr
DP
2 2 -2 2 -2 -2 2 -2 560 702 5 MP
gs
PP
gr
DP
2 2 -2 2 -2 -2 2 -2 561 720 5 MP
gs
PP
gr
DP
2 2 -2 2 -2 -2 2 -2 562 738 5 MP
gs
PP
gr
DP
2 2 -2 2 -2 -2 2 -2 563 738 5 MP
gs
PP
gr
DP
2 2 -2 2 -2 -2 2 -2 564 729 5 MP
gs
PP
gr
DP
2 2 -2 2 -2 -2 2 -2 564 738 5 MP
gs
PP
gr
DP
2 2 -2 2 -2 -2 2 -2 565 738 5 MP
gs
PP
gr
DP
2 2 -2 2 -2 -2 2 -2 565 693 5 MP
gs
PP
gr
DP
2 2 -2 2 -2 -2 2 -2 566 702 5 MP
gs
PP
gr
DP
2 2 -2 2 -2 -2 2 -2 566 693 5 MP
gs
PP
gr
DP
2 2 -2 2 -2 -2 2 -2 567 738 5 MP
gs
PP
gr
DP
2 2 -2 2 -2 -2 2 -2 567 720 5 MP
gs
PP
gr
DP
2 2 -2 2 -2 -2 2 -2 568 748 5 MP
gs
PP
gr
DP
2 2 -2 2 -2 -2 2 -2 568 717 5 MP
gs
PP
gr
DP
2 2 -2 2 -2 -2 2 -2 569 720 5 MP
gs
PP
gr
DP
2 2 -2 2 -2 -2 2 -2 569 702 5 MP
gs
PP
gr
DP
2 2 -2 2 -2 -2 2 -2 570 729 5 MP
gs
PP
gr
DP
2 2 -2 2 -2 -2 2 -2 570 720 5 MP
gs
PP
gr
DP
2 2 -2 2 -2 -2 2 -2 571 729 5 MP
gs
PP
gr
DP
2 2 -2 2 -2 -2 2 -2 571 683 5 MP
gs
PP
gr
DP
2 2 -2 2 -2 -2 2 -2 571 713 5 MP
gs
PP
gr
DP
2 2 -2 2 -2 -2 2 -2 572 748 5 MP
gs
PP
gr
DP
2 2 -2 2 -2 -2 2 -2 573 748 5 MP
gs
PP
gr
DP
2 2 -2 2 -2 -2 2 -2 574 656 5 MP
gs
PP
gr
DP
2 2 -2 2 -2 -2 2 -2 575 738 5 MP
gs
PP
gr
DP
2 2 -2 2 -2 -2 2 -2 576 748 5 MP
gs
PP
gr
DP
2 2 -2 2 -2 -2 2 -2 576 711 5 MP
gs
PP
gr
DP
2 2 -2 2 -2 -2 2 -2 577 720 5 MP
gs
PP
gr
DP
2 2 -2 2 -2 -2 2 -2 577 748 5 MP
gs
PP
gr
DP
2 2 -2 2 -2 -2 2 -2 578 711 5 MP
gs
PP
gr
DP
2 2 -2 2 -2 -2 2 -2 579 738 5 MP
gs
PP
gr
DP
2 2 -2 2 -2 -2 2 -2 579 683 5 MP
gs
PP
gr
DP
2 2 -2 2 -2 -2 2 -2 580 693 5 MP
gs
PP
gr
DP
2 2 -2 2 -2 -2 2 -2 580 683 5 MP
gs
PP
gr
DP
2 2 -2 2 -2 -2 2 -2 581 738 5 MP
gs
PP
gr
DP
2 2 -2 2 -2 -2 2 -2 581 711 5 MP
gs
PP
gr
DP
2 2 -2 2 -2 -2 2 -2 582 720 5 MP
gs
PP
gr
DP
2 2 -2 2 -2 -2 2 -2 582 711 5 MP
gs
PP
gr
DP
2 2 -2 2 -2 -2 2 -2 583 738 5 MP
gs
PP
gr
DP
2 2 -2 2 -2 -2 2 -2 584 748 5 MP
gs
PP
gr
DP
2 2 -2 2 -2 -2 2 -2 584 729 5 MP
gs
PP
gr
DP
2 2 -2 2 -2 -2 2 -2 585 298 5 MP
gs
PP
gr
DP
2 2 -2 2 -2 -2 2 -2 585 748 5 MP
gs
PP
gr
DP
2 2 -2 2 -2 -2 2 -2 586 729 5 MP
gs
PP
gr
DP
2 2 -2 2 -2 -2 2 -2 586 720 5 MP
gs
PP
gr
DP
2 2 -2 2 -2 -2 2 -2 587 702 5 MP
gs
PP
gr
DP
2 2 -2 2 -2 -2 2 -2 588 720 5 MP
gs
PP
gr
DP
2 2 -2 2 -2 -2 2 -2 588 748 5 MP
gs
PP
gr
DP
2 2 -2 2 -2 -2 2 -2 589 702 5 MP
gs
PP
gr
DP
2 2 -2 2 -2 -2 2 -2 590 711 5 MP
gs
PP
gr
DP
2 2 -2 2 -2 -2 2 -2 590 738 5 MP
gs
PP
gr
DP
2 2 -2 2 -2 -2 2 -2 591 748 5 MP
gs
PP
gr
DP
2 2 -2 2 -2 -2 2 -2 591 738 5 MP
gs
PP
gr
DP
2 2 -2 2 -2 -2 2 -2 592 738 5 MP
gs
PP
gr
DP
2 2 -2 2 -2 -2 2 -2 592 628 5 MP
gs
PP
gr
DP
2 2 -2 2 -2 -2 2 -2 593 748 5 MP
gs
PP
gr
DP
2 2 -2 2 -2 -2 2 -2 594 748 5 MP
gs
PP
gr
DP
2 2 -2 2 -2 -2 2 -2 594 729 5 MP
gs
PP
gr
DP
2 2 -2 2 -2 -2 2 -2 595 738 5 MP
gs
PP
gr
DP
2 2 -2 2 -2 -2 2 -2 595 665 5 MP
gs
PP
gr
DP
2 2 -2 2 -2 -2 2 -2 596 674 5 MP
gs
PP
gr
DP
2 2 -2 2 -2 -2 2 -2 597 693 5 MP
gs
PP
gr
DP
2 2 -2 2 -2 -2 2 -2 597 702 5 MP
gs
PP
gr
DP
2 2 -2 2 -2 -2 2 -2 597 711 5 MP
gs
PP
gr
DP
2 2 -2 2 -2 -2 2 -2 598 720 5 MP
gs
PP
gr
DP
2 2 -2 2 -2 -2 2 -2 598 711 5 MP
gs
PP
gr
DP
2 2 -2 2 -2 -2 2 -2 598 738 5 MP
gs
PP
gr
DP
2 2 -2 2 -2 -2 2 -2 599 729 5 MP
gs
PP
gr
DP
2 2 -2 2 -2 -2 2 -2 600 719 5 MP
gs
PP
gr
DP
2 2 -2 2 -2 -2 2 -2 601 711 5 MP
gs
PP
gr
DP
2 2 -2 2 -2 -2 2 -2 601 702 5 MP
gs
PP
gr
DP
2 2 -2 2 -2 -2 2 -2 601 729 5 MP
gs
PP
gr
DP
2 2 -2 2 -2 -2 2 -2 601 711 5 MP
gs
PP
gr
DP
2 2 -2 2 -2 -2 2 -2 602 748 5 MP
gs
PP
gr
DP
2 2 -2 2 -2 -2 2 -2 602 702 5 MP
gs
PP
gr
DP
2 2 -2 2 -2 -2 2 -2 603 702 5 MP
gs
PP
gr
DP
2 2 -2 2 -2 -2 2 -2 604 720 5 MP
gs
PP
gr
DP
2 2 -2 2 -2 -2 2 -2 604 729 5 MP
gs
PP
gr
DP
2 2 -2 2 -2 -2 2 -2 604 683 5 MP
gs
PP
gr
DP
2 2 -2 2 -2 -2 2 -2 604 711 5 MP
gs
PP
gr
DP
2 2 -2 2 -2 -2 2 -2 605 697 5 MP
gs
PP
gr
DP
2 2 -2 2 -2 -2 2 -2 605 738 5 MP
gs
PP
gr
DP
2 2 -2 2 -2 -2 2 -2 605 693 5 MP
gs
PP
gr
DP
2 2 -2 2 -2 -2 2 -2 605 748 5 MP
gs
PP
gr
DP
2 2 -2 2 -2 -2 2 -2 606 738 5 MP
gs
PP
gr
DP
2 2 -2 2 -2 -2 2 -2 606 693 5 MP
gs
PP
gr
DP
2 2 -2 2 -2 -2 2 -2 606 697 5 MP
gs
PP
gr
DP
2 2 -2 2 -2 -2 2 -2 606 676 5 MP
gs
PP
gr
DP
2 2 -2 2 -2 -2 2 -2 606 693 5 MP
gs
PP
gr
DP
2 2 -2 2 -2 -2 2 -2 606 702 5 MP
gs
PP
gr
DP
2 2 -2 2 -2 -2 2 -2 607 711 5 MP
gs
PP
gr
DP
2 2 -2 2 -2 -2 2 -2 607 720 5 MP
gs
PP
gr
DP
2 2 -2 2 -2 -2 2 -2 607 729 5 MP
gs
PP
gr
DP
2 2 -2 2 -2 -2 2 -2 607 683 5 MP
gs
PP
gr
DP
2 2 -2 2 -2 -2 2 -2 607 711 5 MP
gs
PP
gr
DP
2 2 -2 2 -2 -2 2 -2 607 729 5 MP
gs
PP
gr
DP
2 2 -2 2 -2 -2 2 -2 607 738 5 MP
gs
PP
gr
DP
2 2 -2 2 -2 -2 2 -2 608 702 5 MP
gs
PP
gr
DP
2 2 -2 2 -2 -2 2 -2 612 729 5 MP
gs
PP
gr
DP
2 2 -2 2 -2 -2 2 -2 612 738 5 MP
gs
PP
gr
DP
2 2 -2 2 -2 -2 2 -2 613 720 5 MP
gs
PP
gr
DP
2 2 -2 2 -2 -2 2 -2 613 687 5 MP
gs
PP
gr
DP
2 2 -2 2 -2 -2 2 -2 613 683 5 MP
gs
PP
gr
DP
2 2 -2 2 -2 -2 2 -2 613 693 5 MP
gs
PP
gr
DP
2 2 -2 2 -2 -2 2 -2 614 683 5 MP
gs
PP
gr
DP
2 2 -2 2 -2 -2 2 -2 615 711 5 MP
gs
PP
gr
DP
2 2 -2 2 -2 -2 2 -2 616 719 5 MP
gs
PP
gr
DP
2 2 -2 2 -2 -2 2 -2 616 738 5 MP
gs
PP
gr
DP
2 2 -2 2 -2 -2 2 -2 617 729 5 MP
gs
PP
gr
DP
2 2 -2 2 -2 -2 2 -2 619 711 5 MP
gs
PP
gr
DP
2 2 -2 2 -2 -2 2 -2 619 748 5 MP
gs
PP
gr
DP
2 2 -2 2 -2 -2 2 -2 620 729 5 MP
gs
PP
gr
DP
2 2 -2 2 -2 -2 2 -2 621 748 5 MP
gs
PP
gr
DP
2 2 -2 2 -2 -2 2 -2 622 748 5 MP
gs
PP
gr
DP
2 2 -2 2 -2 -2 2 -2 623 738 5 MP
gs
PP
gr
DP
2 2 -2 2 -2 -2 2 -2 623 665 5 MP
gs
PP
gr
DP
2 2 -2 2 -2 -2 2 -2 624 729 5 MP
gs
PP
gr
DP
2 2 -2 2 -2 -2 2 -2 625 729 5 MP
gs
PP
gr
DP
2 2 -2 2 -2 -2 2 -2 626 702 5 MP
gs
PP
gr
DP
2 2 -2 2 -2 -2 2 -2 627 720 5 MP
gs
PP
gr
DP
2 2 -2 2 -2 -2 2 -2 627 729 5 MP
gs
PP
gr
DP
2 2 -2 2 -2 -2 2 -2 628 729 5 MP
gs
PP
gr
DP
2 2 -2 2 -2 -2 2 -2 628 720 5 MP
gs
PP
gr
DP
2 2 -2 2 -2 -2 2 -2 629 738 5 MP
gs
PP
gr
DP
2 2 -2 2 -2 -2 2 -2 630 702 5 MP
gs
PP
gr
DP
2 2 -2 2 -2 -2 2 -2 631 711 5 MP
gs
PP
gr
DP
2 2 -2 2 -2 -2 2 -2 631 726 5 MP
gs
PP
gr
DP
2 2 -2 2 -2 -2 2 -2 632 748 5 MP
gs
PP
gr
DP
2 2 -2 2 -2 -2 2 -2 632 693 5 MP
gs
PP
gr
DP
2 2 -2 2 -2 -2 2 -2 633 729 5 MP
gs
PP
gr
DP
2 2 -2 2 -2 -2 2 -2 633 748 5 MP
gs
PP
gr
DP
2 2 -2 2 -2 -2 2 -2 633 720 5 MP
gs
PP
gr
DP
2 2 -2 2 -2 -2 2 -2 633 729 5 MP
gs
PP
gr
DP
2 2 -2 2 -2 -2 2 -2 634 738 5 MP
gs
PP
gr
DP
2 2 -2 2 -2 -2 2 -2 634 720 5 MP
gs
PP
gr
DP
2 2 -2 2 -2 -2 2 -2 634 729 5 MP
gs
PP
gr
DP
2 2 -2 2 -2 -2 2 -2 634 738 5 MP
gs
PP
gr
DP
2 2 -2 2 -2 -2 2 -2 634 720 5 MP
gs
PP
gr
DP
2 2 -2 2 -2 -2 2 -2 634 738 5 MP
gs
PP
gr
DP
2 2 -2 2 -2 -2 2 -2 635 729 5 MP
gs
PP
gr
DP
2 2 -2 2 -2 -2 2 -2 635 738 5 MP
gs
PP
gr
DP
2 2 -2 2 -2 -2 2 -2 635 709 5 MP
gs
PP
gr
DP
2 2 -2 2 -2 -2 2 -2 635 748 5 MP
gs
PP
gr
DP
2 2 -2 2 -2 -2 2 -2 636 747 5 MP
gs
PP
gr
DP
2 2 -2 2 -2 -2 2 -2 638 748 5 MP
gs
PP
gr
DP
2 2 -2 2 -2 -2 2 -2 639 738 5 MP
gs
PP
gr
DP
2 2 -2 2 -2 -2 2 -2 641 738 5 MP
gs
PP
gr
DP
2 2 -2 2 -2 -2 2 -2 643 693 5 MP
gs
PP
gr
DP
2 2 -2 2 -2 -2 2 -2 648 748 5 MP
gs
PP
gr
DP
2 2 -2 2 -2 -2 2 -2 648 693 5 MP
gs
PP
gr
DP
2 2 -2 2 -2 -2 2 -2 649 738 5 MP
gs
PP
gr
DP
2 2 -2 2 -2 -2 2 -2 649 711 5 MP
gs
PP
gr
DP
2 2 -2 2 -2 -2 2 -2 650 693 5 MP
gs
PP
gr
DP
2 2 -2 2 -2 -2 2 -2 651 693 5 MP
gs
PP
gr
DP
2 2 -2 2 -2 -2 2 -2 652 397 5 MP
gs
PP
gr
DP
2 2 -2 2 -2 -2 2 -2 652 683 5 MP
gs
PP
gr
DP
2 2 -2 2 -2 -2 2 -2 653 623 5 MP
gs
PP
gr
DP
2 2 -2 2 -2 -2 2 -2 654 687 5 MP
gs
PP
gr
DP
2 2 -2 2 -2 -2 2 -2 654 702 5 MP
gs
PP
gr
DP
2 2 -2 2 -2 -2 2 -2 655 674 5 MP
gs
PP
gr
DP
2 2 -2 2 -2 -2 2 -2 656 728 5 MP
gs
PP
gr
DP
2 2 -2 2 -2 -2 2 -2 656 711 5 MP
gs
PP
gr
DP
2 2 -2 2 -2 -2 2 -2 657 738 5 MP
gs
PP
gr
DP
2 2 -2 2 -2 -2 2 -2 657 711 5 MP
gs
PP
gr
DP
2 2 -2 2 -2 -2 2 -2 658 699 5 MP
gs
PP
gr
DP
2 2 -2 2 -2 -2 2 -2 659 703 5 MP
gs
PP
gr
DP
2 2 -2 2 -2 -2 2 -2 659 720 5 MP
gs
PP
gr
DP
2 2 -2 2 -2 -2 2 -2 660 729 5 MP
gs
PP
gr
DP
2 2 -2 2 -2 -2 2 -2 660 738 5 MP
gs
PP
gr
DP
2 2 -2 2 -2 -2 2 -2 661 738 5 MP
gs
PP
gr
DP
2 2 -2 2 -2 -2 2 -2 662 729 5 MP
gs
PP
gr
DP
2 2 -2 2 -2 -2 2 -2 662 720 5 MP
gs
PP
gr
DP
2 2 -2 2 -2 -2 2 -2 663 711 5 MP
gs
PP
gr
DP
2 2 -2 2 -2 -2 2 -2 663 729 5 MP
gs
PP
gr
DP
2 2 -2 2 -2 -2 2 -2 664 738 5 MP
gs
PP
gr
DP
2 2 -2 2 -2 -2 2 -2 665 720 5 MP
gs
PP
gr
DP
2 2 -2 2 -2 -2 2 -2 665 715 5 MP
gs
PP
gr
DP
2 2 -2 2 -2 -2 2 -2 666 720 5 MP
gs
PP
gr
DP
2 2 -2 2 -2 -2 2 -2 667 720 5 MP
gs
PP
gr
DP
2 2 -2 2 -2 -2 2 -2 667 738 5 MP
gs
PP
gr
DP
2 2 -2 2 -2 -2 2 -2 668 738 5 MP
gs
PP
gr
DP
2 2 -2 2 -2 -2 2 -2 669 711 5 MP
gs
PP
gr
DP
2 2 -2 2 -2 -2 2 -2 670 720 5 MP
gs
PP
gr
DP
2 2 -2 2 -2 -2 2 -2 670 711 5 MP
gs
PP
gr
DP
2 2 -2 2 -2 -2 2 -2 670 702 5 MP
gs
PP
gr
DP
2 2 -2 2 -2 -2 2 -2 671 711 5 MP
gs
PP
gr
DP
2 2 -2 2 -2 -2 2 -2 672 683 5 MP
gs
PP
gr
DP
2 2 -2 2 -2 -2 2 -2 672 702 5 MP
gs
PP
gr
DP
2 2 -2 2 -2 -2 2 -2 673 711 5 MP
gs
PP
gr
DP
2 2 -2 2 -2 -2 2 -2 674 702 5 MP
gs
PP
gr
DP
2 2 -2 2 -2 -2 2 -2 675 688 5 MP
gs
PP
gr
DP
2 2 -2 2 -2 -2 2 -2 675 711 5 MP
gs
PP
gr
DP
2 2 -2 2 -2 -2 2 -2 676 693 5 MP
gs
PP
gr
DP
2 2 -2 2 -2 -2 2 -2 677 702 5 MP
gs
PP
gr
DP
2 2 -2 2 -2 -2 2 -2 678 683 5 MP
gs
PP
gr
DP
2 2 -2 2 -2 -2 2 -2 679 702 5 MP
gs
PP
gr
DP
2 2 -2 2 -2 -2 2 -2 680 702 5 MP
gs
PP
gr
DP
2 2 -2 2 -2 -2 2 -2 680 687 5 MP
gs
PP
gr
DP
2 2 -2 2 -2 -2 2 -2 681 738 5 MP
gs
PP
gr
DP
2 2 -2 2 -2 -2 2 -2 682 702 5 MP
gs
PP
gr
DP
2 2 -2 2 -2 -2 2 -2 683 738 5 MP
gs
PP
gr
DP
2 2 -2 2 -2 -2 2 -2 683 729 5 MP
gs
PP
gr
DP
2 2 -2 2 -2 -2 2 -2 684 698 5 MP
gs
PP
gr
DP
2 2 -2 2 -2 -2 2 -2 685 683 5 MP
gs
PP
gr
DP
2 2 -2 2 -2 -2 2 -2 686 702 5 MP
gs
PP
gr
DP
2 2 -2 2 -2 -2 2 -2 687 693 5 MP
gs
PP
gr
DP
2 2 -2 2 -2 -2 2 -2 687 683 5 MP
gs
PP
gr
DP
2 2 -2 2 -2 -2 2 -2 688 693 5 MP
gs
PP
gr
DP
2 2 -2 2 -2 -2 2 -2 689 711 5 MP
gs
PP
gr
DP
2 2 -2 2 -2 -2 2 -2 689 688 5 MP
gs
PP
gr
DP
2 2 -2 2 -2 -2 2 -2 690 720 5 MP
gs
PP
gr
DP
2 2 -2 2 -2 -2 2 -2 691 748 5 MP
gs
PP
gr
DP
2 2 -2 2 -2 -2 2 -2 692 720 5 MP
gs
PP
gr
DP
2 2 -2 2 -2 -2 2 -2 693 711 5 MP
gs
PP
gr
DP
2 2 -2 2 -2 -2 2 -2 694 720 5 MP
gs
PP
gr
DP
2 2 -2 2 -2 -2 2 -2 694 711 5 MP
gs
PP
gr
DP
2 2 -2 2 -2 -2 2 -2 695 738 5 MP
gs
PP
gr
DP
2 2 -2 2 -2 -2 2 -2 696 711 5 MP
gs
PP
gr
DP
2 2 -2 2 -2 -2 2 -2 697 738 5 MP
gs
PP
gr
DP
2 2 -2 2 -2 -2 2 -2 697 702 5 MP
gs
PP
gr
DP
2 2 -2 2 -2 -2 2 -2 698 695 5 MP
gs
PP
gr
DP
2 2 -2 2 -2 -2 2 -2 700 702 5 MP
gs
PP
gr
DP
2 2 -2 2 -2 -2 2 -2 700 693 5 MP
gs
PP
gr
DP
2 2 -2 2 -2 -2 2 -2 701 729 5 MP
gs
PP
gr
DP
2 2 -2 2 -2 -2 2 -2 701 695 5 MP
gs
PP
gr
DP
2 2 -2 2 -2 -2 2 -2 702 711 5 MP
gs
PP
gr
DP
2 2 -2 2 -2 -2 2 -2 703 683 5 MP
gs
PP
gr
DP
2 2 -2 2 -2 -2 2 -2 703 702 5 MP
gs
PP
gr
DP
2 2 -2 2 -2 -2 2 -2 704 711 5 MP
gs
PP
gr
DP
2 2 -2 2 -2 -2 2 -2 705 720 5 MP
gs
PP
gr
DP
2 2 -2 2 -2 -2 2 -2 705 748 5 MP
gs
PP
gr
DP
2 2 -2 2 -2 -2 2 -2 706 738 5 MP
gs
PP
gr
DP
2 2 -2 2 -2 -2 2 -2 707 748 5 MP
gs
PP
gr
DP
2 2 -2 2 -2 -2 2 -2 707 711 5 MP
gs
PP
gr
DP
2 2 -2 2 -2 -2 2 -2 708 693 5 MP
gs
PP
gr
DP
2 2 -2 2 -2 -2 2 -2 708 683 5 MP
gs
PP
gr
DP
2 2 -2 2 -2 -2 2 -2 709 693 5 MP
gs
PP
gr
DP
2 2 -2 2 -2 -2 2 -2 709 729 5 MP
gs
PP
gr
DP
2 2 -2 2 -2 -2 2 -2 710 702 5 MP
gs
PP
gr
DP
2 2 -2 2 -2 -2 2 -2 711 702 5 MP
gs
PP
gr
DP
2 2 -2 2 -2 -2 2 -2 712 693 5 MP
gs
PP
gr
DP
2 2 -2 2 -2 -2 2 -2 713 738 5 MP
gs
PP
gr
DP
2 2 -2 2 -2 -2 2 -2 714 693 5 MP
gs
PP
gr
DP
2 2 -2 2 -2 -2 2 -2 714 683 5 MP
gs
PP
gr
DP
2 2 -2 2 -2 -2 2 -2 715 729 5 MP
gs
PP
gr
DP
2 2 -2 2 -2 -2 2 -2 716 716 5 MP
gs
PP
gr
DP
2 2 -2 2 -2 -2 2 -2 717 693 5 MP
gs
PP
gr
DP
2 2 -2 2 -2 -2 2 -2 717 729 5 MP
gs
PP
gr
DP
2 2 -2 2 -2 -2 2 -2 719 720 5 MP
gs
PP
gr
DP
2 2 -2 2 -2 -2 2 -2 719 699 5 MP
gs
PP
gr
DP
2 2 -2 2 -2 -2 2 -2 720 729 5 MP
gs
PP
gr
DP
2 2 -2 2 -2 -2 2 -2 721 720 5 MP
gs
PP
gr
DP
2 2 -2 2 -2 -2 2 -2 721 711 5 MP
gs
PP
gr
DP
2 2 -2 2 -2 -2 2 -2 722 693 5 MP
gs
PP
gr
DP
2 2 -2 2 -2 -2 2 -2 723 718 5 MP
gs
PP
gr
DP
2 2 -2 2 -2 -2 2 -2 723 728 5 MP
gs
PP
gr
DP
2 2 -2 2 -2 -2 2 -2 724 729 5 MP
gs
PP
gr
DP
2 2 -2 2 -2 -2 2 -2 724 720 5 MP
gs
PP
gr
DP
2 2 -2 2 -2 -2 2 -2 725 683 5 MP
gs
PP
gr
DP
2 2 -2 2 -2 -2 2 -2 725 738 5 MP
gs
PP
gr
DP
2 2 -2 2 -2 -2 2 -2 726 683 5 MP
gs
PP
gr
DP
2 2 -2 2 -2 -2 2 -2 727 738 5 MP
gs
PP
gr
DP
2 2 -2 2 -2 -2 2 -2 727 683 5 MP
gs
PP
gr
DP
2 2 -2 2 -2 -2 2 -2 728 711 5 MP
gs
PP
gr
DP
2 2 -2 2 -2 -2 2 -2 728 693 5 MP
gs
PP
gr
DP
2 2 -2 2 -2 -2 2 -2 729 711 5 MP
gs
PP
gr
DP
2 2 -2 2 -2 -2 2 -2 730 707 5 MP
gs
PP
gr
DP
2 2 -2 2 -2 -2 2 -2 730 711 5 MP
gs
PP
gr
DP
2 2 -2 2 -2 -2 2 -2 731 711 5 MP
gs
PP
gr
DP
2 2 -2 2 -2 -2 2 -2 731 720 5 MP
gs
PP
gr
DP
2 2 -2 2 -2 -2 2 -2 732 702 5 MP
gs
PP
gr
DP
2 2 -2 2 -2 -2 2 -2 733 711 5 MP
gs
PP
gr
DP
2 2 -2 2 -2 -2 2 -2 733 684 5 MP
gs
PP
gr
DP
2 2 -2 2 -2 -2 2 -2 734 720 5 MP
gs
PP
gr
DP
2 2 -2 2 -2 -2 2 -2 734 697 5 MP
gs
PP
gr
DP
2 2 -2 2 -2 -2 2 -2 735 674 5 MP
gs
PP
gr
DP
2 2 -2 2 -2 -2 2 -2 735 697 5 MP
gs
PP
gr
DP
2 2 -2 2 -2 -2 2 -2 736 693 5 MP
gs
PP
gr
DP
2 2 -2 2 -2 -2 2 -2 736 702 5 MP
gs
PP
gr
DP
2 2 -2 2 -2 -2 2 -2 737 702 5 MP
gs
PP
gr
DP
2 2 -2 2 -2 -2 2 -2 738 702 5 MP
gs
PP
gr
DP
2 2 -2 2 -2 -2 2 -2 738 720 5 MP
gs
PP
gr
DP
2 2 -2 2 -2 -2 2 -2 739 707 5 MP
gs
PP
gr
DP
2 2 -2 2 -2 -2 2 -2 739 720 5 MP
gs
PP
gr
DP
2 2 -2 2 -2 -2 2 -2 740 738 5 MP
gs
PP
gr
DP
2 2 -2 2 -2 -2 2 -2 741 738 5 MP
gs
PP
gr
DP
2 2 -2 2 -2 -2 2 -2 741 748 5 MP
gs
PP
gr
DP
2 2 -2 2 -2 -2 2 -2 742 738 5 MP
gs
PP
gr
DP
2 2 -2 2 -2 -2 2 -2 743 711 5 MP
gs
PP
gr
DP
2 2 -2 2 -2 -2 2 -2 743 738 5 MP
gs
PP
gr
DP
2 2 -2 2 -2 -2 2 -2 744 733 5 MP
gs
PP
gr
DP
2 2 -2 2 -2 -2 2 -2 744 729 5 MP
gs
PP
gr
DP
2 2 -2 2 -2 -2 2 -2 745 729 5 MP
gs
PP
gr
DP
2 2 -2 2 -2 -2 2 -2 745 711 5 MP
gs
PP
gr
DP
2 2 -2 2 -2 -2 2 -2 746 738 5 MP
gs
PP
gr
DP
2 2 -2 2 -2 -2 2 -2 746 683 5 MP
gs
PP
gr
DP
2 2 -2 2 -2 -2 2 -2 747 720 5 MP
gs
PP
gr
DP
2 2 -2 2 -2 -2 2 -2 748 711 5 MP
gs
PP
gr
DP
2 2 -2 2 -2 -2 2 -2 748 657 5 MP
gs
PP
gr
DP
2 2 -2 2 -2 -2 2 -2 749 693 5 MP
gs
PP
gr
DP
2 2 -2 2 -2 -2 2 -2 749 702 5 MP
gs
PP
gr
DP
2 2 -2 2 -2 -2 2 -2 750 748 5 MP
gs
PP
gr
DP
2 2 -2 2 -2 -2 2 -2 750 729 5 MP
gs
PP
gr
DP
2 2 -2 2 -2 -2 2 -2 751 711 5 MP
gs
PP
gr
DP
2 2 -2 2 -2 -2 2 -2 752 720 5 MP
gs
PP
gr
DP
2 2 -2 2 -2 -2 2 -2 753 702 5 MP
gs
PP
gr
DP
2 2 -2 2 -2 -2 2 -2 753 720 5 MP
gs
PP
gr
DP
2 2 -2 2 -2 -2 2 -2 754 711 5 MP
gs
PP
gr
DP
2 2 -2 2 -2 -2 2 -2 755 702 5 MP
gs
PP
gr
DP
2 2 -2 2 -2 -2 2 -2 756 729 5 MP
gs
PP
gr
DP
2 2 -2 2 -2 -2 2 -2 756 720 5 MP
gs
PP
gr
DP
2 2 -2 2 -2 -2 2 -2 757 729 5 MP
gs
PP
gr
DP
2 2 -2 2 -2 -2 2 -2 757 748 5 MP
gs
PP
gr
DP
2 2 -2 2 -2 -2 2 -2 758 729 5 MP
gs
PP
gr
DP
2 2 -2 2 -2 -2 2 -2 759 738 5 MP
gs
PP
gr
DP
2 2 -2 2 -2 -2 2 -2 760 748 5 MP
gs
PP
gr
DP
2 2 -2 2 -2 -2 2 -2 761 720 5 MP
gs
PP
gr
DP
2 2 -2 2 -2 -2 2 -2 761 726 5 MP
gs
PP
gr
DP
2 2 -2 2 -2 -2 2 -2 762 715 5 MP
gs
PP
gr
DP
2 2 -2 2 -2 -2 2 -2 763 738 5 MP
gs
PP
gr
DP
2 2 -2 2 -2 -2 2 -2 764 738 5 MP
gs
PP
gr
DP
2 2 -2 2 -2 -2 2 -2 765 729 5 MP
gs
PP
gr
DP
2 2 -2 2 -2 -2 2 -2 765 738 5 MP
gs
PP
gr
DP
2 2 -2 2 -2 -2 2 -2 766 720 5 MP
gs
PP
gr
DP
2 2 -2 2 -2 -2 2 -2 767 748 5 MP
gs
PP
gr
DP
2 2 -2 2 -2 -2 2 -2 767 726 5 MP
gs
PP
gr
DP
2 2 -2 2 -2 -2 2 -2 768 720 5 MP
gs
PP
gr
DP
2 2 -2 2 -2 -2 2 -2 768 748 5 MP
gs
PP
gr
DP
2 2 -2 2 -2 -2 2 -2 769 705 5 MP
gs
PP
gr
DP
2 2 -2 2 -2 -2 2 -2 769 708 5 MP
gs
PP
gr
DP
2 2 -2 2 -2 -2 2 -2 770 720 5 MP
gs
PP
gr
DP
2 2 -2 2 -2 -2 2 -2 771 720 5 MP
gs
PP
gr
DP
2 2 -2 2 -2 -2 2 -2 771 716 5 MP
gs
PP
gr
DP
2 2 -2 2 -2 -2 2 -2 772 711 5 MP
gs
PP
gr
DP
2 2 -2 2 -2 -2 2 -2 773 738 5 MP
gs
PP
gr
DP
2 2 -2 2 -2 -2 2 -2 774 720 5 MP
gs
PP
gr
DP
2 2 -2 2 -2 -2 2 -2 774 711 5 MP
gs
PP
gr
DP
2 2 -2 2 -2 -2 2 -2 775 674 5 MP
gs
PP
gr
DP
2 2 -2 2 -2 -2 2 -2 776 738 5 MP
gs
PP
gr
DP
2 2 -2 2 -2 -2 2 -2 776 711 5 MP
gs
PP
gr
DP
2 2 -2 2 -2 -2 2 -2 777 729 5 MP
gs
PP
gr
DP
2 2 -2 2 -2 -2 2 -2 778 674 5 MP
gs
PP
gr
DP
2 2 -2 2 -2 -2 2 -2 778 738 5 MP
gs
PP
gr
DP
2 2 -2 2 -2 -2 2 -2 779 702 5 MP
gs
PP
gr
DP
2 2 -2 2 -2 -2 2 -2 779 748 5 MP
gs
PP
gr
DP
2 2 -2 2 -2 -2 2 -2 780 720 5 MP
gs
PP
gr
DP
2 2 -2 2 -2 -2 2 -2 781 683 5 MP
gs
PP
gr
DP
2 2 -2 2 -2 -2 2 -2 781 702 5 MP
gs
PP
gr
DP
2 2 -2 2 -2 -2 2 -2 782 693 5 MP
gs
PP
gr
DP
2 2 -2 2 -2 -2 2 -2 782 676 5 MP
gs
PP
gr
DP
2 2 -2 2 -2 -2 2 -2 783 711 5 MP
gs
PP
gr
DP
2 2 -2 2 -2 -2 2 -2 783 738 5 MP
gs
PP
gr
DP
2 2 -2 2 -2 -2 2 -2 784 729 5 MP
gs
PP
gr
DP
2 2 -2 2 -2 -2 2 -2 785 729 5 MP
gs
PP
gr
DP
2 2 -2 2 -2 -2 2 -2 785 720 5 MP
gs
PP
gr
DP
2 2 -2 2 -2 -2 2 -2 786 705 5 MP
gs
PP
gr
DP
2 2 -2 2 -2 -2 2 -2 786 693 5 MP
gs
PP
gr
DP
2 2 -2 2 -2 -2 2 -2 787 729 5 MP
gs
PP
gr
DP
2 2 -2 2 -2 -2 2 -2 788 729 5 MP
gs
PP
gr
DP
2 2 -2 2 -2 -2 2 -2 789 729 5 MP
gs
PP
gr
DP
2 2 -2 2 -2 -2 2 -2 789 702 5 MP
gs
PP
gr
DP
2 2 -2 2 -2 -2 2 -2 790 702 5 MP
gs
PP
gr
DP
2 2 -2 2 -2 -2 2 -2 791 711 5 MP
gs
PP
gr
DP
2 2 -2 2 -2 -2 2 -2 791 729 5 MP
gs
PP
gr
DP
2 2 -2 2 -2 -2 2 -2 792 738 5 MP
gs
PP
gr
DP
2 2 -2 2 -2 -2 2 -2 793 729 5 MP
gs
PP
gr
DP
2 2 -2 2 -2 -2 2 -2 794 720 5 MP
gs
PP
gr
DP
2 2 -2 2 -2 -2 2 -2 794 748 5 MP
gs
PP
gr
DP
2 2 -2 2 -2 -2 2 -2 795 720 5 MP
gs
PP
gr
DP
2 2 -2 2 -2 -2 2 -2 795 729 5 MP
gs
PP
gr
DP
2 2 -2 2 -2 -2 2 -2 796 720 5 MP
gs
PP
gr
DP
2 2 -2 2 -2 -2 2 -2 796 729 5 MP
gs
PP
gr
DP
2 2 -2 2 -2 -2 2 -2 797 729 5 MP
gs
PP
gr
DP
2 2 -2 2 -2 -2 2 -2 798 711 5 MP
gs
PP
gr
DP
2 2 -2 2 -2 -2 2 -2 799 693 5 MP
gs
PP
gr
DP
2 2 -2 2 -2 -2 2 -2 800 711 5 MP
gs
PP
gr
DP
2 2 -2 2 -2 -2 2 -2 800 720 5 MP
gs
PP
gr
DP
2 2 -2 2 -2 -2 2 -2 801 693 5 MP
gs
PP
gr
DP
2 2 -2 2 -2 -2 2 -2 801 674 5 MP
gs
PP
gr
DP
2 2 -2 2 -2 -2 2 -2 802 720 5 MP
gs
PP
gr
DP
2 2 -2 2 -2 -2 2 -2 803 707 5 MP
gs
PP
gr
DP
2 2 -2 2 -2 -2 2 -2 803 702 5 MP
gs
PP
gr
DP
2 2 -2 2 -2 -2 2 -2 804 683 5 MP
gs
PP
gr
DP
2 2 -2 2 -2 -2 2 -2 804 694 5 MP
gs
PP
gr
DP
2 2 -2 2 -2 -2 2 -2 805 683 5 MP
gs
PP
gr
DP
2 2 -2 2 -2 -2 2 -2 806 720 5 MP
gs
PP
gr
DP
2 2 -2 2 -2 -2 2 -2 806 674 5 MP
gs
PP
gr
DP
2 2 -2 2 -2 -2 2 -2 807 706 5 MP
gs
PP
gr
DP
2 2 -2 2 -2 -2 2 -2 808 683 5 MP
gs
PP
gr
DP
2 2 -2 2 -2 -2 2 -2 808 698 5 MP
gs
PP
gr
DP
2 2 -2 2 -2 -2 2 -2 809 711 5 MP
gs
PP
gr
DP
2 2 -2 2 -2 -2 2 -2 810 674 5 MP
gs
PP
gr
DP
2 2 -2 2 -2 -2 2 -2 810 720 5 MP
gs
PP
gr
DP
2 2 -2 2 -2 -2 2 -2 811 698 5 MP
gs
PP
gr
DP
2 2 -2 2 -2 -2 2 -2 812 693 5 MP
gs
PP
gr
DP
2 2 -2 2 -2 -2 2 -2 812 705 5 MP
gs
PP
gr
DP
2 2 -2 2 -2 -2 2 -2 813 711 5 MP
gs
PP
gr
DP
2 2 -2 2 -2 -2 2 -2 813 729 5 MP
gs
PP
gr
DP
2 2 -2 2 -2 -2 2 -2 814 711 5 MP
gs
PP
gr
DP
2 2 -2 2 -2 -2 2 -2 814 729 5 MP
gs
PP
gr
DP
2 2 -2 2 -2 -2 2 -2 815 720 5 MP
gs
PP
gr
DP
2 2 -2 2 -2 -2 2 -2 815 729 5 MP
gs
PP
gr
DP
2 2 -2 2 -2 -2 2 -2 816 720 5 MP
gs
PP
gr
DP
2 2 -2 2 -2 -2 2 -2 817 717 5 MP
gs
PP
gr
DP
2 2 -2 2 -2 -2 2 -2 818 702 5 MP
gs
PP
gr
DP
2 2 -2 2 -2 -2 2 -2 818 738 5 MP
gs
PP
gr
DP
2 2 -2 2 -2 -2 2 -2 819 729 5 MP
gs
PP
gr
DP
2 2 -2 2 -2 -2 2 -2 819 738 5 MP
gs
PP
gr
DP
2 2 -2 2 -2 -2 2 -2 820 720 5 MP
gs
PP
gr
DP
2 2 -2 2 -2 -2 2 -2 820 748 5 MP
gs
PP
gr
DP
2 2 -2 2 -2 -2 2 -2 821 711 5 MP
gs
PP
gr
DP
2 2 -2 2 -2 -2 2 -2 822 729 5 MP
gs
PP
gr
DP
2 2 -2 2 -2 -2 2 -2 822 748 5 MP
gs
PP
gr
DP
2 2 -2 2 -2 -2 2 -2 823 729 5 MP
gs
PP
gr
DP
2 2 -2 2 -2 -2 2 -2 824 711 5 MP
gs
PP
gr
DP
2 2 -2 2 -2 -2 2 -2 824 729 5 MP
gs
PP
gr
DP
2 2 -2 2 -2 -2 2 -2 825 729 5 MP
gs
PP
gr
DP
2 2 -2 2 -2 -2 2 -2 826 729 5 MP
gs
PP
gr
DP
2 2 -2 2 -2 -2 2 -2 827 711 5 MP
gs
PP
gr
DP
2 2 -2 2 -2 -2 2 -2 828 694 5 MP
gs
PP
gr
DP
2 2 -2 2 -2 -2 2 -2 828 729 5 MP
gs
PP
gr
DP
2 2 -2 2 -2 -2 2 -2 829 719 5 MP
gs
PP
gr
DP
2 2 -2 2 -2 -2 2 -2 830 720 5 MP
gs
PP
gr
DP
2 2 -2 2 -2 -2 2 -2 830 711 5 MP
gs
PP
gr
DP
2 2 -2 2 -2 -2 2 -2 831 727 5 MP
gs
PP
gr
DP
2 2 -2 2 -2 -2 2 -2 832 738 5 MP
gs
PP
gr
DP
2 2 -2 2 -2 -2 2 -2 832 711 5 MP
gs
PP
gr
DP
2 2 -2 2 -2 -2 2 -2 833 711 5 MP
gs
PP
gr
DP
2 2 -2 2 -2 -2 2 -2 833 738 5 MP
gs
PP
gr
DP
2 2 -2 2 -2 -2 2 -2 834 720 5 MP
gs
PP
gr
DP
2 2 -2 2 -2 -2 2 -2 835 748 5 MP
gs
PP
gr
DP
2 2 -2 2 -2 -2 2 -2 836 738 5 MP
gs
PP
gr
DP
2 2 -2 2 -2 -2 2 -2 836 729 5 MP
gs
PP
gr
DP
2 2 -2 2 -2 -2 2 -2 837 729 5 MP
gs
PP
gr
DP
2 2 -2 2 -2 -2 2 -2 837 711 5 MP
gs
PP
gr
DP
2 2 -2 2 -2 -2 2 -2 837 734 5 MP
gs
PP
gr
DP
2 2 -2 2 -2 -2 2 -2 838 747 5 MP
gs
PP
gr
DP
2 2 -2 2 -2 -2 2 -2 838 720 5 MP
gs
PP
gr
DP
2 2 -2 2 -2 -2 2 -2 839 702 5 MP
gs
PP
gr
DP
2 2 -2 2 -2 -2 2 -2 840 683 5 MP
gs
PP
gr
DP
2 2 -2 2 -2 -2 2 -2 840 738 5 MP
gs
PP
gr
DP
2 2 -2 2 -2 -2 2 -2 840 711 5 MP
gs
PP
gr
DP
2 2 -2 2 -2 -2 2 -2 841 729 5 MP
gs
PP
gr
DP
2 2 -2 2 -2 -2 2 -2 842 748 5 MP
gs
PP
gr
DP
2 2 -2 2 -2 -2 2 -2 843 729 5 MP
gs
PP
gr
DP
2 2 -2 2 -2 -2 2 -2 843 738 5 MP
gs
PP
gr
DP
2 2 -2 2 -2 -2 2 -2 844 729 5 MP
gs
PP
gr
DP
2 2 -2 2 -2 -2 2 -2 844 738 5 MP
gs
PP
gr
DP
2 2 -2 2 -2 -2 2 -2 845 729 5 MP
gs
PP
gr
DP
2 2 -2 2 -2 -2 2 -2 846 720 5 MP
gs
PP
gr
DP
2 2 -2 2 -2 -2 2 -2 847 711 5 MP
gs
PP
gr
DP
2 2 -2 2 -2 -2 2 -2 847 702 5 MP
gs
PP
gr
DP
2 2 -2 2 -2 -2 2 -2 848 702 5 MP
gs
PP
gr
DP
2 2 -2 2 -2 -2 2 -2 849 711 5 MP
gs
PP
gr
DP
2 2 -2 2 -2 -2 2 -2 849 729 5 MP
gs
PP
gr
DP
2 2 -2 2 -2 -2 2 -2 850 702 5 MP
gs
PP
gr
DP
2 2 -2 2 -2 -2 2 -2 850 720 5 MP
gs
PP
gr
DP
2 2 -2 2 -2 -2 2 -2 851 684 5 MP
gs
PP
gr
DP
2 2 -2 2 -2 -2 2 -2 851 673 5 MP
gs
PP
gr
DP
2 2 -2 2 -2 -2 2 -2 852 711 5 MP
gs
PP
gr
DP
2 2 -2 2 -2 -2 2 -2 852 683 5 MP
gs
PP
gr
DP
2 2 -2 2 -2 -2 2 -2 853 720 5 MP
gs
PP
gr
DP
2 2 -2 2 -2 -2 2 -2 853 702 5 MP
gs
PP
gr
DP
2 2 -2 2 -2 -2 2 -2 854 702 5 MP
gs
PP
gr
DP
2 2 -2 2 -2 -2 2 -2 854 738 5 MP
gs
PP
gr
DP
2 2 -2 2 -2 -2 2 -2 855 729 5 MP
gs
PP
gr
DP
2 2 -2 2 -2 -2 2 -2 855 711 5 MP
gs
PP
gr
DP
2 2 -2 2 -2 -2 2 -2 856 720 5 MP
gs
PP
gr
DP
2 2 -2 2 -2 -2 2 -2 857 683 5 MP
gs
PP
gr
DP
2 2 -2 2 -2 -2 2 -2 857 711 5 MP
gs
PP
gr
DP
2 2 -2 2 -2 -2 2 -2 858 711 5 MP
gs
PP
gr
DP
2 2 -2 2 -2 -2 2 -2 858 703 5 MP
gs
PP
gr
DP
2 2 -2 2 -2 -2 2 -2 858 683 5 MP
gs
PP
gr
DP
2 2 -2 2 -2 -2 2 -2 859 711 5 MP
gs
PP
gr
DP
2 2 -2 2 -2 -2 2 -2 859 683 5 MP
gs
PP
gr
DP
2 2 -2 2 -2 -2 2 -2 860 720 5 MP
gs
PP
gr
DP
2 2 -2 2 -2 -2 2 -2 860 728 5 MP
gs
PP
gr
DP
2 2 -2 2 -2 -2 2 -2 860 711 5 MP
gs
PP
gr
DP
2 2 -2 2 -2 -2 2 -2 861 738 5 MP
gs
PP
gr
DP
2 2 -2 2 -2 -2 2 -2 862 748 5 MP
gs
PP
gr
DP
2 2 -2 2 -2 -2 2 -2 862 693 5 MP
gs
PP
gr
DP
2 2 -2 2 -2 -2 2 -2 863 672 5 MP
gs
PP
gr
DP
2 2 -2 2 -2 -2 2 -2 864 711 5 MP
gs
PP
gr
DP
2 2 -2 2 -2 -2 2 -2 864 738 5 MP
gs
PP
gr
DP
2 2 -2 2 -2 -2 2 -2 865 738 5 MP
gs
PP
gr
DP
2 2 -2 2 -2 -2 2 -2 865 729 5 MP
gs
PP
gr
DP
2 2 -2 2 -2 -2 2 -2 866 711 5 MP
gs
PP
gr
DP
2 2 -2 2 -2 -2 2 -2 866 729 5 MP
gs
PP
gr
DP
2 2 -2 2 -2 -2 2 -2 866 738 5 MP
gs
PP
gr
DP
2 2 -2 2 -2 -2 2 -2 867 738 5 MP
gs
PP
gr
DP
2 2 -2 2 -2 -2 2 -2 867 711 5 MP
gs
PP
gr
DP
2 2 -2 2 -2 -2 2 -2 868 720 5 MP
gs
PP
gr
DP
2 2 -2 2 -2 -2 2 -2 868 729 5 MP
gs
PP
gr
DP
2 2 -2 2 -2 -2 2 -2 869 681 5 MP
gs
PP
gr
DP
2 2 -2 2 -2 -2 2 -2 869 711 5 MP
gs
PP
gr
DP
2 2 -2 2 -2 -2 2 -2 870 673 5 MP
gs
PP
gr
DP
2 2 -2 2 -2 -2 2 -2 871 711 5 MP
gs
PP
gr
DP
2 2 -2 2 -2 -2 2 -2 871 673 5 MP
gs
PP
gr
DP
2 2 -2 2 -2 -2 2 -2 871 667 5 MP
gs
PP
gr
DP
2 2 -2 2 -2 -2 2 -2 872 683 5 MP
gs
PP
gr
DP
2 2 -2 2 -2 -2 2 -2 872 688 5 MP
gs
PP
gr
DP
2 2 -2 2 -2 -2 2 -2 873 694 5 MP
gs
PP
gr
DP
2 2 -2 2 -2 -2 2 -2 873 693 5 MP
gs
PP
gr
DP
2 2 -2 2 -2 -2 2 -2 874 693 5 MP
gs
PP
gr
DP
2 2 -2 2 -2 -2 2 -2 874 711 5 MP
gs
PP
gr
DP
2 2 -2 2 -2 -2 2 -2 875 674 5 MP
gs
PP
gr
DP
2 2 -2 2 -2 -2 2 -2 876 693 5 MP
gs
PP
gr
DP
2 2 -2 2 -2 -2 2 -2 877 710 5 MP
gs
PP
gr
DP
2 2 -2 2 -2 -2 2 -2 877 720 5 MP
gs
PP
gr
DP
2 2 -2 2 -2 -2 2 -2 878 717 5 MP
gs
PP
gr
DP
2 2 -2 2 -2 -2 2 -2 878 662 5 MP
gs
PP
gr
DP
2 2 -2 2 -2 -2 2 -2 879 665 5 MP
gs
PP
gr
DP
2 2 -2 2 -2 -2 2 -2 879 693 5 MP
gs
PP
gr
DP
2 2 -2 2 -2 -2 2 -2 880 693 5 MP
gs
PP
gr
DP
2 2 -2 2 -2 -2 2 -2 881 703 5 MP
gs
PP
gr
DP
2 2 -2 2 -2 -2 2 -2 882 711 5 MP
gs
PP
gr
DP
2 2 -2 2 -2 -2 2 -2 882 694 5 MP
gs
PP
gr
DP
2 2 -2 2 -2 -2 2 -2 882 708 5 MP
gs
PP
gr
DP
2 2 -2 2 -2 -2 2 -2 883 702 5 MP
gs
PP
gr
DP
2 2 -2 2 -2 -2 2 -2 883 748 5 MP
gs
PP
gr
DP
2 2 -2 2 -2 -2 2 -2 883 738 5 MP
gs
PP
gr
DP
2 2 -2 2 -2 -2 2 -2 884 720 5 MP
gs
PP
gr
DP
2 2 -2 2 -2 -2 2 -2 884 738 5 MP
gs
PP
gr
DP
2 2 -2 2 -2 -2 2 -2 884 729 5 MP
gs
PP
gr
DP
2 2 -2 2 -2 -2 2 -2 884 748 5 MP
gs
PP
gr
DP
2 2 -2 2 -2 -2 2 -2 885 737 5 MP
gs
PP
gr
DP
2 2 -2 2 -2 -2 2 -2 885 738 5 MP
gs
PP
gr
DP
2 2 -2 2 -2 -2 2 -2 886 711 5 MP
gs
PP
gr
DP
2 2 -2 2 -2 -2 2 -2 887 751 5 MP
gs
PP
gr
DP
2 2 -2 2 -2 -2 2 -2 887 729 5 MP
gs
PP
gr
DP
2 2 -2 2 -2 -2 2 -2 888 729 5 MP
gs
PP
gr
DP
2 2 -2 2 -2 -2 2 -2 888 748 5 MP
gs
PP
gr
DP
2 2 -2 2 -2 -2 2 -2 888 729 5 MP
gs
PP
gr
DP
2 2 -2 2 -2 -2 2 -2 889 729 5 MP
gs
PP
gr
DP
2 2 -2 2 -2 -2 2 -2 889 665 5 MP
gs
PP
gr
DP
2 2 -2 2 -2 -2 2 -2 889 683 5 MP
gs
PP
gr
DP
2 2 -2 2 -2 -2 2 -2 889 723 5 MP
gs
PP
gr
DP
2 2 -2 2 -2 -2 2 -2 890 748 5 MP
gs
PP
gr
DP
2 2 -2 2 -2 -2 2 -2 890 711 5 MP
gs
PP
gr
DP
2 2 -2 2 -2 -2 2 -2 890 748 5 MP
gs
PP
gr
DP
2 2 -2 2 -2 -2 2 -2 891 729 5 MP
gs
PP
gr
DP
2 2 -2 2 -2 -2 2 -2 891 711 5 MP
gs
PP
gr
DP
2 2 -2 2 -2 -2 2 -2 892 729 5 MP
gs
PP
gr
DP
2 2 -2 2 -2 -2 2 -2 892 693 5 MP
gs
PP
gr
DP
2 2 -2 2 -2 -2 2 -2 893 697 5 MP
gs
PP
gr
DP
2 2 -2 2 -2 -2 2 -2 893 702 5 MP
gs
PP
gr
DP
2 2 -2 2 -2 -2 2 -2 893 711 5 MP
gs
PP
gr
DP
2 2 -2 2 -2 -2 2 -2 894 693 5 MP
gs
PP
gr
DP
2 2 -2 2 -2 -2 2 -2 894 676 5 MP
gs
PP
gr
DP
2 2 -2 2 -2 -2 2 -2 894 693 5 MP
gs
PP
gr
DP
2 2 -2 2 -2 -2 2 -2 895 699 5 MP
gs
PP
gr
DP
2 2 -2 2 -2 -2 2 -2 895 720 5 MP
gs
PP
gr
DP
2 2 -2 2 -2 -2 2 -2 895 729 5 MP
gs
PP
gr
DP
2 2 -2 2 -2 -2 2 -2 896 711 5 MP
gs
PP
gr
DP
2 2 -2 2 -2 -2 2 -2 897 697 5 MP
gs
PP
gr
DP
2 2 -2 2 -2 -2 2 -2 898 695 5 MP
gs
PP
gr
DP
2 2 -2 2 -2 -2 2 -2 898 693 5 MP
gs
PP
gr
DP
2 2 -2 2 -2 -2 2 -2 898 690 5 MP
gs
PP
gr
DP
2 2 -2 2 -2 -2 2 -2 899 702 5 MP
gs
PP
gr
DP
2 2 -2 2 -2 -2 2 -2 899 738 5 MP
gs
PP
gr
DP
2 2 -2 2 -2 -2 2 -2 899 683 5 MP
gs
PP
gr
DP
2 2 -2 2 -2 -2 2 -2 900 702 5 MP
gs
PP
gr
DP
2 2 -2 2 -2 -2 2 -2 900 719 5 MP
gs
PP
gr
DP
2 2 -2 2 -2 -2 2 -2 900 711 5 MP
gs
PP
gr
DP
2 2 -2 2 -2 -2 2 -2 901 702 5 MP
gs
PP
gr
DP
2 2 -2 2 -2 -2 2 -2 901 738 5 MP
gs
PP
gr
DP
2 2 -2 2 -2 -2 2 -2 901 729 5 MP
gs
PP
gr
DP
2 2 -2 2 -2 -2 2 -2 902 748 5 MP
gs
PP
gr
DP
2 2 -2 2 -2 -2 2 -2 902 720 5 MP
gs
PP
gr
DP
2 2 -2 2 -2 -2 2 -2 903 738 5 MP
gs
PP
gr
DP
2 2 -2 2 -2 -2 2 -2 903 748 5 MP
gs
PP
gr
DP
2 2 -2 2 -2 -2 2 -2 904 711 5 MP
gs
PP
gr
DP
2 2 -2 2 -2 -2 2 -2 904 690 5 MP
gs
PP
gr
DP
2 2 -2 2 -2 -2 2 -2 905 738 5 MP
gs
PP
gr
DP
2 2 -2 2 -2 -2 2 -2 905 737 5 MP
gs
PP
gr
DP
2 2 -2 2 -2 -2 2 -2 906 693 5 MP
gs
PP
gr
DP
2 2 -2 2 -2 -2 2 -2 906 690 5 MP
gs
PP
gr
DP
2 2 -2 2 -2 -2 2 -2 907 720 5 MP
gs
PP
gr
DP
2 2 -2 2 -2 -2 2 -2 907 667 5 MP
gs
PP
gr
DP
2 2 -2 2 -2 -2 2 -2 908 702 5 MP
gs
PP
gr
DP
2 2 -2 2 -2 -2 2 -2 908 683 5 MP
gs
PP
gr
DP
2 2 -2 2 -2 -2 2 -2 908 720 5 MP
gs
PP
gr
DP
2 2 -2 2 -2 -2 2 -2 909 671 5 MP
gs
PP
gr
DP
2 2 -2 2 -2 -2 2 -2 910 665 5 MP
gs
PP
gr
DP
2 2 -2 2 -2 -2 2 -2 910 720 5 MP
gs
PP
gr
DP
2 2 -2 2 -2 -2 2 -2 910 693 5 MP
gs
PP
gr
DP
2 2 -2 2 -2 -2 2 -2 911 683 5 MP
gs
PP
gr
DP
2 2 -2 2 -2 -2 2 -2 911 702 5 MP
gs
PP
gr
DP
2 2 -2 2 -2 -2 2 -2 912 738 5 MP
gs
PP
gr
DP
2 2 -2 2 -2 -2 2 -2 912 729 5 MP
gs
PP
gr
DP
2 2 -2 2 -2 -2 2 -2 913 726 5 MP
gs
PP
gr
DP
2 2 -2 2 -2 -2 2 -2 913 690 5 MP
gs
PP
gr
DP
2 2 -2 2 -2 -2 2 -2 914 721 5 MP
gs
PP
gr
DP
2 2 -2 2 -2 -2 2 -2 915 705 5 MP
gs
PP
gr
DP
2 2 -2 2 -2 -2 2 -2 915 729 5 MP
gs
PP
gr
DP
2 2 -2 2 -2 -2 2 -2 915 711 5 MP
gs
PP
gr
DP
2 2 -2 2 -2 -2 2 -2 915 738 5 MP
gs
PP
gr
DP
2 2 -2 2 -2 -2 2 -2 916 729 5 MP
gs
PP
gr
DP
2 2 -2 2 -2 -2 2 -2 917 698 5 MP
gs
PP
gr
DP
2 2 -2 2 -2 -2 2 -2 918 738 5 MP
gs
PP
gr
DP
2 2 -2 2 -2 -2 2 -2 918 720 5 MP
gs
PP
gr
DP
2 2 -2 2 -2 -2 2 -2 919 738 5 MP
gs
PP
gr
DP
2 2 -2 2 -2 -2 2 -2 920 711 5 MP
gs
PP
gr
DP
2 2 -2 2 -2 -2 2 -2 921 720 5 MP
gs
PP
gr
DP
2 2 -2 2 -2 -2 2 -2 922 711 5 MP
gs
PP
gr
DP
2 2 -2 2 -2 -2 2 -2 922 702 5 MP
gs
PP
gr
DP
2 2 -2 2 -2 -2 2 -2 923 674 5 MP
gs
PP
gr
DP
2 2 -2 2 -2 -2 2 -2 923 683 5 MP
gs
PP
gr
DP
2 2 -2 2 -2 -2 2 -2 924 729 5 MP
gs
PP
gr
DP
2 2 -2 2 -2 -2 2 -2 924 706 5 MP
gs
PP
gr
DP
2 2 -2 2 -2 -2 2 -2 924 702 5 MP
gs
PP
gr
DP
2 2 -2 2 -2 -2 2 -2 924 729 5 MP
gs
PP
gr
DP
2 2 -2 2 -2 -2 2 -2 925 702 5 MP
gs
PP
gr
DP
2 2 -2 2 -2 -2 2 -2 926 711 5 MP
gs
PP
gr
DP
2 2 -2 2 -2 -2 2 -2 926 748 5 MP
gs
PP
gr
DP
2 2 -2 2 -2 -2 2 -2 927 729 5 MP
gs
PP
gr
DP
2 2 -2 2 -2 -2 2 -2 928 738 5 MP
gs
PP
gr
DP
2 2 -2 2 -2 -2 2 -2 928 748 5 MP
gs
PP
gr
DP
2 2 -2 2 -2 -2 2 -2 929 729 5 MP
gs
PP
gr
DP
2 2 -2 2 -2 -2 2 -2 930 711 5 MP
gs
PP
gr
DP
2 2 -2 2 -2 -2 2 -2 930 729 5 MP
gs
PP
gr
DP
2 2 -2 2 -2 -2 2 -2 931 729 5 MP
gs
PP
gr
DP
2 2 -2 2 -2 -2 2 -2 931 693 5 MP
gs
PP
gr
DP
2 2 -2 2 -2 -2 2 -2 932 738 5 MP
gs
PP
gr
DP
2 2 -2 2 -2 -2 2 -2 932 711 5 MP
gs
PP
gr
DP
2 2 -2 2 -2 -2 2 -2 932 729 5 MP
gs
PP
gr
DP
2 2 -2 2 -2 -2 2 -2 933 748 5 MP
gs
PP
gr
DP
2 2 -2 2 -2 -2 2 -2 934 729 5 MP
gs
PP
gr
DP
2 2 -2 2 -2 -2 2 -2 934 711 5 MP
gs
PP
gr
DP
2 2 -2 2 -2 -2 2 -2 935 729 5 MP
gs
PP
gr
DP
2 2 -2 2 -2 -2 2 -2 935 720 5 MP
gs
PP
gr
DP
2 2 -2 2 -2 -2 2 -2 936 729 5 MP
gs
PP
gr
DP
2 2 -2 2 -2 -2 2 -2 936 748 5 MP
gs
PP
gr
DP
2 2 -2 2 -2 -2 2 -2 937 748 5 MP
gs
PP
gr
DP
2 2 -2 2 -2 -2 2 -2 938 702 5 MP
gs
PP
gr
DP
2 2 -2 2 -2 -2 2 -2 939 727 5 MP
gs
PP
gr
DP
2 2 -2 2 -2 -2 2 -2 939 738 5 MP
gs
PP
gr
DP
2 2 -2 2 -2 -2 2 -2 940 683 5 MP
gs
PP
gr
DP
2 2 -2 2 -2 -2 2 -2 941 693 5 MP
gs
PP
gr
DP
2 2 -2 2 -2 -2 2 -2 941 683 5 MP
gs
PP
gr
DP
2 2 -2 2 -2 -2 2 -2 941 694 5 MP
gs
PP
gr
DP
2 2 -2 2 -2 -2 2 -2 942 720 5 MP
gs
PP
gr
DP
2 2 -2 2 -2 -2 2 -2 942 711 5 MP
gs
PP
gr
DP
2 2 -2 2 -2 -2 2 -2 943 711 5 MP
gs
PP
gr
DP
2 2 -2 2 -2 -2 2 -2 944 720 5 MP
gs
PP
gr
DP
2 2 -2 2 -2 -2 2 -2 945 707 5 MP
gs
PP
gr
DP
2 2 -2 2 -2 -2 2 -2 945 729 5 MP
gs
PP
gr
DP
2 2 -2 2 -2 -2 2 -2 946 729 5 MP
gs
PP
gr
DP
2 2 -2 2 -2 -2 2 -2 946 748 5 MP
gs
PP
gr
DP
2 2 -2 2 -2 -2 2 -2 947 711 5 MP
gs
PP
gr
DP
2 2 -2 2 -2 -2 2 -2 947 720 5 MP
gs
PP
gr
DP
2 2 -2 2 -2 -2 2 -2 948 705 5 MP
gs
PP
gr
DP
2 2 -2 2 -2 -2 2 -2 948 720 5 MP
gs
PP
gr
DP
2 2 -2 2 -2 -2 2 -2 948 711 5 MP
gs
PP
gr
DP
2 2 -2 2 -2 -2 2 -2 949 711 5 MP
gs
PP
gr
DP
2 2 -2 2 -2 -2 2 -2 949 720 5 MP
gs
PP
gr
DP
2 2 -2 2 -2 -2 2 -2 949 684 5 MP
gs
PP
gr
DP
2 2 -2 2 -2 -2 2 -2 949 720 5 MP
gs
PP
gr
DP
2 2 -2 2 -2 -2 2 -2 949 738 5 MP
gs
PP
gr
DP
2 2 -2 2 -2 -2 2 -2 949 702 5 MP
gs
PP
gr
DP
2 2 -2 2 -2 -2 2 -2 949 711 5 MP
gs
PP
gr
DP
2 2 -2 2 -2 -2 2 -2 950 720 5 MP
gs
PP
gr
DP
2 2 -2 2 -2 -2 2 -2 952 748 5 MP
gs
PP
gr
DP
2 2 -2 2 -2 -2 2 -2 953 702 5 MP
gs
PP
gr
DP
2 2 -2 2 -2 -2 2 -2 955 694 5 MP
gs
PP
gr
DP
2 2 -2 2 -2 -2 2 -2 956 702 5 MP
gs
PP
gr
DP
2 2 -2 2 -2 -2 2 -2 956 711 5 MP
gs
PP
gr
DP
2 2 -2 2 -2 -2 2 -2 957 748 5 MP
gs
PP
gr
DP
2 2 -2 2 -2 -2 2 -2 958 693 5 MP
gs
PP
gr
DP
2 2 -2 2 -2 -2 2 -2 958 729 5 MP
gs
PP
gr
DP
2 2 -2 2 -2 -2 2 -2 959 711 5 MP
gs
PP
gr
DP
2 2 -2 2 -2 -2 2 -2 960 702 5 MP
gs
PP
gr
DP
2 2 -2 2 -2 -2 2 -2 961 738 5 MP
gs
PP
gr
DP
2 2 -2 2 -2 -2 2 -2 961 720 5 MP
gs
PP
gr
DP
2 2 -2 2 -2 -2 2 -2 962 738 5 MP
gs
PP
gr
DP
2 2 -2 2 -2 -2 2 -2 963 738 5 MP
gs
PP
gr
DP
2 2 -2 2 -2 -2 2 -2 963 729 5 MP
gs
PP
gr
DP
2 2 -2 2 -2 -2 2 -2 964 708 5 MP
gs
PP
gr
DP
2 2 -2 2 -2 -2 2 -2 965 738 5 MP
gs
PP
gr
DP
2 2 -2 2 -2 -2 2 -2 965 720 5 MP
gs
PP
gr
DP
2 2 -2 2 -2 -2 2 -2 966 696 5 MP
gs
PP
gr
DP
2 2 -2 2 -2 -2 2 -2 967 720 5 MP
gs
PP
gr
DP
2 2 -2 2 -2 -2 2 -2 967 702 5 MP
gs
PP
gr
DP
2 2 -2 2 -2 -2 2 -2 968 718 5 MP
gs
PP
gr
DP
2 2 -2 2 -2 -2 2 -2 968 738 5 MP
gs
PP
gr
DP
2 2 -2 2 -2 -2 2 -2 970 729 5 MP
gs
PP
gr
DP
2 2 -2 2 -2 -2 2 -2 970 693 5 MP
gs
PP
gr
DP
2 2 -2 2 -2 -2 2 -2 971 720 5 MP
gs
PP
gr
DP
2 2 -2 2 -2 -2 2 -2 972 711 5 MP
gs
PP
gr
DP
2 2 -2 2 -2 -2 2 -2 972 695 5 MP
gs
PP
gr
DP
2 2 -2 2 -2 -2 2 -2 973 729 5 MP
gs
PP
gr
DP
2 2 -2 2 -2 -2 2 -2 974 711 5 MP
gs
PP
gr
DP
2 2 -2 2 -2 -2 2 -2 974 691 5 MP
gs
PP
gr
DP
2 2 -2 2 -2 -2 2 -2 975 720 5 MP
gs
PP
gr
DP
2 2 -2 2 -2 -2 2 -2 975 689 5 MP
gs
PP
gr
DP
2 2 -2 2 -2 -2 2 -2 976 711 5 MP
gs
PP
gr
DP
2 2 -2 2 -2 -2 2 -2 977 693 5 MP
gs
PP
gr
DP
2 2 -2 2 -2 -2 2 -2 977 720 5 MP
gs
PP
gr
DP
2 2 -2 2 -2 -2 2 -2 978 729 5 MP
gs
PP
gr
DP
2 2 -2 2 -2 -2 2 -2 978 720 5 MP
gs
PP
gr
DP
2 2 -2 2 -2 -2 2 -2 979 738 5 MP
gs
PP
gr
DP
2 2 -2 2 -2 -2 2 -2 980 720 5 MP
gs
PP
gr
DP
2 2 -2 2 -2 -2 2 -2 980 711 5 MP
gs
PP
gr
DP
2 2 -2 2 -2 -2 2 -2 980 674 5 MP
gs
PP
gr
DP
2 2 -2 2 -2 -2 2 -2 981 720 5 MP
gs
PP
gr
DP
2 2 -2 2 -2 -2 2 -2 982 702 5 MP
gs
PP
gr
DP
2 2 -2 2 -2 -2 2 -2 982 694 5 MP
gs
PP
gr
DP
2 2 -2 2 -2 -2 2 -2 983 711 5 MP
gs
PP
gr
DP
2 2 -2 2 -2 -2 2 -2 984 725 5 MP
gs
PP
gr
DP
2 2 -2 2 -2 -2 2 -2 985 693 5 MP
gs
PP
gr
DP
2 2 -2 2 -2 -2 2 -2 985 702 5 MP
gs
PP
gr
DP
2 2 -2 2 -2 -2 2 -2 986 711 5 MP
gs
PP
gr
DP
2 2 -2 2 -2 -2 2 -2 987 683 5 MP
gs
PP
gr
DP
2 2 -2 2 -2 -2 2 -2 987 729 5 MP
gs
PP
gr
DP
2 2 -2 2 -2 -2 2 -2 988 738 5 MP
gs
PP
gr
DP
2 2 -2 2 -2 -2 2 -2 989 748 5 MP
gs
PP
gr
DP
2 2 -2 2 -2 -2 2 -2 989 590 5 MP
gs
PP
gr
DP
2 2 -2 2 -2 -2 2 -2 990 693 5 MP
gs
PP
gr
DP
2 2 -2 2 -2 -2 2 -2 991 702 5 MP
gs
PP
gr
DP
2 2 -2 2 -2 -2 2 -2 991 683 5 MP
gs
PP
gr
DP
2 2 -2 2 -2 -2 2 -2 992 720 5 MP
gs
PP
gr
DP
2 2 -2 2 -2 -2 2 -2 993 748 5 MP
gs
PP
gr
DP
2 2 -2 2 -2 -2 2 -2 993 729 5 MP
gs
PP
gr
DP
2 2 -2 2 -2 -2 2 -2 994 748 5 MP
gs
PP
gr
DP
2 2 -2 2 -2 -2 2 -2 995 738 5 MP
gs
PP
gr
DP
2 2 -2 2 -2 -2 2 -2 995 720 5 MP
gs
PP
gr
DP
2 2 -2 2 -2 -2 2 -2 996 736 5 MP
gs
PP
gr
DP
2 2 -2 2 -2 -2 2 -2 997 729 5 MP
gs
PP
gr
DP
2 2 -2 2 -2 -2 2 -2 997 748 5 MP
gs
PP
gr
DP
2 2 -2 2 -2 -2 2 -2 998 711 5 MP
gs
PP
gr
DP
2 2 -2 2 -2 -2 2 -2 998 714 5 MP
gs
PP
gr
DP
2 2 -2 2 -2 -2 2 -2 1000 711 5 MP
gs
PP
gr
DP
2 2 -2 2 -2 -2 2 -2 1000 729 5 MP
gs
PP
gr
DP
2 2 -2 2 -2 -2 2 -2 1000 720 5 MP
gs
PP
gr
DP
2 2 -2 2 -2 -2 2 -2 1001 702 5 MP
gs
PP
gr
DP
2 2 -2 2 -2 -2 2 -2 1001 718 5 MP
gs
PP
gr
DP
2 2 -2 2 -2 -2 2 -2 1002 738 5 MP
gs
PP
gr
DP
2 2 -2 2 -2 -2 2 -2 1003 748 5 MP
gs
PP
gr
DP
2 2 -2 2 -2 -2 2 -2 1003 729 5 MP
gs
PP
gr
DP
2 2 -2 2 -2 -2 2 -2 1004 748 5 MP
gs
PP
gr
DP
2 2 -2 2 -2 -2 2 -2 1004 702 5 MP
gs
PP
gr
DP
2 2 -2 2 -2 -2 2 -2 1005 711 5 MP
gs
PP
gr
DP
2 2 -2 2 -2 -2 2 -2 1005 693 5 MP
gs
PP
gr
DP
2 2 -2 2 -2 -2 2 -2 1005 700 5 MP
gs
PP
gr
DP
2 2 -2 2 -2 -2 2 -2 1006 738 5 MP
gs
PP
gr
DP
2 2 -2 2 -2 -2 2 -2 1006 700 5 MP
gs
PP
gr
DP
2 2 -2 2 -2 -2 2 -2 1006 683 5 MP
gs
PP
gr
DP
2 2 -2 2 -2 -2 2 -2 1006 693 5 MP
gs
PP
gr
DP
2 2 -2 2 -2 -2 2 -2 1007 702 5 MP
gs
PP
gr
DP
2 2 -2 2 -2 -2 2 -2 1007 676 5 MP
gs
PP
gr
DP
2 2 -2 2 -2 -2 2 -2 1007 711 5 MP
gs
PP
gr
DP
2 2 -2 2 -2 -2 2 -2 1008 693 5 MP
gs
PP
gr
DP
2 2 -2 2 -2 -2 2 -2 1008 738 5 MP
gs
PP
gr
DP
2 2 -2 2 -2 -2 2 -2 1008 693 5 MP
gs
PP
gr
DP
2 2 -2 2 -2 -2 2 -2 1008 648 5 MP
gs
PP
gr
DP
2 2 -2 2 -2 -2 2 -2 1008 695 5 MP
gs
PP
gr
DP
2 2 -2 2 -2 -2 2 -2 1009 674 5 MP
gs
PP
gr
DP
2 2 -2 2 -2 -2 2 -2 1009 667 5 MP
gs
PP
gr
DP
2 2 -2 2 -2 -2 2 -2 1009 686 5 MP
gs
PP
gr
DP
2 2 -2 2 -2 -2 2 -2 1009 748 5 MP
gs
PP
gr
DP
2 2 -2 2 -2 -2 2 -2 1010 748 5 MP
gs
PP
gr
DP
2 2 -2 2 -2 -2 2 -2 1011 720 5 MP
gs
PP
gr
DP
2 2 -2 2 -2 -2 2 -2 1011 738 5 MP
gs
PP
gr
DP
2 2 -2 2 -2 -2 2 -2 1011 748 5 MP
gs
PP
gr
DP
2 2 -2 2 -2 -2 2 -2 1011 720 5 MP
gs
PP
gr
DP
2 2 -2 2 -2 -2 2 -2 1012 720 5 MP
gs
PP
gr
DP
2 2 -2 2 -2 -2 2 -2 1012 702 5 MP
gs
PP
gr
DP
2 2 -2 2 -2 -2 2 -2 1012 738 5 MP
gs
PP
gr
DP
2 2 -2 2 -2 -2 2 -2 1012 729 5 MP
gs
PP
gr
DP
2 2 -2 2 -2 -2 2 -2 1013 729 5 MP
gs
PP
gr
DP
2 2 -2 2 -2 -2 2 -2 1014 738 5 MP
gs
PP
gr
DP
2 2 -2 2 -2 -2 2 -2 1015 738 5 MP
gs
PP
gr
DP
2 2 -2 2 -2 -2 2 -2 1016 738 5 MP
gs
PP
gr
DP
2 2 -2 2 -2 -2 2 -2 1016 748 5 MP
gs
PP
gr
DP
2 2 -2 2 -2 -2 2 -2 1017 720 5 MP
gs
PP
gr
DP
2 2 -2 2 -2 -2 2 -2 1017 748 5 MP
gs
PP
gr
DP
2 2 -2 2 -2 -2 2 -2 1017 693 5 MP
gs
PP
gr
DP
gr

gs 156 68 931 734 MR c np
gr

 564   54 mt 
(144-4 Site1) s
 551  851 mt 
(Time \(Minutes\)) s
  96  454 mt  -90 rotate
(Ti \(\)) s
90 rotate
1.04167 w

end %%Color Dict

eplot
%%EndObject

epage
end

showpage

%%Trailer
%%EOF
