%!PS-Adobe-2.0 EPSF-1.2
%%Creator: MATLAB, The Mathworks, Inc. Version 7.4.0.287 (R2007a). Operating System: Microsoft Windows 2000.
%%Title: D:\contract work\KatzData\Results\Stanford 12 New Buxco Setting_144- Variable -- Te Time -- 10800-11206.2.eps
%%CreationDate: 09/09/2010  12:38:40
%%DocumentNeededFonts: Helvetica
%%DocumentProcessColors: Cyan Magenta Yellow Black
%%Pages: 1
%%BoundingBox:    57   199   550   601
%%EndComments

%%BeginProlog
% MathWorks dictionary
/MathWorks 160 dict begin
% definition operators
/bdef {bind def} bind def
/ldef {load def} bind def
/xdef {exch def} bdef
/xstore {exch store} bdef
% operator abbreviations
/c  /clip ldef
/cc /concat ldef
/cp /closepath ldef
/gr /grestore ldef
/gs /gsave ldef
/mt /moveto ldef
/np /newpath ldef
/cm /currentmatrix ldef
/sm /setmatrix ldef
/rm /rmoveto ldef
/rl /rlineto ldef
/s {show newpath} bdef
/sc {setcmykcolor} bdef
/sr /setrgbcolor ldef
/sg /setgray ldef
/w /setlinewidth ldef
/j /setlinejoin ldef
/cap /setlinecap ldef
/rc {rectclip} bdef
/rf {rectfill} bdef
% page state control
/pgsv () def
/bpage {/pgsv save def} bdef
/epage {pgsv restore} bdef
/bplot /gsave ldef
/eplot {stroke grestore} bdef
% orientation switch
/portraitMode 0 def /landscapeMode 1 def /rotateMode 2 def
% coordinate system mappings
/dpi2point 0 def
% font control
/FontSize 0 def
/FMS {/FontSize xstore findfont [FontSize 0 0 FontSize neg 0 0]
  makefont setfont} bdef
/ISOLatin1Encoding where {pop /WindowsLatin1Encoding 256 array bdef
ISOLatin1Encoding WindowsLatin1Encoding copy pop
/.notdef/.notdef/quotesinglbase/florin/quotedblbase/ellipsis/dagger
/daggerdbl/circumflex/perthousand/Scaron/guilsinglleft/OE/.notdef/.notdef
/.notdef/.notdef/quoteleft/quoteright/quotedblleft/quotedblright/bullet
/endash/emdash/tilde/trademark/scaron/guilsinglright/oe/.notdef/.notdef
/Ydieresis WindowsLatin1Encoding 128 32 getinterval astore pop}
{/WindowsLatin1Encoding StandardEncoding bdef} ifelse
/reencode {exch dup where {pop load} {pop StandardEncoding} ifelse
  exch dup 3 1 roll findfont dup length dict begin
  { 1 index /FID ne {def}{pop pop} ifelse } forall
  /Encoding exch def currentdict end definefont pop} bdef
/isroman {findfont /CharStrings get /Agrave known} bdef
/FMSR {3 1 roll 1 index dup isroman {reencode} {pop pop} ifelse
  exch FMS} bdef
/csm {1 dpi2point div -1 dpi2point div scale neg translate
 dup landscapeMode eq {pop -90 rotate}
  {rotateMode eq {90 rotate} if} ifelse} bdef
% line types: solid, dotted, dashed, dotdash
/SO { [] 0 setdash } bdef
/DO { [.5 dpi2point mul 4 dpi2point mul] 0 setdash } bdef
/DA { [6 dpi2point mul] 0 setdash } bdef
/DD { [.5 dpi2point mul 4 dpi2point mul 6 dpi2point mul 4
  dpi2point mul] 0 setdash } bdef
% macros for lines and objects
/L {lineto stroke} bdef
/MP {3 1 roll moveto 1 sub {rlineto} repeat} bdef
/AP {{rlineto} repeat} bdef
/PDlw -1 def
/W {/PDlw currentlinewidth def setlinewidth} def
/PP {closepath eofill} bdef
/DP {closepath stroke} bdef
/MR {4 -2 roll moveto dup  0 exch rlineto exch 0 rlineto
  neg 0 exch rlineto closepath} bdef
/FR {MR stroke} bdef
/PR {MR fill} bdef
/L1i {{currentfile picstr readhexstring pop} image} bdef
/tMatrix matrix def
/MakeOval {newpath tMatrix currentmatrix pop translate scale
0 0 1 0 360 arc tMatrix setmatrix} bdef
/FO {MakeOval stroke} bdef
/PO {MakeOval fill} bdef
/PD {currentlinewidth 2 div 0 360 arc fill
   PDlw -1 eq not {PDlw w /PDlw -1 def} if} def
/FA {newpath tMatrix currentmatrix pop translate scale
  0 0 1 5 -2 roll arc tMatrix setmatrix stroke} bdef
/PA {newpath tMatrix currentmatrix pop	translate 0 0 moveto scale
  0 0 1 5 -2 roll arc closepath tMatrix setmatrix fill} bdef
/FAn {newpath tMatrix currentmatrix pop translate scale
  0 0 1 5 -2 roll arcn tMatrix setmatrix stroke} bdef
/PAn {newpath tMatrix currentmatrix pop translate 0 0 moveto scale
  0 0 1 5 -2 roll arcn closepath tMatrix setmatrix fill} bdef
/vradius 0 def /hradius 0 def /lry 0 def
/lrx 0 def /uly 0 def /ulx 0 def /rad 0 def
/MRR {/vradius xdef /hradius xdef /lry xdef /lrx xdef /uly xdef
  /ulx xdef newpath tMatrix currentmatrix pop ulx hradius add uly
  vradius add translate hradius vradius scale 0 0 1 180 270 arc 
  tMatrix setmatrix lrx hradius sub uly vradius add translate
  hradius vradius scale 0 0 1 270 360 arc tMatrix setmatrix
  lrx hradius sub lry vradius sub translate hradius vradius scale
  0 0 1 0 90 arc tMatrix setmatrix ulx hradius add lry vradius sub
  translate hradius vradius scale 0 0 1 90 180 arc tMatrix setmatrix
  closepath} bdef
/FRR {MRR stroke } bdef
/PRR {MRR fill } bdef
/MlrRR {/lry xdef /lrx xdef /uly xdef /ulx xdef /rad lry uly sub 2 div def
  newpath tMatrix currentmatrix pop ulx rad add uly rad add translate
  rad rad scale 0 0 1 90 270 arc tMatrix setmatrix lrx rad sub lry rad
  sub translate rad rad scale 0 0 1 270 90 arc tMatrix setmatrix
  closepath} bdef
/FlrRR {MlrRR stroke } bdef
/PlrRR {MlrRR fill } bdef
/MtbRR {/lry xdef /lrx xdef /uly xdef /ulx xdef /rad lrx ulx sub 2 div def
  newpath tMatrix currentmatrix pop ulx rad add uly rad add translate
  rad rad scale 0 0 1 180 360 arc tMatrix setmatrix lrx rad sub lry rad
  sub translate rad rad scale 0 0 1 0 180 arc tMatrix setmatrix
  closepath} bdef
/FtbRR {MtbRR stroke } bdef
/PtbRR {MtbRR fill } bdef
/stri 6 array def /dtri 6 array def
/smat 6 array def /dmat 6 array def
/tmat1 6 array def /tmat2 6 array def /dif 3 array def
/asub {/ind2 exch def /ind1 exch def dup dup
  ind1 get exch ind2 get sub exch } bdef
/tri_to_matrix {
  2 0 asub 3 1 asub 4 0 asub 5 1 asub
  dup 0 get exch 1 get 7 -1 roll astore } bdef
/compute_transform {
  dmat dtri tri_to_matrix tmat1 invertmatrix 
  smat stri tri_to_matrix tmat2 concatmatrix } bdef
/ds {stri astore pop} bdef
/dt {dtri astore pop} bdef
/db {2 copy /cols xdef /rows xdef mul dup string
  currentfile exch readhexstring pop
  /bmap xdef pop pop} bdef
/it {gs np dtri aload pop moveto lineto lineto cp c
  cols rows 8 compute_transform 
  {bmap} image gr}bdef
/il {newpath moveto lineto stroke}bdef
currentdict end def
%%EndProlog

%%BeginSetup
MathWorks begin

0 cap

end
%%EndSetup

%%Page: 1 1
%%BeginPageSetup
%%PageBoundingBox:    57   199   550   601
MathWorks begin
bpage
%%EndPageSetup

%%BeginObject: obj1
bplot

/dpi2point 2.08333 def
portraitMode 0035 1275 csm

   84    22  1028   838 MR c np
85 dict begin %Colortable dictionary
/c0 { 0.000000 0.000000 0.000000 sr} bdef
/c1 { 1.000000 1.000000 1.000000 sr} bdef
/c2 { 0.900000 0.000000 0.000000 sr} bdef
/c3 { 0.000000 0.820000 0.000000 sr} bdef
/c4 { 0.000000 0.000000 0.800000 sr} bdef
/c5 { 0.910000 0.820000 0.320000 sr} bdef
/c6 { 1.000000 0.260000 0.820000 sr} bdef
/c7 { 0.000000 0.820000 0.820000 sr} bdef
c0
1 j
1 sg
   0    0 1201  901 PR
1.04167 w
0 733 930 0 0 -733 156 801 4 MP
PP
-930 0 0 733 930 0 0 -733 156 801 5 MP stroke
0.694444 w
DO
SO
1.04167 w
0 sg
 156   68 mt 1086   68 L
 156  801 mt 1086  801 L
1086  801 mt 1086   68 L
 156  801 mt  156   68 L
 156  801 mt 1086  801 L
 156  801 mt  156   68 L
 156  801 mt  156  791 L
 156   68 mt  156   77 L
%%IncludeResource: font Helvetica
/Helvetica /WindowsLatin1Encoding 20.8333 FMSR

 139  826 mt 
(180) s
 288  801 mt  288  791 L
 288   68 mt  288   77 L
 271  826 mt 
(181) s
 421  801 mt  421  791 L
 421   68 mt  421   77 L
 404  826 mt 
(182) s
 554  801 mt  554  791 L
 554   68 mt  554   77 L
 537  826 mt 
(183) s
 687  801 mt  687  791 L
 687   68 mt  687   77 L
 670  826 mt 
(184) s
 820  801 mt  820  791 L
 820   68 mt  820   77 L
 803  826 mt 
(185) s
 953  801 mt  953  791 L
 953   68 mt  953   77 L
 936  826 mt 
(186) s
1086  801 mt 1086  791 L
1086   68 mt 1086   77 L
1069  826 mt 
(187) s
 156  801 mt  165  801 L
1086  801 mt 1076  801 L
 139  808 mt 
(0) s
 156  678 mt  165  678 L
1086  678 mt 1076  678 L
 122  685 mt 
(0.5) s
 156  556 mt  165  556 L
1086  556 mt 1076  556 L
 139  563 mt 
(1) s
 156  434 mt  165  434 L
1086  434 mt 1076  434 L
 122  441 mt 
(1.5) s
 156  312 mt  165  312 L
1086  312 mt 1076  312 L
 139  319 mt 
(2) s
 156  190 mt  165  190 L
1086  190 mt 1076  190 L
 122  197 mt 
(2.5) s
 156   68 mt  165   68 L
1086   68 mt 1076   68 L
 139   75 mt 
(3) s
 156   68 mt 1086   68 L
 156  801 mt 1086  801 L
1086  801 mt 1086   68 L
 156  801 mt  156   68 L
gs 156 68 931 734 MR c np
2.08333 w
gr

2.08333 w
gs 151 168 910 633 MR c np
   2    2  156  788 PO
   2    2  157  766 PO
   2    2  158  750 PO
   2    2  159  782 PO
   2    2  160  778 PO
   2    2  161  787 PO
   2    2  162  788 PO
   2    2  163  791 PO
   2    2  163  766 PO
   2    2  164  778 PO
   2    2  165  777 PO
   2    2  166  786 PO
   2    2  167  781 PO
   2    2  168  789 PO
   2    2  169  784 PO
   2    2  170  788 PO
   2    2  171  786 PO
   2    2  172  789 PO
   2    2  173  787 PO
   2    2  174  782 PO
   2    2  175  785 PO
   2    2  176  789 PO
   2    2  177  785 PO
   2    2  178  786 PO
   2    2  179  786 PO
   2    2  180  785 PO
   2    2  181  788 PO
   2    2  182  787 PO
   2    2  183  788 PO
   2    2  184  781 PO
   2    2  185  789 PO
   2    2  185  779 PO
   2    2  186  779 PO
   2    2  187  787 PO
   2    2  188  785 PO
   2    2  189  782 PO
   2    2  190  780 PO
   2    2  190  789 PO
   2    2  191  783 PO
   2    2  192  779 PO
   2    2  192  769 PO
   2    2  193  607 PO
   2    2  194  779 PO
   2    2  195  769 PO
   2    2  196  786 PO
   2    2  197  784 PO
   2    2  198  763 PO
   2    2  198  771 PO
   2    2  199  659 PO
   2    2  200  790 PO
   2    2  201  637 PO
   2    2  201  790 PO
   2    2  202  785 PO
   2    2  203  758 PO
   2    2  204  779 PO
   2    2  204  792 PO
   2    2  206  783 PO
   2    2  207  790 PO
   2    2  208  784 PO
   2    2  209  783 PO
   2    2  210  703 PO
   2    2  210  784 PO
   2    2  211  790 PO
   2    2  212  701 PO
   2    2  213  782 PO
   2    2  213  783 PO
   2    2  214  790 PO
   2    2  215  790 PO
   2    2  216  773 PO
   2    2  217  791 PO
   2    2  218  787 PO
   2    2  219  790 PO
   2    2  220  786 PO
   2    2  221  789 PO
   2    2  221  786 PO
   2    2  223  786 PO
   2    2  224  787 PO
   2    2  225  789 PO
   2    2  225  788 PO
   2    2  227  788 PO
   2    2  229  788 PO
   2    2  229  789 PO
   2    2  230  789 PO
   2    2  231  790 PO
   2    2  232  790 PO
   2    2  233  790 PO
   2    2  234  788 PO
   2    2  235  788 PO
   2    2  235  789 PO
   2    2  236  791 PO
   2    2  237  775 PO
   2    2  238  783 PO
   2    2  239  780 PO
   2    2  240  782 PO
   2    2  241  786 PO
   2    2  242  773 PO
   2    2  243  787 PO
   2    2  243  780 PO
   2    2  244  789 PO
   2    2  245  787 PO
   2    2  246  782 PO
   2    2  247  788 PO
   2    2  247  778 PO
   2    2  248  787 PO
   2    2  249  780 PO
   2    2  250  782 PO
   2    2  251  783 PO
   2    2  252  783 PO
   2    2  253  778 PO
   2    2  254  693 PO
   2    2  255  789 PO
   2    2  256  714 PO
   2    2  257  773 PO
   2    2  258  757 PO
   2    2  258  785 PO
   2    2  259  779 PO
   2    2  260  777 PO
   2    2  261  787 PO
   2    2  262  743 PO
   2    2  263  787 PO
   2    2  263  790 PO
   2    2  264  788 PO
   2    2  265  785 PO
   2    2  266  784 PO
   2    2  266  788 PO
   2    2  267  788 PO
   2    2  268  621 PO
   2    2  268  788 PO
   2    2  270  791 PO
   2    2  272  779 PO
   2    2  273  793 PO
   2    2  274  789 PO
   2    2  275  790 PO
   2    2  276  785 PO
   2    2  277  790 PO
   2    2  278  765 PO
   2    2  278  782 PO
   2    2  279  741 PO
   2    2  280  782 PO
   2    2  281  690 PO
   2    2  282  731 PO
   2    2  283  790 PO
   2    2  284  743 PO
   2    2  285  759 PO
   2    2  286  594 PO
   2    2  287  789 PO
   2    2  288  788 PO
   2    2  289  405 PO
   2    2  289  784 PO
   2    2  291  789 PO
   2    2  292  788 PO
   2    2  293  790 PO
   2    2  294  790 PO
   2    2  295  791 PO
   2    2  296  789 PO
   2    2  297  789 PO
   2    2  297  786 PO
   2    2  298  790 PO
   2    2  299  788 PO
   2    2  299  786 PO
   2    2  300  788 PO
   2    2  301  783 PO
   2    2  302  787 PO
   2    2  303  783 PO
   2    2  304  790 PO
   2    2  305  786 PO
   2    2  306  783 PO
   2    2  307  776 PO
   2    2  307  779 PO
   2    2  308  785 PO
   2    2  309  789 PO
   2    2  310  784 PO
   2    2  311  787 PO
   2    2  312  785 PO
   2    2  313  776 PO
   2    2  313  782 PO
   2    2  314  782 PO
   2    2  315  788 PO
   2    2  316  779 PO
   2    2  317  784 PO
   2    2  318  785 PO
   2    2  319  787 PO
   2    2  320  785 PO
   2    2  320  787 PO
   2    2  321  760 PO
   2    2  322  774 PO
   2    2  323  767 PO
   2    2  324  755 PO
   2    2  325  663 PO
   2    2  325  789 PO
   2    2  326  787 PO
   2    2  327  789 PO
   2    2  328  627 PO
   2    2  329  791 PO
   2    2  329  657 PO
   2    2  330  789 PO
   2    2  331  790 PO
   2    2  332  779 PO
   2    2  333  690 PO
   2    2  334  784 PO
   2    2  334  786 PO
   2    2  335  781 PO
   2    2  336  790 PO
   2    2  337  786 PO
   2    2  338  787 PO
   2    2  339  785 PO
   2    2  340  786 PO
   2    2  340  776 PO
   2    2  341  785 PO
   2    2  342  786 PO
   2    2  343  786 PO
   2    2  344  728 PO
   2    2  345  783 PO
   2    2  345  784 PO
   2    2  346  719 PO
   2    2  347  776 PO
   2    2  348  780 PO
   2    2  349  723 PO
   2    2  350  545 PO
   2    2  351  791 PO
   2    2  351  790 PO
   2    2  352  789 PO
   2    2  353  788 PO
   2    2  354  789 PO
   2    2  354  780 PO
   2    2  355  789 PO
   2    2  356  779 PO
   2    2  357  791 PO
   2    2  358  785 PO
   2    2  359  789 PO
   2    2  359  791 PO
   2    2  360  390 PO
   2    2  361  778 PO
   2    2  362  776 PO
   2    2  363  792 PO
   2    2  364  454 PO
   2    2  364  790 PO
   2    2  365  792 PO
   2    2  366  772 PO
   2    2  367  760 PO
   2    2  368  784 PO
   2    2  369  787 PO
   2    2  370  783 PO
   2    2  370  791 PO
   2    2  371  790 PO
   2    2  372  785 PO
   2    2  373  791 PO
   2    2  374  786 PO
   2    2  374  790 PO
   2    2  375  788 PO
   2    2  376  789 PO
   2    2  377  789 PO
   2    2  378  785 PO
   2    2  379  778 PO
   2    2  380  782 PO
   2    2  380  791 PO
   2    2  381  785 PO
   2    2  382  789 PO
   2    2  383  784 PO
   2    2  384  792 PO
   2    2  385  790 PO
   2    2  386  789 PO
   2    2  386  787 PO
   2    2  387  784 PO
   2    2  388  777 PO
   2    2  389  774 PO
   2    2  390  789 PO
   2    2  391  777 PO
   2    2  391  787 PO
   2    2  392  785 PO
   2    2  393  788 PO
   2    2  394  785 PO
   2    2  395  783 PO
   2    2  396  782 PO
   2    2  396  783 PO
   2    2  397  787 PO
   2    2  398  789 PO
   2    2  399  785 PO
   2    2  400  758 PO
   2    2  400  763 PO
   2    2  401  780 PO
   2    2  402  736 PO
   2    2  403  785 PO
   2    2  404  778 PO
   2    2  405  780 PO
   2    2  405  791 PO
   2    2  406  785 PO
   2    2  407  787 PO
   2    2  408  783 PO
   2    2  409  789 PO
   2    2  410  786 PO
   2    2  411  793 PO
   2    2  412  791 PO
   2    2  413  790 PO
   2    2  414  788 PO
   2    2  415  787 PO
   2    2  416  788 PO
   2    2  417  788 PO
   2    2  418  784 PO
   2    2  419  727 PO
   2    2  419  784 PO
   2    2  420  756 PO
   2    2  421  769 PO
   2    2  422  765 PO
   2    2  423  787 PO
   2    2  424  790 PO
   2    2  425  791 PO
   2    2  425  786 PO
   2    2  426  783 PO
   2    2  427  790 PO
   2    2  428  788 PO
   2    2  429  785 PO
   2    2  430  789 PO
   2    2  431  782 PO
   2    2  431  787 PO
   2    2  432  785 PO
   2    2  433  790 PO
   2    2  433  791 PO
   2    2  434  790 PO
   2    2  435  788 PO
   2    2  436  788 PO
   2    2  437  785 PO
   2    2  438  794 PO
   2    2  438  790 PO
   2    2  439  788 PO
   2    2  440  788 PO
   2    2  441  787 PO
   2    2  442  785 PO
   2    2  443  785 PO
   2    2  444  788 PO
   2    2  444  787 PO
   2    2  446  783 PO
   2    2  446  787 PO
   2    2  448  770 PO
   2    2  448  785 PO
   2    2  449  740 PO
   2    2  450  764 PO
   2    2  450  785 PO
   2    2  451  786 PO
   2    2  452  765 PO
   2    2  453  789 PO
   2    2  454  785 PO
   2    2  455  790 PO
   2    2  456  782 PO
   2    2  457  747 PO
   2    2  458  786 PO
   2    2  458  729 PO
   2    2  459  779 PO
   2    2  460  709 PO
   2    2  461  782 PO
   2    2  462  777 PO
   2    2  463  791 PO
   2    2  464  788 PO
   2    2  465  786 PO
   2    2  466  654 PO
   2    2  467  785 PO
   2    2  468  785 PO
   2    2  469  790 PO
   2    2  471  789 PO
   2    2  471  790 PO
   2    2  472  785 PO
   2    2  473  788 PO
   2    2  474  784 PO
   2    2  475  789 PO
   2    2  476  779 PO
   2    2  477  787 PO
   2    2  478  781 PO
   2    2  479  788 PO
   2    2  479  790 PO
   2    2  480  790 PO
   2    2  481  790 PO
   2    2  482  788 PO
   2    2  483  790 PO
   2    2  483  788 PO
   2    2  484  727 PO
   2    2  485  786 PO
   2    2  485  767 PO
   2    2  487  778 PO
   2    2  488  767 PO
   2    2  489  671 PO
   2    2  490  781 PO
   2    2  491  787 PO
   2    2  492  787 PO
   2    2  493  762 PO
   2    2  494  789 PO
   2    2  495  788 PO
   2    2  496  778 PO
   2    2  496  786 PO
   2    2  497  787 PO
   2    2  498  788 PO
   2    2  499  786 PO
   2    2  500  684 PO
   2    2  501  781 PO
   2    2  502  757 PO
   2    2  503  768 PO
   2    2  504  768 PO
   2    2  505  776 PO
   2    2  506  756 PO
   2    2  507  787 PO
   2    2  508  788 PO
   2    2  509  779 PO
   2    2  510  791 PO
   2    2  511  789 PO
   2    2  512  692 PO
   2    2  513  791 PO
   2    2  514  787 PO
   2    2  514  760 PO
   2    2  515  772 PO
   2    2  516  792 PO
   2    2  517  783 PO
   2    2  518  750 PO
   2    2  519  791 PO
   2    2  520  751 PO
   2    2  520  717 PO
   2    2  521  792 PO
   2    2  522  788 PO
   2    2  523  725 PO
   2    2  524  753 PO
   2    2  525  773 PO
   2    2  526  765 PO
   2    2  526  789 PO
   2    2  527  781 PO
   2    2  528  790 PO
   2    2  529  792 PO
   2    2  530  792 PO
   2    2  531  791 PO
   2    2  532  790 PO
   2    2  533  786 PO
   2    2  534  785 PO
   2    2  535  787 PO
   2    2  536  779 PO
   2    2  537  787 PO
   2    2  538  780 PO
   2    2  539  787 PO
   2    2  540  789 PO
   2    2  542  726 PO
   2    2  543  787 PO
   2    2  544  787 PO
   2    2  545  788 PO
   2    2  546  789 PO
   2    2  547  783 PO
   2    2  548  765 PO
   2    2  549  789 PO
   2    2  550  788 PO
   2    2  551  785 PO
   2    2  551  787 PO
   2    2  552  786 PO
   2    2  553  779 PO
   2    2  553  790 PO
   2    2  555  750 PO
   2    2  556  718 PO
   2    2  557  787 PO
   2    2  558  676 PO
   2    2  559  779 PO
   2    2  561  784 PO
   2    2  562  781 PO
   2    2  563  788 PO
   2    2  564  787 PO
   2    2  565  788 PO
   2    2  566  790 PO
   2    2  566  789 PO
   2    2  567  788 PO
   2    2  568  782 PO
   2    2  569  787 PO
   2    2  570  729 PO
   2    2  571  678 PO
   2    2  571  649 PO
   2    2  573  778 PO
   2    2  574  779 PO
   2    2  575  765 PO
   2    2  575  788 PO
   2    2  576  782 PO
   2    2  578  790 PO
   2    2  578  789 PO
   2    2  579  790 PO
   2    2  580  789 PO
   2    2  581  780 PO
   2    2  582  786 PO
   2    2  582  785 PO
   2    2  583  786 PO
   2    2  584  740 PO
   2    2  585  778 PO
   2    2  586  770 PO
   2    2  587  728 PO
   2    2  588  776 PO
   2    2  589  646 PO
   2    2  589  778 PO
   2    2  590  783 PO
   2    2  591  773 PO
   2    2  591  778 PO
   2    2  593  779 PO
   2    2  606  786 PO
   2    2  607  785 PO
   2    2  608  771 PO
   2    2  609  778 PO
   2    2  610  792 PO
   2    2  610  791 PO
   2    2  611  787 PO
   2    2  611  789 PO
   2    2  612  786 PO
   2    2  612  720 PO
   2    2  613  792 PO
   2    2  613  790 PO
   2    2  618  787 PO
   2    2  619  788 PO
   2    2  619  792 PO
   2    2  619  790 PO
   2    2  620  780 PO
   2    2  620  790 PO
   2    2  621  789 PO
   2    2  622  788 PO
   2    2  622  787 PO
   2    2  622  786 PO
   2    2  630  787 PO
   2    2  632  783 PO
   2    2  632  786 PO
   2    2  634  789 PO
   2    2  644  786 PO
   2    2  718  788 PO
   2    2  728  737 PO
   2    2  736  787 PO
   2    2  737  767 PO
   2    2  738  775 PO
   2    2  739  787 PO
   2    2  741  767 PO
   2    2  742  759 PO
   2    2  754  717 PO
   2    2  756  775 PO
   2    2  765  771 PO
   2    2  765  776 PO
   2    2  766  781 PO
   2    2  766  791 PO
   2    2  770  771 PO
   2    2  770  714 PO
   2    2  770  774 PO
   2    2  771  777 PO
   2    2  771  788 PO
   2    2  772  788 PO
   2    2  772  773 PO
   2    2  772  789 PO
   2    2  773  783 PO
   2    2  773  782 PO
   2    2  774  704 PO
   2    2  774  789 PO
   2    2  775  789 PO
   2    2  775  782 PO
   2    2  775  638 PO
   2    2  775  783 PO
   2    2  776  745 PO
   2    2  777  786 PO
   2    2  777  790 PO
   2    2  777  791 PO
   2    2  778  785 PO
   2    2  779  787 PO
   2    2  779  786 PO
   2    2  780  792 PO
   2    2  780  790 PO
   2    2  781  791 PO
   2    2  781  790 PO
   2    2  781  787 PO
   2    2  781  790 PO
   2    2  782  788 PO
   2    2  784  786 PO
   2    2  785  789 PO
   2    2  785  780 PO
   2    2  786  711 PO
   2    2  787  787 PO
   2    2  787  767 PO
   2    2  787  777 PO
   2    2  788  789 PO
   2    2  788  770 PO
   2    2  789  789 PO
   2    2  789  788 PO
   2    2  790  786 PO
   2    2  790  788 PO
   2    2  791  787 PO
   2    2  792  790 PO
   2    2  792  787 PO
   2    2  793  791 PO
   2    2  793  787 PO
   2    2  793  788 PO
   2    2  793  784 PO
   2    2  793  782 PO
   2    2  794  789 PO
   2    2  795  787 PO
   2    2  795  788 PO
   2    2  795  714 PO
   2    2  795  786 PO
   2    2  796  771 PO
   2    2  796  780 PO
   2    2  796  622 PO
   2    2  796  790 PO
   2    2  797  790 PO
   2    2  798  782 PO
   2    2  798  786 PO
   2    2  800  789 PO
   2    2  802  751 PO
   2    2  802  788 PO
   2    2  802  779 PO
   2    2  802  784 PO
   2    2  803  791 PO
   2    2  803  790 PO
   2    2  804  785 PO
   2    2  804  775 PO
   2    2  804  785 PO
   2    2  805  779 PO
   2    2  805  768 PO
   2    2  805  787 PO
   2    2  805  789 PO
   2    2  805  784 PO
   2    2  805  777 PO
   2    2  807  790 PO
   2    2  808  731 PO
   2    2  808  788 PO
   2    2  809  785 PO
   2    2  809  768 PO
   2    2  810  786 PO
   2    2  810  774 PO
   2    2  812  787 PO
   2    2  814  784 PO
   2    2  814  790 PO
   2    2  815  783 PO
   2    2  815  789 PO
   2    2  815  782 PO
   2    2  818  786 PO
   2    2  818  760 PO
   2    2  818  643 PO
   2    2  819  781 PO
   2    2  819  761 PO
   2    2  819  788 PO
   2    2  819  775 PO
   2    2  820  787 PO
   2    2  820  791 PO
   2    2  821  783 PO
   2    2  821  785 PO
   2    2  821  788 PO
   2    2  821  787 PO
   2    2  822  789 PO
   2    2  823  741 PO
   2    2  823  604 PO
   2    2  823  735 PO
   2    2  824  757 PO
   2    2  824  774 PO
   2    2  824  767 PO
   2    2  825  781 PO
   2    2  827  788 PO
   2    2  827  786 PO
   2    2  828  788 PO
   2    2  828  792 PO
   2    2  829  787 PO
   2    2  829  786 PO
   2    2  830  791 PO
   2    2  830  785 PO
   2    2  830  788 PO
   2    2  831  776 PO
   2    2  831  775 PO
   2    2  831  693 PO
   2    2  831  774 PO
   2    2  832  786 PO
   2    2  832  791 PO
   2    2  832  787 PO
   2    2  833  781 PO
   2    2  833  789 PO
   2    2  834  793 PO
   2    2  834  787 PO
   2    2  834  785 PO
   2    2  836  772 PO
   2    2  836  786 PO
   2    2  836  789 PO
   2    2  836  792 PO
   2    2  836  783 PO
   2    2  837  790 PO
   2    2  837  787 PO
   2    2  837  704 PO
   2    2  837  790 PO
   2    2  838  761 PO
   2    2  838  783 PO
   2    2  838  787 PO
   2    2  839  790 PO
   2    2  839  787 PO
   2    2  839  789 PO
   2    2  840  741 PO
   2    2  840  536 PO
   2    2  840  784 PO
   2    2  841  673 PO
   2    2  841  693 PO
   2    2  843  782 PO
   2    2  843  768 PO
   2    2  843  753 PO
   2    2  843  779 PO
   2    2  844  780 PO
   2    2  844  792 PO
   2    2  845  788 PO
   2    2  845  792 PO
   2    2  846  785 PO
   2    2  846  783 PO
   2    2  847  783 PO
   2    2  847  782 PO
   2    2  847  783 PO
   2    2  848  781 PO
   2    2  848  767 PO
   2    2  848  779 PO
   2    2  849  789 PO
   2    2  849  777 PO
   2    2  849  790 PO
   2    2  849  786 PO
   2    2  850  787 PO
   2    2  850  789 PO
   2    2  852  659 PO
   2    2  852  764 PO
   2    2  853  573 PO
   2    2  853  769 PO
   2    2  854  767 PO
   2    2  855  789 PO
   2    2  856  787 PO
   2    2  856  790 PO
   2    2  856  788 PO
   2    2  857  787 PO
   2    2  857  777 PO
   2    2  857  786 PO
   2    2  859  514 PO
   2    2  859  756 PO
   2    2  860  775 PO
   2    2  861  698 PO
   2    2  861  787 PO
   2    2  861  773 PO
   2    2  862  782 PO
   2    2  862  793 PO
   2    2  862  789 PO
   2    2  863  792 PO
   2    2  863  788 PO
   2    2  863  787 PO
   2    2  864  787 PO
   2    2  865  789 PO
   2    2  866  789 PO
   2    2  866  786 PO
   2    2  866  781 PO
   2    2  867  784 PO
   2    2  867  759 PO
   2    2  870  792 PO
   2    2  870  771 PO
   2    2  870  790 PO
   2    2  870  789 PO
   2    2  871  783 PO
   2    2  872  792 PO
   2    2  872  783 PO
   2    2  872  739 PO
   2    2  873  767 PO
   2    2  873  775 PO
   2    2  875  783 PO
   2    2  877  700 PO
   2    2  877  781 PO
   2    2  877  789 PO
   2    2  878  764 PO
   2    2  880  754 PO
   2    2  880  783 PO
   2    2  881  778 PO
   2    2  881  754 PO
   2    2  882  741 PO
   2    2  882  788 PO
   2    2  882  333 PO
   2    2  882  789 PO
   2    2  883  788 PO
   2    2  883  792 PO
   2    2  883  788 PO
   2    2  884  788 PO
   2    2  884  779 PO
   2    2  884  788 PO
   2    2  884  781 PO
   2    2  885  767 PO
   2    2  886  788 PO
   2    2  887  769 PO
   2    2  890  780 PO
   2    2  890  768 PO
   2    2  892  776 PO
   2    2  892  788 PO
   2    2  892  275 PO
   2    2  893  790 PO
   2    2  893  611 PO
   2    2  893  544 PO
   2    2  894  785 PO
   2    2  894  779 PO
   2    2  894  793 PO
   2    2  895  784 PO
   2    2  896  789 PO
   2    2  896  786 PO
   2    2  896  789 PO
   2    2  896  783 PO
   2    2  897  785 PO
   2    2  898  787 PO
   2    2  898  781 PO
   2    2  899  779 PO
   2    2  899  764 PO
   2    2  900  774 PO
   2    2  900  773 PO
   2    2  901  784 PO
   2    2  901  782 PO
   2    2  902  789 PO
   2    2  902  788 PO
   2    2  902  790 PO
   2    2  903  784 PO
   2    2  904  790 PO
   2    2  905  778 PO
   2    2  905  779 PO
   2    2  905  790 PO
   2    2  906  389 PO
   2    2  906  788 PO
   2    2  906  784 PO
   2    2  907  788 PO
   2    2  907  582 PO
   2    2  909  788 PO
   2    2  909  786 PO
   2    2  910  786 PO
   2    2  910  728 PO
   2    2  910  790 PO
   2    2  911  758 PO
   2    2  911  785 PO
   2    2  912  791 PO
   2    2  912  789 PO
   2    2  913  790 PO
   2    2  914  782 PO
   2    2  914  789 PO
   2    2  914  790 PO
   2    2  915  786 PO
   2    2  915  774 PO
   2    2  915  778 PO
   2    2  915  791 PO
   2    2  916  784 PO
   2    2  916  779 PO
   2    2  916  787 PO
   2    2  917  761 PO
   2    2  917  788 PO
   2    2  917  473 PO
   2    2  917  688 PO
   2    2  918  765 PO
   2    2  918  789 PO
   2    2  918  787 PO
   2    2  919  787 PO
   2    2  919  778 PO
   2    2  920  739 PO
   2    2  922  792 PO
   2    2  923  791 PO
   2    2  923  777 PO
   2    2  923  789 PO
   2    2  923  795 PO
   2    2  924  771 PO
   2    2  925  790 PO
   2    2  925  787 PO
   2    2  925  790 PO
   2    2  926  791 PO
   2    2  927  792 PO
   2    2  927  791 PO
   2    2  927  790 PO
   2    2  928  789 PO
   2    2  930  788 PO
   2    2  931  779 PO
   2    2  932  791 PO
   2    2  932  790 PO
   2    2  933  786 PO
   2    2  933  789 PO
   2    2  933  787 PO
   2    2  934  723 PO
   2    2  934  742 PO
   2    2  935  779 PO
   2    2  936  671 PO
   2    2  936  717 PO
   2    2  936  764 PO
   2    2  937  781 PO
   2    2  937  787 PO
   2    2  938  789 PO
   2    2  938  769 PO
   2    2  938  774 PO
   2    2  938  782 PO
   2    2  939  657 PO
   2    2  939  789 PO
   2    2  939  790 PO
   2    2  940  787 PO
   2    2  941  789 PO
   2    2  941  787 PO
   2    2  942  790 PO
   2    2  942  787 PO
   2    2  942  777 PO
   2    2  942  684 PO
   2    2  942  787 PO
   2    2  943  789 PO
   2    2  943  781 PO
   2    2  943  779 PO
   2    2  944  786 PO
   2    2  944  792 PO
   2    2  944  790 PO
   2    2  944  786 PO
   2    2  945  760 PO
   2    2  947  790 PO
   2    2  948  787 PO
   2    2  948  790 PO
   2    2  948  737 PO
   2    2  949  793 PO
   2    2  950  759 PO
   2    2  951  714 PO
   2    2  951  759 PO
   2    2  951  784 PO
   2    2  952  787 PO
   2    2  953  757 PO
   2    2  955  791 PO
   2    2  955  717 PO
   2    2  955  643 PO
   2    2  956  783 PO
   2    2  956  784 PO
   2    2  956  609 PO
   2    2  957  789 PO
   2    2  957  780 PO
   2    2  957  772 PO
   2    2  958  775 PO
   2    2  958  457 PO
   2    2  958  786 PO
   2    2  960  787 PO
   2    2  961  787 PO
   2    2  961  753 PO
   2    2  962  784 PO
   2    2  962  790 PO
   2    2  962  768 PO
   2    2  962  781 PO
   2    2  963  789 PO
   2    2  963  692 PO
   2    2  963  551 PO
   2    2  964  759 PO
   2    2  965  713 PO
   2    2  965  789 PO
   2    2  967  710 PO
   2    2  967  792 PO
   2    2  970  752 PO
   2    2  971  791 PO
   2    2  971  787 PO
   2    2  972  786 PO
   2    2  972  791 PO
   2    2  972  778 PO
   2    2  972  790 PO
   2    2  973  789 PO
   2    2  973  786 PO
   2    2  974  787 PO
   2    2  974  786 PO
   2    2  974  775 PO
   2    2  975  529 PO
   2    2  976  692 PO
   2    2  976  739 PO
   2    2  977  710 PO
   2    2  977  783 PO
   2    2  977  675 PO
   2    2  978  739 PO
   2    2  978  767 PO
   2    2  978  779 PO
   2    2  979  783 PO
   2    2  979  790 PO
   2    2  979  787 PO
   2    2  980  784 PO
   2    2  981  777 PO
   2    2  982  790 PO
   2    2  983  780 PO
   2    2  983  781 PO
   2    2  983  789 PO
   2    2  985  788 PO
   2    2  985  785 PO
   2    2  986  780 PO
   2    2  986  790 PO
   2    2  986  789 PO
   2    2  987  781 PO
   2    2  987  789 PO
   2    2  987  787 PO
   2    2  987  788 PO
   2    2  987  791 PO
   2    2  987  754 PO
   2    2  988  779 PO
   2    2  989  783 PO
   2    2  989  790 PO
   2    2  989  780 PO
   2    2  990  730 PO
   2    2  990  636 PO
   2    2  991  786 PO
   2    2  991  617 PO
   2    2  991  777 PO
   2    2  993  752 PO
   2    2  993  779 PO
   2    2  993  788 PO
   2    2  994  780 PO
   2    2  994  788 PO
   2    2  995  771 PO
   2    2  995  770 PO
   2    2  996  791 PO
   2    2  996  774 PO
   2    2  997  787 PO
   2    2  998  510 PO
   2    2  998  782 PO
   2    2  999  721 PO
   2    2  999  761 PO
   2    2  999  782 PO
   2    2  999  788 PO
   2    2 1000  769 PO
   2    2 1000  788 PO
   2    2 1000  779 PO
   2    2 1000  789 PO
   2    2 1000  787 PO
   2    2 1001  780 PO
   2    2 1002  784 PO
   2    2 1002  779 PO
   2    2 1002  791 PO
   2    2 1002  786 PO
   2    2 1003  787 PO
   2    2 1003  779 PO
   2    2 1004  788 PO
   2    2 1005  788 PO
   2    2 1005  792 PO
   2    2 1005  774 PO
   2    2 1007  790 PO
   2    2 1008  789 PO
   2    2 1010  787 PO
   2    2 1010  726 PO
   2    2 1012  338 PO
   2    2 1012  786 PO
   2    2 1012  791 PO
   2    2 1013  785 PO
   2    2 1014  779 PO
   2    2 1014  763 PO
   2    2 1014  762 PO
   2    2 1014  752 PO
   2    2 1015  458 PO
   2    2 1015  665 PO
   2    2 1016  770 PO
   2    2 1016  644 PO
   2    2 1017  789 PO
   2    2 1017  785 PO
   2    2 1017  774 PO
   2    2 1018  792 PO
   2    2 1019  750 PO
   2    2 1019  790 PO
   2    2 1019  742 PO
   2    2 1020  773 PO
   2    2 1020  173 PO
   2    2 1020  785 PO
   2    2 1020  707 PO
   2    2 1021  766 PO
   2    2 1021  786 PO
   2    2 1022  786 PO
   2    2 1022  774 PO
   2    2 1022  767 PO
   2    2 1023  788 PO
   2    2 1023  787 PO
   2    2 1023  785 PO
   2    2 1023  779 PO
   2    2 1024  549 PO
   2    2 1025  770 PO
   2    2 1026  787 PO
   2    2 1027  660 PO
   2    2 1027  780 PO
   2    2 1028  175 PO
   2    2 1028  791 PO
   2    2 1029  788 PO
   2    2 1029  721 PO
   2    2 1029  759 PO
   2    2 1029  781 PO
   2    2 1030  780 PO
   2    2 1030  788 PO
   2    2 1031  774 PO
   2    2 1031  686 PO
   2    2 1031  792 PO
   2    2 1032  759 PO
   2    2 1032  788 PO
   2    2 1033  781 PO
   2    2 1033  790 PO
   2    2 1034  785 PO
   2    2 1034  784 PO
   2    2 1034  788 PO
   2    2 1035  782 PO
   2    2 1036  785 PO
   2    2 1037  782 PO
   2    2 1037  790 PO
   2    2 1038  787 PO
   2    2 1038  788 PO
   2    2 1039  792 PO
   2    2 1039  786 PO
   2    2 1040  786 PO
   2    2 1040  788 PO
   2    2 1041  788 PO
   2    2 1041  772 PO
   2    2 1041  724 PO
   2    2 1042  778 PO
   2    2 1042  656 PO
   2    2 1043  781 PO
   2    2 1043  790 PO
   2    2 1043  782 PO
   2    2 1043  785 PO
   2    2 1044  693 PO
   2    2 1044  650 PO
   2    2 1044  790 PO
   2    2 1045  788 PO
   2    2 1045  785 PO
   2    2 1046  785 PO
   2    2 1047  785 PO
   2    2 1047  787 PO
   2    2 1048  778 PO
   2    2 1048  785 PO
   2    2 1049  785 PO
   2    2 1049  784 PO
   2    2 1049  772 PO
   2    2 1050  788 PO
   2    2 1051  775 PO
   2    2 1051  791 PO
   2    2 1051  787 PO
   2    2 1051  788 PO
   2    2 1052  772 PO
   2    2 1052  729 PO
   2    2 1053  786 PO
   2    2 1053  772 PO
   2    2 1054  716 PO
   2    2 1054  774 PO
   2    2 1055  566 PO
   2    2  156  788 FO
   2    2  157  766 FO
   2    2  158  750 FO
   2    2  159  782 FO
   2    2  160  778 FO
   2    2  161  787 FO
   2    2  162  788 FO
   2    2  163  791 FO
   2    2  163  766 FO
   2    2  164  778 FO
   2    2  165  777 FO
   2    2  166  786 FO
   2    2  167  781 FO
   2    2  168  789 FO
   2    2  169  784 FO
   2    2  170  788 FO
   2    2  171  786 FO
   2    2  172  789 FO
   2    2  173  787 FO
   2    2  174  782 FO
   2    2  175  785 FO
   2    2  176  789 FO
   2    2  177  785 FO
   2    2  178  786 FO
   2    2  179  786 FO
   2    2  180  785 FO
   2    2  181  788 FO
   2    2  182  787 FO
   2    2  183  788 FO
   2    2  184  781 FO
   2    2  185  789 FO
   2    2  185  779 FO
   2    2  186  779 FO
   2    2  187  787 FO
   2    2  188  785 FO
   2    2  189  782 FO
   2    2  190  780 FO
   2    2  190  789 FO
   2    2  191  783 FO
   2    2  192  779 FO
   2    2  192  769 FO
   2    2  193  607 FO
   2    2  194  779 FO
   2    2  195  769 FO
   2    2  196  786 FO
   2    2  197  784 FO
   2    2  198  763 FO
   2    2  198  771 FO
   2    2  199  659 FO
   2    2  200  790 FO
   2    2  201  637 FO
   2    2  201  790 FO
   2    2  202  785 FO
   2    2  203  758 FO
   2    2  204  779 FO
   2    2  204  792 FO
   2    2  206  783 FO
   2    2  207  790 FO
   2    2  208  784 FO
   2    2  209  783 FO
   2    2  210  703 FO
   2    2  210  784 FO
   2    2  211  790 FO
   2    2  212  701 FO
   2    2  213  782 FO
   2    2  213  783 FO
   2    2  214  790 FO
   2    2  215  790 FO
   2    2  216  773 FO
   2    2  217  791 FO
   2    2  218  787 FO
   2    2  219  790 FO
   2    2  220  786 FO
   2    2  221  789 FO
   2    2  221  786 FO
   2    2  223  786 FO
   2    2  224  787 FO
   2    2  225  789 FO
   2    2  225  788 FO
   2    2  227  788 FO
   2    2  229  788 FO
   2    2  229  789 FO
   2    2  230  789 FO
   2    2  231  790 FO
   2    2  232  790 FO
   2    2  233  790 FO
   2    2  234  788 FO
   2    2  235  788 FO
   2    2  235  789 FO
   2    2  236  791 FO
   2    2  237  775 FO
   2    2  238  783 FO
   2    2  239  780 FO
   2    2  240  782 FO
   2    2  241  786 FO
   2    2  242  773 FO
   2    2  243  787 FO
   2    2  243  780 FO
   2    2  244  789 FO
   2    2  245  787 FO
   2    2  246  782 FO
   2    2  247  788 FO
   2    2  247  778 FO
   2    2  248  787 FO
   2    2  249  780 FO
   2    2  250  782 FO
   2    2  251  783 FO
   2    2  252  783 FO
   2    2  253  778 FO
   2    2  254  693 FO
   2    2  255  789 FO
   2    2  256  714 FO
   2    2  257  773 FO
   2    2  258  757 FO
   2    2  258  785 FO
   2    2  259  779 FO
   2    2  260  777 FO
   2    2  261  787 FO
   2    2  262  743 FO
   2    2  263  787 FO
   2    2  263  790 FO
   2    2  264  788 FO
   2    2  265  785 FO
   2    2  266  784 FO
   2    2  266  788 FO
   2    2  267  788 FO
   2    2  268  621 FO
   2    2  268  788 FO
   2    2  270  791 FO
   2    2  272  779 FO
   2    2  273  793 FO
   2    2  274  789 FO
   2    2  275  790 FO
   2    2  276  785 FO
   2    2  277  790 FO
   2    2  278  765 FO
   2    2  278  782 FO
   2    2  279  741 FO
   2    2  280  782 FO
   2    2  281  690 FO
   2    2  282  731 FO
   2    2  283  790 FO
   2    2  284  743 FO
   2    2  285  759 FO
   2    2  286  594 FO
   2    2  287  789 FO
   2    2  288  788 FO
   2    2  289  405 FO
   2    2  289  784 FO
   2    2  291  789 FO
   2    2  292  788 FO
   2    2  293  790 FO
   2    2  294  790 FO
   2    2  295  791 FO
   2    2  296  789 FO
   2    2  297  789 FO
   2    2  297  786 FO
   2    2  298  790 FO
   2    2  299  788 FO
   2    2  299  786 FO
   2    2  300  788 FO
   2    2  301  783 FO
   2    2  302  787 FO
   2    2  303  783 FO
   2    2  304  790 FO
   2    2  305  786 FO
   2    2  306  783 FO
   2    2  307  776 FO
   2    2  307  779 FO
   2    2  308  785 FO
   2    2  309  789 FO
   2    2  310  784 FO
   2    2  311  787 FO
   2    2  312  785 FO
   2    2  313  776 FO
   2    2  313  782 FO
   2    2  314  782 FO
   2    2  315  788 FO
   2    2  316  779 FO
   2    2  317  784 FO
   2    2  318  785 FO
   2    2  319  787 FO
   2    2  320  785 FO
   2    2  320  787 FO
   2    2  321  760 FO
   2    2  322  774 FO
   2    2  323  767 FO
   2    2  324  755 FO
   2    2  325  663 FO
   2    2  325  789 FO
   2    2  326  787 FO
   2    2  327  789 FO
   2    2  328  627 FO
   2    2  329  791 FO
   2    2  329  657 FO
   2    2  330  789 FO
   2    2  331  790 FO
   2    2  332  779 FO
   2    2  333  690 FO
   2    2  334  784 FO
   2    2  334  786 FO
   2    2  335  781 FO
   2    2  336  790 FO
   2    2  337  786 FO
   2    2  338  787 FO
   2    2  339  785 FO
   2    2  340  786 FO
   2    2  340  776 FO
   2    2  341  785 FO
   2    2  342  786 FO
   2    2  343  786 FO
   2    2  344  728 FO
   2    2  345  783 FO
   2    2  345  784 FO
   2    2  346  719 FO
   2    2  347  776 FO
   2    2  348  780 FO
   2    2  349  723 FO
   2    2  350  545 FO
   2    2  351  791 FO
   2    2  351  790 FO
   2    2  352  789 FO
   2    2  353  788 FO
   2    2  354  789 FO
   2    2  354  780 FO
   2    2  355  789 FO
   2    2  356  779 FO
   2    2  357  791 FO
   2    2  358  785 FO
   2    2  359  789 FO
   2    2  359  791 FO
   2    2  360  390 FO
   2    2  361  778 FO
   2    2  362  776 FO
   2    2  363  792 FO
   2    2  364  454 FO
   2    2  364  790 FO
   2    2  365  792 FO
   2    2  366  772 FO
   2    2  367  760 FO
   2    2  368  784 FO
   2    2  369  787 FO
   2    2  370  783 FO
   2    2  370  791 FO
   2    2  371  790 FO
   2    2  372  785 FO
   2    2  373  791 FO
   2    2  374  786 FO
   2    2  374  790 FO
   2    2  375  788 FO
   2    2  376  789 FO
   2    2  377  789 FO
   2    2  378  785 FO
   2    2  379  778 FO
   2    2  380  782 FO
   2    2  380  791 FO
   2    2  381  785 FO
   2    2  382  789 FO
   2    2  383  784 FO
   2    2  384  792 FO
   2    2  385  790 FO
   2    2  386  789 FO
   2    2  386  787 FO
   2    2  387  784 FO
   2    2  388  777 FO
   2    2  389  774 FO
   2    2  390  789 FO
   2    2  391  777 FO
   2    2  391  787 FO
   2    2  392  785 FO
   2    2  393  788 FO
   2    2  394  785 FO
   2    2  395  783 FO
   2    2  396  782 FO
   2    2  396  783 FO
   2    2  397  787 FO
   2    2  398  789 FO
   2    2  399  785 FO
   2    2  400  758 FO
   2    2  400  763 FO
   2    2  401  780 FO
   2    2  402  736 FO
   2    2  403  785 FO
   2    2  404  778 FO
   2    2  405  780 FO
   2    2  405  791 FO
   2    2  406  785 FO
   2    2  407  787 FO
   2    2  408  783 FO
   2    2  409  789 FO
   2    2  410  786 FO
   2    2  411  793 FO
   2    2  412  791 FO
   2    2  413  790 FO
   2    2  414  788 FO
   2    2  415  787 FO
   2    2  416  788 FO
   2    2  417  788 FO
   2    2  418  784 FO
   2    2  419  727 FO
   2    2  419  784 FO
   2    2  420  756 FO
   2    2  421  769 FO
   2    2  422  765 FO
   2    2  423  787 FO
   2    2  424  790 FO
   2    2  425  791 FO
   2    2  425  786 FO
   2    2  426  783 FO
   2    2  427  790 FO
   2    2  428  788 FO
   2    2  429  785 FO
   2    2  430  789 FO
   2    2  431  782 FO
   2    2  431  787 FO
   2    2  432  785 FO
   2    2  433  790 FO
   2    2  433  791 FO
   2    2  434  790 FO
   2    2  435  788 FO
   2    2  436  788 FO
   2    2  437  785 FO
   2    2  438  794 FO
   2    2  438  790 FO
   2    2  439  788 FO
   2    2  440  788 FO
   2    2  441  787 FO
   2    2  442  785 FO
   2    2  443  785 FO
   2    2  444  788 FO
   2    2  444  787 FO
   2    2  446  783 FO
   2    2  446  787 FO
   2    2  448  770 FO
   2    2  448  785 FO
   2    2  449  740 FO
   2    2  450  764 FO
   2    2  450  785 FO
   2    2  451  786 FO
   2    2  452  765 FO
   2    2  453  789 FO
   2    2  454  785 FO
   2    2  455  790 FO
   2    2  456  782 FO
   2    2  457  747 FO
   2    2  458  786 FO
   2    2  458  729 FO
   2    2  459  779 FO
   2    2  460  709 FO
   2    2  461  782 FO
   2    2  462  777 FO
   2    2  463  791 FO
   2    2  464  788 FO
   2    2  465  786 FO
   2    2  466  654 FO
   2    2  467  785 FO
   2    2  468  785 FO
   2    2  469  790 FO
   2    2  471  789 FO
   2    2  471  790 FO
   2    2  472  785 FO
   2    2  473  788 FO
   2    2  474  784 FO
   2    2  475  789 FO
   2    2  476  779 FO
   2    2  477  787 FO
   2    2  478  781 FO
   2    2  479  788 FO
   2    2  479  790 FO
   2    2  480  790 FO
   2    2  481  790 FO
   2    2  482  788 FO
   2    2  483  790 FO
   2    2  483  788 FO
   2    2  484  727 FO
   2    2  485  786 FO
   2    2  485  767 FO
   2    2  487  778 FO
   2    2  488  767 FO
   2    2  489  671 FO
   2    2  490  781 FO
   2    2  491  787 FO
   2    2  492  787 FO
   2    2  493  762 FO
   2    2  494  789 FO
   2    2  495  788 FO
   2    2  496  778 FO
   2    2  496  786 FO
   2    2  497  787 FO
   2    2  498  788 FO
   2    2  499  786 FO
   2    2  500  684 FO
   2    2  501  781 FO
   2    2  502  757 FO
   2    2  503  768 FO
   2    2  504  768 FO
   2    2  505  776 FO
   2    2  506  756 FO
   2    2  507  787 FO
   2    2  508  788 FO
   2    2  509  779 FO
   2    2  510  791 FO
   2    2  511  789 FO
   2    2  512  692 FO
   2    2  513  791 FO
   2    2  514  787 FO
   2    2  514  760 FO
   2    2  515  772 FO
   2    2  516  792 FO
   2    2  517  783 FO
   2    2  518  750 FO
   2    2  519  791 FO
   2    2  520  751 FO
   2    2  520  717 FO
   2    2  521  792 FO
   2    2  522  788 FO
   2    2  523  725 FO
   2    2  524  753 FO
   2    2  525  773 FO
   2    2  526  765 FO
   2    2  526  789 FO
   2    2  527  781 FO
   2    2  528  790 FO
   2    2  529  792 FO
   2    2  530  792 FO
   2    2  531  791 FO
   2    2  532  790 FO
   2    2  533  786 FO
   2    2  534  785 FO
   2    2  535  787 FO
   2    2  536  779 FO
   2    2  537  787 FO
   2    2  538  780 FO
   2    2  539  787 FO
   2    2  540  789 FO
   2    2  542  726 FO
   2    2  543  787 FO
   2    2  544  787 FO
   2    2  545  788 FO
   2    2  546  789 FO
   2    2  547  783 FO
   2    2  548  765 FO
   2    2  549  789 FO
   2    2  550  788 FO
   2    2  551  785 FO
   2    2  551  787 FO
   2    2  552  786 FO
   2    2  553  779 FO
   2    2  553  790 FO
   2    2  555  750 FO
   2    2  556  718 FO
   2    2  557  787 FO
   2    2  558  676 FO
   2    2  559  779 FO
   2    2  561  784 FO
   2    2  562  781 FO
   2    2  563  788 FO
   2    2  564  787 FO
   2    2  565  788 FO
   2    2  566  790 FO
   2    2  566  789 FO
   2    2  567  788 FO
   2    2  568  782 FO
   2    2  569  787 FO
   2    2  570  729 FO
   2    2  571  678 FO
   2    2  571  649 FO
   2    2  573  778 FO
   2    2  574  779 FO
   2    2  575  765 FO
   2    2  575  788 FO
   2    2  576  782 FO
   2    2  578  790 FO
   2    2  578  789 FO
   2    2  579  790 FO
   2    2  580  789 FO
   2    2  581  780 FO
   2    2  582  786 FO
   2    2  582  785 FO
   2    2  583  786 FO
   2    2  584  740 FO
   2    2  585  778 FO
   2    2  586  770 FO
   2    2  587  728 FO
   2    2  588  776 FO
   2    2  589  646 FO
   2    2  589  778 FO
   2    2  590  783 FO
   2    2  591  773 FO
   2    2  591  778 FO
   2    2  593  779 FO
   2    2  606  786 FO
   2    2  607  785 FO
   2    2  608  771 FO
   2    2  609  778 FO
   2    2  610  792 FO
   2    2  610  791 FO
   2    2  611  787 FO
   2    2  611  789 FO
   2    2  612  786 FO
   2    2  612  720 FO
   2    2  613  792 FO
   2    2  613  790 FO
   2    2  618  787 FO
   2    2  619  788 FO
   2    2  619  792 FO
   2    2  619  790 FO
   2    2  620  780 FO
   2    2  620  790 FO
   2    2  621  789 FO
   2    2  622  788 FO
   2    2  622  787 FO
   2    2  622  786 FO
   2    2  630  787 FO
   2    2  632  783 FO
   2    2  632  786 FO
   2    2  634  789 FO
   2    2  644  786 FO
   2    2  718  788 FO
   2    2  728  737 FO
   2    2  736  787 FO
   2    2  737  767 FO
   2    2  738  775 FO
   2    2  739  787 FO
   2    2  741  767 FO
   2    2  742  759 FO
   2    2  754  717 FO
   2    2  756  775 FO
   2    2  765  771 FO
   2    2  765  776 FO
   2    2  766  781 FO
   2    2  766  791 FO
   2    2  770  771 FO
   2    2  770  714 FO
   2    2  770  774 FO
   2    2  771  777 FO
   2    2  771  788 FO
   2    2  772  788 FO
   2    2  772  773 FO
   2    2  772  789 FO
   2    2  773  783 FO
   2    2  773  782 FO
   2    2  774  704 FO
   2    2  774  789 FO
   2    2  775  789 FO
   2    2  775  782 FO
   2    2  775  638 FO
   2    2  775  783 FO
   2    2  776  745 FO
   2    2  777  786 FO
   2    2  777  790 FO
   2    2  777  791 FO
   2    2  778  785 FO
   2    2  779  787 FO
   2    2  779  786 FO
   2    2  780  792 FO
   2    2  780  790 FO
   2    2  781  791 FO
   2    2  781  790 FO
   2    2  781  787 FO
   2    2  781  790 FO
   2    2  782  788 FO
   2    2  784  786 FO
   2    2  785  789 FO
   2    2  785  780 FO
   2    2  786  711 FO
   2    2  787  787 FO
   2    2  787  767 FO
   2    2  787  777 FO
   2    2  788  789 FO
   2    2  788  770 FO
   2    2  789  789 FO
   2    2  789  788 FO
   2    2  790  786 FO
   2    2  790  788 FO
   2    2  791  787 FO
   2    2  792  790 FO
   2    2  792  787 FO
   2    2  793  791 FO
   2    2  793  787 FO
   2    2  793  788 FO
   2    2  793  784 FO
   2    2  793  782 FO
   2    2  794  789 FO
   2    2  795  787 FO
   2    2  795  788 FO
   2    2  795  714 FO
   2    2  795  786 FO
   2    2  796  771 FO
   2    2  796  780 FO
   2    2  796  622 FO
   2    2  796  790 FO
   2    2  797  790 FO
   2    2  798  782 FO
   2    2  798  786 FO
   2    2  800  789 FO
   2    2  802  751 FO
   2    2  802  788 FO
   2    2  802  779 FO
   2    2  802  784 FO
   2    2  803  791 FO
   2    2  803  790 FO
   2    2  804  785 FO
   2    2  804  775 FO
   2    2  804  785 FO
   2    2  805  779 FO
   2    2  805  768 FO
   2    2  805  787 FO
   2    2  805  789 FO
   2    2  805  784 FO
   2    2  805  777 FO
   2    2  807  790 FO
   2    2  808  731 FO
   2    2  808  788 FO
   2    2  809  785 FO
   2    2  809  768 FO
   2    2  810  786 FO
   2    2  810  774 FO
   2    2  812  787 FO
   2    2  814  784 FO
   2    2  814  790 FO
   2    2  815  783 FO
   2    2  815  789 FO
   2    2  815  782 FO
   2    2  818  786 FO
   2    2  818  760 FO
   2    2  818  643 FO
   2    2  819  781 FO
   2    2  819  761 FO
   2    2  819  788 FO
   2    2  819  775 FO
   2    2  820  787 FO
   2    2  820  791 FO
   2    2  821  783 FO
   2    2  821  785 FO
   2    2  821  788 FO
   2    2  821  787 FO
   2    2  822  789 FO
   2    2  823  741 FO
   2    2  823  604 FO
   2    2  823  735 FO
   2    2  824  757 FO
   2    2  824  774 FO
   2    2  824  767 FO
   2    2  825  781 FO
   2    2  827  788 FO
   2    2  827  786 FO
   2    2  828  788 FO
   2    2  828  792 FO
   2    2  829  787 FO
   2    2  829  786 FO
   2    2  830  791 FO
   2    2  830  785 FO
   2    2  830  788 FO
   2    2  831  776 FO
   2    2  831  775 FO
   2    2  831  693 FO
   2    2  831  774 FO
   2    2  832  786 FO
   2    2  832  791 FO
   2    2  832  787 FO
   2    2  833  781 FO
   2    2  833  789 FO
   2    2  834  793 FO
   2    2  834  787 FO
   2    2  834  785 FO
   2    2  836  772 FO
   2    2  836  786 FO
   2    2  836  789 FO
   2    2  836  792 FO
   2    2  836  783 FO
   2    2  837  790 FO
   2    2  837  787 FO
   2    2  837  704 FO
   2    2  837  790 FO
   2    2  838  761 FO
   2    2  838  783 FO
   2    2  838  787 FO
   2    2  839  790 FO
   2    2  839  787 FO
   2    2  839  789 FO
   2    2  840  741 FO
   2    2  840  536 FO
   2    2  840  784 FO
   2    2  841  673 FO
   2    2  841  693 FO
   2    2  843  782 FO
   2    2  843  768 FO
   2    2  843  753 FO
   2    2  843  779 FO
   2    2  844  780 FO
   2    2  844  792 FO
   2    2  845  788 FO
   2    2  845  792 FO
   2    2  846  785 FO
   2    2  846  783 FO
   2    2  847  783 FO
   2    2  847  782 FO
   2    2  847  783 FO
   2    2  848  781 FO
   2    2  848  767 FO
   2    2  848  779 FO
   2    2  849  789 FO
   2    2  849  777 FO
   2    2  849  790 FO
   2    2  849  786 FO
   2    2  850  787 FO
   2    2  850  789 FO
   2    2  852  659 FO
   2    2  852  764 FO
   2    2  853  573 FO
   2    2  853  769 FO
   2    2  854  767 FO
   2    2  855  789 FO
   2    2  856  787 FO
   2    2  856  790 FO
   2    2  856  788 FO
   2    2  857  787 FO
   2    2  857  777 FO
   2    2  857  786 FO
   2    2  859  514 FO
   2    2  859  756 FO
   2    2  860  775 FO
   2    2  861  698 FO
   2    2  861  787 FO
   2    2  861  773 FO
   2    2  862  782 FO
   2    2  862  793 FO
   2    2  862  789 FO
   2    2  863  792 FO
   2    2  863  788 FO
   2    2  863  787 FO
   2    2  864  787 FO
   2    2  865  789 FO
   2    2  866  789 FO
   2    2  866  786 FO
   2    2  866  781 FO
   2    2  867  784 FO
   2    2  867  759 FO
   2    2  870  792 FO
   2    2  870  771 FO
   2    2  870  790 FO
   2    2  870  789 FO
   2    2  871  783 FO
   2    2  872  792 FO
   2    2  872  783 FO
   2    2  872  739 FO
   2    2  873  767 FO
   2    2  873  775 FO
   2    2  875  783 FO
   2    2  877  700 FO
   2    2  877  781 FO
   2    2  877  789 FO
   2    2  878  764 FO
   2    2  880  754 FO
   2    2  880  783 FO
   2    2  881  778 FO
   2    2  881  754 FO
   2    2  882  741 FO
   2    2  882  788 FO
   2    2  882  333 FO
   2    2  882  789 FO
   2    2  883  788 FO
   2    2  883  792 FO
   2    2  883  788 FO
   2    2  884  788 FO
   2    2  884  779 FO
   2    2  884  788 FO
   2    2  884  781 FO
   2    2  885  767 FO
   2    2  886  788 FO
   2    2  887  769 FO
   2    2  890  780 FO
   2    2  890  768 FO
   2    2  892  776 FO
   2    2  892  788 FO
   2    2  892  275 FO
   2    2  893  790 FO
   2    2  893  611 FO
   2    2  893  544 FO
   2    2  894  785 FO
   2    2  894  779 FO
   2    2  894  793 FO
   2    2  895  784 FO
   2    2  896  789 FO
   2    2  896  786 FO
   2    2  896  789 FO
   2    2  896  783 FO
   2    2  897  785 FO
   2    2  898  787 FO
   2    2  898  781 FO
   2    2  899  779 FO
   2    2  899  764 FO
   2    2  900  774 FO
   2    2  900  773 FO
   2    2  901  784 FO
   2    2  901  782 FO
   2    2  902  789 FO
   2    2  902  788 FO
   2    2  902  790 FO
   2    2  903  784 FO
   2    2  904  790 FO
   2    2  905  778 FO
   2    2  905  779 FO
   2    2  905  790 FO
   2    2  906  389 FO
   2    2  906  788 FO
   2    2  906  784 FO
   2    2  907  788 FO
   2    2  907  582 FO
   2    2  909  788 FO
   2    2  909  786 FO
   2    2  910  786 FO
   2    2  910  728 FO
   2    2  910  790 FO
   2    2  911  758 FO
   2    2  911  785 FO
   2    2  912  791 FO
   2    2  912  789 FO
   2    2  913  790 FO
   2    2  914  782 FO
   2    2  914  789 FO
   2    2  914  790 FO
   2    2  915  786 FO
   2    2  915  774 FO
   2    2  915  778 FO
   2    2  915  791 FO
   2    2  916  784 FO
   2    2  916  779 FO
   2    2  916  787 FO
   2    2  917  761 FO
   2    2  917  788 FO
   2    2  917  473 FO
   2    2  917  688 FO
   2    2  918  765 FO
   2    2  918  789 FO
   2    2  918  787 FO
   2    2  919  787 FO
   2    2  919  778 FO
   2    2  920  739 FO
   2    2  922  792 FO
   2    2  923  791 FO
   2    2  923  777 FO
   2    2  923  789 FO
   2    2  923  795 FO
   2    2  924  771 FO
   2    2  925  790 FO
   2    2  925  787 FO
   2    2  925  790 FO
   2    2  926  791 FO
   2    2  927  792 FO
   2    2  927  791 FO
   2    2  927  790 FO
   2    2  928  789 FO
   2    2  930  788 FO
   2    2  931  779 FO
   2    2  932  791 FO
   2    2  932  790 FO
   2    2  933  786 FO
   2    2  933  789 FO
   2    2  933  787 FO
   2    2  934  723 FO
   2    2  934  742 FO
   2    2  935  779 FO
   2    2  936  671 FO
   2    2  936  717 FO
   2    2  936  764 FO
   2    2  937  781 FO
   2    2  937  787 FO
   2    2  938  789 FO
   2    2  938  769 FO
   2    2  938  774 FO
   2    2  938  782 FO
   2    2  939  657 FO
   2    2  939  789 FO
   2    2  939  790 FO
   2    2  940  787 FO
   2    2  941  789 FO
   2    2  941  787 FO
   2    2  942  790 FO
   2    2  942  787 FO
   2    2  942  777 FO
   2    2  942  684 FO
   2    2  942  787 FO
   2    2  943  789 FO
   2    2  943  781 FO
   2    2  943  779 FO
   2    2  944  786 FO
   2    2  944  792 FO
   2    2  944  790 FO
   2    2  944  786 FO
   2    2  945  760 FO
   2    2  947  790 FO
   2    2  948  787 FO
   2    2  948  790 FO
   2    2  948  737 FO
   2    2  949  793 FO
   2    2  950  759 FO
   2    2  951  714 FO
   2    2  951  759 FO
   2    2  951  784 FO
   2    2  952  787 FO
   2    2  953  757 FO
   2    2  955  791 FO
   2    2  955  717 FO
   2    2  955  643 FO
   2    2  956  783 FO
   2    2  956  784 FO
   2    2  956  609 FO
   2    2  957  789 FO
   2    2  957  780 FO
   2    2  957  772 FO
   2    2  958  775 FO
   2    2  958  457 FO
   2    2  958  786 FO
   2    2  960  787 FO
   2    2  961  787 FO
   2    2  961  753 FO
   2    2  962  784 FO
   2    2  962  790 FO
   2    2  962  768 FO
   2    2  962  781 FO
   2    2  963  789 FO
   2    2  963  692 FO
   2    2  963  551 FO
   2    2  964  759 FO
   2    2  965  713 FO
   2    2  965  789 FO
   2    2  967  710 FO
   2    2  967  792 FO
   2    2  970  752 FO
   2    2  971  791 FO
   2    2  971  787 FO
   2    2  972  786 FO
   2    2  972  791 FO
   2    2  972  778 FO
   2    2  972  790 FO
   2    2  973  789 FO
   2    2  973  786 FO
   2    2  974  787 FO
   2    2  974  786 FO
   2    2  974  775 FO
   2    2  975  529 FO
   2    2  976  692 FO
   2    2  976  739 FO
   2    2  977  710 FO
   2    2  977  783 FO
   2    2  977  675 FO
   2    2  978  739 FO
   2    2  978  767 FO
   2    2  978  779 FO
   2    2  979  783 FO
   2    2  979  790 FO
   2    2  979  787 FO
   2    2  980  784 FO
   2    2  981  777 FO
   2    2  982  790 FO
   2    2  983  780 FO
   2    2  983  781 FO
   2    2  983  789 FO
   2    2  985  788 FO
   2    2  985  785 FO
   2    2  986  780 FO
   2    2  986  790 FO
   2    2  986  789 FO
   2    2  987  781 FO
   2    2  987  789 FO
   2    2  987  787 FO
   2    2  987  788 FO
   2    2  987  791 FO
   2    2  987  754 FO
   2    2  988  779 FO
   2    2  989  783 FO
   2    2  989  790 FO
   2    2  989  780 FO
   2    2  990  730 FO
   2    2  990  636 FO
   2    2  991  786 FO
   2    2  991  617 FO
   2    2  991  777 FO
   2    2  993  752 FO
   2    2  993  779 FO
   2    2  993  788 FO
   2    2  994  780 FO
   2    2  994  788 FO
   2    2  995  771 FO
   2    2  995  770 FO
   2    2  996  791 FO
   2    2  996  774 FO
   2    2  997  787 FO
   2    2  998  510 FO
   2    2  998  782 FO
   2    2  999  721 FO
   2    2  999  761 FO
   2    2  999  782 FO
   2    2  999  788 FO
   2    2 1000  769 FO
   2    2 1000  788 FO
   2    2 1000  779 FO
   2    2 1000  789 FO
   2    2 1000  787 FO
   2    2 1001  780 FO
   2    2 1002  784 FO
   2    2 1002  779 FO
   2    2 1002  791 FO
   2    2 1002  786 FO
   2    2 1003  787 FO
   2    2 1003  779 FO
   2    2 1004  788 FO
   2    2 1005  788 FO
   2    2 1005  792 FO
   2    2 1005  774 FO
   2    2 1007  790 FO
   2    2 1008  789 FO
   2    2 1010  787 FO
   2    2 1010  726 FO
   2    2 1012  338 FO
   2    2 1012  786 FO
   2    2 1012  791 FO
   2    2 1013  785 FO
   2    2 1014  779 FO
   2    2 1014  763 FO
   2    2 1014  762 FO
   2    2 1014  752 FO
   2    2 1015  458 FO
   2    2 1015  665 FO
   2    2 1016  770 FO
   2    2 1016  644 FO
   2    2 1017  789 FO
   2    2 1017  785 FO
   2    2 1017  774 FO
   2    2 1018  792 FO
   2    2 1019  750 FO
   2    2 1019  790 FO
   2    2 1019  742 FO
   2    2 1020  773 FO
   2    2 1020  173 FO
   2    2 1020  785 FO
   2    2 1020  707 FO
   2    2 1021  766 FO
   2    2 1021  786 FO
   2    2 1022  786 FO
   2    2 1022  774 FO
   2    2 1022  767 FO
   2    2 1023  788 FO
   2    2 1023  787 FO
   2    2 1023  785 FO
   2    2 1023  779 FO
   2    2 1024  549 FO
   2    2 1025  770 FO
   2    2 1026  787 FO
   2    2 1027  660 FO
   2    2 1027  780 FO
   2    2 1028  175 FO
   2    2 1028  791 FO
   2    2 1029  788 FO
   2    2 1029  721 FO
   2    2 1029  759 FO
   2    2 1029  781 FO
   2    2 1030  780 FO
   2    2 1030  788 FO
   2    2 1031  774 FO
   2    2 1031  686 FO
   2    2 1031  792 FO
   2    2 1032  759 FO
   2    2 1032  788 FO
   2    2 1033  781 FO
   2    2 1033  790 FO
   2    2 1034  785 FO
   2    2 1034  784 FO
   2    2 1034  788 FO
   2    2 1035  782 FO
   2    2 1036  785 FO
   2    2 1037  782 FO
   2    2 1037  790 FO
   2    2 1038  787 FO
   2    2 1038  788 FO
   2    2 1039  792 FO
   2    2 1039  786 FO
   2    2 1040  786 FO
   2    2 1040  788 FO
   2    2 1041  788 FO
   2    2 1041  772 FO
   2    2 1041  724 FO
   2    2 1042  778 FO
   2    2 1042  656 FO
   2    2 1043  781 FO
   2    2 1043  790 FO
   2    2 1043  782 FO
   2    2 1043  785 FO
   2    2 1044  693 FO
   2    2 1044  650 FO
   2    2 1044  790 FO
   2    2 1045  788 FO
   2    2 1045  785 FO
   2    2 1046  785 FO
   2    2 1047  785 FO
   2    2 1047  787 FO
   2    2 1048  778 FO
   2    2 1048  785 FO
   2    2 1049  785 FO
   2    2 1049  784 FO
   2    2 1049  772 FO
   2    2 1050  788 FO
   2    2 1051  775 FO
   2    2 1051  791 FO
   2    2 1051  787 FO
   2    2 1051  788 FO
   2    2 1052  772 FO
   2    2 1052  729 FO
   2    2 1053  786 FO
   2    2 1053  772 FO
   2    2 1054  716 FO
   2    2 1054  774 FO
   2    2 1055  566 FO
gr

gs 156 68 931 734 MR c np
gr

 564   54 mt 
(144-4 Site1) s
 551  851 mt 
(Time \(Minutes\)) s
 108  456 mt  -90 rotate
(Te \(\)) s
90 rotate
 156  192 mt 
(Average: 0.13        ) s
 156  215 mt 
(Std Dev: 0.23        ) s
 156  238 mt 
(CV: 1.76             ) s
 156  261 mt 
(Is stationary: False ) s
 156  284 mt 
(Not stationary: 4,10,) s
1.04167 w

end %%Color Dict

eplot
%%EndObject

epage
end

showpage

%%Trailer
%%EOF
