%!PS-Adobe-2.0 EPSF-1.2
%%Creator: MATLAB, The Mathworks, Inc. Version 7.4.0.287 (R2007a). Operating System: Microsoft Windows 2000.
%%Title: D:\contract work\KatzData\Results\Stanford 12 New Buxco Setting_144- Variable -- Ti Time -- 10800-11206.2.eps
%%CreationDate: 09/08/2010  21:04:43
%%DocumentNeededFonts: Helvetica
%%DocumentProcessColors: Cyan Magenta Yellow Black
%%Pages: 1
%%BoundingBox:    51   199   550   601
%%EndComments

%%BeginProlog
% MathWorks dictionary
/MathWorks 160 dict begin
% definition operators
/bdef {bind def} bind def
/ldef {load def} bind def
/xdef {exch def} bdef
/xstore {exch store} bdef
% operator abbreviations
/c  /clip ldef
/cc /concat ldef
/cp /closepath ldef
/gr /grestore ldef
/gs /gsave ldef
/mt /moveto ldef
/np /newpath ldef
/cm /currentmatrix ldef
/sm /setmatrix ldef
/rm /rmoveto ldef
/rl /rlineto ldef
/s {show newpath} bdef
/sc {setcmykcolor} bdef
/sr /setrgbcolor ldef
/sg /setgray ldef
/w /setlinewidth ldef
/j /setlinejoin ldef
/cap /setlinecap ldef
/rc {rectclip} bdef
/rf {rectfill} bdef
% page state control
/pgsv () def
/bpage {/pgsv save def} bdef
/epage {pgsv restore} bdef
/bplot /gsave ldef
/eplot {stroke grestore} bdef
% orientation switch
/portraitMode 0 def /landscapeMode 1 def /rotateMode 2 def
% coordinate system mappings
/dpi2point 0 def
% font control
/FontSize 0 def
/FMS {/FontSize xstore findfont [FontSize 0 0 FontSize neg 0 0]
  makefont setfont} bdef
/ISOLatin1Encoding where {pop /WindowsLatin1Encoding 256 array bdef
ISOLatin1Encoding WindowsLatin1Encoding copy pop
/.notdef/.notdef/quotesinglbase/florin/quotedblbase/ellipsis/dagger
/daggerdbl/circumflex/perthousand/Scaron/guilsinglleft/OE/.notdef/.notdef
/.notdef/.notdef/quoteleft/quoteright/quotedblleft/quotedblright/bullet
/endash/emdash/tilde/trademark/scaron/guilsinglright/oe/.notdef/.notdef
/Ydieresis WindowsLatin1Encoding 128 32 getinterval astore pop}
{/WindowsLatin1Encoding StandardEncoding bdef} ifelse
/reencode {exch dup where {pop load} {pop StandardEncoding} ifelse
  exch dup 3 1 roll findfont dup length dict begin
  { 1 index /FID ne {def}{pop pop} ifelse } forall
  /Encoding exch def currentdict end definefont pop} bdef
/isroman {findfont /CharStrings get /Agrave known} bdef
/FMSR {3 1 roll 1 index dup isroman {reencode} {pop pop} ifelse
  exch FMS} bdef
/csm {1 dpi2point div -1 dpi2point div scale neg translate
 dup landscapeMode eq {pop -90 rotate}
  {rotateMode eq {90 rotate} if} ifelse} bdef
% line types: solid, dotted, dashed, dotdash
/SO { [] 0 setdash } bdef
/DO { [.5 dpi2point mul 4 dpi2point mul] 0 setdash } bdef
/DA { [6 dpi2point mul] 0 setdash } bdef
/DD { [.5 dpi2point mul 4 dpi2point mul 6 dpi2point mul 4
  dpi2point mul] 0 setdash } bdef
% macros for lines and objects
/L {lineto stroke} bdef
/MP {3 1 roll moveto 1 sub {rlineto} repeat} bdef
/AP {{rlineto} repeat} bdef
/PDlw -1 def
/W {/PDlw currentlinewidth def setlinewidth} def
/PP {closepath eofill} bdef
/DP {closepath stroke} bdef
/MR {4 -2 roll moveto dup  0 exch rlineto exch 0 rlineto
  neg 0 exch rlineto closepath} bdef
/FR {MR stroke} bdef
/PR {MR fill} bdef
/L1i {{currentfile picstr readhexstring pop} image} bdef
/tMatrix matrix def
/MakeOval {newpath tMatrix currentmatrix pop translate scale
0 0 1 0 360 arc tMatrix setmatrix} bdef
/FO {MakeOval stroke} bdef
/PO {MakeOval fill} bdef
/PD {currentlinewidth 2 div 0 360 arc fill
   PDlw -1 eq not {PDlw w /PDlw -1 def} if} def
/FA {newpath tMatrix currentmatrix pop translate scale
  0 0 1 5 -2 roll arc tMatrix setmatrix stroke} bdef
/PA {newpath tMatrix currentmatrix pop	translate 0 0 moveto scale
  0 0 1 5 -2 roll arc closepath tMatrix setmatrix fill} bdef
/FAn {newpath tMatrix currentmatrix pop translate scale
  0 0 1 5 -2 roll arcn tMatrix setmatrix stroke} bdef
/PAn {newpath tMatrix currentmatrix pop translate 0 0 moveto scale
  0 0 1 5 -2 roll arcn closepath tMatrix setmatrix fill} bdef
/vradius 0 def /hradius 0 def /lry 0 def
/lrx 0 def /uly 0 def /ulx 0 def /rad 0 def
/MRR {/vradius xdef /hradius xdef /lry xdef /lrx xdef /uly xdef
  /ulx xdef newpath tMatrix currentmatrix pop ulx hradius add uly
  vradius add translate hradius vradius scale 0 0 1 180 270 arc 
  tMatrix setmatrix lrx hradius sub uly vradius add translate
  hradius vradius scale 0 0 1 270 360 arc tMatrix setmatrix
  lrx hradius sub lry vradius sub translate hradius vradius scale
  0 0 1 0 90 arc tMatrix setmatrix ulx hradius add lry vradius sub
  translate hradius vradius scale 0 0 1 90 180 arc tMatrix setmatrix
  closepath} bdef
/FRR {MRR stroke } bdef
/PRR {MRR fill } bdef
/MlrRR {/lry xdef /lrx xdef /uly xdef /ulx xdef /rad lry uly sub 2 div def
  newpath tMatrix currentmatrix pop ulx rad add uly rad add translate
  rad rad scale 0 0 1 90 270 arc tMatrix setmatrix lrx rad sub lry rad
  sub translate rad rad scale 0 0 1 270 90 arc tMatrix setmatrix
  closepath} bdef
/FlrRR {MlrRR stroke } bdef
/PlrRR {MlrRR fill } bdef
/MtbRR {/lry xdef /lrx xdef /uly xdef /ulx xdef /rad lrx ulx sub 2 div def
  newpath tMatrix currentmatrix pop ulx rad add uly rad add translate
  rad rad scale 0 0 1 180 360 arc tMatrix setmatrix lrx rad sub lry rad
  sub translate rad rad scale 0 0 1 0 180 arc tMatrix setmatrix
  closepath} bdef
/FtbRR {MtbRR stroke } bdef
/PtbRR {MtbRR fill } bdef
/stri 6 array def /dtri 6 array def
/smat 6 array def /dmat 6 array def
/tmat1 6 array def /tmat2 6 array def /dif 3 array def
/asub {/ind2 exch def /ind1 exch def dup dup
  ind1 get exch ind2 get sub exch } bdef
/tri_to_matrix {
  2 0 asub 3 1 asub 4 0 asub 5 1 asub
  dup 0 get exch 1 get 7 -1 roll astore } bdef
/compute_transform {
  dmat dtri tri_to_matrix tmat1 invertmatrix 
  smat stri tri_to_matrix tmat2 concatmatrix } bdef
/ds {stri astore pop} bdef
/dt {dtri astore pop} bdef
/db {2 copy /cols xdef /rows xdef mul dup string
  currentfile exch readhexstring pop
  /bmap xdef pop pop} bdef
/it {gs np dtri aload pop moveto lineto lineto cp c
  cols rows 8 compute_transform 
  {bmap} image gr}bdef
/il {newpath moveto lineto stroke}bdef
currentdict end def
%%EndProlog

%%BeginSetup
MathWorks begin

0 cap

end
%%EndSetup

%%Page: 1 1
%%BeginPageSetup
%%PageBoundingBox:    51   199   550   601
MathWorks begin
bpage
%%EndPageSetup

%%BeginObject: obj1
bplot

/dpi2point 2.08333 def
portraitMode 0035 1275 csm

   72    22  1040   838 MR c np
85 dict begin %Colortable dictionary
/c0 { 0.000000 0.000000 0.000000 sr} bdef
/c1 { 1.000000 1.000000 1.000000 sr} bdef
/c2 { 0.900000 0.000000 0.000000 sr} bdef
/c3 { 0.000000 0.820000 0.000000 sr} bdef
/c4 { 0.000000 0.000000 0.800000 sr} bdef
/c5 { 0.910000 0.820000 0.320000 sr} bdef
/c6 { 1.000000 0.260000 0.820000 sr} bdef
/c7 { 0.000000 0.820000 0.820000 sr} bdef
c0
1 j
1 sg
   0    0 1201  901 PR
1.04167 w
0 733 930 0 0 -733 156 801 4 MP
PP
-930 0 0 733 930 0 0 -733 156 801 5 MP stroke
0.694444 w
DO
SO
1.04167 w
0 sg
 156   68 mt 1086   68 L
 156  801 mt 1086  801 L
1086  801 mt 1086   68 L
 156  801 mt  156   68 L
 156  801 mt 1086  801 L
 156  801 mt  156   68 L
 156  801 mt  156  791 L
 156   68 mt  156   77 L
%%IncludeResource: font Helvetica
/Helvetica /WindowsLatin1Encoding 20.8333 FMSR

 139  826 mt 
(180) s
 288  801 mt  288  791 L
 288   68 mt  288   77 L
 271  826 mt 
(181) s
 421  801 mt  421  791 L
 421   68 mt  421   77 L
 404  826 mt 
(182) s
 554  801 mt  554  791 L
 554   68 mt  554   77 L
 537  826 mt 
(183) s
 687  801 mt  687  791 L
 687   68 mt  687   77 L
 670  826 mt 
(184) s
 820  801 mt  820  791 L
 820   68 mt  820   77 L
 803  826 mt 
(185) s
 953  801 mt  953  791 L
 953   68 mt  953   77 L
 936  826 mt 
(186) s
1086  801 mt 1086  791 L
1086   68 mt 1086   77 L
1069  826 mt 
(187) s
 156  801 mt  165  801 L
1086  801 mt 1076  801 L
 110  808 mt 
(0.04) s
 156  709 mt  165  709 L
1086  709 mt 1076  709 L
 110  716 mt 
(0.06) s
 156  617 mt  165  617 L
1086  617 mt 1076  617 L
 110  624 mt 
(0.08) s
 156  526 mt  165  526 L
1086  526 mt 1076  526 L
 122  533 mt 
(0.1) s
 156  434 mt  165  434 L
1086  434 mt 1076  434 L
 110  441 mt 
(0.12) s
 156  342 mt  165  342 L
1086  342 mt 1076  342 L
 110  349 mt 
(0.14) s
 156  251 mt  165  251 L
1086  251 mt 1076  251 L
 110  258 mt 
(0.16) s
 156  159 mt  165  159 L
1086  159 mt 1076  159 L
 110  166 mt 
(0.18) s
 156   68 mt  165   68 L
1086   68 mt 1076   68 L
 122   75 mt 
(0.2) s
 156   68 mt 1086   68 L
 156  801 mt 1086  801 L
1086  801 mt 1086   68 L
 156  801 mt  156   68 L
gs 156 68 931 734 MR c np
2.08333 w
gr

2.08333 w
gs 151 152 910 600 MR c np
0 j
2 2 -2 2 -2 -2 2 -2 156 729 5 MP
gs
PP
gr
DP
2 2 -2 2 -2 -2 2 -2 157 711 5 MP
gs
PP
gr
DP
2 2 -2 2 -2 -2 2 -2 158 711 5 MP
gs
PP
gr
DP
2 2 -2 2 -2 -2 2 -2 159 729 5 MP
gs
PP
gr
DP
2 2 -2 2 -2 -2 2 -2 160 683 5 MP
gs
PP
gr
DP
2 2 -2 2 -2 -2 2 -2 161 693 5 MP
gs
PP
gr
DP
2 2 -2 2 -2 -2 2 -2 162 738 5 MP
gs
PP
gr
DP
2 2 -2 2 -2 -2 2 -2 163 703 5 MP
gs
PP
gr
DP
2 2 -2 2 -2 -2 2 -2 163 702 5 MP
gs
PP
gr
DP
2 2 -2 2 -2 -2 2 -2 164 711 5 MP
gs
PP
gr
DP
2 2 -2 2 -2 -2 2 -2 165 711 5 MP
gs
PP
gr
DP
2 2 -2 2 -2 -2 2 -2 166 693 5 MP
gs
PP
gr
DP
2 2 -2 2 -2 -2 2 -2 167 702 5 MP
gs
PP
gr
DP
2 2 -2 2 -2 -2 2 -2 168 696 5 MP
gs
PP
gr
DP
2 2 -2 2 -2 -2 2 -2 169 688 5 MP
gs
PP
gr
DP
2 2 -2 2 -2 -2 2 -2 170 717 5 MP
gs
PP
gr
DP
2 2 -2 2 -2 -2 2 -2 171 720 5 MP
gs
PP
gr
DP
2 2 -2 2 -2 -2 2 -2 172 729 5 MP
gs
PP
gr
DP
2 2 -2 2 -2 -2 2 -2 173 738 5 MP
gs
PP
gr
DP
2 2 -2 2 -2 -2 2 -2 174 748 5 MP
gs
PP
gr
DP
2 2 -2 2 -2 -2 2 -2 175 738 5 MP
gs
PP
gr
DP
2 2 -2 2 -2 -2 2 -2 176 720 5 MP
gs
PP
gr
DP
2 2 -2 2 -2 -2 2 -2 177 720 5 MP
gs
PP
gr
DP
2 2 -2 2 -2 -2 2 -2 178 720 5 MP
gs
PP
gr
DP
2 2 -2 2 -2 -2 2 -2 179 694 5 MP
gs
PP
gr
DP
2 2 -2 2 -2 -2 2 -2 180 720 5 MP
gs
PP
gr
DP
2 2 -2 2 -2 -2 2 -2 181 738 5 MP
gs
PP
gr
DP
2 2 -2 2 -2 -2 2 -2 182 729 5 MP
gs
PP
gr
DP
2 2 -2 2 -2 -2 2 -2 183 719 5 MP
gs
PP
gr
DP
2 2 -2 2 -2 -2 2 -2 184 702 5 MP
gs
PP
gr
DP
2 2 -2 2 -2 -2 2 -2 185 711 5 MP
gs
PP
gr
DP
2 2 -2 2 -2 -2 2 -2 185 683 5 MP
gs
PP
gr
DP
2 2 -2 2 -2 -2 2 -2 186 693 5 MP
gs
PP
gr
DP
2 2 -2 2 -2 -2 2 -2 187 720 5 MP
gs
PP
gr
DP
2 2 -2 2 -2 -2 2 -2 188 729 5 MP
gs
PP
gr
DP
2 2 -2 2 -2 -2 2 -2 189 711 5 MP
gs
PP
gr
DP
2 2 -2 2 -2 -2 2 -2 190 699 5 MP
gs
PP
gr
DP
2 2 -2 2 -2 -2 2 -2 190 720 5 MP
gs
PP
gr
DP
2 2 -2 2 -2 -2 2 -2 191 711 5 MP
gs
PP
gr
DP
2 2 -2 2 -2 -2 2 -2 192 729 5 MP
gs
PP
gr
DP
2 2 -2 2 -2 -2 2 -2 192 711 5 MP
gs
PP
gr
DP
2 2 -2 2 -2 -2 2 -2 193 729 5 MP
gs
PP
gr
DP
2 2 -2 2 -2 -2 2 -2 194 693 5 MP
gs
PP
gr
DP
2 2 -2 2 -2 -2 2 -2 195 665 5 MP
gs
PP
gr
DP
2 2 -2 2 -2 -2 2 -2 196 693 5 MP
gs
PP
gr
DP
2 2 -2 2 -2 -2 2 -2 197 701 5 MP
gs
PP
gr
DP
2 2 -2 2 -2 -2 2 -2 198 708 5 MP
gs
PP
gr
DP
2 2 -2 2 -2 -2 2 -2 198 702 5 MP
gs
PP
gr
DP
2 2 -2 2 -2 -2 2 -2 199 698 5 MP
gs
PP
gr
DP
2 2 -2 2 -2 -2 2 -2 200 720 5 MP
gs
PP
gr
DP
2 2 -2 2 -2 -2 2 -2 201 693 5 MP
gs
PP
gr
DP
2 2 -2 2 -2 -2 2 -2 201 702 5 MP
gs
PP
gr
DP
2 2 -2 2 -2 -2 2 -2 202 693 5 MP
gs
PP
gr
DP
2 2 -2 2 -2 -2 2 -2 203 687 5 MP
gs
PP
gr
DP
2 2 -2 2 -2 -2 2 -2 204 729 5 MP
gs
PP
gr
DP
2 2 -2 2 -2 -2 2 -2 204 720 5 MP
gs
PP
gr
DP
2 2 -2 2 -2 -2 2 -2 206 698 5 MP
gs
PP
gr
DP
2 2 -2 2 -2 -2 2 -2 207 738 5 MP
gs
PP
gr
DP
2 2 -2 2 -2 -2 2 -2 208 728 5 MP
gs
PP
gr
DP
2 2 -2 2 -2 -2 2 -2 209 711 5 MP
gs
PP
gr
DP
2 2 -2 2 -2 -2 2 -2 210 693 5 MP
gs
PP
gr
DP
2 2 -2 2 -2 -2 2 -2 210 692 5 MP
gs
PP
gr
DP
2 2 -2 2 -2 -2 2 -2 211 674 5 MP
gs
PP
gr
DP
2 2 -2 2 -2 -2 2 -2 212 691 5 MP
gs
PP
gr
DP
2 2 -2 2 -2 -2 2 -2 213 702 5 MP
gs
PP
gr
DP
2 2 -2 2 -2 -2 2 -2 214 729 5 MP
gs
PP
gr
DP
2 2 -2 2 -2 -2 2 -2 215 748 5 MP
gs
PP
gr
DP
2 2 -2 2 -2 -2 2 -2 216 702 5 MP
gs
PP
gr
DP
2 2 -2 2 -2 -2 2 -2 217 748 5 MP
gs
PP
gr
DP
2 2 -2 2 -2 -2 2 -2 218 720 5 MP
gs
PP
gr
DP
2 2 -2 2 -2 -2 2 -2 219 702 5 MP
gs
PP
gr
DP
2 2 -2 2 -2 -2 2 -2 220 711 5 MP
gs
PP
gr
DP
2 2 -2 2 -2 -2 2 -2 221 702 5 MP
gs
PP
gr
DP
2 2 -2 2 -2 -2 2 -2 221 720 5 MP
gs
PP
gr
DP
2 2 -2 2 -2 -2 2 -2 223 748 5 MP
gs
PP
gr
DP
2 2 -2 2 -2 -2 2 -2 224 729 5 MP
gs
PP
gr
DP
2 2 -2 2 -2 -2 2 -2 225 720 5 MP
gs
PP
gr
DP
2 2 -2 2 -2 -2 2 -2 225 729 5 MP
gs
PP
gr
DP
2 2 -2 2 -2 -2 2 -2 227 729 5 MP
gs
PP
gr
DP
2 2 -2 2 -2 -2 2 -2 229 720 5 MP
gs
PP
gr
DP
2 2 -2 2 -2 -2 2 -2 229 711 5 MP
gs
PP
gr
DP
2 2 -2 2 -2 -2 2 -2 230 738 5 MP
gs
PP
gr
DP
2 2 -2 2 -2 -2 2 -2 231 729 5 MP
gs
PP
gr
DP
2 2 -2 2 -2 -2 2 -2 232 738 5 MP
gs
PP
gr
DP
2 2 -2 2 -2 -2 2 -2 233 729 5 MP
gs
PP
gr
DP
2 2 -2 2 -2 -2 2 -2 234 729 5 MP
gs
PP
gr
DP
2 2 -2 2 -2 -2 2 -2 235 738 5 MP
gs
PP
gr
DP
2 2 -2 2 -2 -2 2 -2 235 729 5 MP
gs
PP
gr
DP
2 2 -2 2 -2 -2 2 -2 236 729 5 MP
gs
PP
gr
DP
2 2 -2 2 -2 -2 2 -2 237 720 5 MP
gs
PP
gr
DP
2 2 -2 2 -2 -2 2 -2 238 717 5 MP
gs
PP
gr
DP
2 2 -2 2 -2 -2 2 -2 239 720 5 MP
gs
PP
gr
DP
2 2 -2 2 -2 -2 2 -2 240 699 5 MP
gs
PP
gr
DP
2 2 -2 2 -2 -2 2 -2 241 729 5 MP
gs
PP
gr
DP
2 2 -2 2 -2 -2 2 -2 242 683 5 MP
gs
PP
gr
DP
2 2 -2 2 -2 -2 2 -2 243 720 5 MP
gs
PP
gr
DP
2 2 -2 2 -2 -2 2 -2 244 720 5 MP
gs
PP
gr
DP
2 2 -2 2 -2 -2 2 -2 245 711 5 MP
gs
PP
gr
DP
2 2 -2 2 -2 -2 2 -2 246 693 5 MP
gs
PP
gr
DP
2 2 -2 2 -2 -2 2 -2 247 711 5 MP
gs
PP
gr
DP
2 2 -2 2 -2 -2 2 -2 247 693 5 MP
gs
PP
gr
DP
2 2 -2 2 -2 -2 2 -2 248 702 5 MP
gs
PP
gr
DP
2 2 -2 2 -2 -2 2 -2 249 702 5 MP
gs
PP
gr
DP
2 2 -2 2 -2 -2 2 -2 250 738 5 MP
gs
PP
gr
DP
2 2 -2 2 -2 -2 2 -2 251 693 5 MP
gs
PP
gr
DP
2 2 -2 2 -2 -2 2 -2 252 674 5 MP
gs
PP
gr
DP
2 2 -2 2 -2 -2 2 -2 253 720 5 MP
gs
PP
gr
DP
2 2 -2 2 -2 -2 2 -2 254 720 5 MP
gs
PP
gr
DP
2 2 -2 2 -2 -2 2 -2 255 738 5 MP
gs
PP
gr
DP
2 2 -2 2 -2 -2 2 -2 256 683 5 MP
gs
PP
gr
DP
2 2 -2 2 -2 -2 2 -2 257 711 5 MP
gs
PP
gr
DP
2 2 -2 2 -2 -2 2 -2 258 680 5 MP
gs
PP
gr
DP
2 2 -2 2 -2 -2 2 -2 258 748 5 MP
gs
PP
gr
DP
2 2 -2 2 -2 -2 2 -2 259 729 5 MP
gs
PP
gr
DP
2 2 -2 2 -2 -2 2 -2 260 720 5 MP
gs
PP
gr
DP
2 2 -2 2 -2 -2 2 -2 261 720 5 MP
gs
PP
gr
DP
2 2 -2 2 -2 -2 2 -2 262 720 5 MP
gs
PP
gr
DP
2 2 -2 2 -2 -2 2 -2 263 738 5 MP
gs
PP
gr
DP
2 2 -2 2 -2 -2 2 -2 263 693 5 MP
gs
PP
gr
DP
2 2 -2 2 -2 -2 2 -2 264 702 5 MP
gs
PP
gr
DP
2 2 -2 2 -2 -2 2 -2 265 720 5 MP
gs
PP
gr
DP
2 2 -2 2 -2 -2 2 -2 266 738 5 MP
gs
PP
gr
DP
2 2 -2 2 -2 -2 2 -2 267 711 5 MP
gs
PP
gr
DP
2 2 -2 2 -2 -2 2 -2 268 738 5 MP
gs
PP
gr
DP
2 2 -2 2 -2 -2 2 -2 268 748 5 MP
gs
PP
gr
DP
2 2 -2 2 -2 -2 2 -2 270 711 5 MP
gs
PP
gr
DP
2 2 -2 2 -2 -2 2 -2 272 729 5 MP
gs
PP
gr
DP
2 2 -2 2 -2 -2 2 -2 273 702 5 MP
gs
PP
gr
DP
2 2 -2 2 -2 -2 2 -2 274 693 5 MP
gs
PP
gr
DP
2 2 -2 2 -2 -2 2 -2 275 683 5 MP
gs
PP
gr
DP
2 2 -2 2 -2 -2 2 -2 276 683 5 MP
gs
PP
gr
DP
2 2 -2 2 -2 -2 2 -2 277 702 5 MP
gs
PP
gr
DP
2 2 -2 2 -2 -2 2 -2 278 679 5 MP
gs
PP
gr
DP
2 2 -2 2 -2 -2 2 -2 278 738 5 MP
gs
PP
gr
DP
2 2 -2 2 -2 -2 2 -2 279 693 5 MP
gs
PP
gr
DP
2 2 -2 2 -2 -2 2 -2 280 748 5 MP
gs
PP
gr
DP
2 2 -2 2 -2 -2 2 -2 281 693 5 MP
gs
PP
gr
DP
2 2 -2 2 -2 -2 2 -2 282 748 5 MP
gs
PP
gr
DP
2 2 -2 2 -2 -2 2 -2 283 738 5 MP
gs
PP
gr
DP
2 2 -2 2 -2 -2 2 -2 284 748 5 MP
gs
PP
gr
DP
2 2 -2 2 -2 -2 2 -2 285 628 5 MP
gs
PP
gr
DP
2 2 -2 2 -2 -2 2 -2 286 711 5 MP
gs
PP
gr
DP
2 2 -2 2 -2 -2 2 -2 287 687 5 MP
gs
PP
gr
DP
2 2 -2 2 -2 -2 2 -2 288 702 5 MP
gs
PP
gr
DP
2 2 -2 2 -2 -2 2 -2 289 698 5 MP
gs
PP
gr
DP
2 2 -2 2 -2 -2 2 -2 289 720 5 MP
gs
PP
gr
DP
2 2 -2 2 -2 -2 2 -2 291 686 5 MP
gs
PP
gr
DP
2 2 -2 2 -2 -2 2 -2 292 729 5 MP
gs
PP
gr
DP
2 2 -2 2 -2 -2 2 -2 293 729 5 MP
gs
PP
gr
DP
2 2 -2 2 -2 -2 2 -2 294 711 5 MP
gs
PP
gr
DP
2 2 -2 2 -2 -2 2 -2 295 705 5 MP
gs
PP
gr
DP
2 2 -2 2 -2 -2 2 -2 296 711 5 MP
gs
PP
gr
DP
2 2 -2 2 -2 -2 2 -2 297 716 5 MP
gs
PP
gr
DP
2 2 -2 2 -2 -2 2 -2 297 711 5 MP
gs
PP
gr
DP
2 2 -2 2 -2 -2 2 -2 298 720 5 MP
gs
PP
gr
DP
2 2 -2 2 -2 -2 2 -2 299 729 5 MP
gs
PP
gr
DP
2 2 -2 2 -2 -2 2 -2 299 718 5 MP
gs
PP
gr
DP
2 2 -2 2 -2 -2 2 -2 300 720 5 MP
gs
PP
gr
DP
2 2 -2 2 -2 -2 2 -2 301 702 5 MP
gs
PP
gr
DP
2 2 -2 2 -2 -2 2 -2 302 729 5 MP
gs
PP
gr
DP
2 2 -2 2 -2 -2 2 -2 303 702 5 MP
gs
PP
gr
DP
2 2 -2 2 -2 -2 2 -2 304 720 5 MP
gs
PP
gr
DP
2 2 -2 2 -2 -2 2 -2 305 720 5 MP
gs
PP
gr
DP
2 2 -2 2 -2 -2 2 -2 306 702 5 MP
gs
PP
gr
DP
2 2 -2 2 -2 -2 2 -2 307 702 5 MP
gs
PP
gr
DP
2 2 -2 2 -2 -2 2 -2 307 729 5 MP
gs
PP
gr
DP
2 2 -2 2 -2 -2 2 -2 308 674 5 MP
gs
PP
gr
DP
2 2 -2 2 -2 -2 2 -2 309 711 5 MP
gs
PP
gr
DP
2 2 -2 2 -2 -2 2 -2 310 702 5 MP
gs
PP
gr
DP
2 2 -2 2 -2 -2 2 -2 311 720 5 MP
gs
PP
gr
DP
2 2 -2 2 -2 -2 2 -2 312 711 5 MP
gs
PP
gr
DP
2 2 -2 2 -2 -2 2 -2 313 686 5 MP
gs
PP
gr
DP
2 2 -2 2 -2 -2 2 -2 313 702 5 MP
gs
PP
gr
DP
2 2 -2 2 -2 -2 2 -2 314 693 5 MP
gs
PP
gr
DP
2 2 -2 2 -2 -2 2 -2 315 717 5 MP
gs
PP
gr
DP
2 2 -2 2 -2 -2 2 -2 316 702 5 MP
gs
PP
gr
DP
2 2 -2 2 -2 -2 2 -2 317 729 5 MP
gs
PP
gr
DP
2 2 -2 2 -2 -2 2 -2 318 693 5 MP
gs
PP
gr
DP
2 2 -2 2 -2 -2 2 -2 319 728 5 MP
gs
PP
gr
DP
2 2 -2 2 -2 -2 2 -2 320 720 5 MP
gs
PP
gr
DP
2 2 -2 2 -2 -2 2 -2 320 738 5 MP
gs
PP
gr
DP
2 2 -2 2 -2 -2 2 -2 321 720 5 MP
gs
PP
gr
DP
2 2 -2 2 -2 -2 2 -2 322 748 5 MP
gs
PP
gr
DP
2 2 -2 2 -2 -2 2 -2 323 656 5 MP
gs
PP
gr
DP
2 2 -2 2 -2 -2 2 -2 324 709 5 MP
gs
PP
gr
DP
2 2 -2 2 -2 -2 2 -2 325 720 5 MP
gs
PP
gr
DP
2 2 -2 2 -2 -2 2 -2 325 670 5 MP
gs
PP
gr
DP
2 2 -2 2 -2 -2 2 -2 326 674 5 MP
gs
PP
gr
DP
2 2 -2 2 -2 -2 2 -2 327 702 5 MP
gs
PP
gr
DP
2 2 -2 2 -2 -2 2 -2 328 669 5 MP
gs
PP
gr
DP
2 2 -2 2 -2 -2 2 -2 329 729 5 MP
gs
PP
gr
DP
2 2 -2 2 -2 -2 2 -2 329 693 5 MP
gs
PP
gr
DP
2 2 -2 2 -2 -2 2 -2 330 738 5 MP
gs
PP
gr
DP
2 2 -2 2 -2 -2 2 -2 331 683 5 MP
gs
PP
gr
DP
2 2 -2 2 -2 -2 2 -2 332 693 5 MP
gs
PP
gr
DP
2 2 -2 2 -2 -2 2 -2 333 720 5 MP
gs
PP
gr
DP
2 2 -2 2 -2 -2 2 -2 334 720 5 MP
gs
PP
gr
DP
2 2 -2 2 -2 -2 2 -2 334 693 5 MP
gs
PP
gr
DP
2 2 -2 2 -2 -2 2 -2 335 693 5 MP
gs
PP
gr
DP
2 2 -2 2 -2 -2 2 -2 336 729 5 MP
gs
PP
gr
DP
2 2 -2 2 -2 -2 2 -2 337 720 5 MP
gs
PP
gr
DP
2 2 -2 2 -2 -2 2 -2 338 729 5 MP
gs
PP
gr
DP
2 2 -2 2 -2 -2 2 -2 339 738 5 MP
gs
PP
gr
DP
2 2 -2 2 -2 -2 2 -2 340 720 5 MP
gs
PP
gr
DP
2 2 -2 2 -2 -2 2 -2 340 729 5 MP
gs
PP
gr
DP
2 2 -2 2 -2 -2 2 -2 341 737 5 MP
gs
PP
gr
DP
2 2 -2 2 -2 -2 2 -2 342 720 5 MP
gs
PP
gr
DP
2 2 -2 2 -2 -2 2 -2 343 674 5 MP
gs
PP
gr
DP
2 2 -2 2 -2 -2 2 -2 344 711 5 MP
gs
PP
gr
DP
2 2 -2 2 -2 -2 2 -2 345 702 5 MP
gs
PP
gr
DP
2 2 -2 2 -2 -2 2 -2 345 729 5 MP
gs
PP
gr
DP
2 2 -2 2 -2 -2 2 -2 346 674 5 MP
gs
PP
gr
DP
2 2 -2 2 -2 -2 2 -2 347 711 5 MP
gs
PP
gr
DP
2 2 -2 2 -2 -2 2 -2 348 676 5 MP
gs
PP
gr
DP
2 2 -2 2 -2 -2 2 -2 349 738 5 MP
gs
PP
gr
DP
2 2 -2 2 -2 -2 2 -2 350 702 5 MP
gs
PP
gr
DP
2 2 -2 2 -2 -2 2 -2 351 677 5 MP
gs
PP
gr
DP
2 2 -2 2 -2 -2 2 -2 351 711 5 MP
gs
PP
gr
DP
2 2 -2 2 -2 -2 2 -2 352 693 5 MP
gs
PP
gr
DP
2 2 -2 2 -2 -2 2 -2 353 711 5 MP
gs
PP
gr
DP
2 2 -2 2 -2 -2 2 -2 354 720 5 MP
gs
PP
gr
DP
2 2 -2 2 -2 -2 2 -2 354 711 5 MP
gs
PP
gr
DP
2 2 -2 2 -2 -2 2 -2 355 729 5 MP
gs
PP
gr
DP
2 2 -2 2 -2 -2 2 -2 356 702 5 MP
gs
PP
gr
DP
2 2 -2 2 -2 -2 2 -2 357 720 5 MP
gs
PP
gr
DP
2 2 -2 2 -2 -2 2 -2 358 711 5 MP
gs
PP
gr
DP
2 2 -2 2 -2 -2 2 -2 359 738 5 MP
gs
PP
gr
DP
2 2 -2 2 -2 -2 2 -2 359 711 5 MP
gs
PP
gr
DP
2 2 -2 2 -2 -2 2 -2 360 702 5 MP
gs
PP
gr
DP
2 2 -2 2 -2 -2 2 -2 361 693 5 MP
gs
PP
gr
DP
2 2 -2 2 -2 -2 2 -2 362 683 5 MP
gs
PP
gr
DP
2 2 -2 2 -2 -2 2 -2 363 738 5 MP
gs
PP
gr
DP
2 2 -2 2 -2 -2 2 -2 364 683 5 MP
gs
PP
gr
DP
2 2 -2 2 -2 -2 2 -2 364 748 5 MP
gs
PP
gr
DP
2 2 -2 2 -2 -2 2 -2 365 738 5 MP
gs
PP
gr
DP
2 2 -2 2 -2 -2 2 -2 366 720 5 MP
gs
PP
gr
DP
2 2 -2 2 -2 -2 2 -2 367 729 5 MP
gs
PP
gr
DP
2 2 -2 2 -2 -2 2 -2 368 729 5 MP
gs
PP
gr
DP
2 2 -2 2 -2 -2 2 -2 369 697 5 MP
gs
PP
gr
DP
2 2 -2 2 -2 -2 2 -2 370 665 5 MP
gs
PP
gr
DP
2 2 -2 2 -2 -2 2 -2 370 674 5 MP
gs
PP
gr
DP
2 2 -2 2 -2 -2 2 -2 371 693 5 MP
gs
PP
gr
DP
2 2 -2 2 -2 -2 2 -2 372 700 5 MP
gs
PP
gr
DP
2 2 -2 2 -2 -2 2 -2 373 711 5 MP
gs
PP
gr
DP
2 2 -2 2 -2 -2 2 -2 374 720 5 MP
gs
PP
gr
DP
2 2 -2 2 -2 -2 2 -2 374 729 5 MP
gs
PP
gr
DP
2 2 -2 2 -2 -2 2 -2 375 738 5 MP
gs
PP
gr
DP
2 2 -2 2 -2 -2 2 -2 376 729 5 MP
gs
PP
gr
DP
2 2 -2 2 -2 -2 2 -2 377 729 5 MP
gs
PP
gr
DP
2 2 -2 2 -2 -2 2 -2 378 738 5 MP
gs
PP
gr
DP
2 2 -2 2 -2 -2 2 -2 379 729 5 MP
gs
PP
gr
DP
2 2 -2 2 -2 -2 2 -2 380 711 5 MP
gs
PP
gr
DP
2 2 -2 2 -2 -2 2 -2 380 729 5 MP
gs
PP
gr
DP
2 2 -2 2 -2 -2 2 -2 381 720 5 MP
gs
PP
gr
DP
2 2 -2 2 -2 -2 2 -2 382 748 5 MP
gs
PP
gr
DP
2 2 -2 2 -2 -2 2 -2 383 738 5 MP
gs
PP
gr
DP
2 2 -2 2 -2 -2 2 -2 384 748 5 MP
gs
PP
gr
DP
2 2 -2 2 -2 -2 2 -2 385 748 5 MP
gs
PP
gr
DP
2 2 -2 2 -2 -2 2 -2 386 748 5 MP
gs
PP
gr
DP
2 2 -2 2 -2 -2 2 -2 387 720 5 MP
gs
PP
gr
DP
2 2 -2 2 -2 -2 2 -2 388 711 5 MP
gs
PP
gr
DP
2 2 -2 2 -2 -2 2 -2 389 683 5 MP
gs
PP
gr
DP
2 2 -2 2 -2 -2 2 -2 390 729 5 MP
gs
PP
gr
DP
2 2 -2 2 -2 -2 2 -2 391 665 5 MP
gs
PP
gr
DP
2 2 -2 2 -2 -2 2 -2 391 720 5 MP
gs
PP
gr
DP
2 2 -2 2 -2 -2 2 -2 392 687 5 MP
gs
PP
gr
DP
2 2 -2 2 -2 -2 2 -2 393 716 5 MP
gs
PP
gr
DP
2 2 -2 2 -2 -2 2 -2 394 706 5 MP
gs
PP
gr
DP
2 2 -2 2 -2 -2 2 -2 395 720 5 MP
gs
PP
gr
DP
2 2 -2 2 -2 -2 2 -2 396 716 5 MP
gs
PP
gr
DP
2 2 -2 2 -2 -2 2 -2 396 729 5 MP
gs
PP
gr
DP
2 2 -2 2 -2 -2 2 -2 397 720 5 MP
gs
PP
gr
DP
2 2 -2 2 -2 -2 2 -2 398 702 5 MP
gs
PP
gr
DP
2 2 -2 2 -2 -2 2 -2 399 711 5 MP
gs
PP
gr
DP
2 2 -2 2 -2 -2 2 -2 400 738 5 MP
gs
PP
gr
DP
2 2 -2 2 -2 -2 2 -2 400 711 5 MP
gs
PP
gr
DP
2 2 -2 2 -2 -2 2 -2 401 693 5 MP
gs
PP
gr
DP
2 2 -2 2 -2 -2 2 -2 402 683 5 MP
gs
PP
gr
DP
2 2 -2 2 -2 -2 2 -2 403 673 5 MP
gs
PP
gr
DP
2 2 -2 2 -2 -2 2 -2 404 720 5 MP
gs
PP
gr
DP
2 2 -2 2 -2 -2 2 -2 405 693 5 MP
gs
PP
gr
DP
2 2 -2 2 -2 -2 2 -2 405 695 5 MP
gs
PP
gr
DP
2 2 -2 2 -2 -2 2 -2 406 693 5 MP
gs
PP
gr
DP
2 2 -2 2 -2 -2 2 -2 407 729 5 MP
gs
PP
gr
DP
2 2 -2 2 -2 -2 2 -2 408 702 5 MP
gs
PP
gr
DP
2 2 -2 2 -2 -2 2 -2 409 738 5 MP
gs
PP
gr
DP
2 2 -2 2 -2 -2 2 -2 410 720 5 MP
gs
PP
gr
DP
2 2 -2 2 -2 -2 2 -2 411 711 5 MP
gs
PP
gr
DP
2 2 -2 2 -2 -2 2 -2 412 711 5 MP
gs
PP
gr
DP
2 2 -2 2 -2 -2 2 -2 413 720 5 MP
gs
PP
gr
DP
2 2 -2 2 -2 -2 2 -2 414 702 5 MP
gs
PP
gr
DP
2 2 -2 2 -2 -2 2 -2 415 729 5 MP
gs
PP
gr
DP
2 2 -2 2 -2 -2 2 -2 416 711 5 MP
gs
PP
gr
DP
2 2 -2 2 -2 -2 2 -2 417 748 5 MP
gs
PP
gr
DP
2 2 -2 2 -2 -2 2 -2 418 738 5 MP
gs
PP
gr
DP
2 2 -2 2 -2 -2 2 -2 419 720 5 MP
gs
PP
gr
DP
2 2 -2 2 -2 -2 2 -2 419 711 5 MP
gs
PP
gr
DP
2 2 -2 2 -2 -2 2 -2 420 720 5 MP
gs
PP
gr
DP
2 2 -2 2 -2 -2 2 -2 421 729 5 MP
gs
PP
gr
DP
2 2 -2 2 -2 -2 2 -2 422 711 5 MP
gs
PP
gr
DP
2 2 -2 2 -2 -2 2 -2 423 704 5 MP
gs
PP
gr
DP
2 2 -2 2 -2 -2 2 -2 424 720 5 MP
gs
PP
gr
DP
2 2 -2 2 -2 -2 2 -2 425 693 5 MP
gs
PP
gr
DP
2 2 -2 2 -2 -2 2 -2 425 716 5 MP
gs
PP
gr
DP
2 2 -2 2 -2 -2 2 -2 426 729 5 MP
gs
PP
gr
DP
2 2 -2 2 -2 -2 2 -2 427 737 5 MP
gs
PP
gr
DP
2 2 -2 2 -2 -2 2 -2 428 729 5 MP
gs
PP
gr
DP
2 2 -2 2 -2 -2 2 -2 429 711 5 MP
gs
PP
gr
DP
2 2 -2 2 -2 -2 2 -2 430 720 5 MP
gs
PP
gr
DP
2 2 -2 2 -2 -2 2 -2 431 711 5 MP
gs
PP
gr
DP
2 2 -2 2 -2 -2 2 -2 431 748 5 MP
gs
PP
gr
DP
2 2 -2 2 -2 -2 2 -2 432 738 5 MP
gs
PP
gr
DP
2 2 -2 2 -2 -2 2 -2 433 720 5 MP
gs
PP
gr
DP
2 2 -2 2 -2 -2 2 -2 433 711 5 MP
gs
PP
gr
DP
2 2 -2 2 -2 -2 2 -2 434 711 5 MP
gs
PP
gr
DP
2 2 -2 2 -2 -2 2 -2 435 738 5 MP
gs
PP
gr
DP
2 2 -2 2 -2 -2 2 -2 436 738 5 MP
gs
PP
gr
DP
2 2 -2 2 -2 -2 2 -2 437 748 5 MP
gs
PP
gr
DP
2 2 -2 2 -2 -2 2 -2 438 738 5 MP
gs
PP
gr
DP
2 2 -2 2 -2 -2 2 -2 438 729 5 MP
gs
PP
gr
DP
2 2 -2 2 -2 -2 2 -2 439 729 5 MP
gs
PP
gr
DP
2 2 -2 2 -2 -2 2 -2 440 748 5 MP
gs
PP
gr
DP
2 2 -2 2 -2 -2 2 -2 441 720 5 MP
gs
PP
gr
DP
2 2 -2 2 -2 -2 2 -2 442 729 5 MP
gs
PP
gr
DP
2 2 -2 2 -2 -2 2 -2 443 738 5 MP
gs
PP
gr
DP
2 2 -2 2 -2 -2 2 -2 444 738 5 MP
gs
PP
gr
DP
2 2 -2 2 -2 -2 2 -2 444 724 5 MP
gs
PP
gr
DP
2 2 -2 2 -2 -2 2 -2 446 729 5 MP
gs
PP
gr
DP
2 2 -2 2 -2 -2 2 -2 446 748 5 MP
gs
PP
gr
DP
2 2 -2 2 -2 -2 2 -2 448 748 5 MP
gs
PP
gr
DP
2 2 -2 2 -2 -2 2 -2 448 738 5 MP
gs
PP
gr
DP
2 2 -2 2 -2 -2 2 -2 449 748 5 MP
gs
PP
gr
DP
2 2 -2 2 -2 -2 2 -2 450 702 5 MP
gs
PP
gr
DP
2 2 -2 2 -2 -2 2 -2 450 738 5 MP
gs
PP
gr
DP
2 2 -2 2 -2 -2 2 -2 451 697 5 MP
gs
PP
gr
DP
2 2 -2 2 -2 -2 2 -2 452 683 5 MP
gs
PP
gr
DP
2 2 -2 2 -2 -2 2 -2 453 729 5 MP
gs
PP
gr
DP
2 2 -2 2 -2 -2 2 -2 454 711 5 MP
gs
PP
gr
DP
2 2 -2 2 -2 -2 2 -2 455 717 5 MP
gs
PP
gr
DP
2 2 -2 2 -2 -2 2 -2 456 711 5 MP
gs
PP
gr
DP
2 2 -2 2 -2 -2 2 -2 457 720 5 MP
gs
PP
gr
DP
2 2 -2 2 -2 -2 2 -2 458 748 5 MP
gs
PP
gr
DP
2 2 -2 2 -2 -2 2 -2 458 711 5 MP
gs
PP
gr
DP
2 2 -2 2 -2 -2 2 -2 459 711 5 MP
gs
PP
gr
DP
2 2 -2 2 -2 -2 2 -2 460 693 5 MP
gs
PP
gr
DP
2 2 -2 2 -2 -2 2 -2 461 693 5 MP
gs
PP
gr
DP
2 2 -2 2 -2 -2 2 -2 462 702 5 MP
gs
PP
gr
DP
2 2 -2 2 -2 -2 2 -2 463 694 5 MP
gs
PP
gr
DP
2 2 -2 2 -2 -2 2 -2 464 692 5 MP
gs
PP
gr
DP
2 2 -2 2 -2 -2 2 -2 465 702 5 MP
gs
PP
gr
DP
2 2 -2 2 -2 -2 2 -2 466 720 5 MP
gs
PP
gr
DP
2 2 -2 2 -2 -2 2 -2 467 702 5 MP
gs
PP
gr
DP
2 2 -2 2 -2 -2 2 -2 468 656 5 MP
gs
PP
gr
DP
2 2 -2 2 -2 -2 2 -2 469 683 5 MP
gs
PP
gr
DP
2 2 -2 2 -2 -2 2 -2 471 702 5 MP
gs
PP
gr
DP
2 2 -2 2 -2 -2 2 -2 471 729 5 MP
gs
PP
gr
DP
2 2 -2 2 -2 -2 2 -2 472 702 5 MP
gs
PP
gr
DP
2 2 -2 2 -2 -2 2 -2 473 720 5 MP
gs
PP
gr
DP
2 2 -2 2 -2 -2 2 -2 474 748 5 MP
gs
PP
gr
DP
2 2 -2 2 -2 -2 2 -2 475 719 5 MP
gs
PP
gr
DP
2 2 -2 2 -2 -2 2 -2 476 720 5 MP
gs
PP
gr
DP
2 2 -2 2 -2 -2 2 -2 477 748 5 MP
gs
PP
gr
DP
2 2 -2 2 -2 -2 2 -2 478 729 5 MP
gs
PP
gr
DP
2 2 -2 2 -2 -2 2 -2 479 738 5 MP
gs
PP
gr
DP
2 2 -2 2 -2 -2 2 -2 479 720 5 MP
gs
PP
gr
DP
2 2 -2 2 -2 -2 2 -2 480 720 5 MP
gs
PP
gr
DP
2 2 -2 2 -2 -2 2 -2 481 720 5 MP
gs
PP
gr
DP
2 2 -2 2 -2 -2 2 -2 482 738 5 MP
gs
PP
gr
DP
2 2 -2 2 -2 -2 2 -2 483 748 5 MP
gs
PP
gr
DP
2 2 -2 2 -2 -2 2 -2 483 738 5 MP
gs
PP
gr
DP
2 2 -2 2 -2 -2 2 -2 484 720 5 MP
gs
PP
gr
DP
2 2 -2 2 -2 -2 2 -2 485 737 5 MP
gs
PP
gr
DP
2 2 -2 2 -2 -2 2 -2 485 720 5 MP
gs
PP
gr
DP
2 2 -2 2 -2 -2 2 -2 487 729 5 MP
gs
PP
gr
DP
2 2 -2 2 -2 -2 2 -2 488 738 5 MP
gs
PP
gr
DP
2 2 -2 2 -2 -2 2 -2 489 738 5 MP
gs
PP
gr
DP
2 2 -2 2 -2 -2 2 -2 490 702 5 MP
gs
PP
gr
DP
2 2 -2 2 -2 -2 2 -2 491 697 5 MP
gs
PP
gr
DP
2 2 -2 2 -2 -2 2 -2 492 693 5 MP
gs
PP
gr
DP
2 2 -2 2 -2 -2 2 -2 493 693 5 MP
gs
PP
gr
DP
2 2 -2 2 -2 -2 2 -2 494 720 5 MP
gs
PP
gr
DP
2 2 -2 2 -2 -2 2 -2 495 696 5 MP
gs
PP
gr
DP
2 2 -2 2 -2 -2 2 -2 496 711 5 MP
gs
PP
gr
DP
2 2 -2 2 -2 -2 2 -2 496 720 5 MP
gs
PP
gr
DP
2 2 -2 2 -2 -2 2 -2 497 720 5 MP
gs
PP
gr
DP
2 2 -2 2 -2 -2 2 -2 498 711 5 MP
gs
PP
gr
DP
2 2 -2 2 -2 -2 2 -2 499 711 5 MP
gs
PP
gr
DP
2 2 -2 2 -2 -2 2 -2 500 738 5 MP
gs
PP
gr
DP
2 2 -2 2 -2 -2 2 -2 501 702 5 MP
gs
PP
gr
DP
2 2 -2 2 -2 -2 2 -2 502 698 5 MP
gs
PP
gr
DP
2 2 -2 2 -2 -2 2 -2 503 720 5 MP
gs
PP
gr
DP
2 2 -2 2 -2 -2 2 -2 504 675 5 MP
gs
PP
gr
DP
2 2 -2 2 -2 -2 2 -2 505 702 5 MP
gs
PP
gr
DP
2 2 -2 2 -2 -2 2 -2 506 697 5 MP
gs
PP
gr
DP
2 2 -2 2 -2 -2 2 -2 507 738 5 MP
gs
PP
gr
DP
2 2 -2 2 -2 -2 2 -2 508 711 5 MP
gs
PP
gr
DP
2 2 -2 2 -2 -2 2 -2 509 702 5 MP
gs
PP
gr
DP
2 2 -2 2 -2 -2 2 -2 510 702 5 MP
gs
PP
gr
DP
2 2 -2 2 -2 -2 2 -2 511 683 5 MP
gs
PP
gr
DP
2 2 -2 2 -2 -2 2 -2 512 686 5 MP
gs
PP
gr
DP
2 2 -2 2 -2 -2 2 -2 513 738 5 MP
gs
PP
gr
DP
2 2 -2 2 -2 -2 2 -2 514 676 5 MP
gs
PP
gr
DP
2 2 -2 2 -2 -2 2 -2 514 738 5 MP
gs
PP
gr
DP
2 2 -2 2 -2 -2 2 -2 515 702 5 MP
gs
PP
gr
DP
2 2 -2 2 -2 -2 2 -2 516 720 5 MP
gs
PP
gr
DP
2 2 -2 2 -2 -2 2 -2 517 720 5 MP
gs
PP
gr
DP
2 2 -2 2 -2 -2 2 -2 518 738 5 MP
gs
PP
gr
DP
2 2 -2 2 -2 -2 2 -2 519 729 5 MP
gs
PP
gr
DP
2 2 -2 2 -2 -2 2 -2 520 748 5 MP
gs
PP
gr
DP
2 2 -2 2 -2 -2 2 -2 521 702 5 MP
gs
PP
gr
DP
2 2 -2 2 -2 -2 2 -2 522 729 5 MP
gs
PP
gr
DP
2 2 -2 2 -2 -2 2 -2 523 748 5 MP
gs
PP
gr
DP
2 2 -2 2 -2 -2 2 -2 524 720 5 MP
gs
PP
gr
DP
2 2 -2 2 -2 -2 2 -2 525 695 5 MP
gs
PP
gr
DP
2 2 -2 2 -2 -2 2 -2 526 748 5 MP
gs
PP
gr
DP
2 2 -2 2 -2 -2 2 -2 527 729 5 MP
gs
PP
gr
DP
2 2 -2 2 -2 -2 2 -2 528 711 5 MP
gs
PP
gr
DP
2 2 -2 2 -2 -2 2 -2 529 720 5 MP
gs
PP
gr
DP
2 2 -2 2 -2 -2 2 -2 530 720 5 MP
gs
PP
gr
DP
2 2 -2 2 -2 -2 2 -2 531 693 5 MP
gs
PP
gr
DP
2 2 -2 2 -2 -2 2 -2 532 720 5 MP
gs
PP
gr
DP
2 2 -2 2 -2 -2 2 -2 533 729 5 MP
gs
PP
gr
DP
2 2 -2 2 -2 -2 2 -2 533 738 5 MP
gs
PP
gr
DP
2 2 -2 2 -2 -2 2 -2 534 738 5 MP
gs
PP
gr
DP
2 2 -2 2 -2 -2 2 -2 535 738 5 MP
gs
PP
gr
DP
2 2 -2 2 -2 -2 2 -2 536 729 5 MP
gs
PP
gr
DP
2 2 -2 2 -2 -2 2 -2 537 738 5 MP
gs
PP
gr
DP
2 2 -2 2 -2 -2 2 -2 538 720 5 MP
gs
PP
gr
DP
2 2 -2 2 -2 -2 2 -2 539 748 5 MP
gs
PP
gr
DP
2 2 -2 2 -2 -2 2 -2 540 702 5 MP
gs
PP
gr
DP
2 2 -2 2 -2 -2 2 -2 542 748 5 MP
gs
PP
gr
DP
2 2 -2 2 -2 -2 2 -2 543 729 5 MP
gs
PP
gr
DP
2 2 -2 2 -2 -2 2 -2 544 720 5 MP
gs
PP
gr
DP
2 2 -2 2 -2 -2 2 -2 545 702 5 MP
gs
PP
gr
DP
2 2 -2 2 -2 -2 2 -2 546 702 5 MP
gs
PP
gr
DP
2 2 -2 2 -2 -2 2 -2 547 702 5 MP
gs
PP
gr
DP
2 2 -2 2 -2 -2 2 -2 548 748 5 MP
gs
PP
gr
DP
2 2 -2 2 -2 -2 2 -2 549 729 5 MP
gs
PP
gr
DP
2 2 -2 2 -2 -2 2 -2 550 716 5 MP
gs
PP
gr
DP
2 2 -2 2 -2 -2 2 -2 551 707 5 MP
gs
PP
gr
DP
2 2 -2 2 -2 -2 2 -2 551 748 5 MP
gs
PP
gr
DP
2 2 -2 2 -2 -2 2 -2 552 720 5 MP
gs
PP
gr
DP
2 2 -2 2 -2 -2 2 -2 553 720 5 MP
gs
PP
gr
DP
2 2 -2 2 -2 -2 2 -2 553 748 5 MP
gs
PP
gr
DP
2 2 -2 2 -2 -2 2 -2 555 738 5 MP
gs
PP
gr
DP
2 2 -2 2 -2 -2 2 -2 556 720 5 MP
gs
PP
gr
DP
2 2 -2 2 -2 -2 2 -2 557 729 5 MP
gs
PP
gr
DP
2 2 -2 2 -2 -2 2 -2 558 711 5 MP
gs
PP
gr
DP
2 2 -2 2 -2 -2 2 -2 559 748 5 MP
gs
PP
gr
DP
2 2 -2 2 -2 -2 2 -2 561 738 5 MP
gs
PP
gr
DP
2 2 -2 2 -2 -2 2 -2 562 695 5 MP
gs
PP
gr
DP
2 2 -2 2 -2 -2 2 -2 563 693 5 MP
gs
PP
gr
DP
2 2 -2 2 -2 -2 2 -2 564 687 5 MP
gs
PP
gr
DP
2 2 -2 2 -2 -2 2 -2 565 683 5 MP
gs
PP
gr
DP
2 2 -2 2 -2 -2 2 -2 566 686 5 MP
gs
PP
gr
DP
2 2 -2 2 -2 -2 2 -2 566 711 5 MP
gs
PP
gr
DP
2 2 -2 2 -2 -2 2 -2 567 720 5 MP
gs
PP
gr
DP
2 2 -2 2 -2 -2 2 -2 568 729 5 MP
gs
PP
gr
DP
2 2 -2 2 -2 -2 2 -2 569 729 5 MP
gs
PP
gr
DP
2 2 -2 2 -2 -2 2 -2 570 711 5 MP
gs
PP
gr
DP
2 2 -2 2 -2 -2 2 -2 571 720 5 MP
gs
PP
gr
DP
2 2 -2 2 -2 -2 2 -2 571 709 5 MP
gs
PP
gr
DP
2 2 -2 2 -2 -2 2 -2 573 702 5 MP
gs
PP
gr
DP
2 2 -2 2 -2 -2 2 -2 574 674 5 MP
gs
PP
gr
DP
2 2 -2 2 -2 -2 2 -2 575 693 5 MP
gs
PP
gr
DP
2 2 -2 2 -2 -2 2 -2 575 682 5 MP
gs
PP
gr
DP
2 2 -2 2 -2 -2 2 -2 576 729 5 MP
gs
PP
gr
DP
2 2 -2 2 -2 -2 2 -2 578 748 5 MP
gs
PP
gr
DP
2 2 -2 2 -2 -2 2 -2 578 708 5 MP
gs
PP
gr
DP
2 2 -2 2 -2 -2 2 -2 579 702 5 MP
gs
PP
gr
DP
2 2 -2 2 -2 -2 2 -2 580 717 5 MP
gs
PP
gr
DP
2 2 -2 2 -2 -2 2 -2 581 715 5 MP
gs
PP
gr
DP
2 2 -2 2 -2 -2 2 -2 582 738 5 MP
gs
PP
gr
DP
2 2 -2 2 -2 -2 2 -2 582 720 5 MP
gs
PP
gr
DP
2 2 -2 2 -2 -2 2 -2 583 711 5 MP
gs
PP
gr
DP
2 2 -2 2 -2 -2 2 -2 584 693 5 MP
gs
PP
gr
DP
2 2 -2 2 -2 -2 2 -2 585 665 5 MP
gs
PP
gr
DP
2 2 -2 2 -2 -2 2 -2 586 748 5 MP
gs
PP
gr
DP
2 2 -2 2 -2 -2 2 -2 587 693 5 MP
gs
PP
gr
DP
2 2 -2 2 -2 -2 2 -2 588 738 5 MP
gs
PP
gr
DP
2 2 -2 2 -2 -2 2 -2 589 729 5 MP
gs
PP
gr
DP
2 2 -2 2 -2 -2 2 -2 589 674 5 MP
gs
PP
gr
DP
2 2 -2 2 -2 -2 2 -2 590 665 5 MP
gs
PP
gr
DP
2 2 -2 2 -2 -2 2 -2 591 711 5 MP
gs
PP
gr
DP
2 2 -2 2 -2 -2 2 -2 593 729 5 MP
gs
PP
gr
DP
2 2 -2 2 -2 -2 2 -2 606 720 5 MP
gs
PP
gr
DP
2 2 -2 2 -2 -2 2 -2 607 729 5 MP
gs
PP
gr
DP
2 2 -2 2 -2 -2 2 -2 607 720 5 MP
gs
PP
gr
DP
2 2 -2 2 -2 -2 2 -2 608 720 5 MP
gs
PP
gr
DP
2 2 -2 2 -2 -2 2 -2 609 693 5 MP
gs
PP
gr
DP
2 2 -2 2 -2 -2 2 -2 610 720 5 MP
gs
PP
gr
DP
2 2 -2 2 -2 -2 2 -2 610 708 5 MP
gs
PP
gr
DP
2 2 -2 2 -2 -2 2 -2 611 711 5 MP
gs
PP
gr
DP
2 2 -2 2 -2 -2 2 -2 611 738 5 MP
gs
PP
gr
DP
2 2 -2 2 -2 -2 2 -2 611 720 5 MP
gs
PP
gr
DP
2 2 -2 2 -2 -2 2 -2 612 720 5 MP
gs
PP
gr
DP
2 2 -2 2 -2 -2 2 -2 612 729 5 MP
gs
PP
gr
DP
2 2 -2 2 -2 -2 2 -2 613 720 5 MP
gs
PP
gr
DP
2 2 -2 2 -2 -2 2 -2 618 709 5 MP
gs
PP
gr
DP
2 2 -2 2 -2 -2 2 -2 619 720 5 MP
gs
PP
gr
DP
2 2 -2 2 -2 -2 2 -2 619 718 5 MP
gs
PP
gr
DP
2 2 -2 2 -2 -2 2 -2 620 738 5 MP
gs
PP
gr
DP
2 2 -2 2 -2 -2 2 -2 621 748 5 MP
gs
PP
gr
DP
2 2 -2 2 -2 -2 2 -2 622 748 5 MP
gs
PP
gr
DP
2 2 -2 2 -2 -2 2 -2 630 729 5 MP
gs
PP
gr
DP
2 2 -2 2 -2 -2 2 -2 632 702 5 MP
gs
PP
gr
DP
2 2 -2 2 -2 -2 2 -2 632 748 5 MP
gs
PP
gr
DP
2 2 -2 2 -2 -2 2 -2 634 734 5 MP
gs
PP
gr
DP
2 2 -2 2 -2 -2 2 -2 644 748 5 MP
gs
PP
gr
DP
2 2 -2 2 -2 -2 2 -2 718 748 5 MP
gs
PP
gr
DP
2 2 -2 2 -2 -2 2 -2 728 748 5 MP
gs
PP
gr
DP
2 2 -2 2 -2 -2 2 -2 736 711 5 MP
gs
PP
gr
DP
2 2 -2 2 -2 -2 2 -2 737 702 5 MP
gs
PP
gr
DP
2 2 -2 2 -2 -2 2 -2 738 693 5 MP
gs
PP
gr
DP
2 2 -2 2 -2 -2 2 -2 739 698 5 MP
gs
PP
gr
DP
2 2 -2 2 -2 -2 2 -2 741 711 5 MP
gs
PP
gr
DP
2 2 -2 2 -2 -2 2 -2 742 711 5 MP
gs
PP
gr
DP
2 2 -2 2 -2 -2 2 -2 754 720 5 MP
gs
PP
gr
DP
2 2 -2 2 -2 -2 2 -2 756 738 5 MP
gs
PP
gr
DP
2 2 -2 2 -2 -2 2 -2 765 720 5 MP
gs
PP
gr
DP
2 2 -2 2 -2 -2 2 -2 766 720 5 MP
gs
PP
gr
DP
2 2 -2 2 -2 -2 2 -2 766 738 5 MP
gs
PP
gr
DP
2 2 -2 2 -2 -2 2 -2 770 702 5 MP
gs
PP
gr
DP
2 2 -2 2 -2 -2 2 -2 770 748 5 MP
gs
PP
gr
DP
2 2 -2 2 -2 -2 2 -2 770 738 5 MP
gs
PP
gr
DP
2 2 -2 2 -2 -2 2 -2 771 702 5 MP
gs
PP
gr
DP
2 2 -2 2 -2 -2 2 -2 771 711 5 MP
gs
PP
gr
DP
2 2 -2 2 -2 -2 2 -2 772 711 5 MP
gs
PP
gr
DP
2 2 -2 2 -2 -2 2 -2 772 683 5 MP
gs
PP
gr
DP
2 2 -2 2 -2 -2 2 -2 772 662 5 MP
gs
PP
gr
DP
2 2 -2 2 -2 -2 2 -2 773 675 5 MP
gs
PP
gr
DP
2 2 -2 2 -2 -2 2 -2 773 720 5 MP
gs
PP
gr
DP
2 2 -2 2 -2 -2 2 -2 774 711 5 MP
gs
PP
gr
DP
2 2 -2 2 -2 -2 2 -2 774 720 5 MP
gs
PP
gr
DP
2 2 -2 2 -2 -2 2 -2 775 748 5 MP
gs
PP
gr
DP
2 2 -2 2 -2 -2 2 -2 775 720 5 MP
gs
PP
gr
DP
2 2 -2 2 -2 -2 2 -2 775 738 5 MP
gs
PP
gr
DP
2 2 -2 2 -2 -2 2 -2 775 729 5 MP
gs
PP
gr
DP
2 2 -2 2 -2 -2 2 -2 776 738 5 MP
gs
PP
gr
DP
2 2 -2 2 -2 -2 2 -2 777 738 5 MP
gs
PP
gr
DP
2 2 -2 2 -2 -2 2 -2 777 748 5 MP
gs
PP
gr
DP
2 2 -2 2 -2 -2 2 -2 777 702 5 MP
gs
PP
gr
DP
2 2 -2 2 -2 -2 2 -2 778 702 5 MP
gs
PP
gr
DP
2 2 -2 2 -2 -2 2 -2 779 726 5 MP
gs
PP
gr
DP
2 2 -2 2 -2 -2 2 -2 779 711 5 MP
gs
PP
gr
DP
2 2 -2 2 -2 -2 2 -2 780 738 5 MP
gs
PP
gr
DP
2 2 -2 2 -2 -2 2 -2 780 748 5 MP
gs
PP
gr
DP
2 2 -2 2 -2 -2 2 -2 781 738 5 MP
gs
PP
gr
DP
2 2 -2 2 -2 -2 2 -2 781 720 5 MP
gs
PP
gr
DP
2 2 -2 2 -2 -2 2 -2 781 738 5 MP
gs
PP
gr
DP
2 2 -2 2 -2 -2 2 -2 782 748 5 MP
gs
PP
gr
DP
2 2 -2 2 -2 -2 2 -2 784 748 5 MP
gs
PP
gr
DP
2 2 -2 2 -2 -2 2 -2 785 738 5 MP
gs
PP
gr
DP
2 2 -2 2 -2 -2 2 -2 785 729 5 MP
gs
PP
gr
DP
2 2 -2 2 -2 -2 2 -2 786 683 5 MP
gs
PP
gr
DP
2 2 -2 2 -2 -2 2 -2 787 729 5 MP
gs
PP
gr
DP
2 2 -2 2 -2 -2 2 -2 787 738 5 MP
gs
PP
gr
DP
2 2 -2 2 -2 -2 2 -2 787 720 5 MP
gs
PP
gr
DP
2 2 -2 2 -2 -2 2 -2 788 719 5 MP
gs
PP
gr
DP
2 2 -2 2 -2 -2 2 -2 788 683 5 MP
gs
PP
gr
DP
2 2 -2 2 -2 -2 2 -2 789 748 5 MP
gs
PP
gr
DP
2 2 -2 2 -2 -2 2 -2 790 735 5 MP
gs
PP
gr
DP
2 2 -2 2 -2 -2 2 -2 790 748 5 MP
gs
PP
gr
DP
2 2 -2 2 -2 -2 2 -2 791 738 5 MP
gs
PP
gr
DP
2 2 -2 2 -2 -2 2 -2 792 738 5 MP
gs
PP
gr
DP
2 2 -2 2 -2 -2 2 -2 792 711 5 MP
gs
PP
gr
DP
2 2 -2 2 -2 -2 2 -2 792 748 5 MP
gs
PP
gr
DP
2 2 -2 2 -2 -2 2 -2 793 748 5 MP
gs
PP
gr
DP
2 2 -2 2 -2 -2 2 -2 793 720 5 MP
gs
PP
gr
DP
2 2 -2 2 -2 -2 2 -2 793 738 5 MP
gs
PP
gr
DP
2 2 -2 2 -2 -2 2 -2 793 711 5 MP
gs
PP
gr
DP
2 2 -2 2 -2 -2 2 -2 794 722 5 MP
gs
PP
gr
DP
2 2 -2 2 -2 -2 2 -2 795 720 5 MP
gs
PP
gr
DP
2 2 -2 2 -2 -2 2 -2 795 729 5 MP
gs
PP
gr
DP
2 2 -2 2 -2 -2 2 -2 795 683 5 MP
gs
PP
gr
DP
2 2 -2 2 -2 -2 2 -2 796 720 5 MP
gs
PP
gr
DP
2 2 -2 2 -2 -2 2 -2 796 707 5 MP
gs
PP
gr
DP
2 2 -2 2 -2 -2 2 -2 796 702 5 MP
gs
PP
gr
DP
2 2 -2 2 -2 -2 2 -2 796 679 5 MP
gs
PP
gr
DP
2 2 -2 2 -2 -2 2 -2 797 693 5 MP
gs
PP
gr
DP
2 2 -2 2 -2 -2 2 -2 798 738 5 MP
gs
PP
gr
DP
2 2 -2 2 -2 -2 2 -2 798 748 5 MP
gs
PP
gr
DP
2 2 -2 2 -2 -2 2 -2 800 738 5 MP
gs
PP
gr
DP
2 2 -2 2 -2 -2 2 -2 802 738 5 MP
gs
PP
gr
DP
2 2 -2 2 -2 -2 2 -2 802 729 5 MP
gs
PP
gr
DP
2 2 -2 2 -2 -2 2 -2 802 738 5 MP
gs
PP
gr
DP
2 2 -2 2 -2 -2 2 -2 803 720 5 MP
gs
PP
gr
DP
2 2 -2 2 -2 -2 2 -2 803 729 5 MP
gs
PP
gr
DP
2 2 -2 2 -2 -2 2 -2 804 720 5 MP
gs
PP
gr
DP
2 2 -2 2 -2 -2 2 -2 804 738 5 MP
gs
PP
gr
DP
2 2 -2 2 -2 -2 2 -2 804 748 5 MP
gs
PP
gr
DP
2 2 -2 2 -2 -2 2 -2 805 748 5 MP
gs
PP
gr
DP
2 2 -2 2 -2 -2 2 -2 805 720 5 MP
gs
PP
gr
DP
2 2 -2 2 -2 -2 2 -2 805 712 5 MP
gs
PP
gr
DP
2 2 -2 2 -2 -2 2 -2 805 729 5 MP
gs
PP
gr
DP
2 2 -2 2 -2 -2 2 -2 805 738 5 MP
gs
PP
gr
DP
2 2 -2 2 -2 -2 2 -2 807 729 5 MP
gs
PP
gr
DP
2 2 -2 2 -2 -2 2 -2 808 748 5 MP
gs
PP
gr
DP
2 2 -2 2 -2 -2 2 -2 808 702 5 MP
gs
PP
gr
DP
2 2 -2 2 -2 -2 2 -2 809 702 5 MP
gs
PP
gr
DP
2 2 -2 2 -2 -2 2 -2 809 683 5 MP
gs
PP
gr
DP
2 2 -2 2 -2 -2 2 -2 809 400 5 MP
gs
PP
gr
DP
2 2 -2 2 -2 -2 2 -2 810 738 5 MP
gs
PP
gr
DP
2 2 -2 2 -2 -2 2 -2 810 702 5 MP
gs
PP
gr
DP
2 2 -2 2 -2 -2 2 -2 812 720 5 MP
gs
PP
gr
DP
2 2 -2 2 -2 -2 2 -2 814 702 5 MP
gs
PP
gr
DP
2 2 -2 2 -2 -2 2 -2 814 720 5 MP
gs
PP
gr
DP
2 2 -2 2 -2 -2 2 -2 815 702 5 MP
gs
PP
gr
DP
2 2 -2 2 -2 -2 2 -2 815 720 5 MP
gs
PP
gr
DP
2 2 -2 2 -2 -2 2 -2 815 702 5 MP
gs
PP
gr
DP
2 2 -2 2 -2 -2 2 -2 818 738 5 MP
gs
PP
gr
DP
2 2 -2 2 -2 -2 2 -2 818 711 5 MP
gs
PP
gr
DP
2 2 -2 2 -2 -2 2 -2 818 702 5 MP
gs
PP
gr
DP
2 2 -2 2 -2 -2 2 -2 819 693 5 MP
gs
PP
gr
DP
2 2 -2 2 -2 -2 2 -2 819 633 5 MP
gs
PP
gr
DP
2 2 -2 2 -2 -2 2 -2 819 678 5 MP
gs
PP
gr
DP
2 2 -2 2 -2 -2 2 -2 819 656 5 MP
gs
PP
gr
DP
2 2 -2 2 -2 -2 2 -2 820 724 5 MP
gs
PP
gr
DP
2 2 -2 2 -2 -2 2 -2 820 710 5 MP
gs
PP
gr
DP
2 2 -2 2 -2 -2 2 -2 821 693 5 MP
gs
PP
gr
DP
2 2 -2 2 -2 -2 2 -2 821 748 5 MP
gs
PP
gr
DP
2 2 -2 2 -2 -2 2 -2 821 720 5 MP
gs
PP
gr
DP
2 2 -2 2 -2 -2 2 -2 822 693 5 MP
gs
PP
gr
DP
2 2 -2 2 -2 -2 2 -2 822 720 5 MP
gs
PP
gr
DP
2 2 -2 2 -2 -2 2 -2 823 729 5 MP
gs
PP
gr
DP
2 2 -2 2 -2 -2 2 -2 823 711 5 MP
gs
PP
gr
DP
2 2 -2 2 -2 -2 2 -2 824 720 5 MP
gs
PP
gr
DP
2 2 -2 2 -2 -2 2 -2 824 729 5 MP
gs
PP
gr
DP
2 2 -2 2 -2 -2 2 -2 824 738 5 MP
gs
PP
gr
DP
2 2 -2 2 -2 -2 2 -2 825 702 5 MP
gs
PP
gr
DP
2 2 -2 2 -2 -2 2 -2 827 711 5 MP
gs
PP
gr
DP
2 2 -2 2 -2 -2 2 -2 827 693 5 MP
gs
PP
gr
DP
2 2 -2 2 -2 -2 2 -2 828 674 5 MP
gs
PP
gr
DP
2 2 -2 2 -2 -2 2 -2 828 683 5 MP
gs
PP
gr
DP
2 2 -2 2 -2 -2 2 -2 828 681 5 MP
gs
PP
gr
DP
2 2 -2 2 -2 -2 2 -2 829 693 5 MP
gs
PP
gr
DP
2 2 -2 2 -2 -2 2 -2 829 729 5 MP
gs
PP
gr
DP
2 2 -2 2 -2 -2 2 -2 830 748 5 MP
gs
PP
gr
DP
2 2 -2 2 -2 -2 2 -2 830 720 5 MP
gs
PP
gr
DP
2 2 -2 2 -2 -2 2 -2 830 724 5 MP
gs
PP
gr
DP
2 2 -2 2 -2 -2 2 -2 830 689 5 MP
gs
PP
gr
DP
2 2 -2 2 -2 -2 2 -2 831 748 5 MP
gs
PP
gr
DP
2 2 -2 2 -2 -2 2 -2 831 729 5 MP
gs
PP
gr
DP
2 2 -2 2 -2 -2 2 -2 831 720 5 MP
gs
PP
gr
DP
2 2 -2 2 -2 -2 2 -2 832 720 5 MP
gs
PP
gr
DP
2 2 -2 2 -2 -2 2 -2 832 729 5 MP
gs
PP
gr
DP
2 2 -2 2 -2 -2 2 -2 832 738 5 MP
gs
PP
gr
DP
2 2 -2 2 -2 -2 2 -2 833 738 5 MP
gs
PP
gr
DP
2 2 -2 2 -2 -2 2 -2 833 720 5 MP
gs
PP
gr
DP
2 2 -2 2 -2 -2 2 -2 833 748 5 MP
gs
PP
gr
DP
2 2 -2 2 -2 -2 2 -2 834 711 5 MP
gs
PP
gr
DP
2 2 -2 2 -2 -2 2 -2 834 702 5 MP
gs
PP
gr
DP
2 2 -2 2 -2 -2 2 -2 834 720 5 MP
gs
PP
gr
DP
2 2 -2 2 -2 -2 2 -2 836 711 5 MP
gs
PP
gr
DP
2 2 -2 2 -2 -2 2 -2 836 729 5 MP
gs
PP
gr
DP
2 2 -2 2 -2 -2 2 -2 836 711 5 MP
gs
PP
gr
DP
2 2 -2 2 -2 -2 2 -2 836 702 5 MP
gs
PP
gr
DP
2 2 -2 2 -2 -2 2 -2 837 738 5 MP
gs
PP
gr
DP
2 2 -2 2 -2 -2 2 -2 837 748 5 MP
gs
PP
gr
DP
2 2 -2 2 -2 -2 2 -2 837 702 5 MP
gs
PP
gr
DP
2 2 -2 2 -2 -2 2 -2 837 715 5 MP
gs
PP
gr
DP
2 2 -2 2 -2 -2 2 -2 838 702 5 MP
gs
PP
gr
DP
2 2 -2 2 -2 -2 2 -2 838 738 5 MP
gs
PP
gr
DP
2 2 -2 2 -2 -2 2 -2 838 720 5 MP
gs
PP
gr
DP
2 2 -2 2 -2 -2 2 -2 839 702 5 MP
gs
PP
gr
DP
2 2 -2 2 -2 -2 2 -2 839 705 5 MP
gs
PP
gr
DP
2 2 -2 2 -2 -2 2 -2 839 702 5 MP
gs
PP
gr
DP
2 2 -2 2 -2 -2 2 -2 839 720 5 MP
gs
PP
gr
DP
2 2 -2 2 -2 -2 2 -2 840 720 5 MP
gs
PP
gr
DP
2 2 -2 2 -2 -2 2 -2 840 729 5 MP
gs
PP
gr
DP
2 2 -2 2 -2 -2 2 -2 840 693 5 MP
gs
PP
gr
DP
2 2 -2 2 -2 -2 2 -2 840 665 5 MP
gs
PP
gr
DP
2 2 -2 2 -2 -2 2 -2 841 693 5 MP
gs
PP
gr
DP
2 2 -2 2 -2 -2 2 -2 841 683 5 MP
gs
PP
gr
DP
2 2 -2 2 -2 -2 2 -2 843 696 5 MP
gs
PP
gr
DP
2 2 -2 2 -2 -2 2 -2 843 711 5 MP
gs
PP
gr
DP
2 2 -2 2 -2 -2 2 -2 843 720 5 MP
gs
PP
gr
DP
2 2 -2 2 -2 -2 2 -2 843 693 5 MP
gs
PP
gr
DP
2 2 -2 2 -2 -2 2 -2 844 720 5 MP
gs
PP
gr
DP
2 2 -2 2 -2 -2 2 -2 844 702 5 MP
gs
PP
gr
DP
2 2 -2 2 -2 -2 2 -2 845 693 5 MP
gs
PP
gr
DP
2 2 -2 2 -2 -2 2 -2 845 748 5 MP
gs
PP
gr
DP
2 2 -2 2 -2 -2 2 -2 845 738 5 MP
gs
PP
gr
DP
2 2 -2 2 -2 -2 2 -2 846 738 5 MP
gs
PP
gr
DP
2 2 -2 2 -2 -2 2 -2 846 693 5 MP
gs
PP
gr
DP
2 2 -2 2 -2 -2 2 -2 847 686 5 MP
gs
PP
gr
DP
2 2 -2 2 -2 -2 2 -2 847 669 5 MP
gs
PP
gr
DP
2 2 -2 2 -2 -2 2 -2 847 729 5 MP
gs
PP
gr
DP
2 2 -2 2 -2 -2 2 -2 848 702 5 MP
gs
PP
gr
DP
2 2 -2 2 -2 -2 2 -2 848 711 5 MP
gs
PP
gr
DP
2 2 -2 2 -2 -2 2 -2 848 738 5 MP
gs
PP
gr
DP
2 2 -2 2 -2 -2 2 -2 849 693 5 MP
gs
PP
gr
DP
2 2 -2 2 -2 -2 2 -2 849 674 5 MP
gs
PP
gr
DP
2 2 -2 2 -2 -2 2 -2 849 728 5 MP
gs
PP
gr
DP
2 2 -2 2 -2 -2 2 -2 850 720 5 MP
gs
PP
gr
DP
2 2 -2 2 -2 -2 2 -2 850 701 5 MP
gs
PP
gr
DP
2 2 -2 2 -2 -2 2 -2 852 709 5 MP
gs
PP
gr
DP
2 2 -2 2 -2 -2 2 -2 852 693 5 MP
gs
PP
gr
DP
2 2 -2 2 -2 -2 2 -2 853 720 5 MP
gs
PP
gr
DP
2 2 -2 2 -2 -2 2 -2 853 665 5 MP
gs
PP
gr
DP
2 2 -2 2 -2 -2 2 -2 854 702 5 MP
gs
PP
gr
DP
2 2 -2 2 -2 -2 2 -2 855 674 5 MP
gs
PP
gr
DP
2 2 -2 2 -2 -2 2 -2 855 696 5 MP
gs
PP
gr
DP
2 2 -2 2 -2 -2 2 -2 855 686 5 MP
gs
PP
gr
DP
2 2 -2 2 -2 -2 2 -2 856 693 5 MP
gs
PP
gr
DP
2 2 -2 2 -2 -2 2 -2 856 717 5 MP
gs
PP
gr
DP
2 2 -2 2 -2 -2 2 -2 856 698 5 MP
gs
PP
gr
DP
2 2 -2 2 -2 -2 2 -2 856 720 5 MP
gs
PP
gr
DP
2 2 -2 2 -2 -2 2 -2 857 729 5 MP
gs
PP
gr
DP
2 2 -2 2 -2 -2 2 -2 857 738 5 MP
gs
PP
gr
DP
2 2 -2 2 -2 -2 2 -2 859 748 5 MP
gs
PP
gr
DP
2 2 -2 2 -2 -2 2 -2 859 720 5 MP
gs
PP
gr
DP
2 2 -2 2 -2 -2 2 -2 860 729 5 MP
gs
PP
gr
DP
2 2 -2 2 -2 -2 2 -2 861 720 5 MP
gs
PP
gr
DP
2 2 -2 2 -2 -2 2 -2 861 729 5 MP
gs
PP
gr
DP
2 2 -2 2 -2 -2 2 -2 861 748 5 MP
gs
PP
gr
DP
2 2 -2 2 -2 -2 2 -2 862 729 5 MP
gs
PP
gr
DP
2 2 -2 2 -2 -2 2 -2 862 702 5 MP
gs
PP
gr
DP
2 2 -2 2 -2 -2 2 -2 862 693 5 MP
gs
PP
gr
DP
2 2 -2 2 -2 -2 2 -2 863 711 5 MP
gs
PP
gr
DP
2 2 -2 2 -2 -2 2 -2 863 702 5 MP
gs
PP
gr
DP
2 2 -2 2 -2 -2 2 -2 863 720 5 MP
gs
PP
gr
DP
2 2 -2 2 -2 -2 2 -2 864 719 5 MP
gs
PP
gr
DP
2 2 -2 2 -2 -2 2 -2 865 720 5 MP
gs
PP
gr
DP
2 2 -2 2 -2 -2 2 -2 866 729 5 MP
gs
PP
gr
DP
2 2 -2 2 -2 -2 2 -2 866 738 5 MP
gs
PP
gr
DP
2 2 -2 2 -2 -2 2 -2 867 738 5 MP
gs
PP
gr
DP
2 2 -2 2 -2 -2 2 -2 867 711 5 MP
gs
PP
gr
DP
2 2 -2 2 -2 -2 2 -2 870 685 5 MP
gs
PP
gr
DP
2 2 -2 2 -2 -2 2 -2 870 720 5 MP
gs
PP
gr
DP
2 2 -2 2 -2 -2 2 -2 870 738 5 MP
gs
PP
gr
DP
2 2 -2 2 -2 -2 2 -2 871 711 5 MP
gs
PP
gr
DP
2 2 -2 2 -2 -2 2 -2 872 748 5 MP
gs
PP
gr
DP
2 2 -2 2 -2 -2 2 -2 872 738 5 MP
gs
PP
gr
DP
2 2 -2 2 -2 -2 2 -2 873 720 5 MP
gs
PP
gr
DP
2 2 -2 2 -2 -2 2 -2 873 693 5 MP
gs
PP
gr
DP
2 2 -2 2 -2 -2 2 -2 875 685 5 MP
gs
PP
gr
DP
2 2 -2 2 -2 -2 2 -2 875 694 5 MP
gs
PP
gr
DP
2 2 -2 2 -2 -2 2 -2 877 674 5 MP
gs
PP
gr
DP
2 2 -2 2 -2 -2 2 -2 877 683 5 MP
gs
PP
gr
DP
2 2 -2 2 -2 -2 2 -2 877 738 5 MP
gs
PP
gr
DP
2 2 -2 2 -2 -2 2 -2 878 711 5 MP
gs
PP
gr
DP
2 2 -2 2 -2 -2 2 -2 880 738 5 MP
gs
PP
gr
DP
2 2 -2 2 -2 -2 2 -2 880 729 5 MP
gs
PP
gr
DP
2 2 -2 2 -2 -2 2 -2 881 720 5 MP
gs
PP
gr
DP
2 2 -2 2 -2 -2 2 -2 881 738 5 MP
gs
PP
gr
DP
2 2 -2 2 -2 -2 2 -2 882 693 5 MP
gs
PP
gr
DP
2 2 -2 2 -2 -2 2 -2 882 685 5 MP
gs
PP
gr
DP
2 2 -2 2 -2 -2 2 -2 882 159 5 MP
gs
PP
gr
DP
2 2 -2 2 -2 -2 2 -2 882 683 5 MP
gs
PP
gr
DP
2 2 -2 2 -2 -2 2 -2 883 674 5 MP
gs
PP
gr
DP
2 2 -2 2 -2 -2 2 -2 883 706 5 MP
gs
PP
gr
DP
2 2 -2 2 -2 -2 2 -2 883 674 5 MP
gs
PP
gr
DP
2 2 -2 2 -2 -2 2 -2 884 711 5 MP
gs
PP
gr
DP
2 2 -2 2 -2 -2 2 -2 884 693 5 MP
gs
PP
gr
DP
2 2 -2 2 -2 -2 2 -2 884 711 5 MP
gs
PP
gr
DP
2 2 -2 2 -2 -2 2 -2 885 711 5 MP
gs
PP
gr
DP
2 2 -2 2 -2 -2 2 -2 886 711 5 MP
gs
PP
gr
DP
2 2 -2 2 -2 -2 2 -2 887 683 5 MP
gs
PP
gr
DP
2 2 -2 2 -2 -2 2 -2 890 693 5 MP
gs
PP
gr
DP
2 2 -2 2 -2 -2 2 -2 890 700 5 MP
gs
PP
gr
DP
2 2 -2 2 -2 -2 2 -2 892 693 5 MP
gs
PP
gr
DP
2 2 -2 2 -2 -2 2 -2 892 702 5 MP
gs
PP
gr
DP
2 2 -2 2 -2 -2 2 -2 892 693 5 MP
gs
PP
gr
DP
2 2 -2 2 -2 -2 2 -2 893 674 5 MP
gs
PP
gr
DP
2 2 -2 2 -2 -2 2 -2 893 688 5 MP
gs
PP
gr
DP
2 2 -2 2 -2 -2 2 -2 894 670 5 MP
gs
PP
gr
DP
2 2 -2 2 -2 -2 2 -2 894 702 5 MP
gs
PP
gr
DP
2 2 -2 2 -2 -2 2 -2 894 720 5 MP
gs
PP
gr
DP
2 2 -2 2 -2 -2 2 -2 895 683 5 MP
gs
PP
gr
DP
2 2 -2 2 -2 -2 2 -2 896 711 5 MP
gs
PP
gr
DP
2 2 -2 2 -2 -2 2 -2 896 692 5 MP
gs
PP
gr
DP
2 2 -2 2 -2 -2 2 -2 896 711 5 MP
gs
PP
gr
DP
2 2 -2 2 -2 -2 2 -2 896 693 5 MP
gs
PP
gr
DP
2 2 -2 2 -2 -2 2 -2 897 748 5 MP
gs
PP
gr
DP
2 2 -2 2 -2 -2 2 -2 898 748 5 MP
gs
PP
gr
DP
2 2 -2 2 -2 -2 2 -2 898 702 5 MP
gs
PP
gr
DP
2 2 -2 2 -2 -2 2 -2 899 729 5 MP
gs
PP
gr
DP
2 2 -2 2 -2 -2 2 -2 899 711 5 MP
gs
PP
gr
DP
2 2 -2 2 -2 -2 2 -2 900 702 5 MP
gs
PP
gr
DP
2 2 -2 2 -2 -2 2 -2 900 699 5 MP
gs
PP
gr
DP
2 2 -2 2 -2 -2 2 -2 901 706 5 MP
gs
PP
gr
DP
2 2 -2 2 -2 -2 2 -2 901 693 5 MP
gs
PP
gr
DP
2 2 -2 2 -2 -2 2 -2 902 702 5 MP
gs
PP
gr
DP
2 2 -2 2 -2 -2 2 -2 902 683 5 MP
gs
PP
gr
DP
2 2 -2 2 -2 -2 2 -2 902 702 5 MP
gs
PP
gr
DP
2 2 -2 2 -2 -2 2 -2 903 720 5 MP
gs
PP
gr
DP
2 2 -2 2 -2 -2 2 -2 904 738 5 MP
gs
PP
gr
DP
2 2 -2 2 -2 -2 2 -2 905 738 5 MP
gs
PP
gr
DP
2 2 -2 2 -2 -2 2 -2 905 702 5 MP
gs
PP
gr
DP
2 2 -2 2 -2 -2 2 -2 905 720 5 MP
gs
PP
gr
DP
2 2 -2 2 -2 -2 2 -2 906 711 5 MP
gs
PP
gr
DP
2 2 -2 2 -2 -2 2 -2 906 670 5 MP
gs
PP
gr
DP
2 2 -2 2 -2 -2 2 -2 906 702 5 MP
gs
PP
gr
DP
2 2 -2 2 -2 -2 2 -2 907 704 5 MP
gs
PP
gr
DP
2 2 -2 2 -2 -2 2 -2 907 702 5 MP
gs
PP
gr
DP
2 2 -2 2 -2 -2 2 -2 909 702 5 MP
gs
PP
gr
DP
2 2 -2 2 -2 -2 2 -2 909 720 5 MP
gs
PP
gr
DP
2 2 -2 2 -2 -2 2 -2 910 698 5 MP
gs
PP
gr
DP
2 2 -2 2 -2 -2 2 -2 910 705 5 MP
gs
PP
gr
DP
2 2 -2 2 -2 -2 2 -2 910 693 5 MP
gs
PP
gr
DP
2 2 -2 2 -2 -2 2 -2 911 748 5 MP
gs
PP
gr
DP
2 2 -2 2 -2 -2 2 -2 911 738 5 MP
gs
PP
gr
DP
2 2 -2 2 -2 -2 2 -2 912 729 5 MP
gs
PP
gr
DP
2 2 -2 2 -2 -2 2 -2 912 720 5 MP
gs
PP
gr
DP
2 2 -2 2 -2 -2 2 -2 913 729 5 MP
gs
PP
gr
DP
2 2 -2 2 -2 -2 2 -2 913 711 5 MP
gs
PP
gr
DP
2 2 -2 2 -2 -2 2 -2 914 711 5 MP
gs
PP
gr
DP
2 2 -2 2 -2 -2 2 -2 914 729 5 MP
gs
PP
gr
DP
2 2 -2 2 -2 -2 2 -2 914 708 5 MP
gs
PP
gr
DP
2 2 -2 2 -2 -2 2 -2 915 729 5 MP
gs
PP
gr
DP
2 2 -2 2 -2 -2 2 -2 915 720 5 MP
gs
PP
gr
DP
2 2 -2 2 -2 -2 2 -2 915 729 5 MP
gs
PP
gr
DP
2 2 -2 2 -2 -2 2 -2 916 748 5 MP
gs
PP
gr
DP
2 2 -2 2 -2 -2 2 -2 916 738 5 MP
gs
PP
gr
DP
2 2 -2 2 -2 -2 2 -2 916 726 5 MP
gs
PP
gr
DP
2 2 -2 2 -2 -2 2 -2 917 729 5 MP
gs
PP
gr
DP
2 2 -2 2 -2 -2 2 -2 917 748 5 MP
gs
PP
gr
DP
2 2 -2 2 -2 -2 2 -2 917 688 5 MP
gs
PP
gr
DP
2 2 -2 2 -2 -2 2 -2 918 711 5 MP
gs
PP
gr
DP
2 2 -2 2 -2 -2 2 -2 918 738 5 MP
gs
PP
gr
DP
2 2 -2 2 -2 -2 2 -2 918 665 5 MP
gs
PP
gr
DP
2 2 -2 2 -2 -2 2 -2 919 738 5 MP
gs
PP
gr
DP
2 2 -2 2 -2 -2 2 -2 919 748 5 MP
gs
PP
gr
DP
2 2 -2 2 -2 -2 2 -2 920 748 5 MP
gs
PP
gr
DP
2 2 -2 2 -2 -2 2 -2 922 711 5 MP
gs
PP
gr
DP
2 2 -2 2 -2 -2 2 -2 923 748 5 MP
gs
PP
gr
DP
2 2 -2 2 -2 -2 2 -2 923 711 5 MP
gs
PP
gr
DP
2 2 -2 2 -2 -2 2 -2 923 748 5 MP
gs
PP
gr
DP
2 2 -2 2 -2 -2 2 -2 924 748 5 MP
gs
PP
gr
DP
2 2 -2 2 -2 -2 2 -2 925 711 5 MP
gs
PP
gr
DP
2 2 -2 2 -2 -2 2 -2 925 738 5 MP
gs
PP
gr
DP
2 2 -2 2 -2 -2 2 -2 925 711 5 MP
gs
PP
gr
DP
2 2 -2 2 -2 -2 2 -2 926 738 5 MP
gs
PP
gr
DP
2 2 -2 2 -2 -2 2 -2 927 697 5 MP
gs
PP
gr
DP
2 2 -2 2 -2 -2 2 -2 927 707 5 MP
gs
PP
gr
DP
2 2 -2 2 -2 -2 2 -2 927 748 5 MP
gs
PP
gr
DP
2 2 -2 2 -2 -2 2 -2 928 729 5 MP
gs
PP
gr
DP
2 2 -2 2 -2 -2 2 -2 930 748 5 MP
gs
PP
gr
DP
2 2 -2 2 -2 -2 2 -2 931 748 5 MP
gs
PP
gr
DP
2 2 -2 2 -2 -2 2 -2 932 720 5 MP
gs
PP
gr
DP
2 2 -2 2 -2 -2 2 -2 932 702 5 MP
gs
PP
gr
DP
2 2 -2 2 -2 -2 2 -2 933 705 5 MP
gs
PP
gr
DP
2 2 -2 2 -2 -2 2 -2 933 708 5 MP
gs
PP
gr
DP
2 2 -2 2 -2 -2 2 -2 933 746 5 MP
gs
PP
gr
DP
2 2 -2 2 -2 -2 2 -2 933 738 5 MP
gs
PP
gr
DP
2 2 -2 2 -2 -2 2 -2 934 738 5 MP
gs
PP
gr
DP
2 2 -2 2 -2 -2 2 -2 935 748 5 MP
gs
PP
gr
DP
2 2 -2 2 -2 -2 2 -2 936 729 5 MP
gs
PP
gr
DP
2 2 -2 2 -2 -2 2 -2 936 702 5 MP
gs
PP
gr
DP
2 2 -2 2 -2 -2 2 -2 936 668 5 MP
gs
PP
gr
DP
2 2 -2 2 -2 -2 2 -2 937 729 5 MP
gs
PP
gr
DP
2 2 -2 2 -2 -2 2 -2 937 720 5 MP
gs
PP
gr
DP
2 2 -2 2 -2 -2 2 -2 938 748 5 MP
gs
PP
gr
DP
2 2 -2 2 -2 -2 2 -2 938 666 5 MP
gs
PP
gr
DP
2 2 -2 2 -2 -2 2 -2 938 639 5 MP
gs
PP
gr
DP
2 2 -2 2 -2 -2 2 -2 938 693 5 MP
gs
PP
gr
DP
2 2 -2 2 -2 -2 2 -2 939 738 5 MP
gs
PP
gr
DP
2 2 -2 2 -2 -2 2 -2 939 662 5 MP
gs
PP
gr
DP
2 2 -2 2 -2 -2 2 -2 939 720 5 MP
gs
PP
gr
DP
2 2 -2 2 -2 -2 2 -2 940 738 5 MP
gs
PP
gr
DP
2 2 -2 2 -2 -2 2 -2 941 729 5 MP
gs
PP
gr
DP
2 2 -2 2 -2 -2 2 -2 941 720 5 MP
gs
PP
gr
DP
2 2 -2 2 -2 -2 2 -2 941 729 5 MP
gs
PP
gr
DP
2 2 -2 2 -2 -2 2 -2 942 712 5 MP
gs
PP
gr
DP
2 2 -2 2 -2 -2 2 -2 942 729 5 MP
gs
PP
gr
DP
2 2 -2 2 -2 -2 2 -2 942 715 5 MP
gs
PP
gr
DP
2 2 -2 2 -2 -2 2 -2 942 744 5 MP
gs
PP
gr
DP
2 2 -2 2 -2 -2 2 -2 942 711 5 MP
gs
PP
gr
DP
2 2 -2 2 -2 -2 2 -2 943 720 5 MP
gs
PP
gr
DP
2 2 -2 2 -2 -2 2 -2 943 702 5 MP
gs
PP
gr
DP
2 2 -2 2 -2 -2 2 -2 943 711 5 MP
gs
PP
gr
DP
2 2 -2 2 -2 -2 2 -2 943 665 5 MP
gs
PP
gr
DP
2 2 -2 2 -2 -2 2 -2 944 665 5 MP
gs
PP
gr
DP
2 2 -2 2 -2 -2 2 -2 944 702 5 MP
gs
PP
gr
DP
2 2 -2 2 -2 -2 2 -2 944 677 5 MP
gs
PP
gr
DP
2 2 -2 2 -2 -2 2 -2 944 711 5 MP
gs
PP
gr
DP
2 2 -2 2 -2 -2 2 -2 945 748 5 MP
gs
PP
gr
DP
2 2 -2 2 -2 -2 2 -2 947 720 5 MP
gs
PP
gr
DP
2 2 -2 2 -2 -2 2 -2 948 720 5 MP
gs
PP
gr
DP
2 2 -2 2 -2 -2 2 -2 948 683 5 MP
gs
PP
gr
DP
2 2 -2 2 -2 -2 2 -2 948 686 5 MP
gs
PP
gr
DP
2 2 -2 2 -2 -2 2 -2 949 748 5 MP
gs
PP
gr
DP
2 2 -2 2 -2 -2 2 -2 950 683 5 MP
gs
PP
gr
DP
2 2 -2 2 -2 -2 2 -2 951 683 5 MP
gs
PP
gr
DP
2 2 -2 2 -2 -2 2 -2 951 738 5 MP
gs
PP
gr
DP
2 2 -2 2 -2 -2 2 -2 951 683 5 MP
gs
PP
gr
DP
2 2 -2 2 -2 -2 2 -2 952 702 5 MP
gs
PP
gr
DP
2 2 -2 2 -2 -2 2 -2 953 711 5 MP
gs
PP
gr
DP
2 2 -2 2 -2 -2 2 -2 955 729 5 MP
gs
PP
gr
DP
2 2 -2 2 -2 -2 2 -2 955 738 5 MP
gs
PP
gr
DP
2 2 -2 2 -2 -2 2 -2 955 693 5 MP
gs
PP
gr
DP
2 2 -2 2 -2 -2 2 -2 956 738 5 MP
gs
PP
gr
DP
2 2 -2 2 -2 -2 2 -2 956 693 5 MP
gs
PP
gr
DP
2 2 -2 2 -2 -2 2 -2 956 738 5 MP
gs
PP
gr
DP
2 2 -2 2 -2 -2 2 -2 957 683 5 MP
gs
PP
gr
DP
2 2 -2 2 -2 -2 2 -2 957 711 5 MP
gs
PP
gr
DP
2 2 -2 2 -2 -2 2 -2 957 698 5 MP
gs
PP
gr
DP
2 2 -2 2 -2 -2 2 -2 958 683 5 MP
gs
PP
gr
DP
2 2 -2 2 -2 -2 2 -2 958 685 5 MP
gs
PP
gr
DP
2 2 -2 2 -2 -2 2 -2 958 663 5 MP
gs
PP
gr
DP
2 2 -2 2 -2 -2 2 -2 958 702 5 MP
gs
PP
gr
DP
2 2 -2 2 -2 -2 2 -2 960 683 5 MP
gs
PP
gr
DP
2 2 -2 2 -2 -2 2 -2 961 711 5 MP
gs
PP
gr
DP
2 2 -2 2 -2 -2 2 -2 961 693 5 MP
gs
PP
gr
DP
2 2 -2 2 -2 -2 2 -2 961 711 5 MP
gs
PP
gr
DP
2 2 -2 2 -2 -2 2 -2 962 700 5 MP
gs
PP
gr
DP
2 2 -2 2 -2 -2 2 -2 962 674 5 MP
gs
PP
gr
DP
2 2 -2 2 -2 -2 2 -2 962 687 5 MP
gs
PP
gr
DP
2 2 -2 2 -2 -2 2 -2 962 729 5 MP
gs
PP
gr
DP
2 2 -2 2 -2 -2 2 -2 963 685 5 MP
gs
PP
gr
DP
2 2 -2 2 -2 -2 2 -2 963 700 5 MP
gs
PP
gr
DP
2 2 -2 2 -2 -2 2 -2 963 693 5 MP
gs
PP
gr
DP
2 2 -2 2 -2 -2 2 -2 964 693 5 MP
gs
PP
gr
DP
2 2 -2 2 -2 -2 2 -2 965 729 5 MP
gs
PP
gr
DP
2 2 -2 2 -2 -2 2 -2 965 702 5 MP
gs
PP
gr
DP
2 2 -2 2 -2 -2 2 -2 967 720 5 MP
gs
PP
gr
DP
2 2 -2 2 -2 -2 2 -2 967 729 5 MP
gs
PP
gr
DP
2 2 -2 2 -2 -2 2 -2 970 738 5 MP
gs
PP
gr
DP
2 2 -2 2 -2 -2 2 -2 971 720 5 MP
gs
PP
gr
DP
2 2 -2 2 -2 -2 2 -2 971 738 5 MP
gs
PP
gr
DP
2 2 -2 2 -2 -2 2 -2 972 748 5 MP
gs
PP
gr
DP
2 2 -2 2 -2 -2 2 -2 972 687 5 MP
gs
PP
gr
DP
2 2 -2 2 -2 -2 2 -2 972 693 5 MP
gs
PP
gr
DP
2 2 -2 2 -2 -2 2 -2 972 674 5 MP
gs
PP
gr
DP
2 2 -2 2 -2 -2 2 -2 973 706 5 MP
gs
PP
gr
DP
2 2 -2 2 -2 -2 2 -2 973 738 5 MP
gs
PP
gr
DP
2 2 -2 2 -2 -2 2 -2 974 738 5 MP
gs
PP
gr
DP
2 2 -2 2 -2 -2 2 -2 974 748 5 MP
gs
PP
gr
DP
2 2 -2 2 -2 -2 2 -2 974 711 5 MP
gs
PP
gr
DP
2 2 -2 2 -2 -2 2 -2 975 711 5 MP
gs
PP
gr
DP
2 2 -2 2 -2 -2 2 -2 976 665 5 MP
gs
PP
gr
DP
2 2 -2 2 -2 -2 2 -2 976 711 5 MP
gs
PP
gr
DP
2 2 -2 2 -2 -2 2 -2 977 748 5 MP
gs
PP
gr
DP
2 2 -2 2 -2 -2 2 -2 977 720 5 MP
gs
PP
gr
DP
2 2 -2 2 -2 -2 2 -2 977 711 5 MP
gs
PP
gr
DP
2 2 -2 2 -2 -2 2 -2 978 637 5 MP
gs
PP
gr
DP
2 2 -2 2 -2 -2 2 -2 978 705 5 MP
gs
PP
gr
DP
2 2 -2 2 -2 -2 2 -2 978 666 5 MP
gs
PP
gr
DP
2 2 -2 2 -2 -2 2 -2 979 665 5 MP
gs
PP
gr
DP
2 2 -2 2 -2 -2 2 -2 979 685 5 MP
gs
PP
gr
DP
2 2 -2 2 -2 -2 2 -2 979 693 5 MP
gs
PP
gr
DP
2 2 -2 2 -2 -2 2 -2 980 708 5 MP
gs
PP
gr
DP
2 2 -2 2 -2 -2 2 -2 981 711 5 MP
gs
PP
gr
DP
2 2 -2 2 -2 -2 2 -2 982 720 5 MP
gs
PP
gr
DP
2 2 -2 2 -2 -2 2 -2 983 693 5 MP
gs
PP
gr
DP
2 2 -2 2 -2 -2 2 -2 983 720 5 MP
gs
PP
gr
DP
2 2 -2 2 -2 -2 2 -2 983 729 5 MP
gs
PP
gr
DP
2 2 -2 2 -2 -2 2 -2 985 738 5 MP
gs
PP
gr
DP
2 2 -2 2 -2 -2 2 -2 985 748 5 MP
gs
PP
gr
DP
2 2 -2 2 -2 -2 2 -2 986 711 5 MP
gs
PP
gr
DP
2 2 -2 2 -2 -2 2 -2 986 738 5 MP
gs
PP
gr
DP
2 2 -2 2 -2 -2 2 -2 986 702 5 MP
gs
PP
gr
DP
2 2 -2 2 -2 -2 2 -2 987 702 5 MP
gs
PP
gr
DP
2 2 -2 2 -2 -2 2 -2 987 718 5 MP
gs
PP
gr
DP
2 2 -2 2 -2 -2 2 -2 987 711 5 MP
gs
PP
gr
DP
2 2 -2 2 -2 -2 2 -2 987 720 5 MP
gs
PP
gr
DP
2 2 -2 2 -2 -2 2 -2 987 711 5 MP
gs
PP
gr
DP
2 2 -2 2 -2 -2 2 -2 988 698 5 MP
gs
PP
gr
DP
2 2 -2 2 -2 -2 2 -2 989 693 5 MP
gs
PP
gr
DP
2 2 -2 2 -2 -2 2 -2 989 737 5 MP
gs
PP
gr
DP
2 2 -2 2 -2 -2 2 -2 989 702 5 MP
gs
PP
gr
DP
2 2 -2 2 -2 -2 2 -2 990 748 5 MP
gs
PP
gr
DP
2 2 -2 2 -2 -2 2 -2 990 702 5 MP
gs
PP
gr
DP
2 2 -2 2 -2 -2 2 -2 991 693 5 MP
gs
PP
gr
DP
2 2 -2 2 -2 -2 2 -2 991 674 5 MP
gs
PP
gr
DP
2 2 -2 2 -2 -2 2 -2 991 702 5 MP
gs
PP
gr
DP
2 2 -2 2 -2 -2 2 -2 993 702 5 MP
gs
PP
gr
DP
2 2 -2 2 -2 -2 2 -2 993 654 5 MP
gs
PP
gr
DP
2 2 -2 2 -2 -2 2 -2 993 683 5 MP
gs
PP
gr
DP
2 2 -2 2 -2 -2 2 -2 994 702 5 MP
gs
PP
gr
DP
2 2 -2 2 -2 -2 2 -2 994 690 5 MP
gs
PP
gr
DP
2 2 -2 2 -2 -2 2 -2 995 693 5 MP
gs
PP
gr
DP
2 2 -2 2 -2 -2 2 -2 995 720 5 MP
gs
PP
gr
DP
2 2 -2 2 -2 -2 2 -2 996 697 5 MP
gs
PP
gr
DP
2 2 -2 2 -2 -2 2 -2 996 683 5 MP
gs
PP
gr
DP
2 2 -2 2 -2 -2 2 -2 997 693 5 MP
gs
PP
gr
DP
2 2 -2 2 -2 -2 2 -2 998 702 5 MP
gs
PP
gr
DP
2 2 -2 2 -2 -2 2 -2 998 671 5 MP
gs
PP
gr
DP
2 2 -2 2 -2 -2 2 -2 999 681 5 MP
gs
PP
gr
DP
2 2 -2 2 -2 -2 2 -2 999 697 5 MP
gs
PP
gr
DP
2 2 -2 2 -2 -2 2 -2 999 702 5 MP
gs
PP
gr
DP
2 2 -2 2 -2 -2 2 -2 1000 683 5 MP
gs
PP
gr
DP
2 2 -2 2 -2 -2 2 -2 1000 711 5 MP
gs
PP
gr
DP
2 2 -2 2 -2 -2 2 -2 1000 693 5 MP
gs
PP
gr
DP
2 2 -2 2 -2 -2 2 -2 1000 720 5 MP
gs
PP
gr
DP
2 2 -2 2 -2 -2 2 -2 1000 682 5 MP
gs
PP
gr
DP
2 2 -2 2 -2 -2 2 -2 1001 720 5 MP
gs
PP
gr
DP
2 2 -2 2 -2 -2 2 -2 1002 748 5 MP
gs
PP
gr
DP
2 2 -2 2 -2 -2 2 -2 1002 720 5 MP
gs
PP
gr
DP
2 2 -2 2 -2 -2 2 -2 1002 748 5 MP
gs
PP
gr
DP
2 2 -2 2 -2 -2 2 -2 1002 702 5 MP
gs
PP
gr
DP
2 2 -2 2 -2 -2 2 -2 1003 738 5 MP
gs
PP
gr
DP
2 2 -2 2 -2 -2 2 -2 1003 748 5 MP
gs
PP
gr
DP
2 2 -2 2 -2 -2 2 -2 1004 748 5 MP
gs
PP
gr
DP
2 2 -2 2 -2 -2 2 -2 1005 738 5 MP
gs
PP
gr
DP
2 2 -2 2 -2 -2 2 -2 1005 720 5 MP
gs
PP
gr
DP
2 2 -2 2 -2 -2 2 -2 1007 748 5 MP
gs
PP
gr
DP
2 2 -2 2 -2 -2 2 -2 1008 738 5 MP
gs
PP
gr
DP
2 2 -2 2 -2 -2 2 -2 1010 683 5 MP
gs
PP
gr
DP
2 2 -2 2 -2 -2 2 -2 1010 748 5 MP
gs
PP
gr
DP
2 2 -2 2 -2 -2 2 -2 1012 720 5 MP
gs
PP
gr
DP
2 2 -2 2 -2 -2 2 -2 1012 693 5 MP
gs
PP
gr
DP
2 2 -2 2 -2 -2 2 -2 1012 682 5 MP
gs
PP
gr
DP
2 2 -2 2 -2 -2 2 -2 1013 694 5 MP
gs
PP
gr
DP
2 2 -2 2 -2 -2 2 -2 1014 693 5 MP
gs
PP
gr
DP
2 2 -2 2 -2 -2 2 -2 1014 711 5 MP
gs
PP
gr
DP
2 2 -2 2 -2 -2 2 -2 1014 702 5 MP
gs
PP
gr
DP
2 2 -2 2 -2 -2 2 -2 1014 729 5 MP
gs
PP
gr
DP
2 2 -2 2 -2 -2 2 -2 1015 702 5 MP
gs
PP
gr
DP
2 2 -2 2 -2 -2 2 -2 1015 688 5 MP
gs
PP
gr
DP
2 2 -2 2 -2 -2 2 -2 1016 720 5 MP
gs
PP
gr
DP
2 2 -2 2 -2 -2 2 -2 1016 702 5 MP
gs
PP
gr
DP
2 2 -2 2 -2 -2 2 -2 1017 702 5 MP
gs
PP
gr
DP
2 2 -2 2 -2 -2 2 -2 1017 720 5 MP
gs
PP
gr
DP
2 2 -2 2 -2 -2 2 -2 1017 738 5 MP
gs
PP
gr
DP
2 2 -2 2 -2 -2 2 -2 1018 729 5 MP
gs
PP
gr
DP
2 2 -2 2 -2 -2 2 -2 1019 720 5 MP
gs
PP
gr
DP
2 2 -2 2 -2 -2 2 -2 1019 702 5 MP
gs
PP
gr
DP
2 2 -2 2 -2 -2 2 -2 1019 720 5 MP
gs
PP
gr
DP
2 2 -2 2 -2 -2 2 -2 1020 683 5 MP
gs
PP
gr
DP
2 2 -2 2 -2 -2 2 -2 1020 693 5 MP
gs
PP
gr
DP
2 2 -2 2 -2 -2 2 -2 1020 599 5 MP
gs
PP
gr
DP
2 2 -2 2 -2 -2 2 -2 1020 674 5 MP
gs
PP
gr
DP
2 2 -2 2 -2 -2 2 -2 1021 659 5 MP
gs
PP
gr
DP
2 2 -2 2 -2 -2 2 -2 1021 720 5 MP
gs
PP
gr
DP
2 2 -2 2 -2 -2 2 -2 1022 702 5 MP
gs
PP
gr
DP
2 2 -2 2 -2 -2 2 -2 1022 682 5 MP
gs
PP
gr
DP
2 2 -2 2 -2 -2 2 -2 1022 674 5 MP
gs
PP
gr
DP
2 2 -2 2 -2 -2 2 -2 1023 720 5 MP
gs
PP
gr
DP
2 2 -2 2 -2 -2 2 -2 1023 693 5 MP
gs
PP
gr
DP
2 2 -2 2 -2 -2 2 -2 1023 685 5 MP
gs
PP
gr
DP
2 2 -2 2 -2 -2 2 -2 1023 711 5 MP
gs
PP
gr
DP
2 2 -2 2 -2 -2 2 -2 1024 693 5 MP
gs
PP
gr
DP
2 2 -2 2 -2 -2 2 -2 1025 720 5 MP
gs
PP
gr
DP
2 2 -2 2 -2 -2 2 -2 1026 718 5 MP
gs
PP
gr
DP
2 2 -2 2 -2 -2 2 -2 1027 711 5 MP
gs
PP
gr
DP
2 2 -2 2 -2 -2 2 -2 1028 693 5 MP
gs
PP
gr
DP
2 2 -2 2 -2 -2 2 -2 1028 646 5 MP
gs
PP
gr
DP
2 2 -2 2 -2 -2 2 -2 1029 662 5 MP
gs
PP
gr
DP
2 2 -2 2 -2 -2 2 -2 1029 674 5 MP
gs
PP
gr
DP
2 2 -2 2 -2 -2 2 -2 1029 627 5 MP
gs
PP
gr
DP
2 2 -2 2 -2 -2 2 -2 1029 738 5 MP
gs
PP
gr
DP
2 2 -2 2 -2 -2 2 -2 1030 693 5 MP
gs
PP
gr
DP
2 2 -2 2 -2 -2 2 -2 1031 738 5 MP
gs
PP
gr
DP
2 2 -2 2 -2 -2 2 -2 1031 670 5 MP
gs
PP
gr
DP
2 2 -2 2 -2 -2 2 -2 1031 711 5 MP
gs
PP
gr
DP
2 2 -2 2 -2 -2 2 -2 1032 693 5 MP
gs
PP
gr
DP
2 2 -2 2 -2 -2 2 -2 1032 711 5 MP
gs
PP
gr
DP
2 2 -2 2 -2 -2 2 -2 1033 729 5 MP
gs
PP
gr
DP
2 2 -2 2 -2 -2 2 -2 1033 706 5 MP
gs
PP
gr
DP
2 2 -2 2 -2 -2 2 -2 1033 711 5 MP
gs
PP
gr
DP
2 2 -2 2 -2 -2 2 -2 1034 708 5 MP
gs
PP
gr
DP
2 2 -2 2 -2 -2 2 -2 1034 720 5 MP
gs
PP
gr
DP
2 2 -2 2 -2 -2 2 -2 1034 693 5 MP
gs
PP
gr
DP
2 2 -2 2 -2 -2 2 -2 1035 702 5 MP
gs
PP
gr
DP
2 2 -2 2 -2 -2 2 -2 1036 702 5 MP
gs
PP
gr
DP
2 2 -2 2 -2 -2 2 -2 1037 711 5 MP
gs
PP
gr
DP
2 2 -2 2 -2 -2 2 -2 1037 738 5 MP
gs
PP
gr
DP
2 2 -2 2 -2 -2 2 -2 1038 702 5 MP
gs
PP
gr
DP
2 2 -2 2 -2 -2 2 -2 1038 711 5 MP
gs
PP
gr
DP
2 2 -2 2 -2 -2 2 -2 1039 709 5 MP
gs
PP
gr
DP
2 2 -2 2 -2 -2 2 -2 1039 729 5 MP
gs
PP
gr
DP
2 2 -2 2 -2 -2 2 -2 1040 720 5 MP
gs
PP
gr
DP
2 2 -2 2 -2 -2 2 -2 1040 721 5 MP
gs
PP
gr
DP
2 2 -2 2 -2 -2 2 -2 1041 702 5 MP
gs
PP
gr
DP
2 2 -2 2 -2 -2 2 -2 1042 748 5 MP
gs
PP
gr
DP
2 2 -2 2 -2 -2 2 -2 1042 702 5 MP
gs
PP
gr
DP
2 2 -2 2 -2 -2 2 -2 1043 702 5 MP
gs
PP
gr
DP
2 2 -2 2 -2 -2 2 -2 1043 729 5 MP
gs
PP
gr
DP
2 2 -2 2 -2 -2 2 -2 1044 738 5 MP
gs
PP
gr
DP
2 2 -2 2 -2 -2 2 -2 1044 702 5 MP
gs
PP
gr
DP
2 2 -2 2 -2 -2 2 -2 1044 693 5 MP
gs
PP
gr
DP
2 2 -2 2 -2 -2 2 -2 1045 683 5 MP
gs
PP
gr
DP
2 2 -2 2 -2 -2 2 -2 1045 711 5 MP
gs
PP
gr
DP
2 2 -2 2 -2 -2 2 -2 1046 748 5 MP
gs
PP
gr
DP
2 2 -2 2 -2 -2 2 -2 1047 727 5 MP
gs
PP
gr
DP
2 2 -2 2 -2 -2 2 -2 1047 712 5 MP
gs
PP
gr
DP
2 2 -2 2 -2 -2 2 -2 1048 678 5 MP
gs
PP
gr
DP
2 2 -2 2 -2 -2 2 -2 1048 738 5 MP
gs
PP
gr
DP
2 2 -2 2 -2 -2 2 -2 1049 738 5 MP
gs
PP
gr
DP
2 2 -2 2 -2 -2 2 -2 1049 748 5 MP
gs
PP
gr
DP
2 2 -2 2 -2 -2 2 -2 1049 674 5 MP
gs
PP
gr
DP
2 2 -2 2 -2 -2 2 -2 1050 730 5 MP
gs
PP
gr
DP
2 2 -2 2 -2 -2 2 -2 1050 720 5 MP
gs
PP
gr
DP
2 2 -2 2 -2 -2 2 -2 1051 710 5 MP
gs
PP
gr
DP
2 2 -2 2 -2 -2 2 -2 1051 748 5 MP
gs
PP
gr
DP
2 2 -2 2 -2 -2 2 -2 1051 738 5 MP
gs
PP
gr
DP
2 2 -2 2 -2 -2 2 -2 1051 748 5 MP
gs
PP
gr
DP
2 2 -2 2 -2 -2 2 -2 1052 693 5 MP
gs
PP
gr
DP
2 2 -2 2 -2 -2 2 -2 1052 729 5 MP
gs
PP
gr
DP
2 2 -2 2 -2 -2 2 -2 1053 738 5 MP
gs
PP
gr
DP
2 2 -2 2 -2 -2 2 -2 1053 748 5 MP
gs
PP
gr
DP
2 2 -2 2 -2 -2 2 -2 1054 748 5 MP
gs
PP
gr
DP
2 2 -2 2 -2 -2 2 -2 1054 711 5 MP
gs
PP
gr
DP
2 2 -2 2 -2 -2 2 -2 1055 674 5 MP
gs
PP
gr
DP
gr

gs 156 68 931 734 MR c np
gr

 564   54 mt 
(144-4 Site1) s
 551  851 mt 
(Time \(Minutes\)) s
  96  454 mt  -90 rotate
(Ti \(\)) s
90 rotate
1.04167 w

end %%Color Dict

eplot
%%EndObject

epage
end

showpage

%%Trailer
%%EOF
