%!PS-Adobe-2.0 EPSF-1.2
%%Creator: MATLAB, The Mathworks, Inc. Version 7.4.0.287 (R2007a). Operating System: Microsoft Windows 2000.
%%Title: D:\contract work\KatzData\Results\Stanford 12 New Buxco Setting_144- Variable -- Te Time -- 5400-6180.eps
%%CreationDate: 09/08/2010  21:06:01
%%DocumentNeededFonts: Helvetica
%%DocumentProcessColors: Cyan Magenta Yellow Black
%%Pages: 1
%%BoundingBox:    57   199   550   601
%%EndComments

%%BeginProlog
% MathWorks dictionary
/MathWorks 160 dict begin
% definition operators
/bdef {bind def} bind def
/ldef {load def} bind def
/xdef {exch def} bdef
/xstore {exch store} bdef
% operator abbreviations
/c  /clip ldef
/cc /concat ldef
/cp /closepath ldef
/gr /grestore ldef
/gs /gsave ldef
/mt /moveto ldef
/np /newpath ldef
/cm /currentmatrix ldef
/sm /setmatrix ldef
/rm /rmoveto ldef
/rl /rlineto ldef
/s {show newpath} bdef
/sc {setcmykcolor} bdef
/sr /setrgbcolor ldef
/sg /setgray ldef
/w /setlinewidth ldef
/j /setlinejoin ldef
/cap /setlinecap ldef
/rc {rectclip} bdef
/rf {rectfill} bdef
% page state control
/pgsv () def
/bpage {/pgsv save def} bdef
/epage {pgsv restore} bdef
/bplot /gsave ldef
/eplot {stroke grestore} bdef
% orientation switch
/portraitMode 0 def /landscapeMode 1 def /rotateMode 2 def
% coordinate system mappings
/dpi2point 0 def
% font control
/FontSize 0 def
/FMS {/FontSize xstore findfont [FontSize 0 0 FontSize neg 0 0]
  makefont setfont} bdef
/ISOLatin1Encoding where {pop /WindowsLatin1Encoding 256 array bdef
ISOLatin1Encoding WindowsLatin1Encoding copy pop
/.notdef/.notdef/quotesinglbase/florin/quotedblbase/ellipsis/dagger
/daggerdbl/circumflex/perthousand/Scaron/guilsinglleft/OE/.notdef/.notdef
/.notdef/.notdef/quoteleft/quoteright/quotedblleft/quotedblright/bullet
/endash/emdash/tilde/trademark/scaron/guilsinglright/oe/.notdef/.notdef
/Ydieresis WindowsLatin1Encoding 128 32 getinterval astore pop}
{/WindowsLatin1Encoding StandardEncoding bdef} ifelse
/reencode {exch dup where {pop load} {pop StandardEncoding} ifelse
  exch dup 3 1 roll findfont dup length dict begin
  { 1 index /FID ne {def}{pop pop} ifelse } forall
  /Encoding exch def currentdict end definefont pop} bdef
/isroman {findfont /CharStrings get /Agrave known} bdef
/FMSR {3 1 roll 1 index dup isroman {reencode} {pop pop} ifelse
  exch FMS} bdef
/csm {1 dpi2point div -1 dpi2point div scale neg translate
 dup landscapeMode eq {pop -90 rotate}
  {rotateMode eq {90 rotate} if} ifelse} bdef
% line types: solid, dotted, dashed, dotdash
/SO { [] 0 setdash } bdef
/DO { [.5 dpi2point mul 4 dpi2point mul] 0 setdash } bdef
/DA { [6 dpi2point mul] 0 setdash } bdef
/DD { [.5 dpi2point mul 4 dpi2point mul 6 dpi2point mul 4
  dpi2point mul] 0 setdash } bdef
% macros for lines and objects
/L {lineto stroke} bdef
/MP {3 1 roll moveto 1 sub {rlineto} repeat} bdef
/AP {{rlineto} repeat} bdef
/PDlw -1 def
/W {/PDlw currentlinewidth def setlinewidth} def
/PP {closepath eofill} bdef
/DP {closepath stroke} bdef
/MR {4 -2 roll moveto dup  0 exch rlineto exch 0 rlineto
  neg 0 exch rlineto closepath} bdef
/FR {MR stroke} bdef
/PR {MR fill} bdef
/L1i {{currentfile picstr readhexstring pop} image} bdef
/tMatrix matrix def
/MakeOval {newpath tMatrix currentmatrix pop translate scale
0 0 1 0 360 arc tMatrix setmatrix} bdef
/FO {MakeOval stroke} bdef
/PO {MakeOval fill} bdef
/PD {currentlinewidth 2 div 0 360 arc fill
   PDlw -1 eq not {PDlw w /PDlw -1 def} if} def
/FA {newpath tMatrix currentmatrix pop translate scale
  0 0 1 5 -2 roll arc tMatrix setmatrix stroke} bdef
/PA {newpath tMatrix currentmatrix pop	translate 0 0 moveto scale
  0 0 1 5 -2 roll arc closepath tMatrix setmatrix fill} bdef
/FAn {newpath tMatrix currentmatrix pop translate scale
  0 0 1 5 -2 roll arcn tMatrix setmatrix stroke} bdef
/PAn {newpath tMatrix currentmatrix pop translate 0 0 moveto scale
  0 0 1 5 -2 roll arcn closepath tMatrix setmatrix fill} bdef
/vradius 0 def /hradius 0 def /lry 0 def
/lrx 0 def /uly 0 def /ulx 0 def /rad 0 def
/MRR {/vradius xdef /hradius xdef /lry xdef /lrx xdef /uly xdef
  /ulx xdef newpath tMatrix currentmatrix pop ulx hradius add uly
  vradius add translate hradius vradius scale 0 0 1 180 270 arc 
  tMatrix setmatrix lrx hradius sub uly vradius add translate
  hradius vradius scale 0 0 1 270 360 arc tMatrix setmatrix
  lrx hradius sub lry vradius sub translate hradius vradius scale
  0 0 1 0 90 arc tMatrix setmatrix ulx hradius add lry vradius sub
  translate hradius vradius scale 0 0 1 90 180 arc tMatrix setmatrix
  closepath} bdef
/FRR {MRR stroke } bdef
/PRR {MRR fill } bdef
/MlrRR {/lry xdef /lrx xdef /uly xdef /ulx xdef /rad lry uly sub 2 div def
  newpath tMatrix currentmatrix pop ulx rad add uly rad add translate
  rad rad scale 0 0 1 90 270 arc tMatrix setmatrix lrx rad sub lry rad
  sub translate rad rad scale 0 0 1 270 90 arc tMatrix setmatrix
  closepath} bdef
/FlrRR {MlrRR stroke } bdef
/PlrRR {MlrRR fill } bdef
/MtbRR {/lry xdef /lrx xdef /uly xdef /ulx xdef /rad lrx ulx sub 2 div def
  newpath tMatrix currentmatrix pop ulx rad add uly rad add translate
  rad rad scale 0 0 1 180 360 arc tMatrix setmatrix lrx rad sub lry rad
  sub translate rad rad scale 0 0 1 0 180 arc tMatrix setmatrix
  closepath} bdef
/FtbRR {MtbRR stroke } bdef
/PtbRR {MtbRR fill } bdef
/stri 6 array def /dtri 6 array def
/smat 6 array def /dmat 6 array def
/tmat1 6 array def /tmat2 6 array def /dif 3 array def
/asub {/ind2 exch def /ind1 exch def dup dup
  ind1 get exch ind2 get sub exch } bdef
/tri_to_matrix {
  2 0 asub 3 1 asub 4 0 asub 5 1 asub
  dup 0 get exch 1 get 7 -1 roll astore } bdef
/compute_transform {
  dmat dtri tri_to_matrix tmat1 invertmatrix 
  smat stri tri_to_matrix tmat2 concatmatrix } bdef
/ds {stri astore pop} bdef
/dt {dtri astore pop} bdef
/db {2 copy /cols xdef /rows xdef mul dup string
  currentfile exch readhexstring pop
  /bmap xdef pop pop} bdef
/it {gs np dtri aload pop moveto lineto lineto cp c
  cols rows 8 compute_transform 
  {bmap} image gr}bdef
/il {newpath moveto lineto stroke}bdef
currentdict end def
%%EndProlog

%%BeginSetup
MathWorks begin

0 cap

end
%%EndSetup

%%Page: 1 1
%%BeginPageSetup
%%PageBoundingBox:    57   199   550   601
MathWorks begin
bpage
%%EndPageSetup

%%BeginObject: obj1
bplot

/dpi2point 2.08333 def
portraitMode 0035 1275 csm

   84    22  1028   838 MR c np
85 dict begin %Colortable dictionary
/c0 { 0.000000 0.000000 0.000000 sr} bdef
/c1 { 1.000000 1.000000 1.000000 sr} bdef
/c2 { 0.900000 0.000000 0.000000 sr} bdef
/c3 { 0.000000 0.820000 0.000000 sr} bdef
/c4 { 0.000000 0.000000 0.800000 sr} bdef
/c5 { 0.910000 0.820000 0.320000 sr} bdef
/c6 { 1.000000 0.260000 0.820000 sr} bdef
/c7 { 0.000000 0.820000 0.820000 sr} bdef
c0
1 j
1 sg
   0    0 1201  901 PR
1.04167 w
0 733 930 0 0 -733 156 801 4 MP
PP
-930 0 0 733 930 0 0 -733 156 801 5 MP stroke
0.694444 w
DO
SO
1.04167 w
0 sg
 156   68 mt 1086   68 L
 156  801 mt 1086  801 L
1086  801 mt 1086   68 L
 156  801 mt  156   68 L
 156  801 mt 1086  801 L
 156  801 mt  156   68 L
 156  801 mt  156  791 L
 156   68 mt  156   77 L
%%IncludeResource: font Helvetica
/Helvetica /WindowsLatin1Encoding 20.8333 FMSR

 145  826 mt 
(90) s
 288  801 mt  288  791 L
 288   68 mt  288   77 L
 277  826 mt 
(92) s
 421  801 mt  421  791 L
 421   68 mt  421   77 L
 410  826 mt 
(94) s
 554  801 mt  554  791 L
 554   68 mt  554   77 L
 543  826 mt 
(96) s
 687  801 mt  687  791 L
 687   68 mt  687   77 L
 676  826 mt 
(98) s
 820  801 mt  820  791 L
 820   68 mt  820   77 L
 803  826 mt 
(100) s
 953  801 mt  953  791 L
 953   68 mt  953   77 L
 936  826 mt 
(102) s
1086  801 mt 1086  791 L
1086   68 mt 1086   77 L
1069  826 mt 
(104) s
 156  801 mt  165  801 L
1086  801 mt 1076  801 L
 139  808 mt 
(0) s
 156  727 mt  165  727 L
1086  727 mt 1076  727 L
 122  734 mt 
(0.5) s
 156  654 mt  165  654 L
1086  654 mt 1076  654 L
 139  661 mt 
(1) s
 156  581 mt  165  581 L
1086  581 mt 1076  581 L
 122  588 mt 
(1.5) s
 156  507 mt  165  507 L
1086  507 mt 1076  507 L
 139  514 mt 
(2) s
 156  434 mt  165  434 L
1086  434 mt 1076  434 L
 122  441 mt 
(2.5) s
 156  361 mt  165  361 L
1086  361 mt 1076  361 L
 139  368 mt 
(3) s
 156  287 mt  165  287 L
1086  287 mt 1076  287 L
 122  294 mt 
(3.5) s
 156  214 mt  165  214 L
1086  214 mt 1076  214 L
 139  221 mt 
(4) s
 156  141 mt  165  141 L
1086  141 mt 1076  141 L
 122  148 mt 
(4.5) s
 156   68 mt  165   68 L
1086   68 mt 1076   68 L
 139   75 mt 
(5) s
 156   68 mt 1086   68 L
 156  801 mt 1086  801 L
1086  801 mt 1086   68 L
 156  801 mt  156   68 L
gs 156 68 931 734 MR c np
2.08333 w
gr

2.08333 w
gs 151 93 872 710 MR c np
0 j
2 2 -2 2 -2 -2 2 -2 156 795 5 MP
gs
PP
gr
DP
2 2 -2 2 -2 -2 2 -2 156 782 5 MP
gs
PP
gr
DP
2 2 -2 2 -2 -2 2 -2 157 772 5 MP
gs
PP
gr
DP
2 2 -2 2 -2 -2 2 -2 158 791 5 MP
gs
PP
gr
DP
2 2 -2 2 -2 -2 2 -2 158 789 5 MP
gs
PP
gr
DP
2 2 -2 2 -2 -2 2 -2 158 794 5 MP
gs
PP
gr
DP
2 2 -2 2 -2 -2 2 -2 159 795 5 MP
gs
PP
gr
DP
2 2 -2 2 -2 -2 2 -2 159 797 5 MP
gs
PP
gr
DP
2 2 -2 2 -2 -2 2 -2 159 782 5 MP
gs
PP
gr
DP
2 2 -2 2 -2 -2 2 -2 160 789 5 MP
gs
PP
gr
DP
2 2 -2 2 -2 -2 2 -2 160 788 5 MP
gs
PP
gr
DP
2 2 -2 2 -2 -2 2 -2 160 794 5 MP
gs
PP
gr
DP
2 2 -2 2 -2 -2 2 -2 160 791 5 MP
gs
PP
gr
DP
2 2 -2 2 -2 -2 2 -2 160 796 5 MP
gs
PP
gr
DP
2 2 -2 2 -2 -2 2 -2 161 792 5 MP
gs
PP
gr
DP
2 2 -2 2 -2 -2 2 -2 161 795 5 MP
gs
PP
gr
DP
2 2 -2 2 -2 -2 2 -2 161 794 5 MP
gs
PP
gr
DP
2 2 -2 2 -2 -2 2 -2 161 796 5 MP
gs
PP
gr
DP
2 2 -2 2 -2 -2 2 -2 163 794 5 MP
gs
PP
gr
DP
2 2 -2 2 -2 -2 2 -2 163 792 5 MP
gs
PP
gr
DP
2 2 -2 2 -2 -2 2 -2 163 793 5 MP
gs
PP
gr
DP
2 2 -2 2 -2 -2 2 -2 163 795 5 MP
gs
PP
gr
DP
2 2 -2 2 -2 -2 2 -2 163 793 5 MP
gs
PP
gr
DP
2 2 -2 2 -2 -2 2 -2 164 794 5 MP
gs
PP
gr
DP
2 2 -2 2 -2 -2 2 -2 165 794 5 MP
gs
PP
gr
DP
2 2 -2 2 -2 -2 2 -2 166 794 5 MP
gs
PP
gr
DP
2 2 -2 2 -2 -2 2 -2 166 793 5 MP
gs
PP
gr
DP
2 2 -2 2 -2 -2 2 -2 166 795 5 MP
gs
PP
gr
DP
2 2 -2 2 -2 -2 2 -2 166 794 5 MP
gs
PP
gr
DP
2 2 -2 2 -2 -2 2 -2 166 795 5 MP
gs
PP
gr
DP
2 2 -2 2 -2 -2 2 -2 166 791 5 MP
gs
PP
gr
DP
2 2 -2 2 -2 -2 2 -2 167 796 5 MP
gs
PP
gr
DP
2 2 -2 2 -2 -2 2 -2 168 790 5 MP
gs
PP
gr
DP
2 2 -2 2 -2 -2 2 -2 169 789 5 MP
gs
PP
gr
DP
2 2 -2 2 -2 -2 2 -2 169 795 5 MP
gs
PP
gr
DP
2 2 -2 2 -2 -2 2 -2 170 793 5 MP
gs
PP
gr
DP
2 2 -2 2 -2 -2 2 -2 171 791 5 MP
gs
PP
gr
DP
2 2 -2 2 -2 -2 2 -2 172 790 5 MP
gs
PP
gr
DP
2 2 -2 2 -2 -2 2 -2 173 795 5 MP
gs
PP
gr
DP
2 2 -2 2 -2 -2 2 -2 174 792 5 MP
gs
PP
gr
DP
2 2 -2 2 -2 -2 2 -2 174 790 5 MP
gs
PP
gr
DP
2 2 -2 2 -2 -2 2 -2 175 783 5 MP
gs
PP
gr
DP
2 2 -2 2 -2 -2 2 -2 176 687 5 MP
gs
PP
gr
DP
2 2 -2 2 -2 -2 2 -2 177 790 5 MP
gs
PP
gr
DP
2 2 -2 2 -2 -2 2 -2 177 783 5 MP
gs
PP
gr
DP
2 2 -2 2 -2 -2 2 -2 178 794 5 MP
gs
PP
gr
DP
2 2 -2 2 -2 -2 2 -2 179 792 5 MP
gs
PP
gr
DP
2 2 -2 2 -2 -2 2 -2 179 780 5 MP
gs
PP
gr
DP
2 2 -2 2 -2 -2 2 -2 180 785 5 MP
gs
PP
gr
DP
2 2 -2 2 -2 -2 2 -2 181 718 5 MP
gs
PP
gr
DP
2 2 -2 2 -2 -2 2 -2 181 796 5 MP
gs
PP
gr
DP
2 2 -2 2 -2 -2 2 -2 182 704 5 MP
gs
PP
gr
DP
2 2 -2 2 -2 -2 2 -2 183 796 5 MP
gs
PP
gr
DP
2 2 -2 2 -2 -2 2 -2 183 793 5 MP
gs
PP
gr
DP
2 2 -2 2 -2 -2 2 -2 184 777 5 MP
gs
PP
gr
DP
2 2 -2 2 -2 -2 2 -2 185 790 5 MP
gs
PP
gr
DP
2 2 -2 2 -2 -2 2 -2 185 797 5 MP
gs
PP
gr
DP
2 2 -2 2 -2 -2 2 -2 186 792 5 MP
gs
PP
gr
DP
2 2 -2 2 -2 -2 2 -2 187 796 5 MP
gs
PP
gr
DP
2 2 -2 2 -2 -2 2 -2 188 793 5 MP
gs
PP
gr
DP
2 2 -2 2 -2 -2 2 -2 188 792 5 MP
gs
PP
gr
DP
2 2 -2 2 -2 -2 2 -2 189 744 5 MP
gs
PP
gr
DP
2 2 -2 2 -2 -2 2 -2 189 793 5 MP
gs
PP
gr
DP
2 2 -2 2 -2 -2 2 -2 190 796 5 MP
gs
PP
gr
DP
2 2 -2 2 -2 -2 2 -2 191 743 5 MP
gs
PP
gr
DP
2 2 -2 2 -2 -2 2 -2 191 792 5 MP
gs
PP
gr
DP
2 2 -2 2 -2 -2 2 -2 192 796 5 MP
gs
PP
gr
DP
2 2 -2 2 -2 -2 2 -2 194 786 5 MP
gs
PP
gr
DP
2 2 -2 2 -2 -2 2 -2 194 797 5 MP
gs
PP
gr
DP
2 2 -2 2 -2 -2 2 -2 194 794 5 MP
gs
PP
gr
DP
2 2 -2 2 -2 -2 2 -2 195 796 5 MP
gs
PP
gr
DP
2 2 -2 2 -2 -2 2 -2 195 794 5 MP
gs
PP
gr
DP
2 2 -2 2 -2 -2 2 -2 196 795 5 MP
gs
PP
gr
DP
2 2 -2 2 -2 -2 2 -2 197 794 5 MP
gs
PP
gr
DP
2 2 -2 2 -2 -2 2 -2 198 794 5 MP
gs
PP
gr
DP
2 2 -2 2 -2 -2 2 -2 199 794 5 MP
gs
PP
gr
DP
2 2 -2 2 -2 -2 2 -2 199 796 5 MP
gs
PP
gr
DP
2 2 -2 2 -2 -2 2 -2 199 795 5 MP
gs
PP
gr
DP
2 2 -2 2 -2 -2 2 -2 200 795 5 MP
gs
PP
gr
DP
2 2 -2 2 -2 -2 2 -2 201 796 5 MP
gs
PP
gr
DP
2 2 -2 2 -2 -2 2 -2 202 795 5 MP
gs
PP
gr
DP
2 2 -2 2 -2 -2 2 -2 203 796 5 MP
gs
PP
gr
DP
2 2 -2 2 -2 -2 2 -2 204 796 5 MP
gs
PP
gr
DP
2 2 -2 2 -2 -2 2 -2 204 795 5 MP
gs
PP
gr
DP
2 2 -2 2 -2 -2 2 -2 205 795 5 MP
gs
PP
gr
DP
2 2 -2 2 -2 -2 2 -2 206 795 5 MP
gs
PP
gr
DP
2 2 -2 2 -2 -2 2 -2 206 797 5 MP
gs
PP
gr
DP
2 2 -2 2 -2 -2 2 -2 207 787 5 MP
gs
PP
gr
DP
2 2 -2 2 -2 -2 2 -2 207 792 5 MP
gs
PP
gr
DP
2 2 -2 2 -2 -2 2 -2 208 790 5 MP
gs
PP
gr
DP
2 2 -2 2 -2 -2 2 -2 208 791 5 MP
gs
PP
gr
DP
2 2 -2 2 -2 -2 2 -2 209 794 5 MP
gs
PP
gr
DP
2 2 -2 2 -2 -2 2 -2 209 786 5 MP
gs
PP
gr
DP
2 2 -2 2 -2 -2 2 -2 210 794 5 MP
gs
PP
gr
DP
2 2 -2 2 -2 -2 2 -2 211 790 5 MP
gs
PP
gr
DP
2 2 -2 2 -2 -2 2 -2 211 796 5 MP
gs
PP
gr
DP
2 2 -2 2 -2 -2 2 -2 212 795 5 MP
gs
PP
gr
DP
2 2 -2 2 -2 -2 2 -2 212 792 5 MP
gs
PP
gr
DP
2 2 -2 2 -2 -2 2 -2 213 795 5 MP
gs
PP
gr
DP
2 2 -2 2 -2 -2 2 -2 213 789 5 MP
gs
PP
gr
DP
2 2 -2 2 -2 -2 2 -2 214 795 5 MP
gs
PP
gr
DP
2 2 -2 2 -2 -2 2 -2 214 790 5 MP
gs
PP
gr
DP
2 2 -2 2 -2 -2 2 -2 214 792 5 MP
gs
PP
gr
DP
2 2 -2 2 -2 -2 2 -2 215 792 5 MP
gs
PP
gr
DP
2 2 -2 2 -2 -2 2 -2 215 789 5 MP
gs
PP
gr
DP
2 2 -2 2 -2 -2 2 -2 216 738 5 MP
gs
PP
gr
DP
2 2 -2 2 -2 -2 2 -2 216 796 5 MP
gs
PP
gr
DP
2 2 -2 2 -2 -2 2 -2 218 750 5 MP
gs
PP
gr
DP
2 2 -2 2 -2 -2 2 -2 218 786 5 MP
gs
PP
gr
DP
2 2 -2 2 -2 -2 2 -2 219 777 5 MP
gs
PP
gr
DP
2 2 -2 2 -2 -2 2 -2 219 793 5 MP
gs
PP
gr
DP
2 2 -2 2 -2 -2 2 -2 220 790 5 MP
gs
PP
gr
DP
2 2 -2 2 -2 -2 2 -2 220 788 5 MP
gs
PP
gr
DP
2 2 -2 2 -2 -2 2 -2 221 795 5 MP
gs
PP
gr
DP
2 2 -2 2 -2 -2 2 -2 221 768 5 MP
gs
PP
gr
DP
2 2 -2 2 -2 -2 2 -2 221 794 5 MP
gs
PP
gr
DP
2 2 -2 2 -2 -2 2 -2 221 796 5 MP
gs
PP
gr
DP
2 2 -2 2 -2 -2 2 -2 222 795 5 MP
gs
PP
gr
DP
2 2 -2 2 -2 -2 2 -2 223 793 5 MP
gs
PP
gr
DP
2 2 -2 2 -2 -2 2 -2 224 795 5 MP
gs
PP
gr
DP
2 2 -2 2 -2 -2 2 -2 225 695 5 MP
gs
PP
gr
DP
2 2 -2 2 -2 -2 2 -2 225 795 5 MP
gs
PP
gr
DP
2 2 -2 2 -2 -2 2 -2 226 797 5 MP
gs
PP
gr
DP
2 2 -2 2 -2 -2 2 -2 226 790 5 MP
gs
PP
gr
DP
2 2 -2 2 -2 -2 2 -2 227 798 5 MP
gs
PP
gr
DP
2 2 -2 2 -2 -2 2 -2 227 796 5 MP
gs
PP
gr
DP
2 2 -2 2 -2 -2 2 -2 228 793 5 MP
gs
PP
gr
DP
2 2 -2 2 -2 -2 2 -2 228 796 5 MP
gs
PP
gr
DP
2 2 -2 2 -2 -2 2 -2 228 781 5 MP
gs
PP
gr
DP
2 2 -2 2 -2 -2 2 -2 229 791 5 MP
gs
PP
gr
DP
2 2 -2 2 -2 -2 2 -2 229 767 5 MP
gs
PP
gr
DP
2 2 -2 2 -2 -2 2 -2 231 792 5 MP
gs
PP
gr
DP
2 2 -2 2 -2 -2 2 -2 232 736 5 MP
gs
PP
gr
DP
2 2 -2 2 -2 -2 2 -2 232 761 5 MP
gs
PP
gr
DP
2 2 -2 2 -2 -2 2 -2 233 796 5 MP
gs
PP
gr
DP
2 2 -2 2 -2 -2 2 -2 234 768 5 MP
gs
PP
gr
DP
2 2 -2 2 -2 -2 2 -2 234 778 5 MP
gs
PP
gr
DP
2 2 -2 2 -2 -2 2 -2 235 678 5 MP
gs
PP
gr
DP
2 2 -2 2 -2 -2 2 -2 235 795 5 MP
gs
PP
gr
DP
2 2 -2 2 -2 -2 2 -2 236 795 5 MP
gs
PP
gr
DP
2 2 -2 2 -2 -2 2 -2 236 565 5 MP
gs
PP
gr
DP
2 2 -2 2 -2 -2 2 -2 237 793 5 MP
gs
PP
gr
DP
2 2 -2 2 -2 -2 2 -2 237 796 5 MP
gs
PP
gr
DP
2 2 -2 2 -2 -2 2 -2 238 795 5 MP
gs
PP
gr
DP
2 2 -2 2 -2 -2 2 -2 238 796 5 MP
gs
PP
gr
DP
2 2 -2 2 -2 -2 2 -2 239 796 5 MP
gs
PP
gr
DP
2 2 -2 2 -2 -2 2 -2 239 797 5 MP
gs
PP
gr
DP
2 2 -2 2 -2 -2 2 -2 240 795 5 MP
gs
PP
gr
DP
2 2 -2 2 -2 -2 2 -2 241 794 5 MP
gs
PP
gr
DP
2 2 -2 2 -2 -2 2 -2 241 796 5 MP
gs
PP
gr
DP
2 2 -2 2 -2 -2 2 -2 241 795 5 MP
gs
PP
gr
DP
2 2 -2 2 -2 -2 2 -2 242 794 5 MP
gs
PP
gr
DP
2 2 -2 2 -2 -2 2 -2 242 795 5 MP
gs
PP
gr
DP
2 2 -2 2 -2 -2 2 -2 243 792 5 MP
gs
PP
gr
DP
2 2 -2 2 -2 -2 2 -2 243 794 5 MP
gs
PP
gr
DP
2 2 -2 2 -2 -2 2 -2 244 792 5 MP
gs
PP
gr
DP
2 2 -2 2 -2 -2 2 -2 244 796 5 MP
gs
PP
gr
DP
2 2 -2 2 -2 -2 2 -2 245 794 5 MP
gs
PP
gr
DP
2 2 -2 2 -2 -2 2 -2 245 792 5 MP
gs
PP
gr
DP
2 2 -2 2 -2 -2 2 -2 246 788 5 MP
gs
PP
gr
DP
2 2 -2 2 -2 -2 2 -2 246 790 5 MP
gs
PP
gr
DP
2 2 -2 2 -2 -2 2 -2 247 793 5 MP
gs
PP
gr
DP
2 2 -2 2 -2 -2 2 -2 247 795 5 MP
gs
PP
gr
DP
2 2 -2 2 -2 -2 2 -2 248 793 5 MP
gs
PP
gr
DP
2 2 -2 2 -2 -2 2 -2 248 794 5 MP
gs
PP
gr
DP
2 2 -2 2 -2 -2 2 -2 249 793 5 MP
gs
PP
gr
DP
2 2 -2 2 -2 -2 2 -2 249 788 5 MP
gs
PP
gr
DP
2 2 -2 2 -2 -2 2 -2 249 792 5 MP
gs
PP
gr
DP
2 2 -2 2 -2 -2 2 -2 250 791 5 MP
gs
PP
gr
DP
2 2 -2 2 -2 -2 2 -2 250 795 5 MP
gs
PP
gr
DP
2 2 -2 2 -2 -2 2 -2 251 790 5 MP
gs
PP
gr
DP
2 2 -2 2 -2 -2 2 -2 252 793 5 MP
gs
PP
gr
DP
2 2 -2 2 -2 -2 2 -2 253 795 5 MP
gs
PP
gr
DP
2 2 -2 2 -2 -2 2 -2 253 793 5 MP
gs
PP
gr
DP
2 2 -2 2 -2 -2 2 -2 254 795 5 MP
gs
PP
gr
DP
2 2 -2 2 -2 -2 2 -2 254 778 5 MP
gs
PP
gr
DP
2 2 -2 2 -2 -2 2 -2 255 786 5 MP
gs
PP
gr
DP
2 2 -2 2 -2 -2 2 -2 255 782 5 MP
gs
PP
gr
DP
2 2 -2 2 -2 -2 2 -2 256 775 5 MP
gs
PP
gr
DP
2 2 -2 2 -2 -2 2 -2 256 720 5 MP
gs
PP
gr
DP
2 2 -2 2 -2 -2 2 -2 256 795 5 MP
gs
PP
gr
DP
2 2 -2 2 -2 -2 2 -2 257 795 5 MP
gs
PP
gr
DP
2 2 -2 2 -2 -2 2 -2 257 796 5 MP
gs
PP
gr
DP
2 2 -2 2 -2 -2 2 -2 258 698 5 MP
gs
PP
gr
DP
2 2 -2 2 -2 -2 2 -2 258 797 5 MP
gs
PP
gr
DP
2 2 -2 2 -2 -2 2 -2 259 716 5 MP
gs
PP
gr
DP
2 2 -2 2 -2 -2 2 -2 259 796 5 MP
gs
PP
gr
DP
2 2 -2 2 -2 -2 2 -2 260 796 5 MP
gs
PP
gr
DP
2 2 -2 2 -2 -2 2 -2 260 789 5 MP
gs
PP
gr
DP
2 2 -2 2 -2 -2 2 -2 261 736 5 MP
gs
PP
gr
DP
2 2 -2 2 -2 -2 2 -2 262 793 5 MP
gs
PP
gr
DP
2 2 -2 2 -2 -2 2 -2 262 794 5 MP
gs
PP
gr
DP
2 2 -2 2 -2 -2 2 -2 263 791 5 MP
gs
PP
gr
DP
2 2 -2 2 -2 -2 2 -2 263 796 5 MP
gs
PP
gr
DP
2 2 -2 2 -2 -2 2 -2 263 794 5 MP
gs
PP
gr
DP
2 2 -2 2 -2 -2 2 -2 264 795 5 MP
gs
PP
gr
DP
2 2 -2 2 -2 -2 2 -2 264 793 5 MP
gs
PP
gr
DP
2 2 -2 2 -2 -2 2 -2 265 794 5 MP
gs
PP
gr
DP
2 2 -2 2 -2 -2 2 -2 266 788 5 MP
gs
PP
gr
DP
2 2 -2 2 -2 -2 2 -2 267 793 5 MP
gs
PP
gr
DP
2 2 -2 2 -2 -2 2 -2 267 794 5 MP
gs
PP
gr
DP
2 2 -2 2 -2 -2 2 -2 268 794 5 MP
gs
PP
gr
DP
2 2 -2 2 -2 -2 2 -2 268 759 5 MP
gs
PP
gr
DP
2 2 -2 2 -2 -2 2 -2 268 792 5 MP
gs
PP
gr
DP
2 2 -2 2 -2 -2 2 -2 269 793 5 MP
gs
PP
gr
DP
2 2 -2 2 -2 -2 2 -2 270 754 5 MP
gs
PP
gr
DP
2 2 -2 2 -2 -2 2 -2 270 788 5 MP
gs
PP
gr
DP
2 2 -2 2 -2 -2 2 -2 270 790 5 MP
gs
PP
gr
DP
2 2 -2 2 -2 -2 2 -2 271 756 5 MP
gs
PP
gr
DP
2 2 -2 2 -2 -2 2 -2 271 649 5 MP
gs
PP
gr
DP
2 2 -2 2 -2 -2 2 -2 272 797 5 MP
gs
PP
gr
DP
2 2 -2 2 -2 -2 2 -2 272 796 5 MP
gs
PP
gr
DP
2 2 -2 2 -2 -2 2 -2 273 795 5 MP
gs
PP
gr
DP
2 2 -2 2 -2 -2 2 -2 274 795 5 MP
gs
PP
gr
DP
2 2 -2 2 -2 -2 2 -2 274 790 5 MP
gs
PP
gr
DP
2 2 -2 2 -2 -2 2 -2 275 796 5 MP
gs
PP
gr
DP
2 2 -2 2 -2 -2 2 -2 275 790 5 MP
gs
PP
gr
DP
2 2 -2 2 -2 -2 2 -2 276 797 5 MP
gs
PP
gr
DP
2 2 -2 2 -2 -2 2 -2 276 793 5 MP
gs
PP
gr
DP
2 2 -2 2 -2 -2 2 -2 277 796 5 MP
gs
PP
gr
DP
2 2 -2 2 -2 -2 2 -2 278 797 5 MP
gs
PP
gr
DP
2 2 -2 2 -2 -2 2 -2 278 556 5 MP
gs
PP
gr
DP
2 2 -2 2 -2 -2 2 -2 278 789 5 MP
gs
PP
gr
DP
2 2 -2 2 -2 -2 2 -2 279 788 5 MP
gs
PP
gr
DP
2 2 -2 2 -2 -2 2 -2 279 797 5 MP
gs
PP
gr
DP
2 2 -2 2 -2 -2 2 -2 280 595 5 MP
gs
PP
gr
DP
2 2 -2 2 -2 -2 2 -2 280 796 5 MP
gs
PP
gr
DP
2 2 -2 2 -2 -2 2 -2 281 798 5 MP
gs
PP
gr
DP
2 2 -2 2 -2 -2 2 -2 281 785 5 MP
gs
PP
gr
DP
2 2 -2 2 -2 -2 2 -2 282 778 5 MP
gs
PP
gr
DP
2 2 -2 2 -2 -2 2 -2 282 792 5 MP
gs
PP
gr
DP
2 2 -2 2 -2 -2 2 -2 283 794 5 MP
gs
PP
gr
DP
2 2 -2 2 -2 -2 2 -2 283 792 5 MP
gs
PP
gr
DP
2 2 -2 2 -2 -2 2 -2 284 797 5 MP
gs
PP
gr
DP
2 2 -2 2 -2 -2 2 -2 285 796 5 MP
gs
PP
gr
DP
2 2 -2 2 -2 -2 2 -2 285 793 5 MP
gs
PP
gr
DP
2 2 -2 2 -2 -2 2 -2 286 797 5 MP
gs
PP
gr
DP
2 2 -2 2 -2 -2 2 -2 286 794 5 MP
gs
PP
gr
DP
2 2 -2 2 -2 -2 2 -2 287 796 5 MP
gs
PP
gr
DP
2 2 -2 2 -2 -2 2 -2 287 795 5 MP
gs
PP
gr
DP
2 2 -2 2 -2 -2 2 -2 288 795 5 MP
gs
PP
gr
DP
2 2 -2 2 -2 -2 2 -2 288 796 5 MP
gs
PP
gr
DP
2 2 -2 2 -2 -2 2 -2 289 793 5 MP
gs
PP
gr
DP
2 2 -2 2 -2 -2 2 -2 289 789 5 MP
gs
PP
gr
DP
2 2 -2 2 -2 -2 2 -2 290 791 5 MP
gs
PP
gr
DP
2 2 -2 2 -2 -2 2 -2 291 797 5 MP
gs
PP
gr
DP
2 2 -2 2 -2 -2 2 -2 292 793 5 MP
gs
PP
gr
DP
2 2 -2 2 -2 -2 2 -2 292 795 5 MP
gs
PP
gr
DP
2 2 -2 2 -2 -2 2 -2 293 793 5 MP
gs
PP
gr
DP
2 2 -2 2 -2 -2 2 -2 293 798 5 MP
gs
PP
gr
DP
2 2 -2 2 -2 -2 2 -2 294 796 5 MP
gs
PP
gr
DP
2 2 -2 2 -2 -2 2 -2 294 795 5 MP
gs
PP
gr
DP
2 2 -2 2 -2 -2 2 -2 295 794 5 MP
gs
PP
gr
DP
2 2 -2 2 -2 -2 2 -2 295 793 5 MP
gs
PP
gr
DP
2 2 -2 2 -2 -2 2 -2 295 788 5 MP
gs
PP
gr
DP
2 2 -2 2 -2 -2 2 -2 296 787 5 MP
gs
PP
gr
DP
2 2 -2 2 -2 -2 2 -2 296 796 5 MP
gs
PP
gr
DP
2 2 -2 2 -2 -2 2 -2 297 788 5 MP
gs
PP
gr
DP
2 2 -2 2 -2 -2 2 -2 297 794 5 MP
gs
PP
gr
DP
2 2 -2 2 -2 -2 2 -2 298 793 5 MP
gs
PP
gr
DP
2 2 -2 2 -2 -2 2 -2 298 795 5 MP
gs
PP
gr
DP
2 2 -2 2 -2 -2 2 -2 298 793 5 MP
gs
PP
gr
DP
2 2 -2 2 -2 -2 2 -2 299 792 5 MP
gs
PP
gr
DP
2 2 -2 2 -2 -2 2 -2 299 791 5 MP
gs
PP
gr
DP
2 2 -2 2 -2 -2 2 -2 299 792 5 MP
gs
PP
gr
DP
2 2 -2 2 -2 -2 2 -2 300 795 5 MP
gs
PP
gr
DP
2 2 -2 2 -2 -2 2 -2 300 793 5 MP
gs
PP
gr
DP
2 2 -2 2 -2 -2 2 -2 301 777 5 MP
gs
PP
gr
DP
2 2 -2 2 -2 -2 2 -2 301 780 5 MP
gs
PP
gr
DP
2 2 -2 2 -2 -2 2 -2 302 790 5 MP
gs
PP
gr
DP
2 2 -2 2 -2 -2 2 -2 302 764 5 MP
gs
PP
gr
DP
2 2 -2 2 -2 -2 2 -2 303 793 5 MP
gs
PP
gr
DP
2 2 -2 2 -2 -2 2 -2 304 789 5 MP
gs
PP
gr
DP
2 2 -2 2 -2 -2 2 -2 305 790 5 MP
gs
PP
gr
DP
2 2 -2 2 -2 -2 2 -2 305 797 5 MP
gs
PP
gr
DP
2 2 -2 2 -2 -2 2 -2 305 793 5 MP
gs
PP
gr
DP
2 2 -2 2 -2 -2 2 -2 305 794 5 MP
gs
PP
gr
DP
2 2 -2 2 -2 -2 2 -2 306 792 5 MP
gs
PP
gr
DP
2 2 -2 2 -2 -2 2 -2 306 796 5 MP
gs
PP
gr
DP
2 2 -2 2 -2 -2 2 -2 307 794 5 MP
gs
PP
gr
DP
2 2 -2 2 -2 -2 2 -2 307 798 5 MP
gs
PP
gr
DP
2 2 -2 2 -2 -2 2 -2 308 797 5 MP
gs
PP
gr
DP
2 2 -2 2 -2 -2 2 -2 308 796 5 MP
gs
PP
gr
DP
2 2 -2 2 -2 -2 2 -2 309 796 5 MP
gs
PP
gr
DP
2 2 -2 2 -2 -2 2 -2 309 795 5 MP
gs
PP
gr
DP
2 2 -2 2 -2 -2 2 -2 310 794 5 MP
gs
PP
gr
DP
2 2 -2 2 -2 -2 2 -2 311 795 5 MP
gs
PP
gr
DP
2 2 -2 2 -2 -2 2 -2 312 795 5 MP
gs
PP
gr
DP
2 2 -2 2 -2 -2 2 -2 312 793 5 MP
gs
PP
gr
DP
2 2 -2 2 -2 -2 2 -2 313 759 5 MP
gs
PP
gr
DP
2 2 -2 2 -2 -2 2 -2 314 793 5 MP
gs
PP
gr
DP
2 2 -2 2 -2 -2 2 -2 314 776 5 MP
gs
PP
gr
DP
2 2 -2 2 -2 -2 2 -2 315 784 5 MP
gs
PP
gr
DP
2 2 -2 2 -2 -2 2 -2 315 781 5 MP
gs
PP
gr
DP
2 2 -2 2 -2 -2 2 -2 315 794 5 MP
gs
PP
gr
DP
2 2 -2 2 -2 -2 2 -2 316 796 5 MP
gs
PP
gr
DP
2 2 -2 2 -2 -2 2 -2 316 797 5 MP
gs
PP
gr
DP
2 2 -2 2 -2 -2 2 -2 316 794 5 MP
gs
PP
gr
DP
2 2 -2 2 -2 -2 2 -2 316 792 5 MP
gs
PP
gr
DP
2 2 -2 2 -2 -2 2 -2 317 796 5 MP
gs
PP
gr
DP
2 2 -2 2 -2 -2 2 -2 317 795 5 MP
gs
PP
gr
DP
2 2 -2 2 -2 -2 2 -2 317 793 5 MP
gs
PP
gr
DP
2 2 -2 2 -2 -2 2 -2 317 796 5 MP
gs
PP
gr
DP
2 2 -2 2 -2 -2 2 -2 317 792 5 MP
gs
PP
gr
DP
2 2 -2 2 -2 -2 2 -2 317 795 5 MP
gs
PP
gr
DP
2 2 -2 2 -2 -2 2 -2 317 793 5 MP
gs
PP
gr
DP
2 2 -2 2 -2 -2 2 -2 318 796 5 MP
gs
PP
gr
DP
2 2 -2 2 -2 -2 2 -2 318 797 5 MP
gs
PP
gr
DP
2 2 -2 2 -2 -2 2 -2 318 796 5 MP
gs
PP
gr
DP
2 2 -2 2 -2 -2 2 -2 318 795 5 MP
gs
PP
gr
DP
2 2 -2 2 -2 -2 2 -2 319 793 5 MP
gs
PP
gr
DP
2 2 -2 2 -2 -2 2 -2 319 798 5 MP
gs
PP
gr
DP
2 2 -2 2 -2 -2 2 -2 319 796 5 MP
gs
PP
gr
DP
2 2 -2 2 -2 -2 2 -2 319 795 5 MP
gs
PP
gr
DP
2 2 -2 2 -2 -2 2 -2 319 793 5 MP
gs
PP
gr
DP
2 2 -2 2 -2 -2 2 -2 320 793 5 MP
gs
PP
gr
DP
2 2 -2 2 -2 -2 2 -2 320 795 5 MP
gs
PP
gr
DP
2 2 -2 2 -2 -2 2 -2 320 794 5 MP
gs
PP
gr
DP
2 2 -2 2 -2 -2 2 -2 320 792 5 MP
gs
PP
gr
DP
2 2 -2 2 -2 -2 2 -2 321 794 5 MP
gs
PP
gr
DP
2 2 -2 2 -2 -2 2 -2 322 784 5 MP
gs
PP
gr
DP
2 2 -2 2 -2 -2 2 -2 323 793 5 MP
gs
PP
gr
DP
2 2 -2 2 -2 -2 2 -2 324 766 5 MP
gs
PP
gr
DP
2 2 -2 2 -2 -2 2 -2 325 781 5 MP
gs
PP
gr
DP
2 2 -2 2 -2 -2 2 -2 325 793 5 MP
gs
PP
gr
DP
2 2 -2 2 -2 -2 2 -2 325 794 5 MP
gs
PP
gr
DP
2 2 -2 2 -2 -2 2 -2 326 781 5 MP
gs
PP
gr
DP
2 2 -2 2 -2 -2 2 -2 326 795 5 MP
gs
PP
gr
DP
2 2 -2 2 -2 -2 2 -2 327 793 5 MP
gs
PP
gr
DP
2 2 -2 2 -2 -2 2 -2 327 796 5 MP
gs
PP
gr
DP
2 2 -2 2 -2 -2 2 -2 328 792 5 MP
gs
PP
gr
DP
2 2 -2 2 -2 -2 2 -2 329 770 5 MP
gs
PP
gr
DP
2 2 -2 2 -2 -2 2 -2 329 794 5 MP
gs
PP
gr
DP
2 2 -2 2 -2 -2 2 -2 329 759 5 MP
gs
PP
gr
DP
2 2 -2 2 -2 -2 2 -2 329 789 5 MP
gs
PP
gr
DP
2 2 -2 2 -2 -2 2 -2 329 747 5 MP
gs
PP
gr
DP
2 2 -2 2 -2 -2 2 -2 330 791 5 MP
gs
PP
gr
DP
2 2 -2 2 -2 -2 2 -2 330 788 5 MP
gs
PP
gr
DP
2 2 -2 2 -2 -2 2 -2 330 797 5 MP
gs
PP
gr
DP
2 2 -2 2 -2 -2 2 -2 330 795 5 MP
gs
PP
gr
DP
2 2 -2 2 -2 -2 2 -2 330 794 5 MP
gs
PP
gr
DP
2 2 -2 2 -2 -2 2 -2 330 715 5 MP
gs
PP
gr
DP
2 2 -2 2 -2 -2 2 -2 331 793 5 MP
gs
PP
gr
DP
2 2 -2 2 -2 -2 2 -2 331 796 5 MP
gs
PP
gr
DP
2 2 -2 2 -2 -2 2 -2 331 795 5 MP
gs
PP
gr
DP
2 2 -2 2 -2 -2 2 -2 331 796 5 MP
gs
PP
gr
DP
2 2 -2 2 -2 -2 2 -2 332 793 5 MP
gs
PP
gr
DP
2 2 -2 2 -2 -2 2 -2 332 795 5 MP
gs
PP
gr
DP
2 2 -2 2 -2 -2 2 -2 332 793 5 MP
gs
PP
gr
DP
2 2 -2 2 -2 -2 2 -2 332 795 5 MP
gs
PP
gr
DP
2 2 -2 2 -2 -2 2 -2 332 790 5 MP
gs
PP
gr
DP
2 2 -2 2 -2 -2 2 -2 332 795 5 MP
gs
PP
gr
DP
2 2 -2 2 -2 -2 2 -2 332 791 5 MP
gs
PP
gr
DP
2 2 -2 2 -2 -2 2 -2 333 795 5 MP
gs
PP
gr
DP
2 2 -2 2 -2 -2 2 -2 333 796 5 MP
gs
PP
gr
DP
2 2 -2 2 -2 -2 2 -2 334 796 5 MP
gs
PP
gr
DP
2 2 -2 2 -2 -2 2 -2 334 795 5 MP
gs
PP
gr
DP
2 2 -2 2 -2 -2 2 -2 335 796 5 MP
gs
PP
gr
DP
2 2 -2 2 -2 -2 2 -2 335 795 5 MP
gs
PP
gr
DP
2 2 -2 2 -2 -2 2 -2 336 759 5 MP
gs
PP
gr
DP
2 2 -2 2 -2 -2 2 -2 337 794 5 MP
gs
PP
gr
DP
2 2 -2 2 -2 -2 2 -2 337 782 5 MP
gs
PP
gr
DP
2 2 -2 2 -2 -2 2 -2 337 789 5 MP
gs
PP
gr
DP
2 2 -2 2 -2 -2 2 -2 337 782 5 MP
gs
PP
gr
DP
2 2 -2 2 -2 -2 2 -2 337 725 5 MP
gs
PP
gr
DP
2 2 -2 2 -2 -2 2 -2 337 791 5 MP
gs
PP
gr
DP
2 2 -2 2 -2 -2 2 -2 337 794 5 MP
gs
PP
gr
DP
2 2 -2 2 -2 -2 2 -2 338 779 5 MP
gs
PP
gr
DP
2 2 -2 2 -2 -2 2 -2 339 795 5 MP
gs
PP
gr
DP
2 2 -2 2 -2 -2 2 -2 339 789 5 MP
gs
PP
gr
DP
2 2 -2 2 -2 -2 2 -2 339 794 5 MP
gs
PP
gr
DP
2 2 -2 2 -2 -2 2 -2 339 795 5 MP
gs
PP
gr
DP
2 2 -2 2 -2 -2 2 -2 339 794 5 MP
gs
PP
gr
DP
2 2 -2 2 -2 -2 2 -2 339 733 5 MP
gs
PP
gr
DP
2 2 -2 2 -2 -2 2 -2 340 791 5 MP
gs
PP
gr
DP
2 2 -2 2 -2 -2 2 -2 340 776 5 MP
gs
PP
gr
DP
2 2 -2 2 -2 -2 2 -2 340 783 5 MP
gs
PP
gr
DP
2 2 -2 2 -2 -2 2 -2 340 788 5 MP
gs
PP
gr
DP
2 2 -2 2 -2 -2 2 -2 340 776 5 MP
gs
PP
gr
DP
2 2 -2 2 -2 -2 2 -2 340 794 5 MP
gs
PP
gr
DP
2 2 -2 2 -2 -2 2 -2 340 795 5 MP
gs
PP
gr
DP
2 2 -2 2 -2 -2 2 -2 341 789 5 MP
gs
PP
gr
DP
2 2 -2 2 -2 -2 2 -2 341 797 5 MP
gs
PP
gr
DP
2 2 -2 2 -2 -2 2 -2 341 795 5 MP
gs
PP
gr
DP
2 2 -2 2 -2 -2 2 -2 341 737 5 MP
gs
PP
gr
DP
2 2 -2 2 -2 -2 2 -2 341 797 5 MP
gs
PP
gr
DP
2 2 -2 2 -2 -2 2 -2 341 795 5 MP
gs
PP
gr
DP
2 2 -2 2 -2 -2 2 -2 341 778 5 MP
gs
PP
gr
DP
2 2 -2 2 -2 -2 2 -2 341 785 5 MP
gs
PP
gr
DP
2 2 -2 2 -2 -2 2 -2 342 798 5 MP
gs
PP
gr
DP
2 2 -2 2 -2 -2 2 -2 342 792 5 MP
gs
PP
gr
DP
2 2 -2 2 -2 -2 2 -2 342 772 5 MP
gs
PP
gr
DP
2 2 -2 2 -2 -2 2 -2 342 797 5 MP
gs
PP
gr
DP
2 2 -2 2 -2 -2 2 -2 342 773 5 MP
gs
PP
gr
DP
2 2 -2 2 -2 -2 2 -2 342 753 5 MP
gs
PP
gr
DP
2 2 -2 2 -2 -2 2 -2 342 798 5 MP
gs
PP
gr
DP
2 2 -2 2 -2 -2 2 -2 343 795 5 MP
gs
PP
gr
DP
2 2 -2 2 -2 -2 2 -2 343 757 5 MP
gs
PP
gr
DP
2 2 -2 2 -2 -2 2 -2 343 774 5 MP
gs
PP
gr
DP
2 2 -2 2 -2 -2 2 -2 343 786 5 MP
gs
PP
gr
DP
2 2 -2 2 -2 -2 2 -2 343 781 5 MP
gs
PP
gr
DP
2 2 -2 2 -2 -2 2 -2 343 795 5 MP
gs
PP
gr
DP
2 2 -2 2 -2 -2 2 -2 343 791 5 MP
gs
PP
gr
DP
2 2 -2 2 -2 -2 2 -2 344 796 5 MP
gs
PP
gr
DP
2 2 -2 2 -2 -2 2 -2 344 798 5 MP
gs
PP
gr
DP
2 2 -2 2 -2 -2 2 -2 344 797 5 MP
gs
PP
gr
DP
2 2 -2 2 -2 -2 2 -2 344 796 5 MP
gs
PP
gr
DP
2 2 -2 2 -2 -2 2 -2 344 794 5 MP
gs
PP
gr
DP
2 2 -2 2 -2 -2 2 -2 344 793 5 MP
gs
PP
gr
DP
2 2 -2 2 -2 -2 2 -2 345 794 5 MP
gs
PP
gr
DP
2 2 -2 2 -2 -2 2 -2 345 790 5 MP
gs
PP
gr
DP
2 2 -2 2 -2 -2 2 -2 345 795 5 MP
gs
PP
gr
DP
2 2 -2 2 -2 -2 2 -2 345 790 5 MP
gs
PP
gr
DP
2 2 -2 2 -2 -2 2 -2 345 795 5 MP
gs
PP
gr
DP
2 2 -2 2 -2 -2 2 -2 345 796 5 MP
gs
PP
gr
DP
2 2 -2 2 -2 -2 2 -2 345 758 5 MP
gs
PP
gr
DP
2 2 -2 2 -2 -2 2 -2 346 795 5 MP
gs
PP
gr
DP
2 2 -2 2 -2 -2 2 -2 346 796 5 MP
gs
PP
gr
DP
2 2 -2 2 -2 -2 2 -2 346 792 5 MP
gs
PP
gr
DP
2 2 -2 2 -2 -2 2 -2 347 781 5 MP
gs
PP
gr
DP
2 2 -2 2 -2 -2 2 -2 347 796 5 MP
gs
PP
gr
DP
2 2 -2 2 -2 -2 2 -2 347 795 5 MP
gs
PP
gr
DP
2 2 -2 2 -2 -2 2 -2 347 793 5 MP
gs
PP
gr
DP
2 2 -2 2 -2 -2 2 -2 347 795 5 MP
gs
PP
gr
DP
2 2 -2 2 -2 -2 2 -2 348 794 5 MP
gs
PP
gr
DP
2 2 -2 2 -2 -2 2 -2 348 789 5 MP
gs
PP
gr
DP
2 2 -2 2 -2 -2 2 -2 348 796 5 MP
gs
PP
gr
DP
2 2 -2 2 -2 -2 2 -2 348 772 5 MP
gs
PP
gr
DP
2 2 -2 2 -2 -2 2 -2 349 753 5 MP
gs
PP
gr
DP
2 2 -2 2 -2 -2 2 -2 349 795 5 MP
gs
PP
gr
DP
2 2 -2 2 -2 -2 2 -2 350 728 5 MP
gs
PP
gr
DP
2 2 -2 2 -2 -2 2 -2 350 789 5 MP
gs
PP
gr
DP
2 2 -2 2 -2 -2 2 -2 350 793 5 MP
gs
PP
gr
DP
2 2 -2 2 -2 -2 2 -2 350 791 5 MP
gs
PP
gr
DP
2 2 -2 2 -2 -2 2 -2 350 795 5 MP
gs
PP
gr
DP
2 2 -2 2 -2 -2 2 -2 351 794 5 MP
gs
PP
gr
DP
2 2 -2 2 -2 -2 2 -2 351 795 5 MP
gs
PP
gr
DP
2 2 -2 2 -2 -2 2 -2 351 796 5 MP
gs
PP
gr
DP
2 2 -2 2 -2 -2 2 -2 351 795 5 MP
gs
PP
gr
DP
2 2 -2 2 -2 -2 2 -2 352 791 5 MP
gs
PP
gr
DP
2 2 -2 2 -2 -2 2 -2 352 795 5 MP
gs
PP
gr
DP
2 2 -2 2 -2 -2 2 -2 352 760 5 MP
gs
PP
gr
DP
2 2 -2 2 -2 -2 2 -2 353 729 5 MP
gs
PP
gr
DP
2 2 -2 2 -2 -2 2 -2 353 711 5 MP
gs
PP
gr
DP
2 2 -2 2 -2 -2 2 -2 353 789 5 MP
gs
PP
gr
DP
2 2 -2 2 -2 -2 2 -2 354 790 5 MP
gs
PP
gr
DP
2 2 -2 2 -2 -2 2 -2 354 781 5 MP
gs
PP
gr
DP
2 2 -2 2 -2 -2 2 -2 354 795 5 MP
gs
PP
gr
DP
2 2 -2 2 -2 -2 2 -2 354 791 5 MP
gs
PP
gr
DP
2 2 -2 2 -2 -2 2 -2 355 796 5 MP
gs
PP
gr
DP
2 2 -2 2 -2 -2 2 -2 356 790 5 MP
gs
PP
gr
DP
2 2 -2 2 -2 -2 2 -2 356 794 5 MP
gs
PP
gr
DP
2 2 -2 2 -2 -2 2 -2 356 793 5 MP
gs
PP
gr
DP
2 2 -2 2 -2 -2 2 -2 356 794 5 MP
gs
PP
gr
DP
2 2 -2 2 -2 -2 2 -2 356 766 5 MP
gs
PP
gr
DP
2 2 -2 2 -2 -2 2 -2 356 789 5 MP
gs
PP
gr
DP
2 2 -2 2 -2 -2 2 -2 356 784 5 MP
gs
PP
gr
DP
2 2 -2 2 -2 -2 2 -2 357 759 5 MP
gs
PP
gr
DP
2 2 -2 2 -2 -2 2 -2 357 788 5 MP
gs
PP
gr
DP
2 2 -2 2 -2 -2 2 -2 357 710 5 MP
gs
PP
gr
DP
2 2 -2 2 -2 -2 2 -2 357 789 5 MP
gs
PP
gr
DP
2 2 -2 2 -2 -2 2 -2 357 792 5 MP
gs
PP
gr
DP
2 2 -2 2 -2 -2 2 -2 357 786 5 MP
gs
PP
gr
DP
2 2 -2 2 -2 -2 2 -2 357 789 5 MP
gs
PP
gr
DP
2 2 -2 2 -2 -2 2 -2 358 794 5 MP
gs
PP
gr
DP
2 2 -2 2 -2 -2 2 -2 358 793 5 MP
gs
PP
gr
DP
2 2 -2 2 -2 -2 2 -2 358 785 5 MP
gs
PP
gr
DP
2 2 -2 2 -2 -2 2 -2 358 789 5 MP
gs
PP
gr
DP
2 2 -2 2 -2 -2 2 -2 358 797 5 MP
gs
PP
gr
DP
2 2 -2 2 -2 -2 2 -2 359 795 5 MP
gs
PP
gr
DP
2 2 -2 2 -2 -2 2 -2 359 796 5 MP
gs
PP
gr
DP
2 2 -2 2 -2 -2 2 -2 359 794 5 MP
gs
PP
gr
DP
2 2 -2 2 -2 -2 2 -2 360 754 5 MP
gs
PP
gr
DP
2 2 -2 2 -2 -2 2 -2 360 798 5 MP
gs
PP
gr
DP
2 2 -2 2 -2 -2 2 -2 360 796 5 MP
gs
PP
gr
DP
2 2 -2 2 -2 -2 2 -2 360 794 5 MP
gs
PP
gr
DP
2 2 -2 2 -2 -2 2 -2 360 795 5 MP
gs
PP
gr
DP
2 2 -2 2 -2 -2 2 -2 361 797 5 MP
gs
PP
gr
DP
2 2 -2 2 -2 -2 2 -2 361 796 5 MP
gs
PP
gr
DP
2 2 -2 2 -2 -2 2 -2 361 790 5 MP
gs
PP
gr
DP
2 2 -2 2 -2 -2 2 -2 361 796 5 MP
gs
PP
gr
DP
2 2 -2 2 -2 -2 2 -2 362 795 5 MP
gs
PP
gr
DP
2 2 -2 2 -2 -2 2 -2 362 794 5 MP
gs
PP
gr
DP
2 2 -2 2 -2 -2 2 -2 363 792 5 MP
gs
PP
gr
DP
2 2 -2 2 -2 -2 2 -2 363 794 5 MP
gs
PP
gr
DP
2 2 -2 2 -2 -2 2 -2 363 796 5 MP
gs
PP
gr
DP
2 2 -2 2 -2 -2 2 -2 363 794 5 MP
gs
PP
gr
DP
2 2 -2 2 -2 -2 2 -2 363 795 5 MP
gs
PP
gr
DP
2 2 -2 2 -2 -2 2 -2 364 765 5 MP
gs
PP
gr
DP
2 2 -2 2 -2 -2 2 -2 364 794 5 MP
gs
PP
gr
DP
2 2 -2 2 -2 -2 2 -2 364 783 5 MP
gs
PP
gr
DP
2 2 -2 2 -2 -2 2 -2 364 787 5 MP
gs
PP
gr
DP
2 2 -2 2 -2 -2 2 -2 364 794 5 MP
gs
PP
gr
DP
2 2 -2 2 -2 -2 2 -2 364 782 5 MP
gs
PP
gr
DP
2 2 -2 2 -2 -2 2 -2 365 778 5 MP
gs
PP
gr
DP
2 2 -2 2 -2 -2 2 -2 365 752 5 MP
gs
PP
gr
DP
2 2 -2 2 -2 -2 2 -2 365 787 5 MP
gs
PP
gr
DP
2 2 -2 2 -2 -2 2 -2 365 785 5 MP
gs
PP
gr
DP
2 2 -2 2 -2 -2 2 -2 365 788 5 MP
gs
PP
gr
DP
2 2 -2 2 -2 -2 2 -2 365 791 5 MP
gs
PP
gr
DP
2 2 -2 2 -2 -2 2 -2 366 797 5 MP
gs
PP
gr
DP
2 2 -2 2 -2 -2 2 -2 366 785 5 MP
gs
PP
gr
DP
2 2 -2 2 -2 -2 2 -2 366 751 5 MP
gs
PP
gr
DP
2 2 -2 2 -2 -2 2 -2 366 787 5 MP
gs
PP
gr
DP
2 2 -2 2 -2 -2 2 -2 366 788 5 MP
gs
PP
gr
DP
2 2 -2 2 -2 -2 2 -2 367 795 5 MP
gs
PP
gr
DP
2 2 -2 2 -2 -2 2 -2 367 786 5 MP
gs
PP
gr
DP
2 2 -2 2 -2 -2 2 -2 367 795 5 MP
gs
PP
gr
DP
2 2 -2 2 -2 -2 2 -2 367 792 5 MP
gs
PP
gr
DP
2 2 -2 2 -2 -2 2 -2 368 744 5 MP
gs
PP
gr
DP
2 2 -2 2 -2 -2 2 -2 368 795 5 MP
gs
PP
gr
DP
2 2 -2 2 -2 -2 2 -2 368 796 5 MP
gs
PP
gr
DP
2 2 -2 2 -2 -2 2 -2 368 792 5 MP
gs
PP
gr
DP
2 2 -2 2 -2 -2 2 -2 368 705 5 MP
gs
PP
gr
DP
2 2 -2 2 -2 -2 2 -2 368 792 5 MP
gs
PP
gr
DP
2 2 -2 2 -2 -2 2 -2 369 769 5 MP
gs
PP
gr
DP
2 2 -2 2 -2 -2 2 -2 369 794 5 MP
gs
PP
gr
DP
2 2 -2 2 -2 -2 2 -2 369 796 5 MP
gs
PP
gr
DP
2 2 -2 2 -2 -2 2 -2 369 797 5 MP
gs
PP
gr
DP
2 2 -2 2 -2 -2 2 -2 369 793 5 MP
gs
PP
gr
DP
2 2 -2 2 -2 -2 2 -2 369 794 5 MP
gs
PP
gr
DP
2 2 -2 2 -2 -2 2 -2 370 794 5 MP
gs
PP
gr
DP
2 2 -2 2 -2 -2 2 -2 370 797 5 MP
gs
PP
gr
DP
2 2 -2 2 -2 -2 2 -2 370 798 5 MP
gs
PP
gr
DP
2 2 -2 2 -2 -2 2 -2 371 796 5 MP
gs
PP
gr
DP
2 2 -2 2 -2 -2 2 -2 371 797 5 MP
gs
PP
gr
DP
2 2 -2 2 -2 -2 2 -2 371 796 5 MP
gs
PP
gr
DP
2 2 -2 2 -2 -2 2 -2 371 795 5 MP
gs
PP
gr
DP
2 2 -2 2 -2 -2 2 -2 371 796 5 MP
gs
PP
gr
DP
2 2 -2 2 -2 -2 2 -2 371 795 5 MP
gs
PP
gr
DP
2 2 -2 2 -2 -2 2 -2 372 794 5 MP
gs
PP
gr
DP
2 2 -2 2 -2 -2 2 -2 372 795 5 MP
gs
PP
gr
DP
2 2 -2 2 -2 -2 2 -2 372 790 5 MP
gs
PP
gr
DP
2 2 -2 2 -2 -2 2 -2 372 749 5 MP
gs
PP
gr
DP
2 2 -2 2 -2 -2 2 -2 373 795 5 MP
gs
PP
gr
DP
2 2 -2 2 -2 -2 2 -2 373 782 5 MP
gs
PP
gr
DP
2 2 -2 2 -2 -2 2 -2 373 788 5 MP
gs
PP
gr
DP
2 2 -2 2 -2 -2 2 -2 373 795 5 MP
gs
PP
gr
DP
2 2 -2 2 -2 -2 2 -2 373 784 5 MP
gs
PP
gr
DP
2 2 -2 2 -2 -2 2 -2 373 795 5 MP
gs
PP
gr
DP
2 2 -2 2 -2 -2 2 -2 374 795 5 MP
gs
PP
gr
DP
2 2 -2 2 -2 -2 2 -2 374 794 5 MP
gs
PP
gr
DP
2 2 -2 2 -2 -2 2 -2 374 795 5 MP
gs
PP
gr
DP
2 2 -2 2 -2 -2 2 -2 374 794 5 MP
gs
PP
gr
DP
2 2 -2 2 -2 -2 2 -2 374 796 5 MP
gs
PP
gr
DP
2 2 -2 2 -2 -2 2 -2 374 794 5 MP
gs
PP
gr
DP
2 2 -2 2 -2 -2 2 -2 375 797 5 MP
gs
PP
gr
DP
2 2 -2 2 -2 -2 2 -2 375 795 5 MP
gs
PP
gr
DP
2 2 -2 2 -2 -2 2 -2 375 793 5 MP
gs
PP
gr
DP
2 2 -2 2 -2 -2 2 -2 376 791 5 MP
gs
PP
gr
DP
2 2 -2 2 -2 -2 2 -2 376 796 5 MP
gs
PP
gr
DP
2 2 -2 2 -2 -2 2 -2 376 795 5 MP
gs
PP
gr
DP
2 2 -2 2 -2 -2 2 -2 376 750 5 MP
gs
PP
gr
DP
2 2 -2 2 -2 -2 2 -2 376 794 5 MP
gs
PP
gr
DP
2 2 -2 2 -2 -2 2 -2 377 785 5 MP
gs
PP
gr
DP
2 2 -2 2 -2 -2 2 -2 377 790 5 MP
gs
PP
gr
DP
2 2 -2 2 -2 -2 2 -2 377 695 5 MP
gs
PP
gr
DP
2 2 -2 2 -2 -2 2 -2 377 796 5 MP
gs
PP
gr
DP
2 2 -2 2 -2 -2 2 -2 377 792 5 MP
gs
PP
gr
DP
2 2 -2 2 -2 -2 2 -2 377 794 5 MP
gs
PP
gr
DP
2 2 -2 2 -2 -2 2 -2 378 796 5 MP
gs
PP
gr
DP
2 2 -2 2 -2 -2 2 -2 378 773 5 MP
gs
PP
gr
DP
2 2 -2 2 -2 -2 2 -2 378 795 5 MP
gs
PP
gr
DP
2 2 -2 2 -2 -2 2 -2 378 790 5 MP
gs
PP
gr
DP
2 2 -2 2 -2 -2 2 -2 378 793 5 MP
gs
PP
gr
DP
2 2 -2 2 -2 -2 2 -2 378 797 5 MP
gs
PP
gr
DP
2 2 -2 2 -2 -2 2 -2 378 796 5 MP
gs
PP
gr
DP
2 2 -2 2 -2 -2 2 -2 379 796 5 MP
gs
PP
gr
DP
2 2 -2 2 -2 -2 2 -2 379 793 5 MP
gs
PP
gr
DP
2 2 -2 2 -2 -2 2 -2 379 787 5 MP
gs
PP
gr
DP
2 2 -2 2 -2 -2 2 -2 379 793 5 MP
gs
PP
gr
DP
2 2 -2 2 -2 -2 2 -2 379 790 5 MP
gs
PP
gr
DP
2 2 -2 2 -2 -2 2 -2 379 783 5 MP
gs
PP
gr
DP
2 2 -2 2 -2 -2 2 -2 380 794 5 MP
gs
PP
gr
DP
2 2 -2 2 -2 -2 2 -2 380 795 5 MP
gs
PP
gr
DP
2 2 -2 2 -2 -2 2 -2 380 793 5 MP
gs
PP
gr
DP
2 2 -2 2 -2 -2 2 -2 380 788 5 MP
gs
PP
gr
DP
2 2 -2 2 -2 -2 2 -2 380 796 5 MP
gs
PP
gr
DP
2 2 -2 2 -2 -2 2 -2 381 761 5 MP
gs
PP
gr
DP
2 2 -2 2 -2 -2 2 -2 381 795 5 MP
gs
PP
gr
DP
2 2 -2 2 -2 -2 2 -2 381 793 5 MP
gs
PP
gr
DP
2 2 -2 2 -2 -2 2 -2 382 783 5 MP
gs
PP
gr
DP
2 2 -2 2 -2 -2 2 -2 382 794 5 MP
gs
PP
gr
DP
2 2 -2 2 -2 -2 2 -2 382 787 5 MP
gs
PP
gr
DP
2 2 -2 2 -2 -2 2 -2 382 794 5 MP
gs
PP
gr
DP
2 2 -2 2 -2 -2 2 -2 382 793 5 MP
gs
PP
gr
DP
2 2 -2 2 -2 -2 2 -2 383 796 5 MP
gs
PP
gr
DP
2 2 -2 2 -2 -2 2 -2 383 792 5 MP
gs
PP
gr
DP
2 2 -2 2 -2 -2 2 -2 383 796 5 MP
gs
PP
gr
DP
2 2 -2 2 -2 -2 2 -2 383 791 5 MP
gs
PP
gr
DP
2 2 -2 2 -2 -2 2 -2 383 794 5 MP
gs
PP
gr
DP
2 2 -2 2 -2 -2 2 -2 384 778 5 MP
gs
PP
gr
DP
2 2 -2 2 -2 -2 2 -2 384 708 5 MP
gs
PP
gr
DP
2 2 -2 2 -2 -2 2 -2 384 791 5 MP
gs
PP
gr
DP
2 2 -2 2 -2 -2 2 -2 384 779 5 MP
gs
PP
gr
DP
2 2 -2 2 -2 -2 2 -2 384 795 5 MP
gs
PP
gr
DP
2 2 -2 2 -2 -2 2 -2 385 787 5 MP
gs
PP
gr
DP
2 2 -2 2 -2 -2 2 -2 385 794 5 MP
gs
PP
gr
DP
2 2 -2 2 -2 -2 2 -2 385 797 5 MP
gs
PP
gr
DP
2 2 -2 2 -2 -2 2 -2 385 792 5 MP
gs
PP
gr
DP
2 2 -2 2 -2 -2 2 -2 385 793 5 MP
gs
PP
gr
DP
2 2 -2 2 -2 -2 2 -2 386 795 5 MP
gs
PP
gr
DP
2 2 -2 2 -2 -2 2 -2 386 796 5 MP
gs
PP
gr
DP
2 2 -2 2 -2 -2 2 -2 386 767 5 MP
gs
PP
gr
DP
2 2 -2 2 -2 -2 2 -2 386 684 5 MP
gs
PP
gr
DP
2 2 -2 2 -2 -2 2 -2 387 763 5 MP
gs
PP
gr
DP
2 2 -2 2 -2 -2 2 -2 387 776 5 MP
gs
PP
gr
DP
2 2 -2 2 -2 -2 2 -2 387 787 5 MP
gs
PP
gr
DP
2 2 -2 2 -2 -2 2 -2 387 783 5 MP
gs
PP
gr
DP
2 2 -2 2 -2 -2 2 -2 387 791 5 MP
gs
PP
gr
DP
2 2 -2 2 -2 -2 2 -2 388 795 5 MP
gs
PP
gr
DP
2 2 -2 2 -2 -2 2 -2 388 794 5 MP
gs
PP
gr
DP
2 2 -2 2 -2 -2 2 -2 388 795 5 MP
gs
PP
gr
DP
2 2 -2 2 -2 -2 2 -2 388 797 5 MP
gs
PP
gr
DP
2 2 -2 2 -2 -2 2 -2 389 794 5 MP
gs
PP
gr
DP
2 2 -2 2 -2 -2 2 -2 391 797 5 MP
gs
PP
gr
DP
2 2 -2 2 -2 -2 2 -2 391 793 5 MP
gs
PP
gr
DP
2 2 -2 2 -2 -2 2 -2 391 795 5 MP
gs
PP
gr
DP
2 2 -2 2 -2 -2 2 -2 391 788 5 MP
gs
PP
gr
DP
2 2 -2 2 -2 -2 2 -2 392 787 5 MP
gs
PP
gr
DP
2 2 -2 2 -2 -2 2 -2 392 738 5 MP
gs
PP
gr
DP
2 2 -2 2 -2 -2 2 -2 392 787 5 MP
gs
PP
gr
DP
2 2 -2 2 -2 -2 2 -2 392 794 5 MP
gs
PP
gr
DP
2 2 -2 2 -2 -2 2 -2 392 797 5 MP
gs
PP
gr
DP
2 2 -2 2 -2 -2 2 -2 393 794 5 MP
gs
PP
gr
DP
2 2 -2 2 -2 -2 2 -2 393 791 5 MP
gs
PP
gr
DP
2 2 -2 2 -2 -2 2 -2 393 795 5 MP
gs
PP
gr
DP
2 2 -2 2 -2 -2 2 -2 393 798 5 MP
gs
PP
gr
DP
2 2 -2 2 -2 -2 2 -2 394 795 5 MP
gs
PP
gr
DP
2 2 -2 2 -2 -2 2 -2 396 793 5 MP
gs
PP
gr
DP
2 2 -2 2 -2 -2 2 -2 396 785 5 MP
gs
PP
gr
DP
2 2 -2 2 -2 -2 2 -2 396 794 5 MP
gs
PP
gr
DP
2 2 -2 2 -2 -2 2 -2 396 795 5 MP
gs
PP
gr
DP
2 2 -2 2 -2 -2 2 -2 396 797 5 MP
gs
PP
gr
DP
2 2 -2 2 -2 -2 2 -2 396 792 5 MP
gs
PP
gr
DP
2 2 -2 2 -2 -2 2 -2 397 796 5 MP
gs
PP
gr
DP
2 2 -2 2 -2 -2 2 -2 397 795 5 MP
gs
PP
gr
DP
2 2 -2 2 -2 -2 2 -2 397 745 5 MP
gs
PP
gr
DP
2 2 -2 2 -2 -2 2 -2 397 796 5 MP
gs
PP
gr
DP
2 2 -2 2 -2 -2 2 -2 397 779 5 MP
gs
PP
gr
DP
2 2 -2 2 -2 -2 2 -2 397 792 5 MP
gs
PP
gr
DP
2 2 -2 2 -2 -2 2 -2 398 794 5 MP
gs
PP
gr
DP
2 2 -2 2 -2 -2 2 -2 398 796 5 MP
gs
PP
gr
DP
2 2 -2 2 -2 -2 2 -2 398 794 5 MP
gs
PP
gr
DP
2 2 -2 2 -2 -2 2 -2 398 796 5 MP
gs
PP
gr
DP
2 2 -2 2 -2 -2 2 -2 398 767 5 MP
gs
PP
gr
DP
2 2 -2 2 -2 -2 2 -2 398 644 5 MP
gs
PP
gr
DP
2 2 -2 2 -2 -2 2 -2 399 793 5 MP
gs
PP
gr
DP
2 2 -2 2 -2 -2 2 -2 399 726 5 MP
gs
PP
gr
DP
2 2 -2 2 -2 -2 2 -2 399 738 5 MP
gs
PP
gr
DP
2 2 -2 2 -2 -2 2 -2 400 792 5 MP
gs
PP
gr
DP
2 2 -2 2 -2 -2 2 -2 400 783 5 MP
gs
PP
gr
DP
2 2 -2 2 -2 -2 2 -2 400 774 5 MP
gs
PP
gr
DP
2 2 -2 2 -2 -2 2 -2 400 789 5 MP
gs
PP
gr
DP
2 2 -2 2 -2 -2 2 -2 400 790 5 MP
gs
PP
gr
DP
2 2 -2 2 -2 -2 2 -2 401 798 5 MP
gs
PP
gr
DP
2 2 -2 2 -2 -2 2 -2 401 795 5 MP
gs
PP
gr
DP
2 2 -2 2 -2 -2 2 -2 401 797 5 MP
gs
PP
gr
DP
2 2 -2 2 -2 -2 2 -2 402 793 5 MP
gs
PP
gr
DP
2 2 -2 2 -2 -2 2 -2 402 792 5 MP
gs
PP
gr
DP
2 2 -2 2 -2 -2 2 -2 403 792 5 MP
gs
PP
gr
DP
2 2 -2 2 -2 -2 2 -2 403 791 5 MP
gs
PP
gr
DP
2 2 -2 2 -2 -2 2 -2 403 792 5 MP
gs
PP
gr
DP
2 2 -2 2 -2 -2 2 -2 403 791 5 MP
gs
PP
gr
DP
2 2 -2 2 -2 -2 2 -2 403 782 5 MP
gs
PP
gr
DP
2 2 -2 2 -2 -2 2 -2 404 790 5 MP
gs
PP
gr
DP
2 2 -2 2 -2 -2 2 -2 404 795 5 MP
gs
PP
gr
DP
2 2 -2 2 -2 -2 2 -2 404 788 5 MP
gs
PP
gr
DP
2 2 -2 2 -2 -2 2 -2 404 796 5 MP
gs
PP
gr
DP
2 2 -2 2 -2 -2 2 -2 404 794 5 MP
gs
PP
gr
DP
2 2 -2 2 -2 -2 2 -2 404 795 5 MP
gs
PP
gr
DP
2 2 -2 2 -2 -2 2 -2 405 796 5 MP
gs
PP
gr
DP
2 2 -2 2 -2 -2 2 -2 405 718 5 MP
gs
PP
gr
DP
2 2 -2 2 -2 -2 2 -2 405 781 5 MP
gs
PP
gr
DP
2 2 -2 2 -2 -2 2 -2 406 666 5 MP
gs
PP
gr
DP
2 2 -2 2 -2 -2 2 -2 408 783 5 MP
gs
PP
gr
DP
2 2 -2 2 -2 -2 2 -2 408 782 5 MP
gs
PP
gr
DP
2 2 -2 2 -2 -2 2 -2 408 795 5 MP
gs
PP
gr
DP
2 2 -2 2 -2 -2 2 -2 408 796 5 MP
gs
PP
gr
DP
2 2 -2 2 -2 -2 2 -2 409 794 5 MP
gs
PP
gr
DP
2 2 -2 2 -2 -2 2 -2 409 796 5 MP
gs
PP
gr
DP
2 2 -2 2 -2 -2 2 -2 409 795 5 MP
gs
PP
gr
DP
2 2 -2 2 -2 -2 2 -2 409 788 5 MP
gs
PP
gr
DP
2 2 -2 2 -2 -2 2 -2 410 794 5 MP
gs
PP
gr
DP
2 2 -2 2 -2 -2 2 -2 410 631 5 MP
gs
PP
gr
DP
2 2 -2 2 -2 -2 2 -2 410 776 5 MP
gs
PP
gr
DP
2 2 -2 2 -2 -2 2 -2 410 787 5 MP
gs
PP
gr
DP
2 2 -2 2 -2 -2 2 -2 410 741 5 MP
gs
PP
gr
DP
2 2 -2 2 -2 -2 2 -2 411 794 5 MP
gs
PP
gr
DP
2 2 -2 2 -2 -2 2 -2 411 786 5 MP
gs
PP
gr
DP
2 2 -2 2 -2 -2 2 -2 412 791 5 MP
gs
PP
gr
DP
2 2 -2 2 -2 -2 2 -2 412 798 5 MP
gs
PP
gr
DP
2 2 -2 2 -2 -2 2 -2 412 796 5 MP
gs
PP
gr
DP
2 2 -2 2 -2 -2 2 -2 412 797 5 MP
gs
PP
gr
DP
2 2 -2 2 -2 -2 2 -2 413 795 5 MP
gs
PP
gr
DP
2 2 -2 2 -2 -2 2 -2 413 794 5 MP
gs
PP
gr
DP
2 2 -2 2 -2 -2 2 -2 413 796 5 MP
gs
PP
gr
DP
2 2 -2 2 -2 -2 2 -2 413 795 5 MP
gs
PP
gr
DP
2 2 -2 2 -2 -2 2 -2 414 794 5 MP
gs
PP
gr
DP
2 2 -2 2 -2 -2 2 -2 414 791 5 MP
gs
PP
gr
DP
2 2 -2 2 -2 -2 2 -2 414 793 5 MP
gs
PP
gr
DP
2 2 -2 2 -2 -2 2 -2 414 778 5 MP
gs
PP
gr
DP
2 2 -2 2 -2 -2 2 -2 415 797 5 MP
gs
PP
gr
DP
2 2 -2 2 -2 -2 2 -2 415 785 5 MP
gs
PP
gr
DP
2 2 -2 2 -2 -2 2 -2 415 796 5 MP
gs
PP
gr
DP
2 2 -2 2 -2 -2 2 -2 416 795 5 MP
gs
PP
gr
DP
2 2 -2 2 -2 -2 2 -2 416 792 5 MP
gs
PP
gr
DP
2 2 -2 2 -2 -2 2 -2 416 798 5 MP
gs
PP
gr
DP
2 2 -2 2 -2 -2 2 -2 417 792 5 MP
gs
PP
gr
DP
2 2 -2 2 -2 -2 2 -2 417 766 5 MP
gs
PP
gr
DP
2 2 -2 2 -2 -2 2 -2 417 782 5 MP
gs
PP
gr
DP
2 2 -2 2 -2 -2 2 -2 417 787 5 MP
gs
PP
gr
DP
2 2 -2 2 -2 -2 2 -2 417 792 5 MP
gs
PP
gr
DP
2 2 -2 2 -2 -2 2 -2 417 742 5 MP
gs
PP
gr
DP
2 2 -2 2 -2 -2 2 -2 418 791 5 MP
gs
PP
gr
DP
2 2 -2 2 -2 -2 2 -2 418 796 5 MP
gs
PP
gr
DP
2 2 -2 2 -2 -2 2 -2 418 781 5 MP
gs
PP
gr
DP
2 2 -2 2 -2 -2 2 -2 418 775 5 MP
gs
PP
gr
DP
2 2 -2 2 -2 -2 2 -2 418 792 5 MP
gs
PP
gr
DP
2 2 -2 2 -2 -2 2 -2 418 789 5 MP
gs
PP
gr
DP
2 2 -2 2 -2 -2 2 -2 418 774 5 MP
gs
PP
gr
DP
2 2 -2 2 -2 -2 2 -2 419 767 5 MP
gs
PP
gr
DP
2 2 -2 2 -2 -2 2 -2 419 795 5 MP
gs
PP
gr
DP
2 2 -2 2 -2 -2 2 -2 419 522 5 MP
gs
PP
gr
DP
2 2 -2 2 -2 -2 2 -2 419 795 5 MP
gs
PP
gr
DP
2 2 -2 2 -2 -2 2 -2 419 798 5 MP
gs
PP
gr
DP
2 2 -2 2 -2 -2 2 -2 420 795 5 MP
gs
PP
gr
DP
2 2 -2 2 -2 -2 2 -2 420 789 5 MP
gs
PP
gr
DP
2 2 -2 2 -2 -2 2 -2 420 795 5 MP
gs
PP
gr
DP
2 2 -2 2 -2 -2 2 -2 420 791 5 MP
gs
PP
gr
DP
2 2 -2 2 -2 -2 2 -2 421 782 5 MP
gs
PP
gr
DP
2 2 -2 2 -2 -2 2 -2 421 795 5 MP
gs
PP
gr
DP
2 2 -2 2 -2 -2 2 -2 421 784 5 MP
gs
PP
gr
DP
2 2 -2 2 -2 -2 2 -2 421 790 5 MP
gs
PP
gr
DP
2 2 -2 2 -2 -2 2 -2 421 783 5 MP
gs
PP
gr
DP
2 2 -2 2 -2 -2 2 -2 421 788 5 MP
gs
PP
gr
DP
2 2 -2 2 -2 -2 2 -2 422 795 5 MP
gs
PP
gr
DP
2 2 -2 2 -2 -2 2 -2 422 487 5 MP
gs
PP
gr
DP
2 2 -2 2 -2 -2 2 -2 422 796 5 MP
gs
PP
gr
DP
2 2 -2 2 -2 -2 2 -2 423 689 5 MP
gs
PP
gr
DP
2 2 -2 2 -2 -2 2 -2 423 648 5 MP
gs
PP
gr
DP
2 2 -2 2 -2 -2 2 -2 423 793 5 MP
gs
PP
gr
DP
2 2 -2 2 -2 -2 2 -2 423 790 5 MP
gs
PP
gr
DP
2 2 -2 2 -2 -2 2 -2 424 798 5 MP
gs
PP
gr
DP
2 2 -2 2 -2 -2 2 -2 424 793 5 MP
gs
PP
gr
DP
2 2 -2 2 -2 -2 2 -2 424 796 5 MP
gs
PP
gr
DP
2 2 -2 2 -2 -2 2 -2 424 794 5 MP
gs
PP
gr
DP
2 2 -2 2 -2 -2 2 -2 424 795 5 MP
gs
PP
gr
DP
2 2 -2 2 -2 -2 2 -2 424 792 5 MP
gs
PP
gr
DP
2 2 -2 2 -2 -2 2 -2 425 793 5 MP
gs
PP
gr
DP
2 2 -2 2 -2 -2 2 -2 425 795 5 MP
gs
PP
gr
DP
2 2 -2 2 -2 -2 2 -2 426 791 5 MP
gs
PP
gr
DP
2 2 -2 2 -2 -2 2 -2 426 790 5 MP
gs
PP
gr
DP
2 2 -2 2 -2 -2 2 -2 426 781 5 MP
gs
PP
gr
DP
2 2 -2 2 -2 -2 2 -2 426 787 5 MP
gs
PP
gr
DP
2 2 -2 2 -2 -2 2 -2 426 786 5 MP
gs
PP
gr
DP
2 2 -2 2 -2 -2 2 -2 426 793 5 MP
gs
PP
gr
DP
2 2 -2 2 -2 -2 2 -2 427 791 5 MP
gs
PP
gr
DP
2 2 -2 2 -2 -2 2 -2 427 795 5 MP
gs
PP
gr
DP
2 2 -2 2 -2 -2 2 -2 427 796 5 MP
gs
PP
gr
DP
2 2 -2 2 -2 -2 2 -2 427 793 5 MP
gs
PP
gr
DP
2 2 -2 2 -2 -2 2 -2 427 796 5 MP
gs
PP
gr
DP
2 2 -2 2 -2 -2 2 -2 428 789 5 MP
gs
PP
gr
DP
2 2 -2 2 -2 -2 2 -2 428 790 5 MP
gs
PP
gr
DP
2 2 -2 2 -2 -2 2 -2 428 796 5 MP
gs
PP
gr
DP
2 2 -2 2 -2 -2 2 -2 428 556 5 MP
gs
PP
gr
DP
2 2 -2 2 -2 -2 2 -2 428 795 5 MP
gs
PP
gr
DP
2 2 -2 2 -2 -2 2 -2 428 792 5 MP
gs
PP
gr
DP
2 2 -2 2 -2 -2 2 -2 428 795 5 MP
gs
PP
gr
DP
2 2 -2 2 -2 -2 2 -2 429 671 5 MP
gs
PP
gr
DP
2 2 -2 2 -2 -2 2 -2 429 795 5 MP
gs
PP
gr
DP
2 2 -2 2 -2 -2 2 -2 429 794 5 MP
gs
PP
gr
DP
2 2 -2 2 -2 -2 2 -2 431 759 5 MP
gs
PP
gr
DP
2 2 -2 2 -2 -2 2 -2 431 796 5 MP
gs
PP
gr
DP
2 2 -2 2 -2 -2 2 -2 431 777 5 MP
gs
PP
gr
DP
2 2 -2 2 -2 -2 2 -2 431 793 5 MP
gs
PP
gr
DP
2 2 -2 2 -2 -2 2 -2 431 797 5 MP
gs
PP
gr
DP
2 2 -2 2 -2 -2 2 -2 432 796 5 MP
gs
PP
gr
DP
2 2 -2 2 -2 -2 2 -2 433 792 5 MP
gs
PP
gr
DP
2 2 -2 2 -2 -2 2 -2 433 796 5 MP
gs
PP
gr
DP
2 2 -2 2 -2 -2 2 -2 434 794 5 MP
gs
PP
gr
DP
2 2 -2 2 -2 -2 2 -2 435 786 5 MP
gs
PP
gr
DP
2 2 -2 2 -2 -2 2 -2 435 789 5 MP
gs
PP
gr
DP
2 2 -2 2 -2 -2 2 -2 435 797 5 MP
gs
PP
gr
DP
2 2 -2 2 -2 -2 2 -2 436 793 5 MP
gs
PP
gr
DP
2 2 -2 2 -2 -2 2 -2 436 790 5 MP
gs
PP
gr
DP
2 2 -2 2 -2 -2 2 -2 436 794 5 MP
gs
PP
gr
DP
2 2 -2 2 -2 -2 2 -2 436 779 5 MP
gs
PP
gr
DP
2 2 -2 2 -2 -2 2 -2 436 795 5 MP
gs
PP
gr
DP
2 2 -2 2 -2 -2 2 -2 436 606 5 MP
gs
PP
gr
DP
2 2 -2 2 -2 -2 2 -2 436 735 5 MP
gs
PP
gr
DP
2 2 -2 2 -2 -2 2 -2 437 781 5 MP
gs
PP
gr
DP
2 2 -2 2 -2 -2 2 -2 437 795 5 MP
gs
PP
gr
DP
2 2 -2 2 -2 -2 2 -2 437 794 5 MP
gs
PP
gr
DP
2 2 -2 2 -2 -2 2 -2 437 789 5 MP
gs
PP
gr
DP
2 2 -2 2 -2 -2 2 -2 437 766 5 MP
gs
PP
gr
DP
2 2 -2 2 -2 -2 2 -2 437 797 5 MP
gs
PP
gr
DP
2 2 -2 2 -2 -2 2 -2 438 797 5 MP
gs
PP
gr
DP
2 2 -2 2 -2 -2 2 -2 438 788 5 MP
gs
PP
gr
DP
2 2 -2 2 -2 -2 2 -2 438 796 5 MP
gs
PP
gr
DP
2 2 -2 2 -2 -2 2 -2 440 799 5 MP
gs
PP
gr
DP
2 2 -2 2 -2 -2 2 -2 440 785 5 MP
gs
PP
gr
DP
2 2 -2 2 -2 -2 2 -2 440 796 5 MP
gs
PP
gr
DP
2 2 -2 2 -2 -2 2 -2 440 794 5 MP
gs
PP
gr
DP
2 2 -2 2 -2 -2 2 -2 440 796 5 MP
gs
PP
gr
DP
2 2 -2 2 -2 -2 2 -2 441 797 5 MP
gs
PP
gr
DP
2 2 -2 2 -2 -2 2 -2 441 796 5 MP
gs
PP
gr
DP
2 2 -2 2 -2 -2 2 -2 441 795 5 MP
gs
PP
gr
DP
2 2 -2 2 -2 -2 2 -2 442 795 5 MP
gs
PP
gr
DP
2 2 -2 2 -2 -2 2 -2 442 789 5 MP
gs
PP
gr
DP
2 2 -2 2 -2 -2 2 -2 442 797 5 MP
gs
PP
gr
DP
2 2 -2 2 -2 -2 2 -2 443 796 5 MP
gs
PP
gr
DP
2 2 -2 2 -2 -2 2 -2 443 794 5 MP
gs
PP
gr
DP
2 2 -2 2 -2 -2 2 -2 443 796 5 MP
gs
PP
gr
DP
2 2 -2 2 -2 -2 2 -2 443 795 5 MP
gs
PP
gr
DP
2 2 -2 2 -2 -2 2 -2 443 794 5 MP
gs
PP
gr
DP
2 2 -2 2 -2 -2 2 -2 444 756 5 MP
gs
PP
gr
DP
2 2 -2 2 -2 -2 2 -2 444 767 5 MP
gs
PP
gr
DP
2 2 -2 2 -2 -2 2 -2 444 789 5 MP
gs
PP
gr
DP
2 2 -2 2 -2 -2 2 -2 445 725 5 MP
gs
PP
gr
DP
2 2 -2 2 -2 -2 2 -2 445 752 5 MP
gs
PP
gr
DP
2 2 -2 2 -2 -2 2 -2 445 781 5 MP
gs
PP
gr
DP
2 2 -2 2 -2 -2 2 -2 446 791 5 MP
gs
PP
gr
DP
2 2 -2 2 -2 -2 2 -2 447 794 5 MP
gs
PP
gr
DP
2 2 -2 2 -2 -2 2 -2 448 796 5 MP
gs
PP
gr
DP
2 2 -2 2 -2 -2 2 -2 449 783 5 MP
gs
PP
gr
DP
2 2 -2 2 -2 -2 2 -2 449 787 5 MP
gs
PP
gr
DP
2 2 -2 2 -2 -2 2 -2 450 792 5 MP
gs
PP
gr
DP
2 2 -2 2 -2 -2 2 -2 450 716 5 MP
gs
PP
gr
DP
2 2 -2 2 -2 -2 2 -2 451 795 5 MP
gs
PP
gr
DP
2 2 -2 2 -2 -2 2 -2 451 796 5 MP
gs
PP
gr
DP
2 2 -2 2 -2 -2 2 -2 451 795 5 MP
gs
PP
gr
DP
2 2 -2 2 -2 -2 2 -2 451 794 5 MP
gs
PP
gr
DP
2 2 -2 2 -2 -2 2 -2 451 796 5 MP
gs
PP
gr
DP
2 2 -2 2 -2 -2 2 -2 452 794 5 MP
gs
PP
gr
DP
2 2 -2 2 -2 -2 2 -2 452 788 5 MP
gs
PP
gr
DP
2 2 -2 2 -2 -2 2 -2 452 733 5 MP
gs
PP
gr
DP
2 2 -2 2 -2 -2 2 -2 452 794 5 MP
gs
PP
gr
DP
2 2 -2 2 -2 -2 2 -2 452 796 5 MP
gs
PP
gr
DP
2 2 -2 2 -2 -2 2 -2 453 791 5 MP
gs
PP
gr
DP
2 2 -2 2 -2 -2 2 -2 453 790 5 MP
gs
PP
gr
DP
2 2 -2 2 -2 -2 2 -2 454 790 5 MP
gs
PP
gr
DP
2 2 -2 2 -2 -2 2 -2 454 794 5 MP
gs
PP
gr
DP
2 2 -2 2 -2 -2 2 -2 454 797 5 MP
gs
PP
gr
DP
2 2 -2 2 -2 -2 2 -2 454 796 5 MP
gs
PP
gr
DP
2 2 -2 2 -2 -2 2 -2 455 794 5 MP
gs
PP
gr
DP
2 2 -2 2 -2 -2 2 -2 455 778 5 MP
gs
PP
gr
DP
2 2 -2 2 -2 -2 2 -2 455 796 5 MP
gs
PP
gr
DP
2 2 -2 2 -2 -2 2 -2 455 794 5 MP
gs
PP
gr
DP
2 2 -2 2 -2 -2 2 -2 455 796 5 MP
gs
PP
gr
DP
2 2 -2 2 -2 -2 2 -2 456 765 5 MP
gs
PP
gr
DP
2 2 -2 2 -2 -2 2 -2 456 798 5 MP
gs
PP
gr
DP
2 2 -2 2 -2 -2 2 -2 456 778 5 MP
gs
PP
gr
DP
2 2 -2 2 -2 -2 2 -2 456 751 5 MP
gs
PP
gr
DP
2 2 -2 2 -2 -2 2 -2 456 778 5 MP
gs
PP
gr
DP
2 2 -2 2 -2 -2 2 -2 456 793 5 MP
gs
PP
gr
DP
2 2 -2 2 -2 -2 2 -2 456 795 5 MP
gs
PP
gr
DP
2 2 -2 2 -2 -2 2 -2 457 777 5 MP
gs
PP
gr
DP
2 2 -2 2 -2 -2 2 -2 457 797 5 MP
gs
PP
gr
DP
2 2 -2 2 -2 -2 2 -2 457 752 5 MP
gs
PP
gr
DP
2 2 -2 2 -2 -2 2 -2 457 708 5 MP
gs
PP
gr
DP
2 2 -2 2 -2 -2 2 -2 457 792 5 MP
gs
PP
gr
DP
2 2 -2 2 -2 -2 2 -2 457 793 5 MP
gs
PP
gr
DP
2 2 -2 2 -2 -2 2 -2 458 688 5 MP
gs
PP
gr
DP
2 2 -2 2 -2 -2 2 -2 458 795 5 MP
gs
PP
gr
DP
2 2 -2 2 -2 -2 2 -2 458 790 5 MP
gs
PP
gr
DP
2 2 -2 2 -2 -2 2 -2 459 785 5 MP
gs
PP
gr
DP
2 2 -2 2 -2 -2 2 -2 459 787 5 MP
gs
PP
gr
DP
2 2 -2 2 -2 -2 2 -2 460 596 5 MP
gs
PP
gr
DP
2 2 -2 2 -2 -2 2 -2 460 794 5 MP
gs
PP
gr
DP
2 2 -2 2 -2 -2 2 -2 461 794 5 MP
gs
PP
gr
DP
2 2 -2 2 -2 -2 2 -2 461 795 5 MP
gs
PP
gr
DP
2 2 -2 2 -2 -2 2 -2 461 774 5 MP
gs
PP
gr
DP
2 2 -2 2 -2 -2 2 -2 462 793 5 MP
gs
PP
gr
DP
2 2 -2 2 -2 -2 2 -2 462 796 5 MP
gs
PP
gr
DP
2 2 -2 2 -2 -2 2 -2 462 783 5 MP
gs
PP
gr
DP
2 2 -2 2 -2 -2 2 -2 462 791 5 MP
gs
PP
gr
DP
2 2 -2 2 -2 -2 2 -2 462 796 5 MP
gs
PP
gr
DP
2 2 -2 2 -2 -2 2 -2 462 737 5 MP
gs
PP
gr
DP
2 2 -2 2 -2 -2 2 -2 462 653 5 MP
gs
PP
gr
DP
2 2 -2 2 -2 -2 2 -2 463 778 5 MP
gs
PP
gr
DP
2 2 -2 2 -2 -2 2 -2 463 750 5 MP
gs
PP
gr
DP
2 2 -2 2 -2 -2 2 -2 463 796 5 MP
gs
PP
gr
DP
2 2 -2 2 -2 -2 2 -2 463 748 5 MP
gs
PP
gr
DP
2 2 -2 2 -2 -2 2 -2 463 798 5 MP
gs
PP
gr
DP
2 2 -2 2 -2 -2 2 -2 463 773 5 MP
gs
PP
gr
DP
2 2 -2 2 -2 -2 2 -2 463 797 5 MP
gs
PP
gr
DP
2 2 -2 2 -2 -2 2 -2 463 795 5 MP
gs
PP
gr
DP
2 2 -2 2 -2 -2 2 -2 464 794 5 MP
gs
PP
gr
DP
2 2 -2 2 -2 -2 2 -2 464 797 5 MP
gs
PP
gr
DP
2 2 -2 2 -2 -2 2 -2 464 789 5 MP
gs
PP
gr
DP
2 2 -2 2 -2 -2 2 -2 464 796 5 MP
gs
PP
gr
DP
2 2 -2 2 -2 -2 2 -2 464 795 5 MP
gs
PP
gr
DP
2 2 -2 2 -2 -2 2 -2 464 794 5 MP
gs
PP
gr
DP
2 2 -2 2 -2 -2 2 -2 465 794 5 MP
gs
PP
gr
DP
2 2 -2 2 -2 -2 2 -2 465 787 5 MP
gs
PP
gr
DP
2 2 -2 2 -2 -2 2 -2 465 640 5 MP
gs
PP
gr
DP
2 2 -2 2 -2 -2 2 -2 465 737 5 MP
gs
PP
gr
DP
2 2 -2 2 -2 -2 2 -2 465 766 5 MP
gs
PP
gr
DP
2 2 -2 2 -2 -2 2 -2 465 748 5 MP
gs
PP
gr
DP
2 2 -2 2 -2 -2 2 -2 465 792 5 MP
gs
PP
gr
DP
2 2 -2 2 -2 -2 2 -2 466 727 5 MP
gs
PP
gr
DP
2 2 -2 2 -2 -2 2 -2 466 766 5 MP
gs
PP
gr
DP
2 2 -2 2 -2 -2 2 -2 466 783 5 MP
gs
PP
gr
DP
2 2 -2 2 -2 -2 2 -2 466 790 5 MP
gs
PP
gr
DP
2 2 -2 2 -2 -2 2 -2 466 792 5 MP
gs
PP
gr
DP
2 2 -2 2 -2 -2 2 -2 466 796 5 MP
gs
PP
gr
DP
2 2 -2 2 -2 -2 2 -2 466 795 5 MP
gs
PP
gr
DP
2 2 -2 2 -2 -2 2 -2 467 793 5 MP
gs
PP
gr
DP
2 2 -2 2 -2 -2 2 -2 467 788 5 MP
gs
PP
gr
DP
2 2 -2 2 -2 -2 2 -2 467 796 5 MP
gs
PP
gr
DP
2 2 -2 2 -2 -2 2 -2 467 790 5 MP
gs
PP
gr
DP
2 2 -2 2 -2 -2 2 -2 467 791 5 MP
gs
PP
gr
DP
2 2 -2 2 -2 -2 2 -2 467 796 5 MP
gs
PP
gr
DP
2 2 -2 2 -2 -2 2 -2 468 795 5 MP
gs
PP
gr
DP
2 2 -2 2 -2 -2 2 -2 468 793 5 MP
gs
PP
gr
DP
2 2 -2 2 -2 -2 2 -2 469 790 5 MP
gs
PP
gr
DP
2 2 -2 2 -2 -2 2 -2 469 796 5 MP
gs
PP
gr
DP
2 2 -2 2 -2 -2 2 -2 469 795 5 MP
gs
PP
gr
DP
2 2 -2 2 -2 -2 2 -2 469 791 5 MP
gs
PP
gr
DP
2 2 -2 2 -2 -2 2 -2 469 796 5 MP
gs
PP
gr
DP
2 2 -2 2 -2 -2 2 -2 469 794 5 MP
gs
PP
gr
DP
2 2 -2 2 -2 -2 2 -2 470 795 5 MP
gs
PP
gr
DP
2 2 -2 2 -2 -2 2 -2 470 797 5 MP
gs
PP
gr
DP
2 2 -2 2 -2 -2 2 -2 470 774 5 MP
gs
PP
gr
DP
2 2 -2 2 -2 -2 2 -2 470 790 5 MP
gs
PP
gr
DP
2 2 -2 2 -2 -2 2 -2 470 792 5 MP
gs
PP
gr
DP
2 2 -2 2 -2 -2 2 -2 470 796 5 MP
gs
PP
gr
DP
2 2 -2 2 -2 -2 2 -2 470 790 5 MP
gs
PP
gr
DP
2 2 -2 2 -2 -2 2 -2 471 760 5 MP
gs
PP
gr
DP
2 2 -2 2 -2 -2 2 -2 471 704 5 MP
gs
PP
gr
DP
2 2 -2 2 -2 -2 2 -2 471 794 5 MP
gs
PP
gr
DP
2 2 -2 2 -2 -2 2 -2 471 693 5 MP
gs
PP
gr
DP
2 2 -2 2 -2 -2 2 -2 472 788 5 MP
gs
PP
gr
DP
2 2 -2 2 -2 -2 2 -2 472 774 5 MP
gs
PP
gr
DP
2 2 -2 2 -2 -2 2 -2 472 789 5 MP
gs
PP
gr
DP
2 2 -2 2 -2 -2 2 -2 472 795 5 MP
gs
PP
gr
DP
2 2 -2 2 -2 -2 2 -2 472 790 5 MP
gs
PP
gr
DP
2 2 -2 2 -2 -2 2 -2 472 795 5 MP
gs
PP
gr
DP
2 2 -2 2 -2 -2 2 -2 473 785 5 MP
gs
PP
gr
DP
2 2 -2 2 -2 -2 2 -2 473 784 5 MP
gs
PP
gr
DP
2 2 -2 2 -2 -2 2 -2 473 797 5 MP
gs
PP
gr
DP
2 2 -2 2 -2 -2 2 -2 474 786 5 MP
gs
PP
gr
DP
2 2 -2 2 -2 -2 2 -2 474 794 5 MP
gs
PP
gr
DP
2 2 -2 2 -2 -2 2 -2 474 628 5 MP
gs
PP
gr
DP
2 2 -2 2 -2 -2 2 -2 474 791 5 MP
gs
PP
gr
DP
2 2 -2 2 -2 -2 2 -2 474 755 5 MP
gs
PP
gr
DP
2 2 -2 2 -2 -2 2 -2 475 779 5 MP
gs
PP
gr
DP
2 2 -2 2 -2 -2 2 -2 475 791 5 MP
gs
PP
gr
DP
2 2 -2 2 -2 -2 2 -2 475 795 5 MP
gs
PP
gr
DP
2 2 -2 2 -2 -2 2 -2 475 784 5 MP
gs
PP
gr
DP
2 2 -2 2 -2 -2 2 -2 475 795 5 MP
gs
PP
gr
DP
2 2 -2 2 -2 -2 2 -2 476 790 5 MP
gs
PP
gr
DP
2 2 -2 2 -2 -2 2 -2 476 796 5 MP
gs
PP
gr
DP
2 2 -2 2 -2 -2 2 -2 476 794 5 MP
gs
PP
gr
DP
2 2 -2 2 -2 -2 2 -2 476 790 5 MP
gs
PP
gr
DP
2 2 -2 2 -2 -2 2 -2 476 793 5 MP
gs
PP
gr
DP
2 2 -2 2 -2 -2 2 -2 476 790 5 MP
gs
PP
gr
DP
2 2 -2 2 -2 -2 2 -2 477 797 5 MP
gs
PP
gr
DP
2 2 -2 2 -2 -2 2 -2 477 794 5 MP
gs
PP
gr
DP
2 2 -2 2 -2 -2 2 -2 478 795 5 MP
gs
PP
gr
DP
2 2 -2 2 -2 -2 2 -2 479 790 5 MP
gs
PP
gr
DP
2 2 -2 2 -2 -2 2 -2 479 795 5 MP
gs
PP
gr
DP
2 2 -2 2 -2 -2 2 -2 479 798 5 MP
gs
PP
gr
DP
2 2 -2 2 -2 -2 2 -2 480 787 5 MP
gs
PP
gr
DP
2 2 -2 2 -2 -2 2 -2 480 796 5 MP
gs
PP
gr
DP
2 2 -2 2 -2 -2 2 -2 481 795 5 MP
gs
PP
gr
DP
2 2 -2 2 -2 -2 2 -2 481 758 5 MP
gs
PP
gr
DP
2 2 -2 2 -2 -2 2 -2 481 525 5 MP
gs
PP
gr
DP
2 2 -2 2 -2 -2 2 -2 481 794 5 MP
gs
PP
gr
DP
2 2 -2 2 -2 -2 2 -2 481 797 5 MP
gs
PP
gr
DP
2 2 -2 2 -2 -2 2 -2 482 793 5 MP
gs
PP
gr
DP
2 2 -2 2 -2 -2 2 -2 483 790 5 MP
gs
PP
gr
DP
2 2 -2 2 -2 -2 2 -2 483 780 5 MP
gs
PP
gr
DP
2 2 -2 2 -2 -2 2 -2 485 780 5 MP
gs
PP
gr
DP
2 2 -2 2 -2 -2 2 -2 486 773 5 MP
gs
PP
gr
DP
2 2 -2 2 -2 -2 2 -2 486 597 5 MP
gs
PP
gr
DP
2 2 -2 2 -2 -2 2 -2 486 721 5 MP
gs
PP
gr
DP
2 2 -2 2 -2 -2 2 -2 486 784 5 MP
gs
PP
gr
DP
2 2 -2 2 -2 -2 2 -2 486 709 5 MP
gs
PP
gr
DP
2 2 -2 2 -2 -2 2 -2 487 795 5 MP
gs
PP
gr
DP
2 2 -2 2 -2 -2 2 -2 488 793 5 MP
gs
PP
gr
DP
2 2 -2 2 -2 -2 2 -2 489 786 5 MP
gs
PP
gr
DP
2 2 -2 2 -2 -2 2 -2 490 798 5 MP
gs
PP
gr
DP
2 2 -2 2 -2 -2 2 -2 490 772 5 MP
gs
PP
gr
DP
2 2 -2 2 -2 -2 2 -2 491 796 5 MP
gs
PP
gr
DP
2 2 -2 2 -2 -2 2 -2 491 768 5 MP
gs
PP
gr
DP
2 2 -2 2 -2 -2 2 -2 492 786 5 MP
gs
PP
gr
DP
2 2 -2 2 -2 -2 2 -2 492 426 5 MP
gs
PP
gr
DP
2 2 -2 2 -2 -2 2 -2 493 793 5 MP
gs
PP
gr
DP
2 2 -2 2 -2 -2 2 -2 494 747 5 MP
gs
PP
gr
DP
2 2 -2 2 -2 -2 2 -2 494 782 5 MP
gs
PP
gr
DP
2 2 -2 2 -2 -2 2 -2 494 794 5 MP
gs
PP
gr
DP
2 2 -2 2 -2 -2 2 -2 495 787 5 MP
gs
PP
gr
DP
2 2 -2 2 -2 -2 2 -2 495 783 5 MP
gs
PP
gr
DP
2 2 -2 2 -2 -2 2 -2 497 795 5 MP
gs
PP
gr
DP
2 2 -2 2 -2 -2 2 -2 497 794 5 MP
gs
PP
gr
DP
2 2 -2 2 -2 -2 2 -2 497 793 5 MP
gs
PP
gr
DP
2 2 -2 2 -2 -2 2 -2 498 789 5 MP
gs
PP
gr
DP
2 2 -2 2 -2 -2 2 -2 498 652 5 MP
gs
PP
gr
DP
2 2 -2 2 -2 -2 2 -2 499 784 5 MP
gs
PP
gr
DP
2 2 -2 2 -2 -2 2 -2 500 795 5 MP
gs
PP
gr
DP
2 2 -2 2 -2 -2 2 -2 500 718 5 MP
gs
PP
gr
DP
2 2 -2 2 -2 -2 2 -2 501 790 5 MP
gs
PP
gr
DP
2 2 -2 2 -2 -2 2 -2 501 427 5 MP
gs
PP
gr
DP
2 2 -2 2 -2 -2 2 -2 502 797 5 MP
gs
PP
gr
DP
2 2 -2 2 -2 -2 2 -2 502 795 5 MP
gs
PP
gr
DP
2 2 -2 2 -2 -2 2 -2 502 755 5 MP
gs
PP
gr
DP
2 2 -2 2 -2 -2 2 -2 503 778 5 MP
gs
PP
gr
DP
2 2 -2 2 -2 -2 2 -2 503 791 5 MP
gs
PP
gr
DP
2 2 -2 2 -2 -2 2 -2 503 790 5 MP
gs
PP
gr
DP
2 2 -2 2 -2 -2 2 -2 504 795 5 MP
gs
PP
gr
DP
2 2 -2 2 -2 -2 2 -2 505 787 5 MP
gs
PP
gr
DP
2 2 -2 2 -2 -2 2 -2 506 734 5 MP
gs
PP
gr
DP
2 2 -2 2 -2 -2 2 -2 506 798 5 MP
gs
PP
gr
DP
2 2 -2 2 -2 -2 2 -2 507 778 5 MP
gs
PP
gr
DP
2 2 -2 2 -2 -2 2 -2 507 795 5 MP
gs
PP
gr
DP
2 2 -2 2 -2 -2 2 -2 507 791 5 MP
gs
PP
gr
DP
2 2 -2 2 -2 -2 2 -2 508 796 5 MP
gs
PP
gr
DP
2 2 -2 2 -2 -2 2 -2 509 793 5 MP
gs
PP
gr
DP
2 2 -2 2 -2 -2 2 -2 510 795 5 MP
gs
PP
gr
DP
2 2 -2 2 -2 -2 2 -2 510 792 5 MP
gs
PP
gr
DP
2 2 -2 2 -2 -2 2 -2 511 793 5 MP
gs
PP
gr
DP
2 2 -2 2 -2 -2 2 -2 511 792 5 MP
gs
PP
gr
DP
2 2 -2 2 -2 -2 2 -2 511 796 5 MP
gs
PP
gr
DP
2 2 -2 2 -2 -2 2 -2 512 794 5 MP
gs
PP
gr
DP
2 2 -2 2 -2 -2 2 -2 513 795 5 MP
gs
PP
gr
DP
2 2 -2 2 -2 -2 2 -2 514 797 5 MP
gs
PP
gr
DP
2 2 -2 2 -2 -2 2 -2 514 794 5 MP
gs
PP
gr
DP
2 2 -2 2 -2 -2 2 -2 514 795 5 MP
gs
PP
gr
DP
2 2 -2 2 -2 -2 2 -2 515 795 5 MP
gs
PP
gr
DP
2 2 -2 2 -2 -2 2 -2 515 785 5 MP
gs
PP
gr
DP
2 2 -2 2 -2 -2 2 -2 516 757 5 MP
gs
PP
gr
DP
2 2 -2 2 -2 -2 2 -2 516 789 5 MP
gs
PP
gr
DP
2 2 -2 2 -2 -2 2 -2 516 716 5 MP
gs
PP
gr
DP
2 2 -2 2 -2 -2 2 -2 516 791 5 MP
gs
PP
gr
DP
2 2 -2 2 -2 -2 2 -2 517 796 5 MP
gs
PP
gr
DP
2 2 -2 2 -2 -2 2 -2 519 791 5 MP
gs
PP
gr
DP
2 2 -2 2 -2 -2 2 -2 520 793 5 MP
gs
PP
gr
DP
2 2 -2 2 -2 -2 2 -2 520 738 5 MP
gs
PP
gr
DP
2 2 -2 2 -2 -2 2 -2 520 712 5 MP
gs
PP
gr
DP
2 2 -2 2 -2 -2 2 -2 520 796 5 MP
gs
PP
gr
DP
2 2 -2 2 -2 -2 2 -2 521 795 5 MP
gs
PP
gr
DP
2 2 -2 2 -2 -2 2 -2 522 793 5 MP
gs
PP
gr
DP
2 2 -2 2 -2 -2 2 -2 523 793 5 MP
gs
PP
gr
DP
2 2 -2 2 -2 -2 2 -2 524 794 5 MP
gs
PP
gr
DP
2 2 -2 2 -2 -2 2 -2 524 789 5 MP
gs
PP
gr
DP
2 2 -2 2 -2 -2 2 -2 525 793 5 MP
gs
PP
gr
DP
2 2 -2 2 -2 -2 2 -2 526 793 5 MP
gs
PP
gr
DP
2 2 -2 2 -2 -2 2 -2 526 785 5 MP
gs
PP
gr
DP
2 2 -2 2 -2 -2 2 -2 527 795 5 MP
gs
PP
gr
DP
2 2 -2 2 -2 -2 2 -2 527 787 5 MP
gs
PP
gr
DP
2 2 -2 2 -2 -2 2 -2 528 797 5 MP
gs
PP
gr
DP
2 2 -2 2 -2 -2 2 -2 529 795 5 MP
gs
PP
gr
DP
2 2 -2 2 -2 -2 2 -2 530 785 5 MP
gs
PP
gr
DP
2 2 -2 2 -2 -2 2 -2 531 760 5 MP
gs
PP
gr
DP
2 2 -2 2 -2 -2 2 -2 531 794 5 MP
gs
PP
gr
DP
2 2 -2 2 -2 -2 2 -2 532 785 5 MP
gs
PP
gr
DP
2 2 -2 2 -2 -2 2 -2 532 752 5 MP
gs
PP
gr
DP
2 2 -2 2 -2 -2 2 -2 533 786 5 MP
gs
PP
gr
DP
2 2 -2 2 -2 -2 2 -2 533 662 5 MP
gs
PP
gr
DP
2 2 -2 2 -2 -2 2 -2 534 785 5 MP
gs
PP
gr
DP
2 2 -2 2 -2 -2 2 -2 534 794 5 MP
gs
PP
gr
DP
2 2 -2 2 -2 -2 2 -2 535 789 5 MP
gs
PP
gr
DP
2 2 -2 2 -2 -2 2 -2 535 795 5 MP
gs
PP
gr
DP
2 2 -2 2 -2 -2 2 -2 535 684 5 MP
gs
PP
gr
DP
2 2 -2 2 -2 -2 2 -2 535 478 5 MP
gs
PP
gr
DP
2 2 -2 2 -2 -2 2 -2 536 794 5 MP
gs
PP
gr
DP
2 2 -2 2 -2 -2 2 -2 536 790 5 MP
gs
PP
gr
DP
2 2 -2 2 -2 -2 2 -2 537 777 5 MP
gs
PP
gr
DP
2 2 -2 2 -2 -2 2 -2 538 690 5 MP
gs
PP
gr
DP
2 2 -2 2 -2 -2 2 -2 538 783 5 MP
gs
PP
gr
DP
2 2 -2 2 -2 -2 2 -2 539 793 5 MP
gs
PP
gr
DP
2 2 -2 2 -2 -2 2 -2 539 794 5 MP
gs
PP
gr
DP
2 2 -2 2 -2 -2 2 -2 540 787 5 MP
gs
PP
gr
DP
2 2 -2 2 -2 -2 2 -2 541 790 5 MP
gs
PP
gr
DP
2 2 -2 2 -2 -2 2 -2 541 795 5 MP
gs
PP
gr
DP
2 2 -2 2 -2 -2 2 -2 542 788 5 MP
gs
PP
gr
DP
2 2 -2 2 -2 -2 2 -2 543 688 5 MP
gs
PP
gr
DP
2 2 -2 2 -2 -2 2 -2 543 652 5 MP
gs
PP
gr
DP
2 2 -2 2 -2 -2 2 -2 543 776 5 MP
gs
PP
gr
DP
2 2 -2 2 -2 -2 2 -2 544 796 5 MP
gs
PP
gr
DP
2 2 -2 2 -2 -2 2 -2 545 793 5 MP
gs
PP
gr
DP
2 2 -2 2 -2 -2 2 -2 545 795 5 MP
gs
PP
gr
DP
2 2 -2 2 -2 -2 2 -2 545 794 5 MP
gs
PP
gr
DP
2 2 -2 2 -2 -2 2 -2 546 792 5 MP
gs
PP
gr
DP
2 2 -2 2 -2 -2 2 -2 547 794 5 MP
gs
PP
gr
DP
2 2 -2 2 -2 -2 2 -2 547 785 5 MP
gs
PP
gr
DP
2 2 -2 2 -2 -2 2 -2 548 783 5 MP
gs
PP
gr
DP
2 2 -2 2 -2 -2 2 -2 549 797 5 MP
gs
PP
gr
DP
2 2 -2 2 -2 -2 2 -2 550 793 5 MP
gs
PP
gr
DP
2 2 -2 2 -2 -2 2 -2 551 795 5 MP
gs
PP
gr
DP
2 2 -2 2 -2 -2 2 -2 552 789 5 MP
gs
PP
gr
DP
2 2 -2 2 -2 -2 2 -2 553 793 5 MP
gs
PP
gr
DP
2 2 -2 2 -2 -2 2 -2 553 780 5 MP
gs
PP
gr
DP
2 2 -2 2 -2 -2 2 -2 553 793 5 MP
gs
PP
gr
DP
2 2 -2 2 -2 -2 2 -2 554 794 5 MP
gs
PP
gr
DP
2 2 -2 2 -2 -2 2 -2 554 797 5 MP
gs
PP
gr
DP
2 2 -2 2 -2 -2 2 -2 555 756 5 MP
gs
PP
gr
DP
2 2 -2 2 -2 -2 2 -2 555 795 5 MP
gs
PP
gr
DP
2 2 -2 2 -2 -2 2 -2 556 788 5 MP
gs
PP
gr
DP
2 2 -2 2 -2 -2 2 -2 557 775 5 MP
gs
PP
gr
DP
2 2 -2 2 -2 -2 2 -2 558 622 5 MP
gs
PP
gr
DP
2 2 -2 2 -2 -2 2 -2 558 770 5 MP
gs
PP
gr
DP
2 2 -2 2 -2 -2 2 -2 559 797 5 MP
gs
PP
gr
DP
2 2 -2 2 -2 -2 2 -2 559 798 5 MP
gs
PP
gr
DP
2 2 -2 2 -2 -2 2 -2 559 796 5 MP
gs
PP
gr
DP
2 2 -2 2 -2 -2 2 -2 560 783 5 MP
gs
PP
gr
DP
2 2 -2 2 -2 -2 2 -2 560 797 5 MP
gs
PP
gr
DP
2 2 -2 2 -2 -2 2 -2 561 797 5 MP
gs
PP
gr
DP
2 2 -2 2 -2 -2 2 -2 562 764 5 MP
gs
PP
gr
DP
2 2 -2 2 -2 -2 2 -2 563 792 5 MP
gs
PP
gr
DP
2 2 -2 2 -2 -2 2 -2 564 796 5 MP
gs
PP
gr
DP
2 2 -2 2 -2 -2 2 -2 564 788 5 MP
gs
PP
gr
DP
2 2 -2 2 -2 -2 2 -2 565 795 5 MP
gs
PP
gr
DP
2 2 -2 2 -2 -2 2 -2 565 793 5 MP
gs
PP
gr
DP
2 2 -2 2 -2 -2 2 -2 566 795 5 MP
gs
PP
gr
DP
2 2 -2 2 -2 -2 2 -2 566 797 5 MP
gs
PP
gr
DP
2 2 -2 2 -2 -2 2 -2 567 797 5 MP
gs
PP
gr
DP
2 2 -2 2 -2 -2 2 -2 567 795 5 MP
gs
PP
gr
DP
2 2 -2 2 -2 -2 2 -2 568 793 5 MP
gs
PP
gr
DP
2 2 -2 2 -2 -2 2 -2 568 791 5 MP
gs
PP
gr
DP
2 2 -2 2 -2 -2 2 -2 569 797 5 MP
gs
PP
gr
DP
2 2 -2 2 -2 -2 2 -2 569 771 5 MP
gs
PP
gr
DP
2 2 -2 2 -2 -2 2 -2 570 795 5 MP
gs
PP
gr
DP
2 2 -2 2 -2 -2 2 -2 570 778 5 MP
gs
PP
gr
DP
2 2 -2 2 -2 -2 2 -2 571 796 5 MP
gs
PP
gr
DP
2 2 -2 2 -2 -2 2 -2 571 797 5 MP
gs
PP
gr
DP
2 2 -2 2 -2 -2 2 -2 571 795 5 MP
gs
PP
gr
DP
2 2 -2 2 -2 -2 2 -2 572 741 5 MP
gs
PP
gr
DP
2 2 -2 2 -2 -2 2 -2 573 794 5 MP
gs
PP
gr
DP
2 2 -2 2 -2 -2 2 -2 574 757 5 MP
gs
PP
gr
DP
2 2 -2 2 -2 -2 2 -2 575 790 5 MP
gs
PP
gr
DP
2 2 -2 2 -2 -2 2 -2 575 794 5 MP
gs
PP
gr
DP
2 2 -2 2 -2 -2 2 -2 576 795 5 MP
gs
PP
gr
DP
2 2 -2 2 -2 -2 2 -2 577 739 5 MP
gs
PP
gr
DP
2 2 -2 2 -2 -2 2 -2 577 796 5 MP
gs
PP
gr
DP
2 2 -2 2 -2 -2 2 -2 578 795 5 MP
gs
PP
gr
DP
2 2 -2 2 -2 -2 2 -2 579 768 5 MP
gs
PP
gr
DP
2 2 -2 2 -2 -2 2 -2 579 786 5 MP
gs
PP
gr
DP
2 2 -2 2 -2 -2 2 -2 580 785 5 MP
gs
PP
gr
DP
2 2 -2 2 -2 -2 2 -2 580 792 5 MP
gs
PP
gr
DP
2 2 -2 2 -2 -2 2 -2 581 797 5 MP
gs
PP
gr
DP
2 2 -2 2 -2 -2 2 -2 581 791 5 MP
gs
PP
gr
DP
2 2 -2 2 -2 -2 2 -2 582 797 5 MP
gs
PP
gr
DP
2 2 -2 2 -2 -2 2 -2 583 793 5 MP
gs
PP
gr
DP
2 2 -2 2 -2 -2 2 -2 584 794 5 MP
gs
PP
gr
DP
2 2 -2 2 -2 -2 2 -2 584 793 5 MP
gs
PP
gr
DP
2 2 -2 2 -2 -2 2 -2 585 645 5 MP
gs
PP
gr
DP
2 2 -2 2 -2 -2 2 -2 585 794 5 MP
gs
PP
gr
DP
2 2 -2 2 -2 -2 2 -2 586 786 5 MP
gs
PP
gr
DP
2 2 -2 2 -2 -2 2 -2 586 732 5 MP
gs
PP
gr
DP
2 2 -2 2 -2 -2 2 -2 587 780 5 MP
gs
PP
gr
DP
2 2 -2 2 -2 -2 2 -2 588 784 5 MP
gs
PP
gr
DP
2 2 -2 2 -2 -2 2 -2 588 794 5 MP
gs
PP
gr
DP
2 2 -2 2 -2 -2 2 -2 589 795 5 MP
gs
PP
gr
DP
2 2 -2 2 -2 -2 2 -2 590 793 5 MP
gs
PP
gr
DP
2 2 -2 2 -2 -2 2 -2 590 795 5 MP
gs
PP
gr
DP
2 2 -2 2 -2 -2 2 -2 591 794 5 MP
gs
PP
gr
DP
2 2 -2 2 -2 -2 2 -2 592 775 5 MP
gs
PP
gr
DP
2 2 -2 2 -2 -2 2 -2 592 786 5 MP
gs
PP
gr
DP
2 2 -2 2 -2 -2 2 -2 593 797 5 MP
gs
PP
gr
DP
2 2 -2 2 -2 -2 2 -2 593 764 5 MP
gs
PP
gr
DP
2 2 -2 2 -2 -2 2 -2 594 792 5 MP
gs
PP
gr
DP
2 2 -2 2 -2 -2 2 -2 594 793 5 MP
gs
PP
gr
DP
2 2 -2 2 -2 -2 2 -2 595 770 5 MP
gs
PP
gr
DP
2 2 -2 2 -2 -2 2 -2 595 791 5 MP
gs
PP
gr
DP
2 2 -2 2 -2 -2 2 -2 596 796 5 MP
gs
PP
gr
DP
2 2 -2 2 -2 -2 2 -2 597 796 5 MP
gs
PP
gr
DP
2 2 -2 2 -2 -2 2 -2 597 794 5 MP
gs
PP
gr
DP
2 2 -2 2 -2 -2 2 -2 597 795 5 MP
gs
PP
gr
DP
2 2 -2 2 -2 -2 2 -2 598 795 5 MP
gs
PP
gr
DP
2 2 -2 2 -2 -2 2 -2 598 791 5 MP
gs
PP
gr
DP
2 2 -2 2 -2 -2 2 -2 598 795 5 MP
gs
PP
gr
DP
2 2 -2 2 -2 -2 2 -2 599 794 5 MP
gs
PP
gr
DP
2 2 -2 2 -2 -2 2 -2 600 790 5 MP
gs
PP
gr
DP
2 2 -2 2 -2 -2 2 -2 601 795 5 MP
gs
PP
gr
DP
2 2 -2 2 -2 -2 2 -2 601 792 5 MP
gs
PP
gr
DP
2 2 -2 2 -2 -2 2 -2 601 782 5 MP
gs
PP
gr
DP
2 2 -2 2 -2 -2 2 -2 602 793 5 MP
gs
PP
gr
DP
2 2 -2 2 -2 -2 2 -2 602 797 5 MP
gs
PP
gr
DP
2 2 -2 2 -2 -2 2 -2 603 794 5 MP
gs
PP
gr
DP
2 2 -2 2 -2 -2 2 -2 603 783 5 MP
gs
PP
gr
DP
2 2 -2 2 -2 -2 2 -2 604 791 5 MP
gs
PP
gr
DP
2 2 -2 2 -2 -2 2 -2 604 796 5 MP
gs
PP
gr
DP
2 2 -2 2 -2 -2 2 -2 604 793 5 MP
gs
PP
gr
DP
2 2 -2 2 -2 -2 2 -2 604 796 5 MP
gs
PP
gr
DP
2 2 -2 2 -2 -2 2 -2 605 790 5 MP
gs
PP
gr
DP
2 2 -2 2 -2 -2 2 -2 605 791 5 MP
gs
PP
gr
DP
2 2 -2 2 -2 -2 2 -2 605 793 5 MP
gs
PP
gr
DP
2 2 -2 2 -2 -2 2 -2 605 792 5 MP
gs
PP
gr
DP
2 2 -2 2 -2 -2 2 -2 605 784 5 MP
gs
PP
gr
DP
2 2 -2 2 -2 -2 2 -2 605 783 5 MP
gs
PP
gr
DP
2 2 -2 2 -2 -2 2 -2 605 793 5 MP
gs
PP
gr
DP
2 2 -2 2 -2 -2 2 -2 606 583 5 MP
gs
PP
gr
DP
2 2 -2 2 -2 -2 2 -2 606 778 5 MP
gs
PP
gr
DP
2 2 -2 2 -2 -2 2 -2 606 788 5 MP
gs
PP
gr
DP
2 2 -2 2 -2 -2 2 -2 606 783 5 MP
gs
PP
gr
DP
2 2 -2 2 -2 -2 2 -2 606 791 5 MP
gs
PP
gr
DP
2 2 -2 2 -2 -2 2 -2 606 792 5 MP
gs
PP
gr
DP
2 2 -2 2 -2 -2 2 -2 606 794 5 MP
gs
PP
gr
DP
2 2 -2 2 -2 -2 2 -2 607 792 5 MP
gs
PP
gr
DP
2 2 -2 2 -2 -2 2 -2 607 789 5 MP
gs
PP
gr
DP
2 2 -2 2 -2 -2 2 -2 607 795 5 MP
gs
PP
gr
DP
2 2 -2 2 -2 -2 2 -2 607 790 5 MP
gs
PP
gr
DP
2 2 -2 2 -2 -2 2 -2 607 619 5 MP
gs
PP
gr
DP
2 2 -2 2 -2 -2 2 -2 608 663 5 MP
gs
PP
gr
DP
2 2 -2 2 -2 -2 2 -2 612 792 5 MP
gs
PP
gr
DP
2 2 -2 2 -2 -2 2 -2 612 747 5 MP
gs
PP
gr
DP
2 2 -2 2 -2 -2 2 -2 613 795 5 MP
gs
PP
gr
DP
2 2 -2 2 -2 -2 2 -2 613 794 5 MP
gs
PP
gr
DP
2 2 -2 2 -2 -2 2 -2 613 795 5 MP
gs
PP
gr
DP
2 2 -2 2 -2 -2 2 -2 613 794 5 MP
gs
PP
gr
DP
2 2 -2 2 -2 -2 2 -2 614 793 5 MP
gs
PP
gr
DP
2 2 -2 2 -2 -2 2 -2 615 796 5 MP
gs
PP
gr
DP
2 2 -2 2 -2 -2 2 -2 616 793 5 MP
gs
PP
gr
DP
2 2 -2 2 -2 -2 2 -2 616 459 5 MP
gs
PP
gr
DP
2 2 -2 2 -2 -2 2 -2 617 793 5 MP
gs
PP
gr
DP
2 2 -2 2 -2 -2 2 -2 619 792 5 MP
gs
PP
gr
DP
2 2 -2 2 -2 -2 2 -2 619 781 5 MP
gs
PP
gr
DP
2 2 -2 2 -2 -2 2 -2 620 761 5 MP
gs
PP
gr
DP
2 2 -2 2 -2 -2 2 -2 621 796 5 MP
gs
PP
gr
DP
2 2 -2 2 -2 -2 2 -2 622 781 5 MP
gs
PP
gr
DP
2 2 -2 2 -2 -2 2 -2 623 791 5 MP
gs
PP
gr
DP
2 2 -2 2 -2 -2 2 -2 624 794 5 MP
gs
PP
gr
DP
2 2 -2 2 -2 -2 2 -2 625 795 5 MP
gs
PP
gr
DP
2 2 -2 2 -2 -2 2 -2 626 797 5 MP
gs
PP
gr
DP
2 2 -2 2 -2 -2 2 -2 627 797 5 MP
gs
PP
gr
DP
2 2 -2 2 -2 -2 2 -2 627 795 5 MP
gs
PP
gr
DP
2 2 -2 2 -2 -2 2 -2 628 796 5 MP
gs
PP
gr
DP
2 2 -2 2 -2 -2 2 -2 628 794 5 MP
gs
PP
gr
DP
2 2 -2 2 -2 -2 2 -2 629 795 5 MP
gs
PP
gr
DP
2 2 -2 2 -2 -2 2 -2 630 796 5 MP
gs
PP
gr
DP
2 2 -2 2 -2 -2 2 -2 631 797 5 MP
gs
PP
gr
DP
2 2 -2 2 -2 -2 2 -2 631 795 5 MP
gs
PP
gr
DP
2 2 -2 2 -2 -2 2 -2 632 790 5 MP
gs
PP
gr
DP
2 2 -2 2 -2 -2 2 -2 632 797 5 MP
gs
PP
gr
DP
2 2 -2 2 -2 -2 2 -2 633 794 5 MP
gs
PP
gr
DP
2 2 -2 2 -2 -2 2 -2 633 788 5 MP
gs
PP
gr
DP
2 2 -2 2 -2 -2 2 -2 633 796 5 MP
gs
PP
gr
DP
2 2 -2 2 -2 -2 2 -2 633 793 5 MP
gs
PP
gr
DP
2 2 -2 2 -2 -2 2 -2 634 793 5 MP
gs
PP
gr
DP
2 2 -2 2 -2 -2 2 -2 634 797 5 MP
gs
PP
gr
DP
2 2 -2 2 -2 -2 2 -2 634 796 5 MP
gs
PP
gr
DP
2 2 -2 2 -2 -2 2 -2 635 784 5 MP
gs
PP
gr
DP
2 2 -2 2 -2 -2 2 -2 635 767 5 MP
gs
PP
gr
DP
2 2 -2 2 -2 -2 2 -2 635 796 5 MP
gs
PP
gr
DP
2 2 -2 2 -2 -2 2 -2 636 795 5 MP
gs
PP
gr
DP
2 2 -2 2 -2 -2 2 -2 638 796 5 MP
gs
PP
gr
DP
2 2 -2 2 -2 -2 2 -2 639 793 5 MP
gs
PP
gr
DP
2 2 -2 2 -2 -2 2 -2 641 795 5 MP
gs
PP
gr
DP
2 2 -2 2 -2 -2 2 -2 643 790 5 MP
gs
PP
gr
DP
2 2 -2 2 -2 -2 2 -2 648 796 5 MP
gs
PP
gr
DP
2 2 -2 2 -2 -2 2 -2 648 790 5 MP
gs
PP
gr
DP
2 2 -2 2 -2 -2 2 -2 649 794 5 MP
gs
PP
gr
DP
2 2 -2 2 -2 -2 2 -2 649 787 5 MP
gs
PP
gr
DP
2 2 -2 2 -2 -2 2 -2 650 790 5 MP
gs
PP
gr
DP
2 2 -2 2 -2 -2 2 -2 651 785 5 MP
gs
PP
gr
DP
2 2 -2 2 -2 -2 2 -2 652 100 5 MP
gs
PP
gr
DP
2 2 -2 2 -2 -2 2 -2 652 691 5 MP
gs
PP
gr
DP
2 2 -2 2 -2 -2 2 -2 653 795 5 MP
gs
PP
gr
DP
2 2 -2 2 -2 -2 2 -2 654 797 5 MP
gs
PP
gr
DP
2 2 -2 2 -2 -2 2 -2 654 796 5 MP
gs
PP
gr
DP
2 2 -2 2 -2 -2 2 -2 655 790 5 MP
gs
PP
gr
DP
2 2 -2 2 -2 -2 2 -2 656 797 5 MP
gs
PP
gr
DP
2 2 -2 2 -2 -2 2 -2 656 795 5 MP
gs
PP
gr
DP
2 2 -2 2 -2 -2 2 -2 657 796 5 MP
gs
PP
gr
DP
2 2 -2 2 -2 -2 2 -2 658 795 5 MP
gs
PP
gr
DP
2 2 -2 2 -2 -2 2 -2 659 797 5 MP
gs
PP
gr
DP
2 2 -2 2 -2 -2 2 -2 659 795 5 MP
gs
PP
gr
DP
2 2 -2 2 -2 -2 2 -2 660 795 5 MP
gs
PP
gr
DP
2 2 -2 2 -2 -2 2 -2 661 794 5 MP
gs
PP
gr
DP
2 2 -2 2 -2 -2 2 -2 662 790 5 MP
gs
PP
gr
DP
2 2 -2 2 -2 -2 2 -2 662 791 5 MP
gs
PP
gr
DP
2 2 -2 2 -2 -2 2 -2 663 796 5 MP
gs
PP
gr
DP
2 2 -2 2 -2 -2 2 -2 663 797 5 MP
gs
PP
gr
DP
2 2 -2 2 -2 -2 2 -2 664 795 5 MP
gs
PP
gr
DP
2 2 -2 2 -2 -2 2 -2 665 793 5 MP
gs
PP
gr
DP
2 2 -2 2 -2 -2 2 -2 665 797 5 MP
gs
PP
gr
DP
2 2 -2 2 -2 -2 2 -2 666 795 5 MP
gs
PP
gr
DP
2 2 -2 2 -2 -2 2 -2 667 794 5 MP
gs
PP
gr
DP
2 2 -2 2 -2 -2 2 -2 667 730 5 MP
gs
PP
gr
DP
2 2 -2 2 -2 -2 2 -2 668 792 5 MP
gs
PP
gr
DP
2 2 -2 2 -2 -2 2 -2 669 782 5 MP
gs
PP
gr
DP
2 2 -2 2 -2 -2 2 -2 669 790 5 MP
gs
PP
gr
DP
2 2 -2 2 -2 -2 2 -2 670 791 5 MP
gs
PP
gr
DP
2 2 -2 2 -2 -2 2 -2 670 793 5 MP
gs
PP
gr
DP
2 2 -2 2 -2 -2 2 -2 670 789 5 MP
gs
PP
gr
DP
2 2 -2 2 -2 -2 2 -2 671 797 5 MP
gs
PP
gr
DP
2 2 -2 2 -2 -2 2 -2 672 793 5 MP
gs
PP
gr
DP
2 2 -2 2 -2 -2 2 -2 672 795 5 MP
gs
PP
gr
DP
2 2 -2 2 -2 -2 2 -2 673 795 5 MP
gs
PP
gr
DP
2 2 -2 2 -2 -2 2 -2 674 796 5 MP
gs
PP
gr
DP
2 2 -2 2 -2 -2 2 -2 675 795 5 MP
gs
PP
gr
DP
2 2 -2 2 -2 -2 2 -2 675 793 5 MP
gs
PP
gr
DP
2 2 -2 2 -2 -2 2 -2 676 782 5 MP
gs
PP
gr
DP
2 2 -2 2 -2 -2 2 -2 677 792 5 MP
gs
PP
gr
DP
2 2 -2 2 -2 -2 2 -2 678 788 5 MP
gs
PP
gr
DP
2 2 -2 2 -2 -2 2 -2 679 794 5 MP
gs
PP
gr
DP
2 2 -2 2 -2 -2 2 -2 680 797 5 MP
gs
PP
gr
DP
2 2 -2 2 -2 -2 2 -2 680 789 5 MP
gs
PP
gr
DP
2 2 -2 2 -2 -2 2 -2 681 793 5 MP
gs
PP
gr
DP
2 2 -2 2 -2 -2 2 -2 682 739 5 MP
gs
PP
gr
DP
2 2 -2 2 -2 -2 2 -2 683 754 5 MP
gs
PP
gr
DP
2 2 -2 2 -2 -2 2 -2 683 779 5 MP
gs
PP
gr
DP
2 2 -2 2 -2 -2 2 -2 684 785 5 MP
gs
PP
gr
DP
2 2 -2 2 -2 -2 2 -2 685 795 5 MP
gs
PP
gr
DP
2 2 -2 2 -2 -2 2 -2 686 790 5 MP
gs
PP
gr
DP
2 2 -2 2 -2 -2 2 -2 687 793 5 MP
gs
PP
gr
DP
2 2 -2 2 -2 -2 2 -2 687 788 5 MP
gs
PP
gr
DP
2 2 -2 2 -2 -2 2 -2 688 795 5 MP
gs
PP
gr
DP
2 2 -2 2 -2 -2 2 -2 689 796 5 MP
gs
PP
gr
DP
2 2 -2 2 -2 -2 2 -2 689 792 5 MP
gs
PP
gr
DP
2 2 -2 2 -2 -2 2 -2 690 783 5 MP
gs
PP
gr
DP
2 2 -2 2 -2 -2 2 -2 691 788 5 MP
gs
PP
gr
DP
2 2 -2 2 -2 -2 2 -2 692 786 5 MP
gs
PP
gr
DP
2 2 -2 2 -2 -2 2 -2 693 706 5 MP
gs
PP
gr
DP
2 2 -2 2 -2 -2 2 -2 694 794 5 MP
gs
PP
gr
DP
2 2 -2 2 -2 -2 2 -2 694 773 5 MP
gs
PP
gr
DP
2 2 -2 2 -2 -2 2 -2 695 791 5 MP
gs
PP
gr
DP
2 2 -2 2 -2 -2 2 -2 696 602 5 MP
gs
PP
gr
DP
2 2 -2 2 -2 -2 2 -2 697 780 5 MP
gs
PP
gr
DP
2 2 -2 2 -2 -2 2 -2 697 788 5 MP
gs
PP
gr
DP
2 2 -2 2 -2 -2 2 -2 698 795 5 MP
gs
PP
gr
DP
2 2 -2 2 -2 -2 2 -2 700 794 5 MP
gs
PP
gr
DP
2 2 -2 2 -2 -2 2 -2 700 791 5 MP
gs
PP
gr
DP
2 2 -2 2 -2 -2 2 -2 701 796 5 MP
gs
PP
gr
DP
2 2 -2 2 -2 -2 2 -2 701 795 5 MP
gs
PP
gr
DP
2 2 -2 2 -2 -2 2 -2 702 795 5 MP
gs
PP
gr
DP
2 2 -2 2 -2 -2 2 -2 703 791 5 MP
gs
PP
gr
DP
2 2 -2 2 -2 -2 2 -2 703 797 5 MP
gs
PP
gr
DP
2 2 -2 2 -2 -2 2 -2 704 795 5 MP
gs
PP
gr
DP
2 2 -2 2 -2 -2 2 -2 705 795 5 MP
gs
PP
gr
DP
2 2 -2 2 -2 -2 2 -2 705 793 5 MP
gs
PP
gr
DP
2 2 -2 2 -2 -2 2 -2 706 787 5 MP
gs
PP
gr
DP
2 2 -2 2 -2 -2 2 -2 707 795 5 MP
gs
PP
gr
DP
2 2 -2 2 -2 -2 2 -2 707 788 5 MP
gs
PP
gr
DP
2 2 -2 2 -2 -2 2 -2 708 789 5 MP
gs
PP
gr
DP
2 2 -2 2 -2 -2 2 -2 708 796 5 MP
gs
PP
gr
DP
2 2 -2 2 -2 -2 2 -2 709 792 5 MP
gs
PP
gr
DP
2 2 -2 2 -2 -2 2 -2 709 780 5 MP
gs
PP
gr
DP
2 2 -2 2 -2 -2 2 -2 710 789 5 MP
gs
PP
gr
DP
2 2 -2 2 -2 -2 2 -2 711 796 5 MP
gs
PP
gr
DP
2 2 -2 2 -2 -2 2 -2 712 789 5 MP
gs
PP
gr
DP
2 2 -2 2 -2 -2 2 -2 713 512 5 MP
gs
PP
gr
DP
2 2 -2 2 -2 -2 2 -2 714 788 5 MP
gs
PP
gr
DP
2 2 -2 2 -2 -2 2 -2 714 715 5 MP
gs
PP
gr
DP
2 2 -2 2 -2 -2 2 -2 715 789 5 MP
gs
PP
gr
DP
2 2 -2 2 -2 -2 2 -2 716 794 5 MP
gs
PP
gr
DP
2 2 -2 2 -2 -2 2 -2 717 711 5 MP
gs
PP
gr
DP
2 2 -2 2 -2 -2 2 -2 717 773 5 MP
gs
PP
gr
DP
2 2 -2 2 -2 -2 2 -2 719 796 5 MP
gs
PP
gr
DP
2 2 -2 2 -2 -2 2 -2 719 794 5 MP
gs
PP
gr
DP
2 2 -2 2 -2 -2 2 -2 720 798 5 MP
gs
PP
gr
DP
2 2 -2 2 -2 -2 2 -2 721 796 5 MP
gs
PP
gr
DP
2 2 -2 2 -2 -2 2 -2 721 798 5 MP
gs
PP
gr
DP
2 2 -2 2 -2 -2 2 -2 722 796 5 MP
gs
PP
gr
DP
2 2 -2 2 -2 -2 2 -2 723 796 5 MP
gs
PP
gr
DP
2 2 -2 2 -2 -2 2 -2 723 794 5 MP
gs
PP
gr
DP
2 2 -2 2 -2 -2 2 -2 724 784 5 MP
gs
PP
gr
DP
2 2 -2 2 -2 -2 2 -2 724 794 5 MP
gs
PP
gr
DP
2 2 -2 2 -2 -2 2 -2 725 786 5 MP
gs
PP
gr
DP
2 2 -2 2 -2 -2 2 -2 725 750 5 MP
gs
PP
gr
DP
2 2 -2 2 -2 -2 2 -2 726 728 5 MP
gs
PP
gr
DP
2 2 -2 2 -2 -2 2 -2 727 694 5 MP
gs
PP
gr
DP
2 2 -2 2 -2 -2 2 -2 727 793 5 MP
gs
PP
gr
DP
2 2 -2 2 -2 -2 2 -2 728 752 5 MP
gs
PP
gr
DP
2 2 -2 2 -2 -2 2 -2 728 790 5 MP
gs
PP
gr
DP
2 2 -2 2 -2 -2 2 -2 729 797 5 MP
gs
PP
gr
DP
2 2 -2 2 -2 -2 2 -2 730 797 5 MP
gs
PP
gr
DP
2 2 -2 2 -2 -2 2 -2 730 795 5 MP
gs
PP
gr
DP
2 2 -2 2 -2 -2 2 -2 731 791 5 MP
gs
PP
gr
DP
2 2 -2 2 -2 -2 2 -2 731 796 5 MP
gs
PP
gr
DP
2 2 -2 2 -2 -2 2 -2 732 791 5 MP
gs
PP
gr
DP
2 2 -2 2 -2 -2 2 -2 733 796 5 MP
gs
PP
gr
DP
2 2 -2 2 -2 -2 2 -2 733 781 5 MP
gs
PP
gr
DP
2 2 -2 2 -2 -2 2 -2 734 754 5 MP
gs
PP
gr
DP
2 2 -2 2 -2 -2 2 -2 734 795 5 MP
gs
PP
gr
DP
2 2 -2 2 -2 -2 2 -2 735 793 5 MP
gs
PP
gr
DP
2 2 -2 2 -2 -2 2 -2 735 794 5 MP
gs
PP
gr
DP
2 2 -2 2 -2 -2 2 -2 736 795 5 MP
gs
PP
gr
DP
2 2 -2 2 -2 -2 2 -2 736 794 5 MP
gs
PP
gr
DP
2 2 -2 2 -2 -2 2 -2 737 796 5 MP
gs
PP
gr
DP
2 2 -2 2 -2 -2 2 -2 738 788 5 MP
gs
PP
gr
DP
2 2 -2 2 -2 -2 2 -2 738 797 5 MP
gs
PP
gr
DP
2 2 -2 2 -2 -2 2 -2 739 795 5 MP
gs
PP
gr
DP
2 2 -2 2 -2 -2 2 -2 739 796 5 MP
gs
PP
gr
DP
2 2 -2 2 -2 -2 2 -2 740 794 5 MP
gs
PP
gr
DP
2 2 -2 2 -2 -2 2 -2 741 794 5 MP
gs
PP
gr
DP
2 2 -2 2 -2 -2 2 -2 741 793 5 MP
gs
PP
gr
DP
2 2 -2 2 -2 -2 2 -2 742 777 5 MP
gs
PP
gr
DP
2 2 -2 2 -2 -2 2 -2 743 796 5 MP
gs
PP
gr
DP
2 2 -2 2 -2 -2 2 -2 744 795 5 MP
gs
PP
gr
DP
2 2 -2 2 -2 -2 2 -2 744 785 5 MP
gs
PP
gr
DP
2 2 -2 2 -2 -2 2 -2 745 793 5 MP
gs
PP
gr
DP
2 2 -2 2 -2 -2 2 -2 745 751 5 MP
gs
PP
gr
DP
2 2 -2 2 -2 -2 2 -2 746 790 5 MP
gs
PP
gr
DP
2 2 -2 2 -2 -2 2 -2 746 778 5 MP
gs
PP
gr
DP
2 2 -2 2 -2 -2 2 -2 747 793 5 MP
gs
PP
gr
DP
2 2 -2 2 -2 -2 2 -2 748 795 5 MP
gs
PP
gr
DP
2 2 -2 2 -2 -2 2 -2 749 795 5 MP
gs
PP
gr
DP
2 2 -2 2 -2 -2 2 -2 749 792 5 MP
gs
PP
gr
DP
2 2 -2 2 -2 -2 2 -2 750 794 5 MP
gs
PP
gr
DP
2 2 -2 2 -2 -2 2 -2 750 791 5 MP
gs
PP
gr
DP
2 2 -2 2 -2 -2 2 -2 751 788 5 MP
gs
PP
gr
DP
2 2 -2 2 -2 -2 2 -2 752 795 5 MP
gs
PP
gr
DP
2 2 -2 2 -2 -2 2 -2 753 793 5 MP
gs
PP
gr
DP
2 2 -2 2 -2 -2 2 -2 753 794 5 MP
gs
PP
gr
DP
2 2 -2 2 -2 -2 2 -2 754 794 5 MP
gs
PP
gr
DP
2 2 -2 2 -2 -2 2 -2 755 796 5 MP
gs
PP
gr
DP
2 2 -2 2 -2 -2 2 -2 756 794 5 MP
gs
PP
gr
DP
2 2 -2 2 -2 -2 2 -2 756 796 5 MP
gs
PP
gr
DP
2 2 -2 2 -2 -2 2 -2 757 795 5 MP
gs
PP
gr
DP
2 2 -2 2 -2 -2 2 -2 757 793 5 MP
gs
PP
gr
DP
2 2 -2 2 -2 -2 2 -2 758 795 5 MP
gs
PP
gr
DP
2 2 -2 2 -2 -2 2 -2 759 790 5 MP
gs
PP
gr
DP
2 2 -2 2 -2 -2 2 -2 759 792 5 MP
gs
PP
gr
DP
2 2 -2 2 -2 -2 2 -2 760 795 5 MP
gs
PP
gr
DP
2 2 -2 2 -2 -2 2 -2 761 794 5 MP
gs
PP
gr
DP
2 2 -2 2 -2 -2 2 -2 762 794 5 MP
gs
PP
gr
DP
2 2 -2 2 -2 -2 2 -2 763 795 5 MP
gs
PP
gr
DP
2 2 -2 2 -2 -2 2 -2 764 793 5 MP
gs
PP
gr
DP
2 2 -2 2 -2 -2 2 -2 765 793 5 MP
gs
PP
gr
DP
2 2 -2 2 -2 -2 2 -2 765 794 5 MP
gs
PP
gr
DP
2 2 -2 2 -2 -2 2 -2 766 770 5 MP
gs
PP
gr
DP
2 2 -2 2 -2 -2 2 -2 767 760 5 MP
gs
PP
gr
DP
2 2 -2 2 -2 -2 2 -2 767 795 5 MP
gs
PP
gr
DP
2 2 -2 2 -2 -2 2 -2 768 774 5 MP
gs
PP
gr
DP
2 2 -2 2 -2 -2 2 -2 768 792 5 MP
gs
PP
gr
DP
2 2 -2 2 -2 -2 2 -2 769 796 5 MP
gs
PP
gr
DP
2 2 -2 2 -2 -2 2 -2 769 789 5 MP
gs
PP
gr
DP
2 2 -2 2 -2 -2 2 -2 770 796 5 MP
gs
PP
gr
DP
2 2 -2 2 -2 -2 2 -2 771 795 5 MP
gs
PP
gr
DP
2 2 -2 2 -2 -2 2 -2 772 791 5 MP
gs
PP
gr
DP
2 2 -2 2 -2 -2 2 -2 773 790 5 MP
gs
PP
gr
DP
2 2 -2 2 -2 -2 2 -2 774 795 5 MP
gs
PP
gr
DP
2 2 -2 2 -2 -2 2 -2 774 794 5 MP
gs
PP
gr
DP
2 2 -2 2 -2 -2 2 -2 775 793 5 MP
gs
PP
gr
DP
2 2 -2 2 -2 -2 2 -2 776 793 5 MP
gs
PP
gr
DP
2 2 -2 2 -2 -2 2 -2 776 791 5 MP
gs
PP
gr
DP
2 2 -2 2 -2 -2 2 -2 777 789 5 MP
gs
PP
gr
DP
2 2 -2 2 -2 -2 2 -2 778 758 5 MP
gs
PP
gr
DP
2 2 -2 2 -2 -2 2 -2 778 796 5 MP
gs
PP
gr
DP
2 2 -2 2 -2 -2 2 -2 779 793 5 MP
gs
PP
gr
DP
2 2 -2 2 -2 -2 2 -2 779 738 5 MP
gs
PP
gr
DP
2 2 -2 2 -2 -2 2 -2 780 797 5 MP
gs
PP
gr
DP
2 2 -2 2 -2 -2 2 -2 781 795 5 MP
gs
PP
gr
DP
2 2 -2 2 -2 -2 2 -2 781 735 5 MP
gs
PP
gr
DP
2 2 -2 2 -2 -2 2 -2 782 757 5 MP
gs
PP
gr
DP
2 2 -2 2 -2 -2 2 -2 782 788 5 MP
gs
PP
gr
DP
2 2 -2 2 -2 -2 2 -2 783 795 5 MP
gs
PP
gr
DP
2 2 -2 2 -2 -2 2 -2 784 789 5 MP
gs
PP
gr
DP
2 2 -2 2 -2 -2 2 -2 785 757 5 MP
gs
PP
gr
DP
2 2 -2 2 -2 -2 2 -2 785 797 5 MP
gs
PP
gr
DP
2 2 -2 2 -2 -2 2 -2 786 797 5 MP
gs
PP
gr
DP
2 2 -2 2 -2 -2 2 -2 786 794 5 MP
gs
PP
gr
DP
2 2 -2 2 -2 -2 2 -2 787 796 5 MP
gs
PP
gr
DP
2 2 -2 2 -2 -2 2 -2 787 794 5 MP
gs
PP
gr
DP
2 2 -2 2 -2 -2 2 -2 788 795 5 MP
gs
PP
gr
DP
2 2 -2 2 -2 -2 2 -2 789 795 5 MP
gs
PP
gr
DP
2 2 -2 2 -2 -2 2 -2 789 790 5 MP
gs
PP
gr
DP
2 2 -2 2 -2 -2 2 -2 790 795 5 MP
gs
PP
gr
DP
2 2 -2 2 -2 -2 2 -2 791 793 5 MP
gs
PP
gr
DP
2 2 -2 2 -2 -2 2 -2 791 794 5 MP
gs
PP
gr
DP
2 2 -2 2 -2 -2 2 -2 792 789 5 MP
gs
PP
gr
DP
2 2 -2 2 -2 -2 2 -2 792 784 5 MP
gs
PP
gr
DP
2 2 -2 2 -2 -2 2 -2 793 795 5 MP
gs
PP
gr
DP
2 2 -2 2 -2 -2 2 -2 794 786 5 MP
gs
PP
gr
DP
2 2 -2 2 -2 -2 2 -2 794 795 5 MP
gs
PP
gr
DP
2 2 -2 2 -2 -2 2 -2 795 788 5 MP
gs
PP
gr
DP
2 2 -2 2 -2 -2 2 -2 795 795 5 MP
gs
PP
gr
DP
2 2 -2 2 -2 -2 2 -2 796 788 5 MP
gs
PP
gr
DP
2 2 -2 2 -2 -2 2 -2 796 796 5 MP
gs
PP
gr
DP
2 2 -2 2 -2 -2 2 -2 797 796 5 MP
gs
PP
gr
DP
2 2 -2 2 -2 -2 2 -2 798 749 5 MP
gs
PP
gr
DP
2 2 -2 2 -2 -2 2 -2 798 796 5 MP
gs
PP
gr
DP
2 2 -2 2 -2 -2 2 -2 799 758 5 MP
gs
PP
gr
DP
2 2 -2 2 -2 -2 2 -2 800 783 5 MP
gs
PP
gr
DP
2 2 -2 2 -2 -2 2 -2 800 796 5 MP
gs
PP
gr
DP
2 2 -2 2 -2 -2 2 -2 801 797 5 MP
gs
PP
gr
DP
2 2 -2 2 -2 -2 2 -2 801 742 5 MP
gs
PP
gr
DP
2 2 -2 2 -2 -2 2 -2 802 794 5 MP
gs
PP
gr
DP
2 2 -2 2 -2 -2 2 -2 803 769 5 MP
gs
PP
gr
DP
2 2 -2 2 -2 -2 2 -2 803 780 5 MP
gs
PP
gr
DP
2 2 -2 2 -2 -2 2 -2 804 789 5 MP
gs
PP
gr
DP
2 2 -2 2 -2 -2 2 -2 804 797 5 MP
gs
PP
gr
DP
2 2 -2 2 -2 -2 2 -2 805 793 5 MP
gs
PP
gr
DP
2 2 -2 2 -2 -2 2 -2 806 790 5 MP
gs
PP
gr
DP
2 2 -2 2 -2 -2 2 -2 806 784 5 MP
gs
PP
gr
DP
2 2 -2 2 -2 -2 2 -2 807 796 5 MP
gs
PP
gr
DP
2 2 -2 2 -2 -2 2 -2 808 755 5 MP
gs
PP
gr
DP
2 2 -2 2 -2 -2 2 -2 808 709 5 MP
gs
PP
gr
DP
2 2 -2 2 -2 -2 2 -2 809 793 5 MP
gs
PP
gr
DP
2 2 -2 2 -2 -2 2 -2 810 793 5 MP
gs
PP
gr
DP
2 2 -2 2 -2 -2 2 -2 810 790 5 MP
gs
PP
gr
DP
2 2 -2 2 -2 -2 2 -2 811 797 5 MP
gs
PP
gr
DP
2 2 -2 2 -2 -2 2 -2 812 796 5 MP
gs
PP
gr
DP
2 2 -2 2 -2 -2 2 -2 813 793 5 MP
gs
PP
gr
DP
2 2 -2 2 -2 -2 2 -2 813 763 5 MP
gs
PP
gr
DP
2 2 -2 2 -2 -2 2 -2 814 793 5 MP
gs
PP
gr
DP
2 2 -2 2 -2 -2 2 -2 814 780 5 MP
gs
PP
gr
DP
2 2 -2 2 -2 -2 2 -2 815 795 5 MP
gs
PP
gr
DP
2 2 -2 2 -2 -2 2 -2 815 798 5 MP
gs
PP
gr
DP
2 2 -2 2 -2 -2 2 -2 816 796 5 MP
gs
PP
gr
DP
2 2 -2 2 -2 -2 2 -2 817 794 5 MP
gs
PP
gr
DP
2 2 -2 2 -2 -2 2 -2 818 794 5 MP
gs
PP
gr
DP
2 2 -2 2 -2 -2 2 -2 818 795 5 MP
gs
PP
gr
DP
2 2 -2 2 -2 -2 2 -2 819 794 5 MP
gs
PP
gr
DP
2 2 -2 2 -2 -2 2 -2 819 793 5 MP
gs
PP
gr
DP
2 2 -2 2 -2 -2 2 -2 820 755 5 MP
gs
PP
gr
DP
2 2 -2 2 -2 -2 2 -2 820 796 5 MP
gs
PP
gr
DP
2 2 -2 2 -2 -2 2 -2 821 723 5 MP
gs
PP
gr
DP
2 2 -2 2 -2 -2 2 -2 822 791 5 MP
gs
PP
gr
DP
2 2 -2 2 -2 -2 2 -2 822 797 5 MP
gs
PP
gr
DP
2 2 -2 2 -2 -2 2 -2 823 798 5 MP
gs
PP
gr
DP
2 2 -2 2 -2 -2 2 -2 824 797 5 MP
gs
PP
gr
DP
2 2 -2 2 -2 -2 2 -2 824 796 5 MP
gs
PP
gr
DP
2 2 -2 2 -2 -2 2 -2 825 795 5 MP
gs
PP
gr
DP
2 2 -2 2 -2 -2 2 -2 826 796 5 MP
gs
PP
gr
DP
2 2 -2 2 -2 -2 2 -2 827 793 5 MP
gs
PP
gr
DP
2 2 -2 2 -2 -2 2 -2 827 797 5 MP
gs
PP
gr
DP
2 2 -2 2 -2 -2 2 -2 828 794 5 MP
gs
PP
gr
DP
2 2 -2 2 -2 -2 2 -2 828 795 5 MP
gs
PP
gr
DP
2 2 -2 2 -2 -2 2 -2 829 784 5 MP
gs
PP
gr
DP
2 2 -2 2 -2 -2 2 -2 830 796 5 MP
gs
PP
gr
DP
2 2 -2 2 -2 -2 2 -2 830 795 5 MP
gs
PP
gr
DP
2 2 -2 2 -2 -2 2 -2 831 795 5 MP
gs
PP
gr
DP
2 2 -2 2 -2 -2 2 -2 832 793 5 MP
gs
PP
gr
DP
2 2 -2 2 -2 -2 2 -2 832 796 5 MP
gs
PP
gr
DP
2 2 -2 2 -2 -2 2 -2 833 792 5 MP
gs
PP
gr
DP
2 2 -2 2 -2 -2 2 -2 833 793 5 MP
gs
PP
gr
DP
2 2 -2 2 -2 -2 2 -2 834 796 5 MP
gs
PP
gr
DP
2 2 -2 2 -2 -2 2 -2 834 795 5 MP
gs
PP
gr
DP
2 2 -2 2 -2 -2 2 -2 835 791 5 MP
gs
PP
gr
DP
2 2 -2 2 -2 -2 2 -2 836 790 5 MP
gs
PP
gr
DP
2 2 -2 2 -2 -2 2 -2 837 797 5 MP
gs
PP
gr
DP
2 2 -2 2 -2 -2 2 -2 837 794 5 MP
gs
PP
gr
DP
2 2 -2 2 -2 -2 2 -2 837 784 5 MP
gs
PP
gr
DP
2 2 -2 2 -2 -2 2 -2 838 786 5 MP
gs
PP
gr
DP
2 2 -2 2 -2 -2 2 -2 838 793 5 MP
gs
PP
gr
DP
2 2 -2 2 -2 -2 2 -2 839 789 5 MP
gs
PP
gr
DP
2 2 -2 2 -2 -2 2 -2 839 785 5 MP
gs
PP
gr
DP
2 2 -2 2 -2 -2 2 -2 840 793 5 MP
gs
PP
gr
DP
2 2 -2 2 -2 -2 2 -2 840 796 5 MP
gs
PP
gr
DP
2 2 -2 2 -2 -2 2 -2 840 782 5 MP
gs
PP
gr
DP
2 2 -2 2 -2 -2 2 -2 841 796 5 MP
gs
PP
gr
DP
2 2 -2 2 -2 -2 2 -2 842 795 5 MP
gs
PP
gr
DP
2 2 -2 2 -2 -2 2 -2 843 794 5 MP
gs
PP
gr
DP
2 2 -2 2 -2 -2 2 -2 843 795 5 MP
gs
PP
gr
DP
2 2 -2 2 -2 -2 2 -2 844 792 5 MP
gs
PP
gr
DP
2 2 -2 2 -2 -2 2 -2 844 759 5 MP
gs
PP
gr
DP
2 2 -2 2 -2 -2 2 -2 845 751 5 MP
gs
PP
gr
DP
2 2 -2 2 -2 -2 2 -2 846 785 5 MP
gs
PP
gr
DP
2 2 -2 2 -2 -2 2 -2 847 791 5 MP
gs
PP
gr
DP
2 2 -2 2 -2 -2 2 -2 847 788 5 MP
gs
PP
gr
DP
2 2 -2 2 -2 -2 2 -2 848 793 5 MP
gs
PP
gr
DP
2 2 -2 2 -2 -2 2 -2 849 726 5 MP
gs
PP
gr
DP
2 2 -2 2 -2 -2 2 -2 849 788 5 MP
gs
PP
gr
DP
2 2 -2 2 -2 -2 2 -2 850 792 5 MP
gs
PP
gr
DP
2 2 -2 2 -2 -2 2 -2 850 794 5 MP
gs
PP
gr
DP
2 2 -2 2 -2 -2 2 -2 851 797 5 MP
gs
PP
gr
DP
2 2 -2 2 -2 -2 2 -2 851 792 5 MP
gs
PP
gr
DP
2 2 -2 2 -2 -2 2 -2 852 793 5 MP
gs
PP
gr
DP
2 2 -2 2 -2 -2 2 -2 852 744 5 MP
gs
PP
gr
DP
2 2 -2 2 -2 -2 2 -2 853 792 5 MP
gs
PP
gr
DP
2 2 -2 2 -2 -2 2 -2 853 795 5 MP
gs
PP
gr
DP
2 2 -2 2 -2 -2 2 -2 854 748 5 MP
gs
PP
gr
DP
2 2 -2 2 -2 -2 2 -2 854 780 5 MP
gs
PP
gr
DP
2 2 -2 2 -2 -2 2 -2 855 795 5 MP
gs
PP
gr
DP
2 2 -2 2 -2 -2 2 -2 855 780 5 MP
gs
PP
gr
DP
2 2 -2 2 -2 -2 2 -2 856 796 5 MP
gs
PP
gr
DP
2 2 -2 2 -2 -2 2 -2 857 796 5 MP
gs
PP
gr
DP
2 2 -2 2 -2 -2 2 -2 857 750 5 MP
gs
PP
gr
DP
2 2 -2 2 -2 -2 2 -2 858 789 5 MP
gs
PP
gr
DP
2 2 -2 2 -2 -2 2 -2 858 796 5 MP
gs
PP
gr
DP
2 2 -2 2 -2 -2 2 -2 858 789 5 MP
gs
PP
gr
DP
2 2 -2 2 -2 -2 2 -2 859 791 5 MP
gs
PP
gr
DP
2 2 -2 2 -2 -2 2 -2 859 781 5 MP
gs
PP
gr
DP
2 2 -2 2 -2 -2 2 -2 860 796 5 MP
gs
PP
gr
DP
2 2 -2 2 -2 -2 2 -2 860 797 5 MP
gs
PP
gr
DP
2 2 -2 2 -2 -2 2 -2 860 793 5 MP
gs
PP
gr
DP
2 2 -2 2 -2 -2 2 -2 861 777 5 MP
gs
PP
gr
DP
2 2 -2 2 -2 -2 2 -2 862 743 5 MP
gs
PP
gr
DP
2 2 -2 2 -2 -2 2 -2 862 792 5 MP
gs
PP
gr
DP
2 2 -2 2 -2 -2 2 -2 863 794 5 MP
gs
PP
gr
DP
2 2 -2 2 -2 -2 2 -2 864 795 5 MP
gs
PP
gr
DP
2 2 -2 2 -2 -2 2 -2 865 781 5 MP
gs
PP
gr
DP
2 2 -2 2 -2 -2 2 -2 865 795 5 MP
gs
PP
gr
DP
2 2 -2 2 -2 -2 2 -2 866 795 5 MP
gs
PP
gr
DP
2 2 -2 2 -2 -2 2 -2 866 793 5 MP
gs
PP
gr
DP
2 2 -2 2 -2 -2 2 -2 866 795 5 MP
gs
PP
gr
DP
2 2 -2 2 -2 -2 2 -2 867 720 5 MP
gs
PP
gr
DP
2 2 -2 2 -2 -2 2 -2 867 777 5 MP
gs
PP
gr
DP
2 2 -2 2 -2 -2 2 -2 868 791 5 MP
gs
PP
gr
DP
2 2 -2 2 -2 -2 2 -2 868 794 5 MP
gs
PP
gr
DP
2 2 -2 2 -2 -2 2 -2 869 727 5 MP
gs
PP
gr
DP
2 2 -2 2 -2 -2 2 -2 869 787 5 MP
gs
PP
gr
DP
2 2 -2 2 -2 -2 2 -2 870 684 5 MP
gs
PP
gr
DP
2 2 -2 2 -2 -2 2 -2 871 775 5 MP
gs
PP
gr
DP
2 2 -2 2 -2 -2 2 -2 871 792 5 MP
gs
PP
gr
DP
2 2 -2 2 -2 -2 2 -2 872 795 5 MP
gs
PP
gr
DP
2 2 -2 2 -2 -2 2 -2 872 788 5 MP
gs
PP
gr
DP
2 2 -2 2 -2 -2 2 -2 873 685 5 MP
gs
PP
gr
DP
2 2 -2 2 -2 -2 2 -2 873 789 5 MP
gs
PP
gr
DP
2 2 -2 2 -2 -2 2 -2 874 793 5 MP
gs
PP
gr
DP
2 2 -2 2 -2 -2 2 -2 874 791 5 MP
gs
PP
gr
DP
2 2 -2 2 -2 -2 2 -2 875 794 5 MP
gs
PP
gr
DP
2 2 -2 2 -2 -2 2 -2 876 793 5 MP
gs
PP
gr
DP
2 2 -2 2 -2 -2 2 -2 877 788 5 MP
gs
PP
gr
DP
2 2 -2 2 -2 -2 2 -2 877 796 5 MP
gs
PP
gr
DP
2 2 -2 2 -2 -2 2 -2 878 592 5 MP
gs
PP
gr
DP
2 2 -2 2 -2 -2 2 -2 878 790 5 MP
gs
PP
gr
DP
2 2 -2 2 -2 -2 2 -2 879 791 5 MP
gs
PP
gr
DP
2 2 -2 2 -2 -2 2 -2 879 793 5 MP
gs
PP
gr
DP
2 2 -2 2 -2 -2 2 -2 880 797 5 MP
gs
PP
gr
DP
2 2 -2 2 -2 -2 2 -2 881 796 5 MP
gs
PP
gr
DP
2 2 -2 2 -2 -2 2 -2 882 793 5 MP
gs
PP
gr
DP
2 2 -2 2 -2 -2 2 -2 882 797 5 MP
gs
PP
gr
DP
2 2 -2 2 -2 -2 2 -2 883 793 5 MP
gs
PP
gr
DP
2 2 -2 2 -2 -2 2 -2 883 795 5 MP
gs
PP
gr
DP
2 2 -2 2 -2 -2 2 -2 884 796 5 MP
gs
PP
gr
DP
2 2 -2 2 -2 -2 2 -2 884 795 5 MP
gs
PP
gr
DP
2 2 -2 2 -2 -2 2 -2 885 795 5 MP
gs
PP
gr
DP
2 2 -2 2 -2 -2 2 -2 885 794 5 MP
gs
PP
gr
DP
2 2 -2 2 -2 -2 2 -2 886 792 5 MP
gs
PP
gr
DP
2 2 -2 2 -2 -2 2 -2 887 795 5 MP
gs
PP
gr
DP
2 2 -2 2 -2 -2 2 -2 887 794 5 MP
gs
PP
gr
DP
2 2 -2 2 -2 -2 2 -2 887 793 5 MP
gs
PP
gr
DP
2 2 -2 2 -2 -2 2 -2 888 794 5 MP
gs
PP
gr
DP
2 2 -2 2 -2 -2 2 -2 888 791 5 MP
gs
PP
gr
DP
2 2 -2 2 -2 -2 2 -2 888 796 5 MP
gs
PP
gr
DP
2 2 -2 2 -2 -2 2 -2 889 791 5 MP
gs
PP
gr
DP
2 2 -2 2 -2 -2 2 -2 889 793 5 MP
gs
PP
gr
DP
2 2 -2 2 -2 -2 2 -2 889 787 5 MP
gs
PP
gr
DP
2 2 -2 2 -2 -2 2 -2 889 795 5 MP
gs
PP
gr
DP
2 2 -2 2 -2 -2 2 -2 890 795 5 MP
gs
PP
gr
DP
2 2 -2 2 -2 -2 2 -2 890 693 5 MP
gs
PP
gr
DP
2 2 -2 2 -2 -2 2 -2 890 796 5 MP
gs
PP
gr
DP
2 2 -2 2 -2 -2 2 -2 891 795 5 MP
gs
PP
gr
DP
2 2 -2 2 -2 -2 2 -2 891 784 5 MP
gs
PP
gr
DP
2 2 -2 2 -2 -2 2 -2 892 695 5 MP
gs
PP
gr
DP
2 2 -2 2 -2 -2 2 -2 892 797 5 MP
gs
PP
gr
DP
2 2 -2 2 -2 -2 2 -2 893 796 5 MP
gs
PP
gr
DP
2 2 -2 2 -2 -2 2 -2 893 793 5 MP
gs
PP
gr
DP
2 2 -2 2 -2 -2 2 -2 893 795 5 MP
gs
PP
gr
DP
2 2 -2 2 -2 -2 2 -2 894 795 5 MP
gs
PP
gr
DP
2 2 -2 2 -2 -2 2 -2 894 794 5 MP
gs
PP
gr
DP
2 2 -2 2 -2 -2 2 -2 894 796 5 MP
gs
PP
gr
DP
2 2 -2 2 -2 -2 2 -2 895 734 5 MP
gs
PP
gr
DP
2 2 -2 2 -2 -2 2 -2 895 775 5 MP
gs
PP
gr
DP
2 2 -2 2 -2 -2 2 -2 895 791 5 MP
gs
PP
gr
DP
2 2 -2 2 -2 -2 2 -2 896 794 5 MP
gs
PP
gr
DP
2 2 -2 2 -2 -2 2 -2 897 794 5 MP
gs
PP
gr
DP
2 2 -2 2 -2 -2 2 -2 898 795 5 MP
gs
PP
gr
DP
2 2 -2 2 -2 -2 2 -2 898 749 5 MP
gs
PP
gr
DP
2 2 -2 2 -2 -2 2 -2 898 794 5 MP
gs
PP
gr
DP
2 2 -2 2 -2 -2 2 -2 899 772 5 MP
gs
PP
gr
DP
2 2 -2 2 -2 -2 2 -2 899 612 5 MP
gs
PP
gr
DP
2 2 -2 2 -2 -2 2 -2 899 793 5 MP
gs
PP
gr
DP
2 2 -2 2 -2 -2 2 -2 900 795 5 MP
gs
PP
gr
DP
2 2 -2 2 -2 -2 2 -2 900 791 5 MP
gs
PP
gr
DP
2 2 -2 2 -2 -2 2 -2 900 788 5 MP
gs
PP
gr
DP
2 2 -2 2 -2 -2 2 -2 900 795 5 MP
gs
PP
gr
DP
2 2 -2 2 -2 -2 2 -2 901 792 5 MP
gs
PP
gr
DP
2 2 -2 2 -2 -2 2 -2 901 796 5 MP
gs
PP
gr
DP
2 2 -2 2 -2 -2 2 -2 901 794 5 MP
gs
PP
gr
DP
2 2 -2 2 -2 -2 2 -2 901 779 5 MP
gs
PP
gr
DP
2 2 -2 2 -2 -2 2 -2 902 795 5 MP
gs
PP
gr
DP
2 2 -2 2 -2 -2 2 -2 902 793 5 MP
gs
PP
gr
DP
2 2 -2 2 -2 -2 2 -2 903 793 5 MP
gs
PP
gr
DP
2 2 -2 2 -2 -2 2 -2 903 783 5 MP
gs
PP
gr
DP
2 2 -2 2 -2 -2 2 -2 904 796 5 MP
gs
PP
gr
DP
2 2 -2 2 -2 -2 2 -2 904 795 5 MP
gs
PP
gr
DP
2 2 -2 2 -2 -2 2 -2 905 795 5 MP
gs
PP
gr
DP
2 2 -2 2 -2 -2 2 -2 905 797 5 MP
gs
PP
gr
DP
2 2 -2 2 -2 -2 2 -2 906 796 5 MP
gs
PP
gr
DP
2 2 -2 2 -2 -2 2 -2 906 788 5 MP
gs
PP
gr
DP
2 2 -2 2 -2 -2 2 -2 907 788 5 MP
gs
PP
gr
DP
2 2 -2 2 -2 -2 2 -2 907 754 5 MP
gs
PP
gr
DP
2 2 -2 2 -2 -2 2 -2 908 770 5 MP
gs
PP
gr
DP
2 2 -2 2 -2 -2 2 -2 908 733 5 MP
gs
PP
gr
DP
2 2 -2 2 -2 -2 2 -2 908 793 5 MP
gs
PP
gr
DP
2 2 -2 2 -2 -2 2 -2 909 784 5 MP
gs
PP
gr
DP
2 2 -2 2 -2 -2 2 -2 910 776 5 MP
gs
PP
gr
DP
2 2 -2 2 -2 -2 2 -2 910 796 5 MP
gs
PP
gr
DP
2 2 -2 2 -2 -2 2 -2 910 788 5 MP
gs
PP
gr
DP
2 2 -2 2 -2 -2 2 -2 911 795 5 MP
gs
PP
gr
DP
2 2 -2 2 -2 -2 2 -2 912 761 5 MP
gs
PP
gr
DP
2 2 -2 2 -2 -2 2 -2 912 799 5 MP
gs
PP
gr
DP
2 2 -2 2 -2 -2 2 -2 912 796 5 MP
gs
PP
gr
DP
2 2 -2 2 -2 -2 2 -2 913 795 5 MP
gs
PP
gr
DP
2 2 -2 2 -2 -2 2 -2 914 797 5 MP
gs
PP
gr
DP
2 2 -2 2 -2 -2 2 -2 915 773 5 MP
gs
PP
gr
DP
2 2 -2 2 -2 -2 2 -2 915 794 5 MP
gs
PP
gr
DP
2 2 -2 2 -2 -2 2 -2 915 793 5 MP
gs
PP
gr
DP
2 2 -2 2 -2 -2 2 -2 915 795 5 MP
gs
PP
gr
DP
2 2 -2 2 -2 -2 2 -2 916 794 5 MP
gs
PP
gr
DP
2 2 -2 2 -2 -2 2 -2 917 781 5 MP
gs
PP
gr
DP
2 2 -2 2 -2 -2 2 -2 918 501 5 MP
gs
PP
gr
DP
2 2 -2 2 -2 -2 2 -2 918 797 5 MP
gs
PP
gr
DP
2 2 -2 2 -2 -2 2 -2 919 768 5 MP
gs
PP
gr
DP
2 2 -2 2 -2 -2 2 -2 920 754 5 MP
gs
PP
gr
DP
2 2 -2 2 -2 -2 2 -2 921 793 5 MP
gs
PP
gr
DP
2 2 -2 2 -2 -2 2 -2 921 794 5 MP
gs
PP
gr
DP
2 2 -2 2 -2 -2 2 -2 922 787 5 MP
gs
PP
gr
DP
2 2 -2 2 -2 -2 2 -2 922 790 5 MP
gs
PP
gr
DP
2 2 -2 2 -2 -2 2 -2 922 783 5 MP
gs
PP
gr
DP
2 2 -2 2 -2 -2 2 -2 923 771 5 MP
gs
PP
gr
DP
2 2 -2 2 -2 -2 2 -2 923 780 5 MP
gs
PP
gr
DP
2 2 -2 2 -2 -2 2 -2 924 794 5 MP
gs
PP
gr
DP
2 2 -2 2 -2 -2 2 -2 924 797 5 MP
gs
PP
gr
DP
2 2 -2 2 -2 -2 2 -2 924 796 5 MP
gs
PP
gr
DP
2 2 -2 2 -2 -2 2 -2 924 794 5 MP
gs
PP
gr
DP
2 2 -2 2 -2 -2 2 -2 924 797 5 MP
gs
PP
gr
DP
2 2 -2 2 -2 -2 2 -2 925 796 5 MP
gs
PP
gr
DP
2 2 -2 2 -2 -2 2 -2 926 794 5 MP
gs
PP
gr
DP
2 2 -2 2 -2 -2 2 -2 926 796 5 MP
gs
PP
gr
DP
2 2 -2 2 -2 -2 2 -2 927 795 5 MP
gs
PP
gr
DP
2 2 -2 2 -2 -2 2 -2 927 793 5 MP
gs
PP
gr
DP
2 2 -2 2 -2 -2 2 -2 928 788 5 MP
gs
PP
gr
DP
2 2 -2 2 -2 -2 2 -2 928 796 5 MP
gs
PP
gr
DP
2 2 -2 2 -2 -2 2 -2 929 793 5 MP
gs
PP
gr
DP
2 2 -2 2 -2 -2 2 -2 929 781 5 MP
gs
PP
gr
DP
2 2 -2 2 -2 -2 2 -2 930 785 5 MP
gs
PP
gr
DP
2 2 -2 2 -2 -2 2 -2 930 794 5 MP
gs
PP
gr
DP
2 2 -2 2 -2 -2 2 -2 931 796 5 MP
gs
PP
gr
DP
2 2 -2 2 -2 -2 2 -2 931 791 5 MP
gs
PP
gr
DP
2 2 -2 2 -2 -2 2 -2 932 566 5 MP
gs
PP
gr
DP
2 2 -2 2 -2 -2 2 -2 932 767 5 MP
gs
PP
gr
DP
2 2 -2 2 -2 -2 2 -2 932 797 5 MP
gs
PP
gr
DP
2 2 -2 2 -2 -2 2 -2 933 785 5 MP
gs
PP
gr
DP
2 2 -2 2 -2 -2 2 -2 933 777 5 MP
gs
PP
gr
DP
2 2 -2 2 -2 -2 2 -2 934 785 5 MP
gs
PP
gr
DP
2 2 -2 2 -2 -2 2 -2 934 795 5 MP
gs
PP
gr
DP
2 2 -2 2 -2 -2 2 -2 935 793 5 MP
gs
PP
gr
DP
2 2 -2 2 -2 -2 2 -2 935 796 5 MP
gs
PP
gr
DP
2 2 -2 2 -2 -2 2 -2 936 795 5 MP
gs
PP
gr
DP
2 2 -2 2 -2 -2 2 -2 936 790 5 MP
gs
PP
gr
DP
2 2 -2 2 -2 -2 2 -2 936 782 5 MP
gs
PP
gr
DP
2 2 -2 2 -2 -2 2 -2 937 796 5 MP
gs
PP
gr
DP
2 2 -2 2 -2 -2 2 -2 937 792 5 MP
gs
PP
gr
DP
2 2 -2 2 -2 -2 2 -2 938 781 5 MP
gs
PP
gr
DP
2 2 -2 2 -2 -2 2 -2 939 787 5 MP
gs
PP
gr
DP
2 2 -2 2 -2 -2 2 -2 939 796 5 MP
gs
PP
gr
DP
2 2 -2 2 -2 -2 2 -2 940 797 5 MP
gs
PP
gr
DP
2 2 -2 2 -2 -2 2 -2 941 795 5 MP
gs
PP
gr
DP
2 2 -2 2 -2 -2 2 -2 941 797 5 MP
gs
PP
gr
DP
2 2 -2 2 -2 -2 2 -2 942 797 5 MP
gs
PP
gr
DP
2 2 -2 2 -2 -2 2 -2 942 796 5 MP
gs
PP
gr
DP
2 2 -2 2 -2 -2 2 -2 943 794 5 MP
gs
PP
gr
DP
2 2 -2 2 -2 -2 2 -2 944 795 5 MP
gs
PP
gr
DP
2 2 -2 2 -2 -2 2 -2 944 792 5 MP
gs
PP
gr
DP
2 2 -2 2 -2 -2 2 -2 945 795 5 MP
gs
PP
gr
DP
2 2 -2 2 -2 -2 2 -2 945 792 5 MP
gs
PP
gr
DP
2 2 -2 2 -2 -2 2 -2 946 794 5 MP
gs
PP
gr
DP
2 2 -2 2 -2 -2 2 -2 946 796 5 MP
gs
PP
gr
DP
2 2 -2 2 -2 -2 2 -2 947 787 5 MP
gs
PP
gr
DP
2 2 -2 2 -2 -2 2 -2 947 796 5 MP
gs
PP
gr
DP
2 2 -2 2 -2 -2 2 -2 948 793 5 MP
gs
PP
gr
DP
2 2 -2 2 -2 -2 2 -2 948 795 5 MP
gs
PP
gr
DP
2 2 -2 2 -2 -2 2 -2 949 793 5 MP
gs
PP
gr
DP
2 2 -2 2 -2 -2 2 -2 949 757 5 MP
gs
PP
gr
DP
2 2 -2 2 -2 -2 2 -2 949 795 5 MP
gs
PP
gr
DP
2 2 -2 2 -2 -2 2 -2 949 791 5 MP
gs
PP
gr
DP
2 2 -2 2 -2 -2 2 -2 949 796 5 MP
gs
PP
gr
DP
2 2 -2 2 -2 -2 2 -2 949 795 5 MP
gs
PP
gr
DP
2 2 -2 2 -2 -2 2 -2 949 788 5 MP
gs
PP
gr
DP
2 2 -2 2 -2 -2 2 -2 950 794 5 MP
gs
PP
gr
DP
2 2 -2 2 -2 -2 2 -2 950 789 5 MP
gs
PP
gr
DP
2 2 -2 2 -2 -2 2 -2 952 787 5 MP
gs
PP
gr
DP
2 2 -2 2 -2 -2 2 -2 953 790 5 MP
gs
PP
gr
DP
2 2 -2 2 -2 -2 2 -2 955 795 5 MP
gs
PP
gr
DP
2 2 -2 2 -2 -2 2 -2 956 794 5 MP
gs
PP
gr
DP
2 2 -2 2 -2 -2 2 -2 956 790 5 MP
gs
PP
gr
DP
2 2 -2 2 -2 -2 2 -2 957 789 5 MP
gs
PP
gr
DP
2 2 -2 2 -2 -2 2 -2 958 785 5 MP
gs
PP
gr
DP
2 2 -2 2 -2 -2 2 -2 958 789 5 MP
gs
PP
gr
DP
2 2 -2 2 -2 -2 2 -2 959 795 5 MP
gs
PP
gr
DP
2 2 -2 2 -2 -2 2 -2 960 782 5 MP
gs
PP
gr
DP
2 2 -2 2 -2 -2 2 -2 961 791 5 MP
gs
PP
gr
DP
2 2 -2 2 -2 -2 2 -2 961 792 5 MP
gs
PP
gr
DP
2 2 -2 2 -2 -2 2 -2 962 785 5 MP
gs
PP
gr
DP
2 2 -2 2 -2 -2 2 -2 963 785 5 MP
gs
PP
gr
DP
2 2 -2 2 -2 -2 2 -2 963 795 5 MP
gs
PP
gr
DP
2 2 -2 2 -2 -2 2 -2 964 793 5 MP
gs
PP
gr
DP
2 2 -2 2 -2 -2 2 -2 965 797 5 MP
gs
PP
gr
DP
2 2 -2 2 -2 -2 2 -2 966 794 5 MP
gs
PP
gr
DP
2 2 -2 2 -2 -2 2 -2 967 796 5 MP
gs
PP
gr
DP
2 2 -2 2 -2 -2 2 -2 967 795 5 MP
gs
PP
gr
DP
2 2 -2 2 -2 -2 2 -2 968 791 5 MP
gs
PP
gr
DP
2 2 -2 2 -2 -2 2 -2 968 785 5 MP
gs
PP
gr
DP
2 2 -2 2 -2 -2 2 -2 970 793 5 MP
gs
PP
gr
DP
2 2 -2 2 -2 -2 2 -2 970 785 5 MP
gs
PP
gr
DP
2 2 -2 2 -2 -2 2 -2 971 786 5 MP
gs
PP
gr
DP
2 2 -2 2 -2 -2 2 -2 972 796 5 MP
gs
PP
gr
DP
2 2 -2 2 -2 -2 2 -2 972 792 5 MP
gs
PP
gr
DP
2 2 -2 2 -2 -2 2 -2 973 790 5 MP
gs
PP
gr
DP
2 2 -2 2 -2 -2 2 -2 974 788 5 MP
gs
PP
gr
DP
2 2 -2 2 -2 -2 2 -2 974 790 5 MP
gs
PP
gr
DP
2 2 -2 2 -2 -2 2 -2 975 796 5 MP
gs
PP
gr
DP
2 2 -2 2 -2 -2 2 -2 975 794 5 MP
gs
PP
gr
DP
2 2 -2 2 -2 -2 2 -2 976 795 5 MP
gs
PP
gr
DP
2 2 -2 2 -2 -2 2 -2 977 793 5 MP
gs
PP
gr
DP
2 2 -2 2 -2 -2 2 -2 977 722 5 MP
gs
PP
gr
DP
2 2 -2 2 -2 -2 2 -2 978 751 5 MP
gs
PP
gr
DP
2 2 -2 2 -2 -2 2 -2 978 795 5 MP
gs
PP
gr
DP
2 2 -2 2 -2 -2 2 -2 979 795 5 MP
gs
PP
gr
DP
2 2 -2 2 -2 -2 2 -2 980 794 5 MP
gs
PP
gr
DP
2 2 -2 2 -2 -2 2 -2 980 793 5 MP
gs
PP
gr
DP
2 2 -2 2 -2 -2 2 -2 981 795 5 MP
gs
PP
gr
DP
2 2 -2 2 -2 -2 2 -2 982 792 5 MP
gs
PP
gr
DP
2 2 -2 2 -2 -2 2 -2 982 796 5 MP
gs
PP
gr
DP
2 2 -2 2 -2 -2 2 -2 983 789 5 MP
gs
PP
gr
DP
2 2 -2 2 -2 -2 2 -2 984 794 5 MP
gs
PP
gr
DP
2 2 -2 2 -2 -2 2 -2 985 788 5 MP
gs
PP
gr
DP
2 2 -2 2 -2 -2 2 -2 985 792 5 MP
gs
PP
gr
DP
2 2 -2 2 -2 -2 2 -2 986 797 5 MP
gs
PP
gr
DP
2 2 -2 2 -2 -2 2 -2 987 782 5 MP
gs
PP
gr
DP
2 2 -2 2 -2 -2 2 -2 987 784 5 MP
gs
PP
gr
DP
2 2 -2 2 -2 -2 2 -2 988 794 5 MP
gs
PP
gr
DP
2 2 -2 2 -2 -2 2 -2 989 635 5 MP
gs
PP
gr
DP
2 2 -2 2 -2 -2 2 -2 989 592 5 MP
gs
PP
gr
DP
2 2 -2 2 -2 -2 2 -2 990 796 5 MP
gs
PP
gr
DP
2 2 -2 2 -2 -2 2 -2 991 794 5 MP
gs
PP
gr
DP
2 2 -2 2 -2 -2 2 -2 991 795 5 MP
gs
PP
gr
DP
2 2 -2 2 -2 -2 2 -2 992 796 5 MP
gs
PP
gr
DP
2 2 -2 2 -2 -2 2 -2 993 796 5 MP
gs
PP
gr
DP
2 2 -2 2 -2 -2 2 -2 993 794 5 MP
gs
PP
gr
DP
2 2 -2 2 -2 -2 2 -2 994 778 5 MP
gs
PP
gr
DP
2 2 -2 2 -2 -2 2 -2 995 796 5 MP
gs
PP
gr
DP
2 2 -2 2 -2 -2 2 -2 995 794 5 MP
gs
PP
gr
DP
2 2 -2 2 -2 -2 2 -2 996 795 5 MP
gs
PP
gr
DP
2 2 -2 2 -2 -2 2 -2 997 794 5 MP
gs
PP
gr
DP
2 2 -2 2 -2 -2 2 -2 998 792 5 MP
gs
PP
gr
DP
2 2 -2 2 -2 -2 2 -2 998 795 5 MP
gs
PP
gr
DP
2 2 -2 2 -2 -2 2 -2 1000 793 5 MP
gs
PP
gr
DP
2 2 -2 2 -2 -2 2 -2 1000 795 5 MP
gs
PP
gr
DP
2 2 -2 2 -2 -2 2 -2 1000 768 5 MP
gs
PP
gr
DP
2 2 -2 2 -2 -2 2 -2 1001 796 5 MP
gs
PP
gr
DP
2 2 -2 2 -2 -2 2 -2 1001 789 5 MP
gs
PP
gr
DP
2 2 -2 2 -2 -2 2 -2 1002 795 5 MP
gs
PP
gr
DP
2 2 -2 2 -2 -2 2 -2 1003 758 5 MP
gs
PP
gr
DP
2 2 -2 2 -2 -2 2 -2 1003 783 5 MP
gs
PP
gr
DP
2 2 -2 2 -2 -2 2 -2 1004 794 5 MP
gs
PP
gr
DP
2 2 -2 2 -2 -2 2 -2 1005 789 5 MP
gs
PP
gr
DP
2 2 -2 2 -2 -2 2 -2 1005 794 5 MP
gs
PP
gr
DP
2 2 -2 2 -2 -2 2 -2 1005 785 5 MP
gs
PP
gr
DP
2 2 -2 2 -2 -2 2 -2 1006 787 5 MP
gs
PP
gr
DP
2 2 -2 2 -2 -2 2 -2 1006 791 5 MP
gs
PP
gr
DP
2 2 -2 2 -2 -2 2 -2 1006 792 5 MP
gs
PP
gr
DP
2 2 -2 2 -2 -2 2 -2 1006 791 5 MP
gs
PP
gr
DP
2 2 -2 2 -2 -2 2 -2 1007 795 5 MP
gs
PP
gr
DP
2 2 -2 2 -2 -2 2 -2 1007 790 5 MP
gs
PP
gr
DP
2 2 -2 2 -2 -2 2 -2 1007 796 5 MP
gs
PP
gr
DP
2 2 -2 2 -2 -2 2 -2 1008 792 5 MP
gs
PP
gr
DP
2 2 -2 2 -2 -2 2 -2 1008 782 5 MP
gs
PP
gr
DP
2 2 -2 2 -2 -2 2 -2 1008 700 5 MP
gs
PP
gr
DP
2 2 -2 2 -2 -2 2 -2 1008 560 5 MP
gs
PP
gr
DP
2 2 -2 2 -2 -2 2 -2 1008 603 5 MP
gs
PP
gr
DP
2 2 -2 2 -2 -2 2 -2 1008 796 5 MP
gs
PP
gr
DP
2 2 -2 2 -2 -2 2 -2 1009 777 5 MP
gs
PP
gr
DP
2 2 -2 2 -2 -2 2 -2 1009 795 5 MP
gs
PP
gr
DP
2 2 -2 2 -2 -2 2 -2 1009 762 5 MP
gs
PP
gr
DP
2 2 -2 2 -2 -2 2 -2 1009 700 5 MP
gs
PP
gr
DP
2 2 -2 2 -2 -2 2 -2 1010 691 5 MP
gs
PP
gr
DP
2 2 -2 2 -2 -2 2 -2 1011 764 5 MP
gs
PP
gr
DP
2 2 -2 2 -2 -2 2 -2 1011 788 5 MP
gs
PP
gr
DP
2 2 -2 2 -2 -2 2 -2 1011 798 5 MP
gs
PP
gr
DP
2 2 -2 2 -2 -2 2 -2 1011 795 5 MP
gs
PP
gr
DP
2 2 -2 2 -2 -2 2 -2 1012 798 5 MP
gs
PP
gr
DP
2 2 -2 2 -2 -2 2 -2 1012 796 5 MP
gs
PP
gr
DP
2 2 -2 2 -2 -2 2 -2 1012 794 5 MP
gs
PP
gr
DP
2 2 -2 2 -2 -2 2 -2 1012 797 5 MP
gs
PP
gr
DP
2 2 -2 2 -2 -2 2 -2 1012 795 5 MP
gs
PP
gr
DP
2 2 -2 2 -2 -2 2 -2 1013 796 5 MP
gs
PP
gr
DP
2 2 -2 2 -2 -2 2 -2 1013 794 5 MP
gs
PP
gr
DP
2 2 -2 2 -2 -2 2 -2 1013 796 5 MP
gs
PP
gr
DP
2 2 -2 2 -2 -2 2 -2 1014 795 5 MP
gs
PP
gr
DP
2 2 -2 2 -2 -2 2 -2 1015 792 5 MP
gs
PP
gr
DP
2 2 -2 2 -2 -2 2 -2 1015 796 5 MP
gs
PP
gr
DP
2 2 -2 2 -2 -2 2 -2 1016 792 5 MP
gs
PP
gr
DP
2 2 -2 2 -2 -2 2 -2 1016 794 5 MP
gs
PP
gr
DP
2 2 -2 2 -2 -2 2 -2 1016 797 5 MP
gs
PP
gr
DP
2 2 -2 2 -2 -2 2 -2 1017 795 5 MP
gs
PP
gr
DP
2 2 -2 2 -2 -2 2 -2 1017 768 5 MP
gs
PP
gr
DP
2 2 -2 2 -2 -2 2 -2 1017 794 5 MP
gs
PP
gr
DP
2 2 -2 2 -2 -2 2 -2 1017 776 5 MP
gs
PP
gr
DP
gr

gs 156 68 931 734 MR c np
gr

 564   54 mt 
(144-4 Site1) s
 551  851 mt 
(Time \(Minutes\)) s
 108  456 mt  -90 rotate
(Te \(\)) s
90 rotate
1.04167 w

end %%Color Dict

eplot
%%EndObject

epage
end

showpage

%%Trailer
%%EOF
