%!PS-Adobe-2.0 EPSF-1.2
%%Creator: MATLAB, The Mathworks, Inc. Version 7.4.0.287 (R2007a). Operating System: Microsoft Windows 2000.
%%Title: D:\contract work\KatzData\Results\Stanford 12 New Buxco Setting_190- Variable -- Te Time -- 9000-9435.4.eps
%%CreationDate: 09/08/2010  20:59:25
%%DocumentNeededFonts: Helvetica
%%DocumentProcessColors: Cyan Magenta Yellow Black
%%Pages: 1
%%BoundingBox:    57   199   550   601
%%EndComments

%%BeginProlog
% MathWorks dictionary
/MathWorks 160 dict begin
% definition operators
/bdef {bind def} bind def
/ldef {load def} bind def
/xdef {exch def} bdef
/xstore {exch store} bdef
% operator abbreviations
/c  /clip ldef
/cc /concat ldef
/cp /closepath ldef
/gr /grestore ldef
/gs /gsave ldef
/mt /moveto ldef
/np /newpath ldef
/cm /currentmatrix ldef
/sm /setmatrix ldef
/rm /rmoveto ldef
/rl /rlineto ldef
/s {show newpath} bdef
/sc {setcmykcolor} bdef
/sr /setrgbcolor ldef
/sg /setgray ldef
/w /setlinewidth ldef
/j /setlinejoin ldef
/cap /setlinecap ldef
/rc {rectclip} bdef
/rf {rectfill} bdef
% page state control
/pgsv () def
/bpage {/pgsv save def} bdef
/epage {pgsv restore} bdef
/bplot /gsave ldef
/eplot {stroke grestore} bdef
% orientation switch
/portraitMode 0 def /landscapeMode 1 def /rotateMode 2 def
% coordinate system mappings
/dpi2point 0 def
% font control
/FontSize 0 def
/FMS {/FontSize xstore findfont [FontSize 0 0 FontSize neg 0 0]
  makefont setfont} bdef
/ISOLatin1Encoding where {pop /WindowsLatin1Encoding 256 array bdef
ISOLatin1Encoding WindowsLatin1Encoding copy pop
/.notdef/.notdef/quotesinglbase/florin/quotedblbase/ellipsis/dagger
/daggerdbl/circumflex/perthousand/Scaron/guilsinglleft/OE/.notdef/.notdef
/.notdef/.notdef/quoteleft/quoteright/quotedblleft/quotedblright/bullet
/endash/emdash/tilde/trademark/scaron/guilsinglright/oe/.notdef/.notdef
/Ydieresis WindowsLatin1Encoding 128 32 getinterval astore pop}
{/WindowsLatin1Encoding StandardEncoding bdef} ifelse
/reencode {exch dup where {pop load} {pop StandardEncoding} ifelse
  exch dup 3 1 roll findfont dup length dict begin
  { 1 index /FID ne {def}{pop pop} ifelse } forall
  /Encoding exch def currentdict end definefont pop} bdef
/isroman {findfont /CharStrings get /Agrave known} bdef
/FMSR {3 1 roll 1 index dup isroman {reencode} {pop pop} ifelse
  exch FMS} bdef
/csm {1 dpi2point div -1 dpi2point div scale neg translate
 dup landscapeMode eq {pop -90 rotate}
  {rotateMode eq {90 rotate} if} ifelse} bdef
% line types: solid, dotted, dashed, dotdash
/SO { [] 0 setdash } bdef
/DO { [.5 dpi2point mul 4 dpi2point mul] 0 setdash } bdef
/DA { [6 dpi2point mul] 0 setdash } bdef
/DD { [.5 dpi2point mul 4 dpi2point mul 6 dpi2point mul 4
  dpi2point mul] 0 setdash } bdef
% macros for lines and objects
/L {lineto stroke} bdef
/MP {3 1 roll moveto 1 sub {rlineto} repeat} bdef
/AP {{rlineto} repeat} bdef
/PDlw -1 def
/W {/PDlw currentlinewidth def setlinewidth} def
/PP {closepath eofill} bdef
/DP {closepath stroke} bdef
/MR {4 -2 roll moveto dup  0 exch rlineto exch 0 rlineto
  neg 0 exch rlineto closepath} bdef
/FR {MR stroke} bdef
/PR {MR fill} bdef
/L1i {{currentfile picstr readhexstring pop} image} bdef
/tMatrix matrix def
/MakeOval {newpath tMatrix currentmatrix pop translate scale
0 0 1 0 360 arc tMatrix setmatrix} bdef
/FO {MakeOval stroke} bdef
/PO {MakeOval fill} bdef
/PD {currentlinewidth 2 div 0 360 arc fill
   PDlw -1 eq not {PDlw w /PDlw -1 def} if} def
/FA {newpath tMatrix currentmatrix pop translate scale
  0 0 1 5 -2 roll arc tMatrix setmatrix stroke} bdef
/PA {newpath tMatrix currentmatrix pop	translate 0 0 moveto scale
  0 0 1 5 -2 roll arc closepath tMatrix setmatrix fill} bdef
/FAn {newpath tMatrix currentmatrix pop translate scale
  0 0 1 5 -2 roll arcn tMatrix setmatrix stroke} bdef
/PAn {newpath tMatrix currentmatrix pop translate 0 0 moveto scale
  0 0 1 5 -2 roll arcn closepath tMatrix setmatrix fill} bdef
/vradius 0 def /hradius 0 def /lry 0 def
/lrx 0 def /uly 0 def /ulx 0 def /rad 0 def
/MRR {/vradius xdef /hradius xdef /lry xdef /lrx xdef /uly xdef
  /ulx xdef newpath tMatrix currentmatrix pop ulx hradius add uly
  vradius add translate hradius vradius scale 0 0 1 180 270 arc 
  tMatrix setmatrix lrx hradius sub uly vradius add translate
  hradius vradius scale 0 0 1 270 360 arc tMatrix setmatrix
  lrx hradius sub lry vradius sub translate hradius vradius scale
  0 0 1 0 90 arc tMatrix setmatrix ulx hradius add lry vradius sub
  translate hradius vradius scale 0 0 1 90 180 arc tMatrix setmatrix
  closepath} bdef
/FRR {MRR stroke } bdef
/PRR {MRR fill } bdef
/MlrRR {/lry xdef /lrx xdef /uly xdef /ulx xdef /rad lry uly sub 2 div def
  newpath tMatrix currentmatrix pop ulx rad add uly rad add translate
  rad rad scale 0 0 1 90 270 arc tMatrix setmatrix lrx rad sub lry rad
  sub translate rad rad scale 0 0 1 270 90 arc tMatrix setmatrix
  closepath} bdef
/FlrRR {MlrRR stroke } bdef
/PlrRR {MlrRR fill } bdef
/MtbRR {/lry xdef /lrx xdef /uly xdef /ulx xdef /rad lrx ulx sub 2 div def
  newpath tMatrix currentmatrix pop ulx rad add uly rad add translate
  rad rad scale 0 0 1 180 360 arc tMatrix setmatrix lrx rad sub lry rad
  sub translate rad rad scale 0 0 1 0 180 arc tMatrix setmatrix
  closepath} bdef
/FtbRR {MtbRR stroke } bdef
/PtbRR {MtbRR fill } bdef
/stri 6 array def /dtri 6 array def
/smat 6 array def /dmat 6 array def
/tmat1 6 array def /tmat2 6 array def /dif 3 array def
/asub {/ind2 exch def /ind1 exch def dup dup
  ind1 get exch ind2 get sub exch } bdef
/tri_to_matrix {
  2 0 asub 3 1 asub 4 0 asub 5 1 asub
  dup 0 get exch 1 get 7 -1 roll astore } bdef
/compute_transform {
  dmat dtri tri_to_matrix tmat1 invertmatrix 
  smat stri tri_to_matrix tmat2 concatmatrix } bdef
/ds {stri astore pop} bdef
/dt {dtri astore pop} bdef
/db {2 copy /cols xdef /rows xdef mul dup string
  currentfile exch readhexstring pop
  /bmap xdef pop pop} bdef
/it {gs np dtri aload pop moveto lineto lineto cp c
  cols rows 8 compute_transform 
  {bmap} image gr}bdef
/il {newpath moveto lineto stroke}bdef
currentdict end def
%%EndProlog

%%BeginSetup
MathWorks begin

0 cap

end
%%EndSetup

%%Page: 1 1
%%BeginPageSetup
%%PageBoundingBox:    57   199   550   601
MathWorks begin
bpage
%%EndPageSetup

%%BeginObject: obj1
bplot

/dpi2point 2.08333 def
portraitMode 0035 1275 csm

   84    22  1028   838 MR c np
85 dict begin %Colortable dictionary
/c0 { 0.000000 0.000000 0.000000 sr} bdef
/c1 { 1.000000 1.000000 1.000000 sr} bdef
/c2 { 0.900000 0.000000 0.000000 sr} bdef
/c3 { 0.000000 0.820000 0.000000 sr} bdef
/c4 { 0.000000 0.000000 0.800000 sr} bdef
/c5 { 0.910000 0.820000 0.320000 sr} bdef
/c6 { 1.000000 0.260000 0.820000 sr} bdef
/c7 { 0.000000 0.820000 0.820000 sr} bdef
c0
1 j
1 sg
   0    0 1201  901 PR
1.04167 w
0 733 930 0 0 -733 156 801 4 MP
PP
-930 0 0 733 930 0 0 -733 156 801 5 MP stroke
0.694444 w
DO
SO
1.04167 w
0 sg
 156   68 mt 1086   68 L
 156  801 mt 1086  801 L
1086  801 mt 1086   68 L
 156  801 mt  156   68 L
 156  801 mt 1086  801 L
 156  801 mt  156   68 L
 156  801 mt  156  791 L
 156   68 mt  156   77 L
%%IncludeResource: font Helvetica
/Helvetica /WindowsLatin1Encoding 20.8333 FMSR

 139  826 mt 
(150) s
 272  801 mt  272  791 L
 272   68 mt  272   77 L
 255  826 mt 
(151) s
 388  801 mt  388  791 L
 388   68 mt  388   77 L
 371  826 mt 
(152) s
 504  801 mt  504  791 L
 504   68 mt  504   77 L
 487  826 mt 
(153) s
 621  801 mt  621  791 L
 621   68 mt  621   77 L
 604  826 mt 
(154) s
 737  801 mt  737  791 L
 737   68 mt  737   77 L
 720  826 mt 
(155) s
 853  801 mt  853  791 L
 853   68 mt  853   77 L
 836  826 mt 
(156) s
 969  801 mt  969  791 L
 969   68 mt  969   77 L
 952  826 mt 
(157) s
1086  801 mt 1086  791 L
1086   68 mt 1086   77 L
1069  826 mt 
(158) s
 156  801 mt  165  801 L
1086  801 mt 1076  801 L
 139  808 mt 
(0) s
 156  654 mt  165  654 L
1086  654 mt 1076  654 L
 122  661 mt 
(0.5) s
 156  507 mt  165  507 L
1086  507 mt 1076  507 L
 139  514 mt 
(1) s
 156  361 mt  165  361 L
1086  361 mt 1076  361 L
 122  368 mt 
(1.5) s
 156  214 mt  165  214 L
1086  214 mt 1076  214 L
 139  221 mt 
(2) s
 156   68 mt  165   68 L
1086   68 mt 1076   68 L
 122   75 mt 
(2.5) s
 156   68 mt 1086   68 L
 156  801 mt 1086  801 L
1086  801 mt 1086   68 L
 156  801 mt  156   68 L
gs 156 68 931 734 MR c np
2.08333 w
gr

2.08333 w
gs 151 177 853 621 MR c np
   2    2  156  778 PO
   2    2  156  787 PO
   2    2  157  760 PO
   2    2  158  789 PO
   2    2  159  788 PO
   2    2  160  765 PO
   2    2  161  766 PO
   2    2  162  773 PO
   2    2  162  784 PO
   2    2  163  769 PO
   2    2  164  660 PO
   2    2  165  786 PO
   2    2  166  774 PO
   2    2  167  781 PO
   2    2  167  754 PO
   2    2  168  777 PO
   2    2  169  785 PO
   2    2  170  785 PO
   2    2  171  757 PO
   2    2  171  786 PO
   2    2  172  782 PO
   2    2  173  786 PO
   2    2  174  782 PO
   2    2  175  783 PO
   2    2  176  734 PO
   2    2  177  749 PO
   2    2  178  752 PO
   2    2  178  786 PO
   2    2  179  787 PO
   2    2  180  783 PO
   2    2  181  782 PO
   2    2  182  774 PO
   2    2  182  785 PO
   2    2  183  706 PO
   2    2  184  750 PO
   2    2  184  772 PO
   2    2  185  783 PO
   2    2  186  375 PO
   2    2  187  783 PO
   2    2  187  780 PO
   2    2  188  773 PO
   2    2  188  747 PO
   2    2  189  773 PO
   2    2  190  782 PO
   2    2  190  786 PO
   2    2  191  778 PO
   2    2  192  783 PO
   2    2  193  754 PO
   2    2  193  670 PO
   2    2  194  640 PO
   2    2  195  777 PO
   2    2  196  785 PO
   2    2  196  403 PO
   2    2  197  767 PO
   2    2  198  784 PO
   2    2  199  776 PO
   2    2  199  786 PO
   2    2  200  789 PO
   2    2  201  773 PO
   2    2  202  787 PO
   2    2  202  785 PO
   2    2  203  786 PO
   2    2  204  783 PO
   2    2  205  785 PO
   2    2  206  778 PO
   2    2  206  782 PO
   2    2  207  787 PO
   2    2  208  778 PO
   2    2  209  784 PO
   2    2  210  784 PO
   2    2  210  785 PO
   2    2  211  778 PO
   2    2  212  768 PO
   2    2  212  777 PO
   2    2  213  783 PO
   2    2  214  784 PO
   2    2  215  785 PO
   2    2  216  716 PO
   2    2  216  703 PO
   2    2  217  781 PO
   2    2  218  785 PO
   2    2  219  761 PO
   2    2  219  784 PO
   2    2  220  691 PO
   2    2  221  762 PO
   2    2  222  572 PO
   2    2  222  780 PO
   2    2  223  685 PO
   2    2  224  787 PO
   2    2  225  643 PO
   2    2  225  787 PO
   2    2  226  762 PO
   2    2  227  779 PO
   2    2  228  643 PO
   2    2  229  775 PO
   2    2  229  626 PO
   2    2  230  686 PO
   2    2  231  657 PO
   2    2  232  785 PO
   2    2  232  783 PO
   2    2  233  787 PO
   2    2  234  785 PO
   2    2  235  776 PO
   2    2  235  782 PO
   2    2  236  771 PO
   2    2  237  783 PO
   2    2  238  783 PO
   2    2  238  775 PO
   2    2  239  788 PO
   2    2  240  726 PO
   2    2  241  787 PO
   2    2  241  778 PO
   2    2  242  788 PO
   2    2  243  785 PO
   2    2  243  783 PO
   2    2  244  786 PO
   2    2  245  785 PO
   2    2  247  783 PO
   2    2  248  694 PO
   2    2  248  767 PO
   2    2  249  786 PO
   2    2  250  779 PO
   2    2  251  775 PO
   2    2  251  755 PO
   2    2  252  754 PO
   2    2  253  762 PO
   2    2  253  783 PO
   2    2  254  776 PO
   2    2  255  786 PO
   2    2  255  779 PO
   2    2  256  776 PO
   2    2  257  757 PO
   2    2  257  772 PO
   2    2  258  766 PO
   2    2  259  779 PO
   2    2  260  789 PO
   2    2  261  789 PO
   2    2  261  788 PO
   2    2  262  785 PO
   2    2  263  788 PO
   2    2  264  788 PO
   2    2  265  785 PO
   2    2  266  785 PO
   2    2  267  687 PO
   2    2  268  781 PO
   2    2  268  786 PO
   2    2  269  788 PO
   2    2  270  789 PO
   2    2  271  761 PO
   2    2  272  769 PO
   2    2  272  773 PO
   2    2  273  785 PO
   2    2  274  777 PO
   2    2  275  786 PO
   2    2  276  783 PO
   2    2  276  785 PO
   2    2  277  783 PO
   2    2  278  786 PO
   2    2  279  784 PO
   2    2  280  785 PO
   2    2  281  785 PO
   2    2  282  783 PO
   2    2  283  783 PO
   2    2  283  714 PO
   2    2  284  582 PO
   2    2  285  788 PO
   2    2  286  791 PO
   2    2  286  789 PO
   2    2  287  759 PO
   2    2  288  789 PO
   2    2  289  788 PO
   2    2  290  788 PO
   2    2  291  789 PO
   2    2  291  791 PO
   2    2  292  526 PO
   2    2  293  779 PO
   2    2  294  789 PO
   2    2  294  788 PO
   2    2  295  788 PO
   2    2  296  786 PO
   2    2  297  786 PO
   2    2  298  773 PO
   2    2  298  788 PO
   2    2  299  785 PO
   2    2  300  754 PO
   2    2  301  784 PO
   2    2  302  783 PO
   2    2  302  781 PO
   2    2  303  769 PO
   2    2  304  789 PO
   2    2  305  786 PO
   2    2  305  787 PO
   2    2  306  724 PO
   2    2  307  791 PO
   2    2  308  787 PO
   2    2  308  594 PO
   2    2  309  778 PO
   2    2  310  789 PO
   2    2  311  785 PO
   2    2  311  703 PO
   2    2  312  781 PO
   2    2  313  786 PO
   2    2  314  786 PO
   2    2  314  756 PO
   2    2  315  758 PO
   2    2  316  720 PO
   2    2  317  778 PO
   2    2  317  789 PO
   2    2  318  752 PO
   2    2  319  735 PO
   2    2  319  775 PO
   2    2  320  784 PO
   2    2  321  676 PO
   2    2  322  768 PO
   2    2  323  759 PO
   2    2  323  788 PO
   2    2  324  785 PO
   2    2  325  783 PO
   2    2  325  778 PO
   2    2  326  786 PO
   2    2  327  747 PO
   2    2  328  761 PO
   2    2  328  786 PO
   2    2  329  786 PO
   2    2  330  786 PO
   2    2  331  778 PO
   2    2  331  786 PO
   2    2  332  785 PO
   2    2  333  785 PO
   2    2  334  783 PO
   2    2  334  782 PO
   2    2  335  768 PO
   2    2  336  781 PO
   2    2  336  783 PO
   2    2  337  776 PO
   2    2  338  724 PO
   2    2  339  637 PO
   2    2  340  788 PO
   2    2  340  785 PO
   2    2  341  777 PO
   2    2  342  780 PO
   2    2  342  778 PO
   2    2  343  772 PO
   2    2  344  497 PO
   2    2  344  788 PO
   2    2  345  756 PO
   2    2  346  781 PO
   2    2  347  787 PO
   2    2  347  786 PO
   2    2  348  782 PO
   2    2  348  781 PO
   2    2  349  783 PO
   2    2  349  785 PO
   2    2  350  777 PO
   2    2  351  650 PO
   2    2  352  652 PO
   2    2  352  782 PO
   2    2  353  788 PO
   2    2  354  770 PO
   2    2  354  787 PO
   2    2  355  786 PO
   2    2  356  782 PO
   2    2  358  773 PO
   2    2  358  787 PO
   2    2  359  788 PO
   2    2  359  784 PO
   2    2  359  671 PO
   2    2  360  784 PO
   2    2  360  787 PO
   2    2  360  786 PO
   2    2  361  782 PO
   2    2  362  783 PO
   2    2  363  665 PO
   2    2  364  670 PO
   2    2  366  789 PO
   2    2  369  783 PO
   2    2  371  786 PO
   2    2  372  788 PO
   2    2  373  789 PO
   2    2  375  791 PO
   2    2  376  789 PO
   2    2  377  788 PO
   2    2  378  604 PO
   2    2  379  728 PO
   2    2  380  788 PO
   2    2  381  784 PO
   2    2  382  789 PO
   2    2  383  776 PO
   2    2  384  785 PO
   2    2  385  785 PO
   2    2  386  790 PO
   2    2  387  788 PO
   2    2  389  775 PO
   2    2  393  682 PO
   2    2  394  789 PO
   2    2  396  786 PO
   2    2  397  692 PO
   2    2  399  768 PO
   2    2  401  784 PO
   2    2  402  785 PO
   2    2  403  710 PO
   2    2  405  783 PO
   2    2  406  326 PO
   2    2  406  785 PO
   2    2  409  789 PO
   2    2  410  775 PO
   2    2  411  789 PO
   2    2  413  792 PO
   2    2  413  789 PO
   2    2  415  787 PO
   2    2  417  787 PO
   2    2  418  789 PO
   2    2  419  787 PO
   2    2  421  788 PO
   2    2  422  788 PO
   2    2  423  785 PO
   2    2  424  788 PO
   2    2  425  782 PO
   2    2  426  790 PO
   2    2  428  787 PO
   2    2  429  785 PO
   2    2  430  781 PO
   2    2  431  657 PO
   2    2  432  779 PO
   2    2  433  783 PO
   2    2  434  788 PO
   2    2  435  785 PO
   2    2  436  785 PO
   2    2  437  785 PO
   2    2  438  782 PO
   2    2  439  782 PO
   2    2  440  788 PO
   2    2  441  785 PO
   2    2  441  772 PO
   2    2  442  780 PO
   2    2  443  729 PO
   2    2  444  785 PO
   2    2  445  786 PO
   2    2  446  783 PO
   2    2  447  783 PO
   2    2  448  785 PO
   2    2  449  713 PO
   2    2  450  786 PO
   2    2  450  781 PO
   2    2  451  779 PO
   2    2  452  776 PO
   2    2  453  791 PO
   2    2  454  788 PO
   2    2  455  612 PO
   2    2  456  785 PO
   2    2  456  790 PO
   2    2  457  755 PO
   2    2  458  789 PO
   2    2  459  789 PO
   2    2  460  789 PO
   2    2  460  791 PO
   2    2  461  774 PO
   2    2  462  787 PO
   2    2  463  787 PO
   2    2  463  701 PO
   2    2  464  786 PO
   2    2  465  785 PO
   2    2  466  783 PO
   2    2  467  720 PO
   2    2  467  786 PO
   2    2  468  779 PO
   2    2  469  781 PO
   2    2  470  786 PO
   2    2  470  778 PO
   2    2  471  785 PO
   2    2  472  790 PO
   2    2  472  786 PO
   2    2  473  786 PO
   2    2  474  786 PO
   2    2  475  785 PO
   2    2  475  764 PO
   2    2  476  786 PO
   2    2  477  784 PO
   2    2  478  783 PO
   2    2  478  771 PO
   2    2  479  776 PO
   2    2  480  737 PO
   2    2  480  753 PO
   2    2  481  788 PO
   2    2  482  791 PO
   2    2  482  788 PO
   2    2  483  781 PO
   2    2  484  788 PO
   2    2  484  786 PO
   2    2  485  787 PO
   2    2  486  679 PO
   2    2  486  609 PO
   2    2  487  720 PO
   2    2  488  739 PO
   2    2  488  788 PO
   2    2  489  788 PO
   2    2  490  785 PO
   2    2  490  790 PO
   2    2  491  713 PO
   2    2  491  787 PO
   2    2  492  785 PO
   2    2  493  754 PO
   2    2  494  758 PO
   2    2  495  788 PO
   2    2  495  701 PO
   2    2  496  783 PO
   2    2  497  776 PO
   2    2  497  702 PO
   2    2  498  789 PO
   2    2  498  785 PO
   2    2  499  748 PO
   2    2  499  776 PO
   2    2  500  776 PO
   2    2  501  786 PO
   2    2  501  772 PO
   2    2  502  786 PO
   2    2  503  779 PO
   2    2  503  785 PO
   2    2  504  787 PO
   2    2  505  787 PO
   2    2  505  785 PO
   2    2  506  789 PO
   2    2  506  787 PO
   2    2  507  785 PO
   2    2  508  786 PO
   2    2  508  723 PO
   2    2  509  779 PO
   2    2  510  787 PO
   2    2  510  750 PO
   2    2  511  376 PO
   2    2  511  774 PO
   2    2  512  789 PO
   2    2  513  696 PO
   2    2  513  647 PO
   2    2  514  726 PO
   2    2  514  770 PO
   2    2  515  739 PO
   2    2  515  713 PO
   2    2  516  773 PO
   2    2  517  786 PO
   2    2  517  784 PO
   2    2  518  787 PO
   2    2  519  787 PO
   2    2  519  727 PO
   2    2  520  675 PO
   2    2  521  786 PO
   2    2  521  723 PO
   2    2  522  780 PO
   2    2  522  748 PO
   2    2  523  789 PO
   2    2  524  759 PO
   2    2  524  718 PO
   2    2  525  751 PO
   2    2  525  683 PO
   2    2  526  783 PO
   2    2  527  790 PO
   2    2  527  788 PO
   2    2  528  789 PO
   2    2  529  789 PO
   2    2  530  790 PO
   2    2  530  792 PO
   2    2  531  763 PO
   2    2  532  787 PO
   2    2  532  786 PO
   2    2  533  777 PO
   2    2  534  760 PO
   2    2  534  788 PO
   2    2  535  786 PO
   2    2  535  781 PO
   2    2  536  786 PO
   2    2  536  765 PO
   2    2  537  763 PO
   2    2  538  791 PO
   2    2  538  790 PO
   2    2  539  789 PO
   2    2  540  787 PO
   2    2  540  786 PO
   2    2  541  775 PO
   2    2  542  688 PO
   2    2  542  784 PO
   2    2  543  725 PO
   2    2  543  785 PO
   2    2  544  782 PO
   2    2  545  748 PO
   2    2  545  788 PO
   2    2  546  749 PO
   2    2  547  781 PO
   2    2  547  782 PO
   2    2  548  731 PO
   2    2  549  786 PO
   2    2  549  711 PO
   2    2  550  790 PO
   2    2  550  789 PO
   2    2  551  710 PO
   2    2  552  443 PO
   2    2  552  749 PO
   2    2  553  791 PO
   2    2  553  718 PO
   2    2  554  767 PO
   2    2  555  767 PO
   2    2  557  790 PO
   2    2  559  788 PO
   2    2  559  783 PO
   2    2  566  734 PO
   2    2  570  372 PO
   2    2  572  737 PO
   2    2  573  791 PO
   2    2  574  749 PO
   2    2  575  784 PO
   2    2  576  785 PO
   2    2  577  788 PO
   2    2  578  742 PO
   2    2  579  783 PO
   2    2  580  788 PO
   2    2  581  789 PO
   2    2  582  783 PO
   2    2  583  755 PO
   2    2  584  787 PO
   2    2  584  782 PO
   2    2  585  776 PO
   2    2  586  784 PO
   2    2  587  789 PO
   2    2  588  790 PO
   2    2  589  790 PO
   2    2  590  792 PO
   2    2  591  792 PO
   2    2  592  783 PO
   2    2  593  774 PO
   2    2  593  754 PO
   2    2  594  719 PO
   2    2  595  775 PO
   2    2  596  631 PO
   2    2  597  598 PO
   2    2  598  785 PO
   2    2  598  792 PO
   2    2  599  788 PO
   2    2  600  779 PO
   2    2  601  758 PO
   2    2  602  757 PO
   2    2  602  788 PO
   2    2  603  775 PO
   2    2  604  790 PO
   2    2  605  574 PO
   2    2  606  366 PO
   2    2  607  775 PO
   2    2  608  770 PO
   2    2  608  789 PO
   2    2  609  745 PO
   2    2  610  675 PO
   2    2  611  778 PO
   2    2  612  789 PO
   2    2  613  787 PO
   2    2  613  779 PO
   2    2  614  789 PO
   2    2  615  784 PO
   2    2  615  789 PO
   2    2  616  788 PO
   2    2  617  789 PO
   2    2  618  787 PO
   2    2  618  660 PO
   2    2  619  787 PO
   2    2  619  784 PO
   2    2  620  690 PO
   2    2  621  788 PO
   2    2  622  775 PO
   2    2  624  683 PO
   2    2  625  787 PO
   2    2  625  786 PO
   2    2  626  611 PO
   2    2  627  698 PO
   2    2  628  747 PO
   2    2  628  786 PO
   2    2  629  788 PO
   2    2  629  783 PO
   2    2  630  688 PO
   2    2  631  775 PO
   2    2  632  769 PO
   2    2  633  790 PO
   2    2  633  577 PO
   2    2  634  791 PO
   2    2  634  789 PO
   2    2  635  761 PO
   2    2  636  748 PO
   2    2  637  720 PO
   2    2  637  781 PO
   2    2  638  691 PO
   2    2  639  787 PO
   2    2  639  791 PO
   2    2  640  788 PO
   2    2  641  738 PO
   2    2  641  624 PO
   2    2  642  775 PO
   2    2  643  769 PO
   2    2  644  562 PO
   2    2  644  765 PO
   2    2  645  771 PO
   2    2  645  787 PO
   2    2  646  786 PO
   2    2  647  788 PO
   2    2  648  764 PO
   2    2  649  763 PO
   2    2  649  779 PO
   2    2  650  790 PO
   2    2  651  727 PO
   2    2  652  784 PO
   2    2  652  772 PO
   2    2  653  792 PO
   2    2  653  790 PO
   2    2  654  773 PO
   2    2  655  785 PO
   2    2  655  788 PO
   2    2  656  779 PO
   2    2  657  780 PO
   2    2  657  792 PO
   2    2  658  786 PO
   2    2  659  788 PO
   2    2  659  787 PO
   2    2  660  789 PO
   2    2  661  789 PO
   2    2  661  790 PO
   2    2  662  782 PO
   2    2  663  786 PO
   2    2  663  790 PO
   2    2  664  751 PO
   2    2  665  696 PO
   2    2  665  603 PO
   2    2  666  788 PO
   2    2  667  790 PO
   2    2  667  786 PO
   2    2  668  754 PO
   2    2  669  760 PO
   2    2  670  788 PO
   2    2  670  763 PO
   2    2  671  786 PO
   2    2  672  787 PO
   2    2  672  788 PO
   2    2  673  785 PO
   2    2  674  742 PO
   2    2  674  785 PO
   2    2  675  787 PO
   2    2  676  786 PO
   2    2  676  790 PO
   2    2  677  790 PO
   2    2  677  784 PO
   2    2  678  786 PO
   2    2  679  780 PO
   2    2  680  786 PO
   2    2  680  690 PO
   2    2  681  754 PO
   2    2  682  702 PO
   2    2  682  789 PO
   2    2  683  788 PO
   2    2  683  768 PO
   2    2  684  786 PO
   2    2  684  774 PO
   2    2  685  788 PO
   2    2  686  788 PO
   2    2  686  775 PO
   2    2  687  781 PO
   2    2  688  779 PO
   2    2  688  732 PO
   2    2  689  791 PO
   2    2  689  745 PO
   2    2  690  785 PO
   2    2  691  785 PO
   2    2  692  763 PO
   2    2  692  789 PO
   2    2  693  788 PO
   2    2  694  786 PO
   2    2  695  786 PO
   2    2  695  781 PO
   2    2  696  780 PO
   2    2  697  758 PO
   2    2  697  786 PO
   2    2  698  710 PO
   2    2  699  752 PO
   2    2  700  777 PO
   2    2  701  791 PO
   2    2  701  742 PO
   2    2  702  767 PO
   2    2  702  728 PO
   2    2  703  789 PO
   2    2  704  789 PO
   2    2  704  788 PO
   2    2  705  774 PO
   2    2  706  781 PO
   2    2  707  778 PO
   2    2  708  791 PO
   2    2  709  787 PO
   2    2  709  707 PO
   2    2  710  785 PO
   2    2  711  568 PO
   2    2  712  734 PO
   2    2  713  728 PO
   2    2  713  786 PO
   2    2  714  755 PO
   2    2  714  617 PO
   2    2  715  776 PO
   2    2  716  788 PO
   2    2  716  688 PO
   2    2  717  771 PO
   2    2  718  785 PO
   2    2  718  749 PO
   2    2  719  765 PO
   2    2  720  788 PO
   2    2  722  787 PO
   2    2  723  650 PO
   2    2  723  733 PO
   2    2  724  780 PO
   2    2  725  728 PO
   2    2  725  672 PO
   2    2  726  784 PO
   2    2  726  788 PO
   2    2  727  788 PO
   2    2  728  789 PO
   2    2  728  787 PO
   2    2  729  740 PO
   2    2  730  782 PO
   2    2  730  760 PO
   2    2  731  784 PO
   2    2  732  751 PO
   2    2  732  763 PO
   2    2  733  752 PO
   2    2  733  777 PO
   2    2  734  744 PO
   2    2  735  765 PO
   2    2  736  744 PO
   2    2  737  739 PO
   2    2  737  774 PO
   2    2  738  766 PO
   2    2  739  791 PO
   2    2  739  785 PO
   2    2  740  782 PO
   2    2  740  660 PO
   2    2  741  787 PO
   2    2  742  756 PO
   2    2  742  781 PO
   2    2  743  674 PO
   2    2  743  786 PO
   2    2  744  761 PO
   2    2  745  790 PO
   2    2  748  782 PO
   2    2  749  787 PO
   2    2  750  789 PO
   2    2  751  755 PO
   2    2  751  788 PO
   2    2  751  721 PO
   2    2  751  691 PO
   2    2  752  785 PO
   2    2  752  724 PO
   2    2  753  626 PO
   2    2  756  700 PO
   2    2  756  785 PO
   2    2  757  781 PO
   2    2  758  790 PO
   2    2  758  784 PO
   2    2  758  786 PO
   2    2  759  777 PO
   2    2  760  740 PO
   2    2  760  727 PO
   2    2  760  790 PO
   2    2  761  783 PO
   2    2  762  699 PO
   2    2  762  792 PO
   2    2  764  776 PO
   2    2  765  771 PO
   2    2  767  629 PO
   2    2  768  455 PO
   2    2  769  783 PO
   2    2  770  790 PO
   2    2  771  783 PO
   2    2  772  763 PO
   2    2  772  780 PO
   2    2  773  771 PO
   2    2  773  788 PO
   2    2  774  787 PO
   2    2  774  788 PO
   2    2  775  770 PO
   2    2  775  740 PO
   2    2  776  758 PO
   2    2  776  790 PO
   2    2  777  696 PO
   2    2  777  788 PO
   2    2  778  782 PO
   2    2  778  790 PO
   2    2  782  650 PO
   2    2  783  785 PO
   2    2  784  782 PO
   2    2  785  740 PO
   2    2  786  777 PO
   2    2  787  778 PO
   2    2  788  789 PO
   2    2  789  708 PO
   2    2  790  773 PO
   2    2  792  787 PO
   2    2  793  789 PO
   2    2  794  771 PO
   2    2  794  781 PO
   2    2  795  708 PO
   2    2  795  791 PO
   2    2  795  631 PO
   2    2  796  783 PO
   2    2  796  780 PO
   2    2  798  662 PO
   2    2  801  791 PO
   2    2  804  790 PO
   2    2  805  759 PO
   2    2  807  663 PO
   2    2  808  771 PO
   2    2  810  769 PO
   2    2  811  743 PO
   2    2  811  787 PO
   2    2  814  789 PO
   2    2  816  745 PO
   2    2  817  740 PO
   2    2  818  787 PO
   2    2  821  780 PO
   2    2  824  772 PO
   2    2  825  729 PO
   2    2  827  782 PO
   2    2  828  783 PO
   2    2  830  762 PO
   2    2  832  781 PO
   2    2  833  754 PO
   2    2  834  765 PO
   2    2  836  778 PO
   2    2  837  786 PO
   2    2  838  781 PO
   2    2  840  772 PO
   2    2  841  774 PO
   2    2  842  775 PO
   2    2  843  786 PO
   2    2  844  536 PO
   2    2  846  729 PO
   2    2  847  766 PO
   2    2  849  759 PO
   2    2  850  789 PO
   2    2  851  778 PO
   2    2  852  782 PO
   2    2  854  771 PO
   2    2  855  766 PO
   2    2  856  791 PO
   2    2  856  751 PO
   2    2  857  788 PO
   2    2  858  772 PO
   2    2  859  787 PO
   2    2  859  786 PO
   2    2  861  789 PO
   2    2  862  182 PO
   2    2  863  669 PO
   2    2  864  783 PO
   2    2  865  768 PO
   2    2  866  788 PO
   2    2  867  730 PO
   2    2  867  786 PO
   2    2  868  781 PO
   2    2  868  792 PO
   2    2  869  775 PO
   2    2  874  790 PO
   2    2  874  779 PO
   2    2  877  789 PO
   2    2  878  395 PO
   2    2  878  788 PO
   2    2  880  787 PO
   2    2  880  791 PO
   2    2  881  786 PO
   2    2  881  706 PO
   2    2  883  784 PO
   2    2  883  749 PO
   2    2  885  785 PO
   2    2  885  772 PO
   2    2  886  667 PO
   2    2  886  781 PO
   2    2  886  777 PO
   2    2  886  787 PO
   2    2  887  715 PO
   2    2  887  783 PO
   2    2  887  656 PO
   2    2  887  782 PO
   2    2  888  710 PO
   2    2  888  747 PO
   2    2  893  774 PO
   2    2  893  790 PO
   2    2  894  785 PO
   2    2  896  689 PO
   2    2  896  785 PO
   2    2  902  782 PO
   2    2  903  421 PO
   2    2  903  750 PO
   2    2  904  718 PO
   2    2  907  786 PO
   2    2  908  739 PO
   2    2  908  789 PO
   2    2  911  791 PO
   2    2  912  789 PO
   2    2  913  788 PO
   2    2  914  779 PO
   2    2  915  762 PO
   2    2  916  774 PO
   2    2  917  588 PO
   2    2  918  558 PO
   2    2  919  740 PO
   2    2  920  752 PO
   2    2  921  791 PO
   2    2  922  789 PO
   2    2  924  787 PO
   2    2  925  782 PO
   2    2  926  727 PO
   2    2  928  770 PO
   2    2  929  783 PO
   2    2  930  772 PO
   2    2  931  786 PO
   2    2  932  774 PO
   2    2  933  700 PO
   2    2  934  700 PO
   2    2  935  753 PO
   2    2  937  768 PO
   2    2  937  787 PO
   2    2  938  788 PO
   2    2  939  471 PO
   2    2  940  758 PO
   2    2  941  770 PO
   2    2  942  784 PO
   2    2  943  226 PO
   2    2  943  778 PO
   2    2  944  755 PO
   2    2  946  776 PO
   2    2  946  773 PO
   2    2  948  766 PO
   2    2  949  775 PO
   2    2  950  750 PO
   2    2  951  619 PO
   2    2  952  715 PO
   2    2  953  649 PO
   2    2  953  780 PO
   2    2  954  791 PO
   2    2  955  775 PO
   2    2  956  781 PO
   2    2  957  777 PO
   2    2  958  774 PO
   2    2  959  771 PO
   2    2  959  781 PO
   2    2  960  773 PO
   2    2  961  790 PO
   2    2  962  786 PO
   2    2  963  790 PO
   2    2  964  791 PO
   2    2  965  774 PO
   2    2  966  724 PO
   2    2  967  789 PO
   2    2  967  780 PO
   2    2  968  675 PO
   2    2  968  789 PO
   2    2  969  788 PO
   2    2  970  782 PO
   2    2  971  780 PO
   2    2  973  782 PO
   2    2  974  785 PO
   2    2  974  732 PO
   2    2  977  638 PO
   2    2  978  786 PO
   2    2  978  789 PO
   2    2  979  791 PO
   2    2  979  787 PO
   2    2  981  779 PO
   2    2  982  788 PO
   2    2  982  701 PO
   2    2  983  785 PO
   2    2  984  720 PO
   2    2  985  775 PO
   2    2  986  789 PO
   2    2  986  790 PO
   2    2  987  789 PO
   2    2  988  790 PO
   2    2  988  789 PO
   2    2  988  790 PO
   2    2  989  785 PO
   2    2  989  773 PO
   2    2  990  791 PO
   2    2  990  777 PO
   2    2  990  671 PO
   2    2  991  785 PO
   2    2  992  727 PO
   2    2  992  788 PO
   2    2  993  739 PO
   2    2  993  787 PO
   2    2  993  779 PO
   2    2  994  790 PO
   2    2  994  780 PO
   2    2  995  791 PO
   2    2  996  783 PO
   2    2  996  710 PO
   2    2  997  786 PO
   2    2  997  783 PO
   2    2  998  785 PO
   2    2  156  778 FO
   2    2  156  787 FO
   2    2  157  760 FO
   2    2  158  789 FO
   2    2  159  788 FO
   2    2  160  765 FO
   2    2  161  766 FO
   2    2  162  773 FO
   2    2  162  784 FO
   2    2  163  769 FO
   2    2  164  660 FO
   2    2  165  786 FO
   2    2  166  774 FO
   2    2  167  781 FO
   2    2  167  754 FO
   2    2  168  777 FO
   2    2  169  785 FO
   2    2  170  785 FO
   2    2  171  757 FO
   2    2  171  786 FO
   2    2  172  782 FO
   2    2  173  786 FO
   2    2  174  782 FO
   2    2  175  783 FO
   2    2  176  734 FO
   2    2  177  749 FO
   2    2  178  752 FO
   2    2  178  786 FO
   2    2  179  787 FO
   2    2  180  783 FO
   2    2  181  782 FO
   2    2  182  774 FO
   2    2  182  785 FO
   2    2  183  706 FO
   2    2  184  750 FO
   2    2  184  772 FO
   2    2  185  783 FO
   2    2  186  375 FO
   2    2  187  783 FO
   2    2  187  780 FO
   2    2  188  773 FO
   2    2  188  747 FO
   2    2  189  773 FO
   2    2  190  782 FO
   2    2  190  786 FO
   2    2  191  778 FO
   2    2  192  783 FO
   2    2  193  754 FO
   2    2  193  670 FO
   2    2  194  640 FO
   2    2  195  777 FO
   2    2  196  785 FO
   2    2  196  403 FO
   2    2  197  767 FO
   2    2  198  784 FO
   2    2  199  776 FO
   2    2  199  786 FO
   2    2  200  789 FO
   2    2  201  773 FO
   2    2  202  787 FO
   2    2  202  785 FO
   2    2  203  786 FO
   2    2  204  783 FO
   2    2  205  785 FO
   2    2  206  778 FO
   2    2  206  782 FO
   2    2  207  787 FO
   2    2  208  778 FO
   2    2  209  784 FO
   2    2  210  784 FO
   2    2  210  785 FO
   2    2  211  778 FO
   2    2  212  768 FO
   2    2  212  777 FO
   2    2  213  783 FO
   2    2  214  784 FO
   2    2  215  785 FO
   2    2  216  716 FO
   2    2  216  703 FO
   2    2  217  781 FO
   2    2  218  785 FO
   2    2  219  761 FO
   2    2  219  784 FO
   2    2  220  691 FO
   2    2  221  762 FO
   2    2  222  572 FO
   2    2  222  780 FO
   2    2  223  685 FO
   2    2  224  787 FO
   2    2  225  643 FO
   2    2  225  787 FO
   2    2  226  762 FO
   2    2  227  779 FO
   2    2  228  643 FO
   2    2  229  775 FO
   2    2  229  626 FO
   2    2  230  686 FO
   2    2  231  657 FO
   2    2  232  785 FO
   2    2  232  783 FO
   2    2  233  787 FO
   2    2  234  785 FO
   2    2  235  776 FO
   2    2  235  782 FO
   2    2  236  771 FO
   2    2  237  783 FO
   2    2  238  783 FO
   2    2  238  775 FO
   2    2  239  788 FO
   2    2  240  726 FO
   2    2  241  787 FO
   2    2  241  778 FO
   2    2  242  788 FO
   2    2  243  785 FO
   2    2  243  783 FO
   2    2  244  786 FO
   2    2  245  785 FO
   2    2  247  783 FO
   2    2  248  694 FO
   2    2  248  767 FO
   2    2  249  786 FO
   2    2  250  779 FO
   2    2  251  775 FO
   2    2  251  755 FO
   2    2  252  754 FO
   2    2  253  762 FO
   2    2  253  783 FO
   2    2  254  776 FO
   2    2  255  786 FO
   2    2  255  779 FO
   2    2  256  776 FO
   2    2  257  757 FO
   2    2  257  772 FO
   2    2  258  766 FO
   2    2  259  779 FO
   2    2  260  789 FO
   2    2  261  789 FO
   2    2  261  788 FO
   2    2  262  785 FO
   2    2  263  788 FO
   2    2  264  788 FO
   2    2  265  785 FO
   2    2  266  785 FO
   2    2  267  687 FO
   2    2  268  781 FO
   2    2  268  786 FO
   2    2  269  788 FO
   2    2  270  789 FO
   2    2  271  761 FO
   2    2  272  769 FO
   2    2  272  773 FO
   2    2  273  785 FO
   2    2  274  777 FO
   2    2  275  786 FO
   2    2  276  783 FO
   2    2  276  785 FO
   2    2  277  783 FO
   2    2  278  786 FO
   2    2  279  784 FO
   2    2  280  785 FO
   2    2  281  785 FO
   2    2  282  783 FO
   2    2  283  783 FO
   2    2  283  714 FO
   2    2  284  582 FO
   2    2  285  788 FO
   2    2  286  791 FO
   2    2  286  789 FO
   2    2  287  759 FO
   2    2  288  789 FO
   2    2  289  788 FO
   2    2  290  788 FO
   2    2  291  789 FO
   2    2  291  791 FO
   2    2  292  526 FO
   2    2  293  779 FO
   2    2  294  789 FO
   2    2  294  788 FO
   2    2  295  788 FO
   2    2  296  786 FO
   2    2  297  786 FO
   2    2  298  773 FO
   2    2  298  788 FO
   2    2  299  785 FO
   2    2  300  754 FO
   2    2  301  784 FO
   2    2  302  783 FO
   2    2  302  781 FO
   2    2  303  769 FO
   2    2  304  789 FO
   2    2  305  786 FO
   2    2  305  787 FO
   2    2  306  724 FO
   2    2  307  791 FO
   2    2  308  787 FO
   2    2  308  594 FO
   2    2  309  778 FO
   2    2  310  789 FO
   2    2  311  785 FO
   2    2  311  703 FO
   2    2  312  781 FO
   2    2  313  786 FO
   2    2  314  786 FO
   2    2  314  756 FO
   2    2  315  758 FO
   2    2  316  720 FO
   2    2  317  778 FO
   2    2  317  789 FO
   2    2  318  752 FO
   2    2  319  735 FO
   2    2  319  775 FO
   2    2  320  784 FO
   2    2  321  676 FO
   2    2  322  768 FO
   2    2  323  759 FO
   2    2  323  788 FO
   2    2  324  785 FO
   2    2  325  783 FO
   2    2  325  778 FO
   2    2  326  786 FO
   2    2  327  747 FO
   2    2  328  761 FO
   2    2  328  786 FO
   2    2  329  786 FO
   2    2  330  786 FO
   2    2  331  778 FO
   2    2  331  786 FO
   2    2  332  785 FO
   2    2  333  785 FO
   2    2  334  783 FO
   2    2  334  782 FO
   2    2  335  768 FO
   2    2  336  781 FO
   2    2  336  783 FO
   2    2  337  776 FO
   2    2  338  724 FO
   2    2  339  637 FO
   2    2  340  788 FO
   2    2  340  785 FO
   2    2  341  777 FO
   2    2  342  780 FO
   2    2  342  778 FO
   2    2  343  772 FO
   2    2  344  497 FO
   2    2  344  788 FO
   2    2  345  756 FO
   2    2  346  781 FO
   2    2  347  787 FO
   2    2  347  786 FO
   2    2  348  782 FO
   2    2  348  781 FO
   2    2  349  783 FO
   2    2  349  785 FO
   2    2  350  777 FO
   2    2  351  650 FO
   2    2  352  652 FO
   2    2  352  782 FO
   2    2  353  788 FO
   2    2  354  770 FO
   2    2  354  787 FO
   2    2  355  786 FO
   2    2  356  782 FO
   2    2  358  773 FO
   2    2  358  787 FO
   2    2  359  788 FO
   2    2  359  784 FO
   2    2  359  671 FO
   2    2  360  784 FO
   2    2  360  787 FO
   2    2  360  786 FO
   2    2  361  782 FO
   2    2  362  783 FO
   2    2  363  665 FO
   2    2  364  670 FO
   2    2  366  789 FO
   2    2  369  783 FO
   2    2  371  786 FO
   2    2  372  788 FO
   2    2  373  789 FO
   2    2  375  791 FO
   2    2  376  789 FO
   2    2  377  788 FO
   2    2  378  604 FO
   2    2  379  728 FO
   2    2  380  788 FO
   2    2  381  784 FO
   2    2  382  789 FO
   2    2  383  776 FO
   2    2  384  785 FO
   2    2  385  785 FO
   2    2  386  790 FO
   2    2  387  788 FO
   2    2  389  775 FO
   2    2  393  682 FO
   2    2  394  789 FO
   2    2  396  786 FO
   2    2  397  692 FO
   2    2  399  768 FO
   2    2  401  784 FO
   2    2  402  785 FO
   2    2  403  710 FO
   2    2  405  783 FO
   2    2  406  326 FO
   2    2  406  785 FO
   2    2  409  789 FO
   2    2  410  775 FO
   2    2  411  789 FO
   2    2  413  792 FO
   2    2  413  789 FO
   2    2  415  787 FO
   2    2  417  787 FO
   2    2  418  789 FO
   2    2  419  787 FO
   2    2  421  788 FO
   2    2  422  788 FO
   2    2  423  785 FO
   2    2  424  788 FO
   2    2  425  782 FO
   2    2  426  790 FO
   2    2  428  787 FO
   2    2  429  785 FO
   2    2  430  781 FO
   2    2  431  657 FO
   2    2  432  779 FO
   2    2  433  783 FO
   2    2  434  788 FO
   2    2  435  785 FO
   2    2  436  785 FO
   2    2  437  785 FO
   2    2  438  782 FO
   2    2  439  782 FO
   2    2  440  788 FO
   2    2  441  785 FO
   2    2  441  772 FO
   2    2  442  780 FO
   2    2  443  729 FO
   2    2  444  785 FO
   2    2  445  786 FO
   2    2  446  783 FO
   2    2  447  783 FO
   2    2  448  785 FO
   2    2  449  713 FO
   2    2  450  786 FO
   2    2  450  781 FO
   2    2  451  779 FO
   2    2  452  776 FO
   2    2  453  791 FO
   2    2  454  788 FO
   2    2  455  612 FO
   2    2  456  785 FO
   2    2  456  790 FO
   2    2  457  755 FO
   2    2  458  789 FO
   2    2  459  789 FO
   2    2  460  789 FO
   2    2  460  791 FO
   2    2  461  774 FO
   2    2  462  787 FO
   2    2  463  787 FO
   2    2  463  701 FO
   2    2  464  786 FO
   2    2  465  785 FO
   2    2  466  783 FO
   2    2  467  720 FO
   2    2  467  786 FO
   2    2  468  779 FO
   2    2  469  781 FO
   2    2  470  786 FO
   2    2  470  778 FO
   2    2  471  785 FO
   2    2  472  790 FO
   2    2  472  786 FO
   2    2  473  786 FO
   2    2  474  786 FO
   2    2  475  785 FO
   2    2  475  764 FO
   2    2  476  786 FO
   2    2  477  784 FO
   2    2  478  783 FO
   2    2  478  771 FO
   2    2  479  776 FO
   2    2  480  737 FO
   2    2  480  753 FO
   2    2  481  788 FO
   2    2  482  791 FO
   2    2  482  788 FO
   2    2  483  781 FO
   2    2  484  788 FO
   2    2  484  786 FO
   2    2  485  787 FO
   2    2  486  679 FO
   2    2  486  609 FO
   2    2  487  720 FO
   2    2  488  739 FO
   2    2  488  788 FO
   2    2  489  788 FO
   2    2  490  785 FO
   2    2  490  790 FO
   2    2  491  713 FO
   2    2  491  787 FO
   2    2  492  785 FO
   2    2  493  754 FO
   2    2  494  758 FO
   2    2  495  788 FO
   2    2  495  701 FO
   2    2  496  783 FO
   2    2  497  776 FO
   2    2  497  702 FO
   2    2  498  789 FO
   2    2  498  785 FO
   2    2  499  748 FO
   2    2  499  776 FO
   2    2  500  776 FO
   2    2  501  786 FO
   2    2  501  772 FO
   2    2  502  786 FO
   2    2  503  779 FO
   2    2  503  785 FO
   2    2  504  787 FO
   2    2  505  787 FO
   2    2  505  785 FO
   2    2  506  789 FO
   2    2  506  787 FO
   2    2  507  785 FO
   2    2  508  786 FO
   2    2  508  723 FO
   2    2  509  779 FO
   2    2  510  787 FO
   2    2  510  750 FO
   2    2  511  376 FO
   2    2  511  774 FO
   2    2  512  789 FO
   2    2  513  696 FO
   2    2  513  647 FO
   2    2  514  726 FO
   2    2  514  770 FO
   2    2  515  739 FO
   2    2  515  713 FO
   2    2  516  773 FO
   2    2  517  786 FO
   2    2  517  784 FO
   2    2  518  787 FO
   2    2  519  787 FO
   2    2  519  727 FO
   2    2  520  675 FO
   2    2  521  786 FO
   2    2  521  723 FO
   2    2  522  780 FO
   2    2  522  748 FO
   2    2  523  789 FO
   2    2  524  759 FO
   2    2  524  718 FO
   2    2  525  751 FO
   2    2  525  683 FO
   2    2  526  783 FO
   2    2  527  790 FO
   2    2  527  788 FO
   2    2  528  789 FO
   2    2  529  789 FO
   2    2  530  790 FO
   2    2  530  792 FO
   2    2  531  763 FO
   2    2  532  787 FO
   2    2  532  786 FO
   2    2  533  777 FO
   2    2  534  760 FO
   2    2  534  788 FO
   2    2  535  786 FO
   2    2  535  781 FO
   2    2  536  786 FO
   2    2  536  765 FO
   2    2  537  763 FO
   2    2  538  791 FO
   2    2  538  790 FO
   2    2  539  789 FO
   2    2  540  787 FO
   2    2  540  786 FO
   2    2  541  775 FO
   2    2  542  688 FO
   2    2  542  784 FO
   2    2  543  725 FO
   2    2  543  785 FO
   2    2  544  782 FO
   2    2  545  748 FO
   2    2  545  788 FO
   2    2  546  749 FO
   2    2  547  781 FO
   2    2  547  782 FO
   2    2  548  731 FO
   2    2  549  786 FO
   2    2  549  711 FO
   2    2  550  790 FO
   2    2  550  789 FO
   2    2  551  710 FO
   2    2  552  443 FO
   2    2  552  749 FO
   2    2  553  791 FO
   2    2  553  718 FO
   2    2  554  767 FO
   2    2  555  767 FO
   2    2  557  790 FO
   2    2  559  788 FO
   2    2  559  783 FO
   2    2  566  734 FO
   2    2  570  372 FO
   2    2  572  737 FO
   2    2  573  791 FO
   2    2  574  749 FO
   2    2  575  784 FO
   2    2  576  785 FO
   2    2  577  788 FO
   2    2  578  742 FO
   2    2  579  783 FO
   2    2  580  788 FO
   2    2  581  789 FO
   2    2  582  783 FO
   2    2  583  755 FO
   2    2  584  787 FO
   2    2  584  782 FO
   2    2  585  776 FO
   2    2  586  784 FO
   2    2  587  789 FO
   2    2  588  790 FO
   2    2  589  790 FO
   2    2  590  792 FO
   2    2  591  792 FO
   2    2  592  783 FO
   2    2  593  774 FO
   2    2  593  754 FO
   2    2  594  719 FO
   2    2  595  775 FO
   2    2  596  631 FO
   2    2  597  598 FO
   2    2  598  785 FO
   2    2  598  792 FO
   2    2  599  788 FO
   2    2  600  779 FO
   2    2  601  758 FO
   2    2  602  757 FO
   2    2  602  788 FO
   2    2  603  775 FO
   2    2  604  790 FO
   2    2  605  574 FO
   2    2  606  366 FO
   2    2  607  775 FO
   2    2  608  770 FO
   2    2  608  789 FO
   2    2  609  745 FO
   2    2  610  675 FO
   2    2  611  778 FO
   2    2  612  789 FO
   2    2  613  787 FO
   2    2  613  779 FO
   2    2  614  789 FO
   2    2  615  784 FO
   2    2  615  789 FO
   2    2  616  788 FO
   2    2  617  789 FO
   2    2  618  787 FO
   2    2  618  660 FO
   2    2  619  787 FO
   2    2  619  784 FO
   2    2  620  690 FO
   2    2  621  788 FO
   2    2  622  775 FO
   2    2  624  683 FO
   2    2  625  787 FO
   2    2  625  786 FO
   2    2  626  611 FO
   2    2  627  698 FO
   2    2  628  747 FO
   2    2  628  786 FO
   2    2  629  788 FO
   2    2  629  783 FO
   2    2  630  688 FO
   2    2  631  775 FO
   2    2  632  769 FO
   2    2  633  790 FO
   2    2  633  577 FO
   2    2  634  791 FO
   2    2  634  789 FO
   2    2  635  761 FO
   2    2  636  748 FO
   2    2  637  720 FO
   2    2  637  781 FO
   2    2  638  691 FO
   2    2  639  787 FO
   2    2  639  791 FO
   2    2  640  788 FO
   2    2  641  738 FO
   2    2  641  624 FO
   2    2  642  775 FO
   2    2  643  769 FO
   2    2  644  562 FO
   2    2  644  765 FO
   2    2  645  771 FO
   2    2  645  787 FO
   2    2  646  786 FO
   2    2  647  788 FO
   2    2  648  764 FO
   2    2  649  763 FO
   2    2  649  779 FO
   2    2  650  790 FO
   2    2  651  727 FO
   2    2  652  784 FO
   2    2  652  772 FO
   2    2  653  792 FO
   2    2  653  790 FO
   2    2  654  773 FO
   2    2  655  785 FO
   2    2  655  788 FO
   2    2  656  779 FO
   2    2  657  780 FO
   2    2  657  792 FO
   2    2  658  786 FO
   2    2  659  788 FO
   2    2  659  787 FO
   2    2  660  789 FO
   2    2  661  789 FO
   2    2  661  790 FO
   2    2  662  782 FO
   2    2  663  786 FO
   2    2  663  790 FO
   2    2  664  751 FO
   2    2  665  696 FO
   2    2  665  603 FO
   2    2  666  788 FO
   2    2  667  790 FO
   2    2  667  786 FO
   2    2  668  754 FO
   2    2  669  760 FO
   2    2  670  788 FO
   2    2  670  763 FO
   2    2  671  786 FO
   2    2  672  787 FO
   2    2  672  788 FO
   2    2  673  785 FO
   2    2  674  742 FO
   2    2  674  785 FO
   2    2  675  787 FO
   2    2  676  786 FO
   2    2  676  790 FO
   2    2  677  790 FO
   2    2  677  784 FO
   2    2  678  786 FO
   2    2  679  780 FO
   2    2  680  786 FO
   2    2  680  690 FO
   2    2  681  754 FO
   2    2  682  702 FO
   2    2  682  789 FO
   2    2  683  788 FO
   2    2  683  768 FO
   2    2  684  786 FO
   2    2  684  774 FO
   2    2  685  788 FO
   2    2  686  788 FO
   2    2  686  775 FO
   2    2  687  781 FO
   2    2  688  779 FO
   2    2  688  732 FO
   2    2  689  791 FO
   2    2  689  745 FO
   2    2  690  785 FO
   2    2  691  785 FO
   2    2  692  763 FO
   2    2  692  789 FO
   2    2  693  788 FO
   2    2  694  786 FO
   2    2  695  786 FO
   2    2  695  781 FO
   2    2  696  780 FO
   2    2  697  758 FO
   2    2  697  786 FO
   2    2  698  710 FO
   2    2  699  752 FO
   2    2  700  777 FO
   2    2  701  791 FO
   2    2  701  742 FO
   2    2  702  767 FO
   2    2  702  728 FO
   2    2  703  789 FO
   2    2  704  789 FO
   2    2  704  788 FO
   2    2  705  774 FO
   2    2  706  781 FO
   2    2  707  778 FO
   2    2  708  791 FO
   2    2  709  787 FO
   2    2  709  707 FO
   2    2  710  785 FO
   2    2  711  568 FO
   2    2  712  734 FO
   2    2  713  728 FO
   2    2  713  786 FO
   2    2  714  755 FO
   2    2  714  617 FO
   2    2  715  776 FO
   2    2  716  788 FO
   2    2  716  688 FO
   2    2  717  771 FO
   2    2  718  785 FO
   2    2  718  749 FO
   2    2  719  765 FO
   2    2  720  788 FO
   2    2  722  787 FO
   2    2  723  650 FO
   2    2  723  733 FO
   2    2  724  780 FO
   2    2  725  728 FO
   2    2  725  672 FO
   2    2  726  784 FO
   2    2  726  788 FO
   2    2  727  788 FO
   2    2  728  789 FO
   2    2  728  787 FO
   2    2  729  740 FO
   2    2  730  782 FO
   2    2  730  760 FO
   2    2  731  784 FO
   2    2  732  751 FO
   2    2  732  763 FO
   2    2  733  752 FO
   2    2  733  777 FO
   2    2  734  744 FO
   2    2  735  765 FO
   2    2  736  744 FO
   2    2  737  739 FO
   2    2  737  774 FO
   2    2  738  766 FO
   2    2  739  791 FO
   2    2  739  785 FO
   2    2  740  782 FO
   2    2  740  660 FO
   2    2  741  787 FO
   2    2  742  756 FO
   2    2  742  781 FO
   2    2  743  674 FO
   2    2  743  786 FO
   2    2  744  761 FO
   2    2  745  790 FO
   2    2  748  782 FO
   2    2  749  787 FO
   2    2  750  789 FO
   2    2  751  755 FO
   2    2  751  788 FO
   2    2  751  721 FO
   2    2  751  691 FO
   2    2  752  785 FO
   2    2  752  724 FO
   2    2  753  626 FO
   2    2  756  700 FO
   2    2  756  785 FO
   2    2  757  781 FO
   2    2  758  790 FO
   2    2  758  784 FO
   2    2  758  786 FO
   2    2  759  777 FO
   2    2  760  740 FO
   2    2  760  727 FO
   2    2  760  790 FO
   2    2  761  783 FO
   2    2  762  699 FO
   2    2  762  792 FO
   2    2  764  776 FO
   2    2  765  771 FO
   2    2  767  629 FO
   2    2  768  455 FO
   2    2  769  783 FO
   2    2  770  790 FO
   2    2  771  783 FO
   2    2  772  763 FO
   2    2  772  780 FO
   2    2  773  771 FO
   2    2  773  788 FO
   2    2  774  787 FO
   2    2  774  788 FO
   2    2  775  770 FO
   2    2  775  740 FO
   2    2  776  758 FO
   2    2  776  790 FO
   2    2  777  696 FO
   2    2  777  788 FO
   2    2  778  782 FO
   2    2  778  790 FO
   2    2  782  650 FO
   2    2  783  785 FO
   2    2  784  782 FO
   2    2  785  740 FO
   2    2  786  777 FO
   2    2  787  778 FO
   2    2  788  789 FO
   2    2  789  708 FO
   2    2  790  773 FO
   2    2  792  787 FO
   2    2  793  789 FO
   2    2  794  771 FO
   2    2  794  781 FO
   2    2  795  708 FO
   2    2  795  791 FO
   2    2  795  631 FO
   2    2  796  783 FO
   2    2  796  780 FO
   2    2  798  662 FO
   2    2  801  791 FO
   2    2  804  790 FO
   2    2  805  759 FO
   2    2  807  663 FO
   2    2  808  771 FO
   2    2  810  769 FO
   2    2  811  743 FO
   2    2  811  787 FO
   2    2  814  789 FO
   2    2  816  745 FO
   2    2  817  740 FO
   2    2  818  787 FO
   2    2  821  780 FO
   2    2  824  772 FO
   2    2  825  729 FO
   2    2  827  782 FO
   2    2  828  783 FO
   2    2  830  762 FO
   2    2  832  781 FO
   2    2  833  754 FO
   2    2  834  765 FO
   2    2  836  778 FO
   2    2  837  786 FO
   2    2  838  781 FO
   2    2  840  772 FO
   2    2  841  774 FO
   2    2  842  775 FO
   2    2  843  786 FO
   2    2  844  536 FO
   2    2  846  729 FO
   2    2  847  766 FO
   2    2  849  759 FO
   2    2  850  789 FO
   2    2  851  778 FO
   2    2  852  782 FO
   2    2  854  771 FO
   2    2  855  766 FO
   2    2  856  791 FO
   2    2  856  751 FO
   2    2  857  788 FO
   2    2  858  772 FO
   2    2  859  787 FO
   2    2  859  786 FO
   2    2  861  789 FO
   2    2  862  182 FO
   2    2  863  669 FO
   2    2  864  783 FO
   2    2  865  768 FO
   2    2  866  788 FO
   2    2  867  730 FO
   2    2  867  786 FO
   2    2  868  781 FO
   2    2  868  792 FO
   2    2  869  775 FO
   2    2  874  790 FO
   2    2  874  779 FO
   2    2  877  789 FO
   2    2  878  395 FO
   2    2  878  788 FO
   2    2  880  787 FO
   2    2  880  791 FO
   2    2  881  786 FO
   2    2  881  706 FO
   2    2  883  784 FO
   2    2  883  749 FO
   2    2  885  785 FO
   2    2  885  772 FO
   2    2  886  667 FO
   2    2  886  781 FO
   2    2  886  777 FO
   2    2  886  787 FO
   2    2  887  715 FO
   2    2  887  783 FO
   2    2  887  656 FO
   2    2  887  782 FO
   2    2  888  710 FO
   2    2  888  747 FO
   2    2  893  774 FO
   2    2  893  790 FO
   2    2  894  785 FO
   2    2  896  689 FO
   2    2  896  785 FO
   2    2  902  782 FO
   2    2  903  421 FO
   2    2  903  750 FO
   2    2  904  718 FO
   2    2  907  786 FO
   2    2  908  739 FO
   2    2  908  789 FO
   2    2  911  791 FO
   2    2  912  789 FO
   2    2  913  788 FO
   2    2  914  779 FO
   2    2  915  762 FO
   2    2  916  774 FO
   2    2  917  588 FO
   2    2  918  558 FO
   2    2  919  740 FO
   2    2  920  752 FO
   2    2  921  791 FO
   2    2  922  789 FO
   2    2  924  787 FO
   2    2  925  782 FO
   2    2  926  727 FO
   2    2  928  770 FO
   2    2  929  783 FO
   2    2  930  772 FO
   2    2  931  786 FO
   2    2  932  774 FO
   2    2  933  700 FO
   2    2  934  700 FO
   2    2  935  753 FO
   2    2  937  768 FO
   2    2  937  787 FO
   2    2  938  788 FO
   2    2  939  471 FO
   2    2  940  758 FO
   2    2  941  770 FO
   2    2  942  784 FO
   2    2  943  226 FO
   2    2  943  778 FO
   2    2  944  755 FO
   2    2  946  776 FO
   2    2  946  773 FO
   2    2  948  766 FO
   2    2  949  775 FO
   2    2  950  750 FO
   2    2  951  619 FO
   2    2  952  715 FO
   2    2  953  649 FO
   2    2  953  780 FO
   2    2  954  791 FO
   2    2  955  775 FO
   2    2  956  781 FO
   2    2  957  777 FO
   2    2  958  774 FO
   2    2  959  771 FO
   2    2  959  781 FO
   2    2  960  773 FO
   2    2  961  790 FO
   2    2  962  786 FO
   2    2  963  790 FO
   2    2  964  791 FO
   2    2  965  774 FO
   2    2  966  724 FO
   2    2  967  789 FO
   2    2  967  780 FO
   2    2  968  675 FO
   2    2  968  789 FO
   2    2  969  788 FO
   2    2  970  782 FO
   2    2  971  780 FO
   2    2  973  782 FO
   2    2  974  785 FO
   2    2  974  732 FO
   2    2  977  638 FO
   2    2  978  786 FO
   2    2  978  789 FO
   2    2  979  791 FO
   2    2  979  787 FO
   2    2  981  779 FO
   2    2  982  788 FO
   2    2  982  701 FO
   2    2  983  785 FO
   2    2  984  720 FO
   2    2  985  775 FO
   2    2  986  789 FO
   2    2  986  790 FO
   2    2  987  789 FO
   2    2  988  790 FO
   2    2  988  789 FO
   2    2  988  790 FO
   2    2  989  785 FO
   2    2  989  773 FO
   2    2  990  791 FO
   2    2  990  777 FO
   2    2  990  671 FO
   2    2  991  785 FO
   2    2  992  727 FO
   2    2  992  788 FO
   2    2  993  739 FO
   2    2  993  787 FO
   2    2  993  779 FO
   2    2  994  790 FO
   2    2  994  780 FO
   2    2  995  791 FO
   2    2  996  783 FO
   2    2  996  710 FO
   2    2  997  786 FO
   2    2  997  783 FO
   2    2  998  785 FO
gr

gs 156 68 931 734 MR c np
gr

 564   54 mt 
(190-5 Site2) s
 551  851 mt 
(Time \(Minutes\)) s
 108  456 mt  -90 rotate
(Te \(\)) s
90 rotate
1.04167 w

end %%Color Dict

eplot
%%EndObject

epage
end

showpage

%%Trailer
%%EOF
