%!PS-Adobe-2.0 EPSF-1.2
%%Creator: MATLAB, The Mathworks, Inc. Version 7.4.0.287 (R2007a). Operating System: Microsoft Windows 2000.
%%Title: D:\contract work\KatzData\Results\Stanford 12 New Buxco Setting_144- Variable -- Te Time -- 10800-10920.eps
%%CreationDate: 09/09/2010  12:35:38
%%DocumentNeededFonts: Helvetica
%%DocumentProcessColors: Cyan Magenta Yellow Black
%%Pages: 1
%%BoundingBox:    57   199   550   601
%%EndComments

%%BeginProlog
% MathWorks dictionary
/MathWorks 160 dict begin
% definition operators
/bdef {bind def} bind def
/ldef {load def} bind def
/xdef {exch def} bdef
/xstore {exch store} bdef
% operator abbreviations
/c  /clip ldef
/cc /concat ldef
/cp /closepath ldef
/gr /grestore ldef
/gs /gsave ldef
/mt /moveto ldef
/np /newpath ldef
/cm /currentmatrix ldef
/sm /setmatrix ldef
/rm /rmoveto ldef
/rl /rlineto ldef
/s {show newpath} bdef
/sc {setcmykcolor} bdef
/sr /setrgbcolor ldef
/sg /setgray ldef
/w /setlinewidth ldef
/j /setlinejoin ldef
/cap /setlinecap ldef
/rc {rectclip} bdef
/rf {rectfill} bdef
% page state control
/pgsv () def
/bpage {/pgsv save def} bdef
/epage {pgsv restore} bdef
/bplot /gsave ldef
/eplot {stroke grestore} bdef
% orientation switch
/portraitMode 0 def /landscapeMode 1 def /rotateMode 2 def
% coordinate system mappings
/dpi2point 0 def
% font control
/FontSize 0 def
/FMS {/FontSize xstore findfont [FontSize 0 0 FontSize neg 0 0]
  makefont setfont} bdef
/ISOLatin1Encoding where {pop /WindowsLatin1Encoding 256 array bdef
ISOLatin1Encoding WindowsLatin1Encoding copy pop
/.notdef/.notdef/quotesinglbase/florin/quotedblbase/ellipsis/dagger
/daggerdbl/circumflex/perthousand/Scaron/guilsinglleft/OE/.notdef/.notdef
/.notdef/.notdef/quoteleft/quoteright/quotedblleft/quotedblright/bullet
/endash/emdash/tilde/trademark/scaron/guilsinglright/oe/.notdef/.notdef
/Ydieresis WindowsLatin1Encoding 128 32 getinterval astore pop}
{/WindowsLatin1Encoding StandardEncoding bdef} ifelse
/reencode {exch dup where {pop load} {pop StandardEncoding} ifelse
  exch dup 3 1 roll findfont dup length dict begin
  { 1 index /FID ne {def}{pop pop} ifelse } forall
  /Encoding exch def currentdict end definefont pop} bdef
/isroman {findfont /CharStrings get /Agrave known} bdef
/FMSR {3 1 roll 1 index dup isroman {reencode} {pop pop} ifelse
  exch FMS} bdef
/csm {1 dpi2point div -1 dpi2point div scale neg translate
 dup landscapeMode eq {pop -90 rotate}
  {rotateMode eq {90 rotate} if} ifelse} bdef
% line types: solid, dotted, dashed, dotdash
/SO { [] 0 setdash } bdef
/DO { [.5 dpi2point mul 4 dpi2point mul] 0 setdash } bdef
/DA { [6 dpi2point mul] 0 setdash } bdef
/DD { [.5 dpi2point mul 4 dpi2point mul 6 dpi2point mul 4
  dpi2point mul] 0 setdash } bdef
% macros for lines and objects
/L {lineto stroke} bdef
/MP {3 1 roll moveto 1 sub {rlineto} repeat} bdef
/AP {{rlineto} repeat} bdef
/PDlw -1 def
/W {/PDlw currentlinewidth def setlinewidth} def
/PP {closepath eofill} bdef
/DP {closepath stroke} bdef
/MR {4 -2 roll moveto dup  0 exch rlineto exch 0 rlineto
  neg 0 exch rlineto closepath} bdef
/FR {MR stroke} bdef
/PR {MR fill} bdef
/L1i {{currentfile picstr readhexstring pop} image} bdef
/tMatrix matrix def
/MakeOval {newpath tMatrix currentmatrix pop translate scale
0 0 1 0 360 arc tMatrix setmatrix} bdef
/FO {MakeOval stroke} bdef
/PO {MakeOval fill} bdef
/PD {currentlinewidth 2 div 0 360 arc fill
   PDlw -1 eq not {PDlw w /PDlw -1 def} if} def
/FA {newpath tMatrix currentmatrix pop translate scale
  0 0 1 5 -2 roll arc tMatrix setmatrix stroke} bdef
/PA {newpath tMatrix currentmatrix pop	translate 0 0 moveto scale
  0 0 1 5 -2 roll arc closepath tMatrix setmatrix fill} bdef
/FAn {newpath tMatrix currentmatrix pop translate scale
  0 0 1 5 -2 roll arcn tMatrix setmatrix stroke} bdef
/PAn {newpath tMatrix currentmatrix pop translate 0 0 moveto scale
  0 0 1 5 -2 roll arcn closepath tMatrix setmatrix fill} bdef
/vradius 0 def /hradius 0 def /lry 0 def
/lrx 0 def /uly 0 def /ulx 0 def /rad 0 def
/MRR {/vradius xdef /hradius xdef /lry xdef /lrx xdef /uly xdef
  /ulx xdef newpath tMatrix currentmatrix pop ulx hradius add uly
  vradius add translate hradius vradius scale 0 0 1 180 270 arc 
  tMatrix setmatrix lrx hradius sub uly vradius add translate
  hradius vradius scale 0 0 1 270 360 arc tMatrix setmatrix
  lrx hradius sub lry vradius sub translate hradius vradius scale
  0 0 1 0 90 arc tMatrix setmatrix ulx hradius add lry vradius sub
  translate hradius vradius scale 0 0 1 90 180 arc tMatrix setmatrix
  closepath} bdef
/FRR {MRR stroke } bdef
/PRR {MRR fill } bdef
/MlrRR {/lry xdef /lrx xdef /uly xdef /ulx xdef /rad lry uly sub 2 div def
  newpath tMatrix currentmatrix pop ulx rad add uly rad add translate
  rad rad scale 0 0 1 90 270 arc tMatrix setmatrix lrx rad sub lry rad
  sub translate rad rad scale 0 0 1 270 90 arc tMatrix setmatrix
  closepath} bdef
/FlrRR {MlrRR stroke } bdef
/PlrRR {MlrRR fill } bdef
/MtbRR {/lry xdef /lrx xdef /uly xdef /ulx xdef /rad lrx ulx sub 2 div def
  newpath tMatrix currentmatrix pop ulx rad add uly rad add translate
  rad rad scale 0 0 1 180 360 arc tMatrix setmatrix lrx rad sub lry rad
  sub translate rad rad scale 0 0 1 0 180 arc tMatrix setmatrix
  closepath} bdef
/FtbRR {MtbRR stroke } bdef
/PtbRR {MtbRR fill } bdef
/stri 6 array def /dtri 6 array def
/smat 6 array def /dmat 6 array def
/tmat1 6 array def /tmat2 6 array def /dif 3 array def
/asub {/ind2 exch def /ind1 exch def dup dup
  ind1 get exch ind2 get sub exch } bdef
/tri_to_matrix {
  2 0 asub 3 1 asub 4 0 asub 5 1 asub
  dup 0 get exch 1 get 7 -1 roll astore } bdef
/compute_transform {
  dmat dtri tri_to_matrix tmat1 invertmatrix 
  smat stri tri_to_matrix tmat2 concatmatrix } bdef
/ds {stri astore pop} bdef
/dt {dtri astore pop} bdef
/db {2 copy /cols xdef /rows xdef mul dup string
  currentfile exch readhexstring pop
  /bmap xdef pop pop} bdef
/it {gs np dtri aload pop moveto lineto lineto cp c
  cols rows 8 compute_transform 
  {bmap} image gr}bdef
/il {newpath moveto lineto stroke}bdef
currentdict end def
%%EndProlog

%%BeginSetup
MathWorks begin

0 cap

end
%%EndSetup

%%Page: 1 1
%%BeginPageSetup
%%PageBoundingBox:    57   199   550   601
MathWorks begin
bpage
%%EndPageSetup

%%BeginObject: obj1
bplot

/dpi2point 2.08333 def
portraitMode 0035 1275 csm

   84    22  1028   838 MR c np
85 dict begin %Colortable dictionary
/c0 { 0.000000 0.000000 0.000000 sr} bdef
/c1 { 1.000000 1.000000 1.000000 sr} bdef
/c2 { 0.900000 0.000000 0.000000 sr} bdef
/c3 { 0.000000 0.820000 0.000000 sr} bdef
/c4 { 0.000000 0.000000 0.800000 sr} bdef
/c5 { 0.910000 0.820000 0.320000 sr} bdef
/c6 { 1.000000 0.260000 0.820000 sr} bdef
/c7 { 0.000000 0.820000 0.820000 sr} bdef
c0
1 j
1 sg
   0    0 1201  901 PR
1.04167 w
0 733 930 0 0 -733 156 801 4 MP
PP
-930 0 0 733 930 0 0 -733 156 801 5 MP stroke
0.694444 w
DO
SO
1.04167 w
0 sg
 156   68 mt 1086   68 L
 156  801 mt 1086  801 L
1086  801 mt 1086   68 L
 156  801 mt  156   68 L
 156  801 mt 1086  801 L
 156  801 mt  156   68 L
 156  801 mt  156  791 L
 156   68 mt  156   77 L
%%IncludeResource: font Helvetica
/Helvetica /WindowsLatin1Encoding 20.8333 FMSR

 139  826 mt 
(180) s
 248  801 mt  248  791 L
 248   68 mt  248   77 L
 222  826 mt 
(180.2) s
 342  801 mt  342  791 L
 342   68 mt  342   77 L
 316  826 mt 
(180.4) s
 434  801 mt  434  791 L
 434   68 mt  434   77 L
 408  826 mt 
(180.6) s
 528  801 mt  528  791 L
 528   68 mt  528   77 L
 502  826 mt 
(180.8) s
 621  801 mt  621  791 L
 621   68 mt  621   77 L
 604  826 mt 
(181) s
 713  801 mt  713  791 L
 713   68 mt  713   77 L
 687  826 mt 
(181.2) s
 807  801 mt  807  791 L
 807   68 mt  807   77 L
 781  826 mt 
(181.4) s
 899  801 mt  899  791 L
 899   68 mt  899   77 L
 873  826 mt 
(181.6) s
 993  801 mt  993  791 L
 993   68 mt  993   77 L
 967  826 mt 
(181.8) s
1086  801 mt 1086  791 L
1086   68 mt 1086   77 L
1069  826 mt 
(182) s
 156  801 mt  165  801 L
1086  801 mt 1076  801 L
 139  808 mt 
(0) s
 156  719 mt  165  719 L
1086  719 mt 1076  719 L
 122  726 mt 
(0.2) s
 156  638 mt  165  638 L
1086  638 mt 1076  638 L
 122  645 mt 
(0.4) s
 156  556 mt  165  556 L
1086  556 mt 1076  556 L
 122  563 mt 
(0.6) s
 156  475 mt  165  475 L
1086  475 mt 1076  475 L
 122  482 mt 
(0.8) s
 156  393 mt  165  393 L
1086  393 mt 1076  393 L
 139  400 mt 
(1) s
 156  312 mt  165  312 L
1086  312 mt 1076  312 L
 122  319 mt 
(1.2) s
 156  230 mt  165  230 L
1086  230 mt 1076  230 L
 122  237 mt 
(1.4) s
 156  149 mt  165  149 L
1086  149 mt 1076  149 L
 122  156 mt 
(1.6) s
 156   68 mt  165   68 L
1086   68 mt 1076   68 L
 122   75 mt 
(1.8) s
 156   68 mt 1086   68 L
 156  801 mt 1086  801 L
1086  801 mt 1086   68 L
 156  801 mt  156   68 L
gs 156 68 931 734 MR c np
2.08333 w
gr

2.08333 w
gs 152 110 937 684 MR c np
   2    2  157  780 PO
   2    2  161  743 PO
   2    2  164  717 PO
   2    2  167  770 PO
   2    2  170  762 PO
   2    2  174  778 PO
   2    2  177  779 PO
   2    2  180  784 PO
   2    2  183  743 PO
   2    2  186  763 PO
   2    2  190  761 PO
   2    2  193  777 PO
   2    2  196  768 PO
   2    2  199  781 PO
   2    2  202  772 PO
   2    2  205  780 PO
   2    2  208  777 PO
   2    2  211  776 PO
   2    2  214  782 PO
   2    2  217  778 PO
   2    2  220  770 PO
   2    2  223  774 PO
   2    2  227  781 PO
   2    2  229  774 PO
   2    2  233  776 PO
   2    2  235  777 PO
   2    2  238  776 PO
   2    2  242  774 PO
   2    2  245  780 PO
   2    2  248  778 PO
   2    2  251  779 PO
   2    2  254  769 PO
   2    2  258  782 PO
   2    2  260  765 PO
   2    2  263  764 PO
   2    2  266  779 PO
   2    2  269  775 PO
   2    2  273  769 PO
   2    2  275  766 PO
   2    2  276  781 PO
   2    2  279  771 PO
   2    2  282  765 PO
   2    2  285  748 PO
   2    2  287  479 PO
   2    2  290  765 PO
   2    2  293  748 PO
   2    2  297  777 PO
   2    2  300  772 PO
   2    2  303  738 PO
   2    2  305  751 PO
   2    2  308  565 PO
   2    2  311  783 PO
   2    2  314  528 PO
   2    2  316  783 PO
   2    2  318  775 PO
   2    2  321  730 PO
   2    2  324  765 PO
   2    2  327  786 PO
   2    2  331  772 PO
   2    2  335  783 PO
   2    2  338  773 PO
   2    2  342  772 PO
   2    2  345  639 PO
   2    2  347  774 PO
   2    2  349  783 PO
   2    2  352  634 PO
   2    2  355  770 PO
   2    2  358  771 PO
   2    2  362  783 PO
   2    2  365  783 PO
   2    2  368  755 PO
   2    2  371  785 PO
   2    2  374  778 PO
   2    2  376  783 PO
   2    2  380  777 PO
   2    2  383  781 PO
   2    2  386  777 PO
   2    2  390  776 PO
   2    2  394  778 PO
   2    2  398  782 PO
   2    2  400  779 PO
   2    2  407  779 PO
   2    2  411  780 PO
   2    2  414  782 PO
   2    2  417  781 PO
   2    2  421  783 PO
   2    2  423  783 PO
   2    2  427  783 PO
   2    2  429  780 PO
   2    2  432  779 PO
   2    2  435  781 PO
   2    2  438  785 PO
   2    2  441  758 PO
   2    2  445  771 PO
   2    2  448  766 PO
   2    2  451  770 PO
   2    2  454  776 PO
   2    2  457  755 PO
   2    2  460  778 PO
   2    2  462  767 PO
   2    2  465  782 PO
   2    2  469  779 PO
   2    2  472  770 PO
   2    2  475  779 PO
   2    2  477  762 PO
   2    2  481  779 PO
   2    2  484  766 PO
   2    2  488  770 PO
   2    2  491  772 PO
   2    2  494  772 PO
   2    2  496  763 PO
   2    2  500  621 PO
   2    2  503  782 PO
   2    2  507  656 PO
   2    2  510  754 PO
   2    2  513  729 PO
   2    2  516  774 PO
   2    2  519  765 PO
   2    2  521  761 PO
   2    2  524  779 PO
   2    2  528  705 PO
   2    2  531  778 PO
   2    2  533  783 PO
   2    2  535  779 PO
   2    2  538  774 PO
   2    2  541  773 PO
   2    2  543  779 PO
   2    2  545  779 PO
   2    2  548  501 PO
   2    2  551  780 PO
   2    2  555  784 PO
   2    2  562  765 PO
   2    2  566  787 PO
   2    2  570  782 PO
   2    2  574  783 PO
   2    2  577  775 PO
   2    2  579  784 PO
   2    2  583  741 PO
   2    2  586  770 PO
   2    2  589  702 PO
   2    2  591  770 PO
   2    2  594  616 PO
   2    2  597  684 PO
   2    2  600  783 PO
   2    2  603  783 PO
   2    2  607  705 PO
   2    2  610  732 PO
   2    2  613  456 PO
   2    2  616  781 PO
   2    2  618  780 PO
   2    2  621  142 PO
   2    2  624  773 PO
   2    2  628  782 PO
   2    2  632  779 PO
   2    2  638  783 PO
   2    2  641  783 PO
   2    2  644  784 PO
   2    2  647  781 PO
   2    2  649  781 PO
   2    2  651  777 PO
   2    2  654  783 PO
   2    2  657  780 PO
   2    2  659  777 PO
   2    2  662  780 PO
   2    2  666  772 PO
   2    2  669  778 PO
   2    2  672  772 PO
   2    2  676  783 PO
   2    2  678  777 PO
   2    2  681  772 PO
   2    2  684  759 PO
   2    2  686  765 PO
   2    2  689  774 PO
   2    2  693  781 PO
   2    2  695  774 PO
   2    2  699  778 PO
   2    2  702  774 PO
   2    2  706  759 PO
   2    2  708  770 PO
   2    2  712  770 PO
   2    2  714  780 PO
   2    2  717  765 PO
   2    2  721  773 PO
   2    2  724  775 PO
   2    2  727  779 PO
   2    2  730  774 PO
   2    2  732  779 PO
   2    2  735  734 PO
   2    2  738  756 PO
   2    2  741  744 PO
   2    2  744  724 PO
   2    2  748  572 PO
   2    2  750  781 PO
   2    2  753  779 PO
   2    2  756  781 PO
   2    2  758  511 PO
   2    2  762  784 PO
   2    2  764  561 PO
   2    2  767  781 PO
   2    2  769  783 PO
   2    2  773  764 PO
   2    2  776  616 PO
   2    2  779  773 PO
   2    2  781  776 PO
   2    2  784  768 PO
   2    2  787  783 PO
   2    2  790  776 PO
   2    2  793  779 PO
   2    2  796  775 PO
   2    2  800  776 PO
   2    2  803  759 PO
   2    2  805  775 PO
   2    2  808  776 PO
   2    2  812  776 PO
   2    2  814  680 PO
   2    2  817  772 PO
   2    2  820  773 PO
   2    2  824  665 PO
   2    2  827  759 PO
   2    2  830  767 PO
   2    2  832  671 PO
   2    2  836  375 PO
   2    2  838  784 PO
   2    2  841  783 PO
   2    2  844  781 PO
   2    2  847  779 PO
   2    2  849  781 PO
   2    2  851  766 PO
   2    2  855  782 PO
   2    2  858  765 PO
   2    2  860  784 PO
   2    2  863  775 PO
   2    2  866  782 PO
   2    2  869  784 PO
   2    2  872  116 PO
   2    2  875  763 PO
   2    2  879  759 PO
   2    2  881  786 PO
   2    2  884  223 PO
   2    2  886  783 PO
   2    2  889  787 PO
   2    2  893  753 PO
   2    2  895  733 PO
   2    2  899  772 PO
   2    2  901  778 PO
   2    2  905  772 PO
   2    2  907  784 PO
   2    2  911  783 PO
   2    2  913  775 PO
   2    2  917  785 PO
   2    2  919  777 PO
   2    2  922  783 PO
   2    2  925  779 PO
   2    2  928  781 PO
   2    2  931  782 PO
   2    2  934  775 PO
   2    2  937  762 PO
   2    2  940  770 PO
   2    2  943  784 PO
   2    2  946  775 PO
   2    2  948  781 PO
   2    2  951  774 PO
   2    2  955  787 PO
   2    2  958  783 PO
   2    2  961  781 PO
   2    2  963  778 PO
   2    2  966  773 PO
   2    2  968  761 PO
   2    2  972  757 PO
   2    2  975  782 PO
   2    2  979  761 PO
   2    2  981  777 PO
   2    2  984  775 PO
   2    2  986  780 PO
   2    2  989  774 PO
   2    2  993  771 PO
   2    2  996  770 PO
   2    2  998  772 PO
   2    2 1001  779 PO
   2    2 1004  781 PO
   2    2 1006  775 PO
   2    2 1010  730 PO
   2    2 1013  738 PO
   2    2 1016  766 PO
   2    2 1019  694 PO
   2    2 1022  775 PO
   2    2 1024  763 PO
   2    2 1027  766 PO
   2    2 1030  784 PO
   2    2 1034  774 PO
   2    2 1037  778 PO
   2    2 1039  772 PO
   2    2 1043  782 PO
   2    2 1046  777 PO
   2    2 1050  787 PO
   2    2 1053  785 PO
   2    2 1055  783 PO
   2    2 1058  783 PO
   2    2 1061  780 PO
   2    2 1065  778 PO
   2    2 1068  779 PO
   2    2 1071  780 PO
   2    2 1073  774 PO
   2    2 1076  678 PO
   2    2 1079  773 PO
   2    2 1082  726 PO
   2    2  157  780 FO
   2    2  161  743 FO
   2    2  164  717 FO
   2    2  167  770 FO
   2    2  170  762 FO
   2    2  174  778 FO
   2    2  177  779 FO
   2    2  180  784 FO
   2    2  183  743 FO
   2    2  186  763 FO
   2    2  190  761 FO
   2    2  193  777 FO
   2    2  196  768 FO
   2    2  199  781 FO
   2    2  202  772 FO
   2    2  205  780 FO
   2    2  208  777 FO
   2    2  211  776 FO
   2    2  214  782 FO
   2    2  217  778 FO
   2    2  220  770 FO
   2    2  223  774 FO
   2    2  227  781 FO
   2    2  229  774 FO
   2    2  233  776 FO
   2    2  235  777 FO
   2    2  238  776 FO
   2    2  242  774 FO
   2    2  245  780 FO
   2    2  248  778 FO
   2    2  251  779 FO
   2    2  254  769 FO
   2    2  258  782 FO
   2    2  260  765 FO
   2    2  263  764 FO
   2    2  266  779 FO
   2    2  269  775 FO
   2    2  273  769 FO
   2    2  275  766 FO
   2    2  276  781 FO
   2    2  279  771 FO
   2    2  282  765 FO
   2    2  285  748 FO
   2    2  287  479 FO
   2    2  290  765 FO
   2    2  293  748 FO
   2    2  297  777 FO
   2    2  300  772 FO
   2    2  303  738 FO
   2    2  305  751 FO
   2    2  308  565 FO
   2    2  311  783 FO
   2    2  314  528 FO
   2    2  316  783 FO
   2    2  318  775 FO
   2    2  321  730 FO
   2    2  324  765 FO
   2    2  327  786 FO
   2    2  331  772 FO
   2    2  335  783 FO
   2    2  338  773 FO
   2    2  342  772 FO
   2    2  345  639 FO
   2    2  347  774 FO
   2    2  349  783 FO
   2    2  352  634 FO
   2    2  355  770 FO
   2    2  358  771 FO
   2    2  362  783 FO
   2    2  365  783 FO
   2    2  368  755 FO
   2    2  371  785 FO
   2    2  374  778 FO
   2    2  376  783 FO
   2    2  380  777 FO
   2    2  383  781 FO
   2    2  386  777 FO
   2    2  390  776 FO
   2    2  394  778 FO
   2    2  398  782 FO
   2    2  400  779 FO
   2    2  407  779 FO
   2    2  411  780 FO
   2    2  414  782 FO
   2    2  417  781 FO
   2    2  421  783 FO
   2    2  423  783 FO
   2    2  427  783 FO
   2    2  429  780 FO
   2    2  432  779 FO
   2    2  435  781 FO
   2    2  438  785 FO
   2    2  441  758 FO
   2    2  445  771 FO
   2    2  448  766 FO
   2    2  451  770 FO
   2    2  454  776 FO
   2    2  457  755 FO
   2    2  460  778 FO
   2    2  462  767 FO
   2    2  465  782 FO
   2    2  469  779 FO
   2    2  472  770 FO
   2    2  475  779 FO
   2    2  477  762 FO
   2    2  481  779 FO
   2    2  484  766 FO
   2    2  488  770 FO
   2    2  491  772 FO
   2    2  494  772 FO
   2    2  496  763 FO
   2    2  500  621 FO
   2    2  503  782 FO
   2    2  507  656 FO
   2    2  510  754 FO
   2    2  513  729 FO
   2    2  516  774 FO
   2    2  519  765 FO
   2    2  521  761 FO
   2    2  524  779 FO
   2    2  528  705 FO
   2    2  531  778 FO
   2    2  533  783 FO
   2    2  535  779 FO
   2    2  538  774 FO
   2    2  541  773 FO
   2    2  543  779 FO
   2    2  545  779 FO
   2    2  548  501 FO
   2    2  551  780 FO
   2    2  555  784 FO
   2    2  562  765 FO
   2    2  566  787 FO
   2    2  570  782 FO
   2    2  574  783 FO
   2    2  577  775 FO
   2    2  579  784 FO
   2    2  583  741 FO
   2    2  586  770 FO
   2    2  589  702 FO
   2    2  591  770 FO
   2    2  594  616 FO
   2    2  597  684 FO
   2    2  600  783 FO
   2    2  603  783 FO
   2    2  607  705 FO
   2    2  610  732 FO
   2    2  613  456 FO
   2    2  616  781 FO
   2    2  618  780 FO
   2    2  621  142 FO
   2    2  624  773 FO
   2    2  628  782 FO
   2    2  632  779 FO
   2    2  638  783 FO
   2    2  641  783 FO
   2    2  644  784 FO
   2    2  647  781 FO
   2    2  649  781 FO
   2    2  651  777 FO
   2    2  654  783 FO
   2    2  657  780 FO
   2    2  659  777 FO
   2    2  662  780 FO
   2    2  666  772 FO
   2    2  669  778 FO
   2    2  672  772 FO
   2    2  676  783 FO
   2    2  678  777 FO
   2    2  681  772 FO
   2    2  684  759 FO
   2    2  686  765 FO
   2    2  689  774 FO
   2    2  693  781 FO
   2    2  695  774 FO
   2    2  699  778 FO
   2    2  702  774 FO
   2    2  706  759 FO
   2    2  708  770 FO
   2    2  712  770 FO
   2    2  714  780 FO
   2    2  717  765 FO
   2    2  721  773 FO
   2    2  724  775 FO
   2    2  727  779 FO
   2    2  730  774 FO
   2    2  732  779 FO
   2    2  735  734 FO
   2    2  738  756 FO
   2    2  741  744 FO
   2    2  744  724 FO
   2    2  748  572 FO
   2    2  750  781 FO
   2    2  753  779 FO
   2    2  756  781 FO
   2    2  758  511 FO
   2    2  762  784 FO
   2    2  764  561 FO
   2    2  767  781 FO
   2    2  769  783 FO
   2    2  773  764 FO
   2    2  776  616 FO
   2    2  779  773 FO
   2    2  781  776 FO
   2    2  784  768 FO
   2    2  787  783 FO
   2    2  790  776 FO
   2    2  793  779 FO
   2    2  796  775 FO
   2    2  800  776 FO
   2    2  803  759 FO
   2    2  805  775 FO
   2    2  808  776 FO
   2    2  812  776 FO
   2    2  814  680 FO
   2    2  817  772 FO
   2    2  820  773 FO
   2    2  824  665 FO
   2    2  827  759 FO
   2    2  830  767 FO
   2    2  832  671 FO
   2    2  836  375 FO
   2    2  838  784 FO
   2    2  841  783 FO
   2    2  844  781 FO
   2    2  847  779 FO
   2    2  849  781 FO
   2    2  851  766 FO
   2    2  855  782 FO
   2    2  858  765 FO
   2    2  860  784 FO
   2    2  863  775 FO
   2    2  866  782 FO
   2    2  869  784 FO
   2    2  872  116 FO
   2    2  875  763 FO
   2    2  879  759 FO
   2    2  881  786 FO
   2    2  884  223 FO
   2    2  886  783 FO
   2    2  889  787 FO
   2    2  893  753 FO
   2    2  895  733 FO
   2    2  899  772 FO
   2    2  901  778 FO
   2    2  905  772 FO
   2    2  907  784 FO
   2    2  911  783 FO
   2    2  913  775 FO
   2    2  917  785 FO
   2    2  919  777 FO
   2    2  922  783 FO
   2    2  925  779 FO
   2    2  928  781 FO
   2    2  931  782 FO
   2    2  934  775 FO
   2    2  937  762 FO
   2    2  940  770 FO
   2    2  943  784 FO
   2    2  946  775 FO
   2    2  948  781 FO
   2    2  951  774 FO
   2    2  955  787 FO
   2    2  958  783 FO
   2    2  961  781 FO
   2    2  963  778 FO
   2    2  966  773 FO
   2    2  968  761 FO
   2    2  972  757 FO
   2    2  975  782 FO
   2    2  979  761 FO
   2    2  981  777 FO
   2    2  984  775 FO
   2    2  986  780 FO
   2    2  989  774 FO
   2    2  993  771 FO
   2    2  996  770 FO
   2    2  998  772 FO
   2    2 1001  779 FO
   2    2 1004  781 FO
   2    2 1006  775 FO
   2    2 1010  730 FO
   2    2 1013  738 FO
   2    2 1016  766 FO
   2    2 1019  694 FO
   2    2 1022  775 FO
   2    2 1024  763 FO
   2    2 1027  766 FO
   2    2 1030  784 FO
   2    2 1034  774 FO
   2    2 1037  778 FO
   2    2 1039  772 FO
   2    2 1043  782 FO
   2    2 1046  777 FO
   2    2 1050  787 FO
   2    2 1053  785 FO
   2    2 1055  783 FO
   2    2 1058  783 FO
   2    2 1061  780 FO
   2    2 1065  778 FO
   2    2 1068  779 FO
   2    2 1071  780 FO
   2    2 1073  774 FO
   2    2 1076  678 FO
   2    2 1079  773 FO
   2    2 1082  726 FO
gr

gs 156 68 931 734 MR c np
gr

 531   54 mt 
(144-4 Site1num \23) s
 551  851 mt 
(Time \(Minutes\)) s
 108  456 mt  -90 rotate
(Te \(\)) s
90 rotate
 157  135 mt 
(Average: 0.11      ) s
 157  158 mt 
(Std Dev: 0.20      ) s
 157  181 mt 
(CV: 1.70           ) s
 157  204 mt 
(Is stationary: True) s
1.04167 w

end %%Color Dict

eplot
%%EndObject

epage
end

showpage

%%Trailer
%%EOF
